2nd     PAS Giannina                    26   10   1    2    28   14   5    4    4    10   9    50   
1st     PAS Giannina                    26   10   2    1    34   12   9    3    1    21   6    62   
1st     PAS Giannina                    26   10   1    2    31   12   7    2    4    23   11   54   
2nd     PAS Giannina                    26   10   3    0    31   9    5    3    5    14   14   51   
2nd     PAS Giannina                    26   11   2    0    24   9    5    5    3    16   16   55   
2nd     PAS Giannina                    26   9    2    2    19   9    5    4    4    19   17   48   
1st     PAS Giannina                    26   12   0    1    35   12   7    1    5    18   14   58   
2nd     PAS Giannina                    26   10   1    2    25   10   8    3    2    27   16   58   
1st     PAS Giannina                    26   8    0    5    24   16   8    5    0    22   9    53   
2nd     PAS Giannina                    26   11   0    2    27   12   9    2    2    33   18   62   
1st     PAS Giannina                    26   9    3    1    26   13   10   1    2    24   12   61   
1st     PAS Giannina                    26   9    2    2    26   12   11   2    0    26   9    64   
1st     PAS Giannina                    26   9    2    2    26   10   7    3    3    21   12   53   
2nd     PAS Giannina                    26   9    3    1    29   11   5    3    5    15   16   48   
1st     PAS Giannina                    26   11   2    0    27   8    10   2    1    34   16   67   
1st     PAS Giannina                    26   10   2    1    31   9    9    0    4    21   13   59   
1st     PAS Giannina                    26   9    2    2    27   12   8    3    2    17   9    56   
2nd     PAS Giannina                    26   10   2    1    28   8    6    5    2    23   15   55   
1st     PAS Giannina                    26   12   1    0    38   8    7    2    4    26   21   60   
3rd     PAS Giannina                    26   7    5    1    24   11   7    1    5    19   21   48   
2nd     PAS Giannina                    26   9    3    1    28   13   6    2    5    19   15   50   
1st     PAS Giannina                    26   8    4    1    23   13   7    3    3    25   14   52   
2nd     PAS Giannina                    26   6    6    1    25   16   7    1    5    21   16   46   
1st     PAS Giannina                    26   7    2    4    28   15   8    3    2    24   13   50   
1st     PAS Giannina                    26   10   3    0    27   10   9    1    3    24   11   61   
1st     PAS Giannina                    26   6    6    1    22   13   5    5    3    18   17   44   
1st     PAS Giannina                    26   12   1    0    33   10   7    5    1    20   12   63   
2nd     PAS Giannina                    26   10   2    1    29   12   6    3    4    24   17   53   
1st     PAS Giannina                    26   12   1    0    39   13   11   1    1    33   13   71   
1st     PAS Giannina                    26   9    2    2    29   16   6    4    3    21   14   51   
1st     PAS Giannina                    26   11   2    0    28   12   7    4    2    23   9    60   
4th     PAS Giannina                    26   9    0    4    22   11   5    2    6    13   14   44   
1st     PAS Giannina                    26   12   1    0    34   12   9    2    2    25   11   66   
1st     PAS Giannina                    26   10   3    0    29   11   5    3    5    17   15   51   
2nd     PAS Giannina                    26   9    2    2    27   9    7    2    4    25   13   52   
1st     PAS Giannina                    26   10   2    1    25   10   4    8    1    12   8    52   
2nd     PAS Giannina                    26   12   1    0    34   11   5    3    5    16   15   55   
2nd     PAS Giannina                    26   8    5    0    26   12   5    4    4    20   15   48   
1st     PAS Giannina                    26   11   2    0    38   10   7    3    3    17   13   59   
1st     PAS Giannina                    26   7    3    3    24   12   8    3    2    24   13   51   
2nd     PAS Giannina                    26   9    3    1    24   6    8    4    1    31   16   58   
2nd     PAS Giannina                    26   9    3    1    25   13   5    3    5    12   12   48   
2nd     PAS Giannina                    26   9    3    1    31   19   6    4    3    24   15   52   
1st     PAS Giannina                    26   13   0    0    38   8    9    2    2    21   10   68   
1st     PAS Giannina                    26   10   3    0    27   7    6    4    3    22   15   55   
1st     PAS Giannina                    26   11   1    1    35   10   9    0    4    22   16   61   
2nd     PAS Giannina                    26   10   2    1    29   13   4    5    4    14   15   49   
1st     PAS Giannina                    26   10   2    1    27   11   8    2    3    25   14   58   
3rd     PAS Giannina                    26   8    2    3    27   12   7    2    4    20   14   49   
1st     PAS Giannina                    26   9    3    1    26   14   7    3    3    21   10   54   
1st     PAS Giannina                    26   10   2    1    28   12   5    6    2    18   15   53   
1st     PAS Giannina                    26   12   1    0    26   6    7    5    1    24   13   63   
1st     PAS Giannina                    26   10   2    1    29   10   8    3    2    26   11   59   
2nd     PAS Giannina                    26   7    3    3    17   7    7    4    2    26   15   49   
2nd     PAS Giannina                    26   9    2    2    24   11   8    3    2    25   13   56   
1st     PAS Giannina                    26   9    3    1    29   12   8    3    2    24   14   57   
1st     PAS Giannina                    26   11   0    2    31   11   8    4    1    26   14   61   
2nd     PAS Giannina                    26   9    2    2    25   11   5    3    5    14   12   47   
2nd     PAS Giannina                    26   10   2    1    25   9    6    2    5    21   14   52   
2nd     PAS Giannina                    26   8    4    1    26   14   6    4    3    25   18   50   
2nd     PAS Giannina                    26   7    3    3    23   14   9    1    3    22   13   52   
1st     PAS Giannina                    26   10   1    2    24   10   7    3    3    21   16   55   
2nd     PAS Giannina                    26   9    1    3    26   14   9    0    4    27   13   55   
1st     PAS Giannina                    26   11   2    0    34   10   8    4    1    28   10   63   
1st     PAS Giannina                    26   10   1    2    34   14   7    3    3    27   14   55   
1st     PAS Giannina                    26   10   2    1    29   16   8    1    4    28   18   57   
2nd     PAS Giannina                    26   8    4    1    25   10   4    7    2    21   14   47   
1st     PAS Giannina                    26   12   0    1    29   10   6    1    6    18   12   55   
1st     PAS Giannina                    26   8    3    2    29   16   9    3    1    29   14   57   
3rd     PAS Giannina                    26   10   2    1    29   11   6    3    4    21   16   53   
1st     PAS Giannina                    26   8    4    1    29   11   9    3    1    29   12   58   
4th     PAS Giannina                    26   7    4    2    20   13   6    2    5    17   11   45   
2nd     PAS Giannina                    26   8    4    1    28   13   7    3    3    23   11   52   
1st     PAS Giannina                    26   8    5    0    24   12   11   1    1    29   8    63   
1st     PAS Giannina                    26   9    4    0    23   5    7    2    4    17   11   54   
2nd     PAS Giannina                    26   8    4    1    27   11   6    4    3    20   14   50   
2nd     PAS Giannina                    26   10   1    2    25   12   6    5    2    21   11   54   
1st     PAS Giannina                    26   10   1    2    26   9    7    2    4    25   13   54   
1st     PAS Giannina                    26   13   0    0    31   11   9    0    4    20   14   66   
4th     PAS Giannina                    26   7    3    3    26   15   5    3    5    17   18   42   
2nd     PAS Giannina                    26   8    1    4    24   14   7    1    5    23   15   47   
1st     PAS Giannina                    26   8    2    3    19   9    7    5    1    22   13   52   
2nd     PAS Giannina                    26   10   2    1    24   5    8    2    3    26   15   58   
1st     PAS Giannina                    26   13   0    0    38   11   9    1    3    21   14   67   
3rd     PAS Giannina                    26   6    4    3    20   18   6    5    2    22   11   45   
1st     PAS Giannina                    26   12   0    1    28   9    6    4    3    21   14   58   
2nd     PAS Giannina                    26   11   0    2    31   10   5    3    5    15   12   51   
2nd     PAS Giannina                    26   8    3    2    28   11   5    7    1    21   15   49   
1st     PAS Giannina                    26   13   0    0    37   14   6    4    3    19   12   61   
2nd     PAS Giannina                    26   8    4    1    25   14   7    3    3    23   13   52   
1st     PAS Giannina                    26   11   1    1    25   7    7    3    3    16   12   58   
1st     PAS Giannina                    26   9    2    2    28   14   7    2    4    20   12   52   
2nd     PAS Giannina                    26   9    3    1    26   10   9    1    3    29   15   58   
6th     PAS Giannina                    26   6    5    2    23   9    5    5    3    16   13   43   
1st     PAS Giannina                    26   11   1    1    30   11   6    3    4    25   16   55   
1st     PAS Giannina                    26   10   2    1    28   11   7    2    4    21   12   55   
2nd     PAS Giannina                    26   6    5    2    27   17   7    2    4    15   10   46   
1st     PAS Giannina                    26   10   2    1    26   8    9    3    1    31   10   62   
1st     PAS Giannina                    26   11   2    0    26   9    7    2    4    17   9    58   
1st     PAS Giannina                    26   10   2    1    29   9    8    3    2    25   13   59   