1st     PAS Giannina                    26   9    3    1    34   12   6    3    4    21   22   51   
1st     PAS Giannina                    26   12   0    1    37   12   7    4    2    26   14   61   
1st     PAS Giannina                    26   11   2    0    30   8    4    4    5    12   14   51   
3rd     PAS Giannina                    26   7    4    2    28   16   7    3    3    22   16   49   
2nd     PAS Giannina                    26   8    3    2    24   12   4    5    4    19   14   44   
2nd     PAS Giannina                    26   11   2    0    29   7    4    2    7    15   13   49   
2nd     PAS Giannina                    26   12   1    0    31   8    4    6    3    23   22   55   
1st     PAS Giannina                    26   11   2    0    38   10   5    2    6    19   15   52   
1st     PAS Giannina                    26   11   2    0    29   8    10   3    0    25   4    68   
1st     PAS Giannina                    26   11   1    1    37   12   10   3    0    33   13   67   
1st     PAS Giannina                    26   13   0    0    31   6    5    7    1    23   12   61   
4th     PAS Giannina                    26   7    2    4    22   13   5    3    5    15   13   41   
1st     PAS Giannina                    26   8    3    2    25   11   8    2    3    27   13   53   
1st     PAS Giannina                    26   12   0    1    36   12   7    2    4    27   17   59   
1st     PAS Giannina                    26   11   2    0    34   7    11   1    1    31   7    69   
1st     PAS Giannina                    26   12   1    0    29   12   7    5    1    25   13   63   
1st     PAS Giannina                    26   9    3    1    27   11   11   1    1    35   13   64   
1st     PAS Giannina                    26   11   2    0    33   9    8    4    1    24   12   63   
1st     PAS Giannina                    26   9    4    0    32   14   11   2    0    30   13   66   
1st     PAS Giannina                    26   11   1    1    32   13   7    3    3    30   16   58   
2nd     PAS Giannina                    26   10   1    2    27   13   5    3    5    16   16   49   
1st     PAS Giannina                    26   10   2    1    33   15   8    2    3    20   11   58   
1st     PAS Giannina                    26   13   0    0    36   11   8    2    3    30   16   65   
2nd     PAS Giannina                    26   8    3    2    30   13   7    5    1    20   13   53   
2nd     PAS Giannina                    26   11   0    2    30   15   6    3    4    19   16   54   
2nd     PAS Giannina                    26   9    3    1    31   15   7    2    4    24   14   53   
1st     PAS Giannina                    26   10   2    1    28   11   4    6    3    18   15   50   
2nd     PAS Giannina                    26   13   0    0    34   6    2    8    3    15   15   53   
1st     PAS Giannina                    26   9    4    0    26   11   8    3    2    28   13   58   
1st     PAS Giannina                    26   10   2    1    34   9    8    3    2    27   12   59   
2nd     PAS Giannina                    26   9    2    2    32   13   8    2    3    18   13   55   
1st     PAS Giannina                    26   12   1    0    35   9    11   2    0    29   10   72   
1st     PAS Giannina                    26   11   1    1    30   10   10   2    1    29   12   66   
1st     PAS Giannina                    26   11   1    1    36   13   8    2    3    29   17   60   
1st     PAS Giannina                    26   10   3    0    34   12   10   1    2    25   8    64   
2nd     PAS Giannina                    26   10   2    1    26   8    6    5    2    22   12   55   
1st     PAS Giannina                    26   8    3    2    35   17   6    4    3    21   18   49   
2nd     PAS Giannina                    26   11   1    1    34   8    6    4    3    24   17   56   
2nd     PAS Giannina                    26   12   0    1    32   11   5    2    6    23   23   53   
1st     PAS Giannina                    26   12   1    0    35   9    6    6    1    23   12   61   
3rd     PAS Giannina                    26   11   1    1    28   11   4    3    6    14   14   49   
3rd     PAS Giannina                    26   10   1    2    27   10   4    4    5    18   17   47   
1st     PAS Giannina                    26   12   0    1    38   11   6    2    5    17   16   56   
1st     PAS Giannina                    26   8    3    2    22   9    8    3    2    26   13   54   
1st     PAS Giannina                    26   8    2    3    27   14   9    2    2    26   14   55   
1st     PAS Giannina                    26   10   1    2    33   13   8    2    3    17   9    57   
1st     PAS Giannina                    26   12   0    1    36   13   11   2    0    27   7    71   
2nd     PAS Giannina                    26   9    2    2    29   7    7    4    2    28   13   54   
1st     PAS Giannina                    26   11   2    0    26   6    10   2    1    29   8    67   
1st     PAS Giannina                    26   13   0    0    28   7    8    4    1    27   13   67   
1st     PAS Giannina                    26   9    3    1    29   8    8    4    1    21   10   58   
1st     PAS Giannina                    26   11   1    1    31   10   9    2    2    25   13   63   
1st     PAS Giannina                    26   13   0    0    37   9    8    3    2    27   8    66   
1st     PAS Giannina                    26   10   2    1    29   10   7    3    3    23   13   56   
1st     PAS Giannina                    26   9    3    1    28   7    8    4    1    28   13   58   
1st     PAS Giannina                    26   9    3    1    35   17   9    2    2    27   12   59   
1st     PAS Giannina                    26   9    3    1    28   9    8    2    3    25   12   56   
2nd     PAS Giannina                    26   7    5    1    31   9    7    5    1    21   11   52   
1st     PAS Giannina                    26   12   0    1    33   15   9    1    3    25   14   64   
1st     PAS Giannina                    26   12   0    1    38   10   9    3    1    22   9    66   
1st     PAS Giannina                    26   9    2    2    25   8    7    5    1    30   8    55   
1st     PAS Giannina                    26   9    2    2    32   12   8    3    2    25   14   56   
1st     PAS Giannina                    26   9    2    2    32   14   8    3    2    27   13   56   
1st     PAS Giannina                    26   8    3    2    37   17   10   2    1    29   11   59   
1st     PAS Giannina                    26   11   1    1    41   14   11   0    2    29   13   67   
1st     PAS Giannina                    26   12   0    1    38   11   7    3    3    25   17   60   
1st     PAS Giannina                    26   11   1    1    34   9    7    1    5    24   15   56   
1st     PAS Giannina                    26   11   1    1    37   9    6    5    2    18   12   57   
1st     PAS Giannina                    26   10   2    1    36   15   9    1    3    28   16   60   
1st     PAS Giannina                    26   11   2    0    37   11   8    4    1    21   10   63   
1st     PAS Giannina                    26   9    2    2    33   19   10   1    2    29   13   60   
1st     PAS Giannina                    26   10   2    1    39   14   7    3    3    26   15   56   
2nd     PAS Giannina                    26   10   0    3    29   11   4    4    5    16   14   46   
1st     PAS Giannina                    26   11   0    2    34   6    4    5    4    23   19   50   
2nd     PAS Giannina                    26   10   2    1    22   8    7    1    5    26   17   54   
1st     PAS Giannina                    26   12   0    1    38   10   10   1    2    38   15   67   
1st     PAS Giannina                    26   10   2    1    35   12   8    3    2    26   13   59   
2nd     PAS Giannina                    26   6    3    4    23   15   8    3    2    25   13   48   
1st     PAS Giannina                    26   10   2    1    35   8    8    3    2    27   16   59   
2nd     PAS Giannina                    26   10   2    1    32   12   6    5    2    19   9    55   
1st     PAS Giannina                    26   11   2    0    33   7    10   1    2    27   10   66   
1st     PAS Giannina                    26   11   2    0    37   11   4    6    3    23   17   53   
3rd     PAS Giannina                    26   10   0    3    30   11   5    3    5    19   17   48   
1st     PAS Giannina                    26   12   1    0    36   15   7    4    2    30   17   62   
1st     PAS Giannina                    26   10   3    0    30   9    8    3    2    24   15   60   
1st     PAS Giannina                    26   11   2    0    43   14   5    3    5    23   15   53   
1st     PAS Giannina                    26   9    4    0    31   11   10   3    0    31   10   64   
1st     PAS Giannina                    26   12   0    1    37   11   10   1    2    32   17   67   
1st     PAS Giannina                    26   11   0    2    32   9    11   1    1    24   5    67   
1st     PAS Giannina                    26   9    3    1    35   15   10   2    1    28   12   62   
1st     PAS Giannina                    26   9    4    0    29   13   9    3    1    22   7    61   
1st     PAS Giannina                    26   8    2    3    27   15   9    2    2    24   11   55   
1st     PAS Giannina                    26   11   2    0    37   11   7    2    4    29   16   58   
1st     PAS Giannina                    26   11   2    0    35   10   6    5    2    25   14   58   
1st     PAS Giannina                    26   8    4    1    27   12   10   3    0    24   6    61   
1st     PAS Giannina                    26   11   1    1    42   12   7    5    1    24   12   60   
1st     PAS Giannina                    26   8    4    1    31   16   5    5    3    27   16   48   
2nd     PAS Giannina                    26   9    0    4    34   22   5    4    4    17   16   46   
1st     PAS Giannina                    26   12   1    0    32   7    12   1    0    37   5    74   
1st     PAS Giannina                    26   13   0    0    38   10   8    2    3    21   12   65