1st     PAS Giannina                    26   10   1    2    41   18   9    2    2    29   12   60   
1st     PAS Giannina                    26   13   0    0    43   12   8    3    2    32   19   66   
1st     PAS Giannina                    26   11   2    0    42   17   7    5    1    32   20   61   
1st     PAS Giannina                    26   10   1    2    35   11   10   2    1    33   11   63   
1st     PAS Giannina                    26   12   1    0    41   6    10   2    1    38   16   69   
1st     PAS Giannina                    26   9    2    2    36   17   10   1    2    34   19   60   
1st     PAS Giannina                    26   10   1    2    32   14   10   2    1    38   17   63   
1st     PAS Giannina                    26   11   2    0    38   14   8    3    2    37   18   62   
1st     PAS Giannina                    26   12   1    0    37   12   9    2    2    27   9    66   
1st     PAS Giannina                    26   12   1    0    37   12   9    2    2    33   21   66   
1st     PAS Giannina                    26   9    3    1    37   20   10   2    1    37   13   62   
1st     PAS Giannina                    26   9    3    1    31   13   8    4    1    28   15   58   
1st     PAS Giannina                    26   11   1    1    34   16   7    5    1    31   15   60   
1st     PAS Giannina                    26   11   2    0    35   13   9    3    1    37   14   65   
1st     PAS Giannina                    26   10   2    1    32   15   11   0    2    34   6    65   
1st     PAS Giannina                    26   9    4    0    37   17   10   1    2    32   10   62   
1st     PAS Giannina                    26   12   1    0    41   13   6    3    4    25   20   58   
1st     PAS Giannina                    26   12   1    0    37   13   10   2    1    31   15   69   
1st     PAS Giannina                    26   11   2    0    42   17   7    4    2    26   19   60   
2nd     PAS Giannina                    26   11   2    0    39   13   8    2    3    33   13   61   
1st     PAS Giannina                    26   10   2    1    33   12   8    4    1    28   13   60   
1st     PAS Giannina                    26   11   2    0    38   15   10   2    1    34   13   67   
1st     PAS Giannina                    26   9    4    0    31   13   12   0    1    43   11   67   
1st     PAS Giannina                    26   10   1    2    33   12   10   3    0    34   16   64   
1st     PAS Giannina                    26   13   0    0    54   19   7    3    3    28   18   63   
1st     PAS Giannina                    26   10   1    2    37   15   9    2    2    33   15   60   
1st     PAS Giannina                    26   11   0    2    34   13   10   3    0    41   13   66   
1st     PAS Giannina                    26   7    4    2    37   19   9    4    0    34   16   56   
1st     PAS Giannina                    26   10   3    0    32   13   11   0    2    24   9    66   
1st     PAS Giannina                    26   10   3    0    40   18   7    3    3    28   20   57   
1st     PAS Giannina                    26   9    2    2    31   17   11   0    2    38   15   62   
1st     PAS Giannina                    26   10   2    1    31   12   8    4    1    30   13   60   
2nd     PAS Giannina                    26   11   1    1    38   11   6    4    3    28   16   56   
1st     PAS Giannina                    26   7    6    0    25   16   10   1    2    30   14   58   
1st     PAS Giannina                    26   12   0    1    29   6    11   1    1    32   11   70   
1st     PAS Giannina                    26   12   1    0    39   14   10   3    0    30   11   70   
1st     PAS Giannina                    26   11   1    1    38   13   10   2    1    37   12   66   
1st     PAS Giannina                    26   9    2    2    32   15   10   2    1    34   10   61   
1st     PAS Giannina                    26   11   2    0    38   14   10   2    1    33   14   67   
1st     PAS Giannina                    26   11   0    2    31   12   9    2    2    39   18   62   
1st     PAS Giannina                    26   12   1    0    40   14   8    3    2    31   19   64   
1st     PAS Giannina                    26   10   2    1    38   14   10   3    0    33   12   65   
1st     PAS Giannina                    26   12   0    1    38   9    12   0    1    31   10   72   
1st     PAS Giannina                    26   12   1    0    37   7    8    2    3    31   18   63   
1st     PAS Giannina                    26   10   3    0    35   11   11   1    1    29   8    67   
1st     PAS Giannina                    26   12   0    1    43   13   11   0    2    38   14   69   
1st     PAS Giannina                    26   11   2    0    33   10   10   1    2    42   18   66   
1st     PAS Giannina                    26   11   1    1    40   9    12   0    1    32   13   70   
1st     PAS Giannina                    26   9    1    3    28   14   9    3    1    30   14   58   
2nd     PAS Giannina                    26   11   2    0    35   5    6    4    3    30   21   57   
1st     PAS Giannina                    26   10   2    1    36   13   10   0    3    37   19   62   
1st     PAS Giannina                    26   10   2    1    37   13   8    3    2    39   17   59   
1st     PAS Giannina                    26   10   2    1    36   15   8    3    2    34   21   59   
1st     PAS Giannina                    26   12   1    0    36   8    9    1    3    29   15   65   
1st     PAS Giannina                    26   10   2    1    30   11   9    3    1    46   19   62   
1st     PAS Giannina                    26   12   1    0    36   13   10   1    2    34   15   68   
1st     PAS Giannina                    26   9    1    3    32   18   11   1    1    30   11   62   
1st     PAS Giannina                    26   12   1    0    42   16   7    1    5    29   19   59   
1st     PAS Giannina                    26   10   1    2    34   14   11   1    1    45   17   65   
1st     PAS Giannina                    26   12   1    0    37   11   10   1    2    35   15   68   
1st     PAS Giannina                    26   11   1    1    35   11   9    1    3    40   20   62   
1st     PAS Giannina                    26   12   1    0    37   7    8    2    3    34   20   63   
1st     PAS Giannina                    26   12   1    0    33   9    10   2    1    34   10   69   
1st     PAS Giannina                    26   11   1    1    38   13   8    3    2    35   20   61   
1st     PAS Giannina                    26   11   1    1    28   8    8    3    2    26   13   61   
1st     PAS Giannina                    26   11   2    0    40   15   8    2    3    33   16   61   
1st     PAS Giannina                    26   12   1    0    39   13   8    3    2    31   15   64   
1st     PAS Giannina                    26   13   0    0    30   7    11   1    1    31   13   73   
1st     PAS Giannina                    26   12   1    0    37   8    9    3    1    37   18   67   
1st     PAS Giannina                    26   12   1    0    35   12   8    4    1    33   13   65   
1st     PAS Giannina                    26   11   1    1    36   16   8    2    3    30   15   60   
1st     PAS Giannina                    26   12   1    0    37   10   10   1    2    33   14   68   
1st     PAS Giannina                    26   11   2    0    36   11   10   0    3    30   15   65   
1st     PAS Giannina                    26   10   2    1    34   17   9    3    1    30   17   62   
1st     PAS Giannina                    26   10   3    0    40   16   7    4    2    32   16   58   
1st     PAS Giannina                    26   12   0    1    35   11   10   1    2    27   15   67   
1st     PAS Giannina                    26   13   0    0    41   14   7    4    2    29   17   64   
1st     PAS Giannina                    26   9    4    0    40   13   12   1    0    41   9    68   
1st     PAS Giannina                    26   11   0    2    39   19   9    4    0    34   14   64   
1st     PAS Giannina                    26   8    2    3    31   19   9    3    1    28   12   56   
1st     PAS Giannina                    26   11   1    1    36   14   8    3    2    32   15   61   
3rd     PAS Giannina                    26   8    5    0    36   13   5    4    4    27   17   48   
1st     PAS Giannina                    26   10   2    1    29   16   10   3    0    32   9    65   
2nd     PAS Giannina                    26   9    3    1    39   17   9    1    3    30   12   58   
1st     PAS Giannina                    26   11   2    0    37   13   9    1    3    26   14   63   
1st     PAS Giannina                    26   10   2    1    33   11   10   2    1    37   14   64   
1st     PAS Giannina                    26   13   0    0    49   14   6    3    4    32   24   60   
1st     PAS Giannina                    26   8    3    2    31   12   9    4    0    34   17   58   
1st     PAS Giannina                    26   10   3    0    40   15   10   0    3    44   20   63   
1st     PAS Giannina                    26   11   1    1    34   9    7    4    2    36   21   59   
1st     PAS Giannina                    26   10   3    0    34   11   10   3    0    40   15   66   
1st     PAS Giannina                    26   9    3    1    39   18   9    3    1    33   12   60   
1st     PAS Giannina                    26   11   1    1    35   14   8    3    2    36   13   61   
1st     PAS Giannina                    26   9    3    1    34   12   11   1    1    37   21   64   
2nd     PAS Giannina                    26   9    4    0    36   14   7    3    3    33   17   55   
1st     PAS Giannina                    26   11   2    0    34   9    8    4    1    35   19   63   
1st     PAS Giannina                    26   10   2    1    39   16   9    2    2    29   13   61   
1st     PAS Giannina                    26   11   2    0    36   13   8    1    4    31   19   60   
1st     PAS Giannina                    26   11   2    0    35   9    8    1    4    35   22   60   
1st     PAS Giannina                    26   9    3    1    39   12   10   1    2    30   15   61   