2nd     PAS Giannina                    26   10   2    1    36   19   7    1    5    20   18   54
1st     PAS Giannina                    26   11   1    1    34   13   9    1    3    30   12   62
2nd     PAS Giannina                    26   9    3    1    34   13   8    3    2    28   17   57
2nd     PAS Giannina                    26   10   1    2    37   18   8    3    2    28   15   58
1st     PAS Giannina                    26   11   2    0    31   8    9    2    2    33   18   64
1st     PAS Giannina                    26   11   2    0    33   12   11   0    2    33   13   68
1st     PAS Giannina                    26   11   0    2    32   13   9    3    1    32   15   63
1st     PAS Giannina                    26   10   1    2    31   11   6    4    3    29   16   53
1st     PAS Giannina                    26   10   1    2    29   11   7    4    2    27   14   56
2nd     PAS Giannina                    26   9    2    2    28   16   8    2    3    25   15   55
2nd     PAS Giannina                    26   11   0    2    30   9    7    4    2    27   12   58
2nd     PAS Giannina                    26   10   2    1    42   22   8    3    2    30   16   59
1st     PAS Giannina                    26   10   1    2    33   11   11   0    2    39   16   64
2nd     PAS Giannina                    26   8    2    3    29   16   8    2    3    29   13   52
1st     PAS Giannina                    26   11   2    0    38   7    9    3    1    26   13   65
1st     PAS Giannina                    26   8    3    2    32   15   9    3    1    29   14   57
1st     PAS Giannina                    26   12   1    0    35   8    11   0    2    43   13   70
1st     PAS Giannina                    26   9    2    2    37   18   7    2    4    28   21   52
1st     PAS Giannina                    26   11   2    0    43   16   9    4    0    39   17   66
1st     PAS Giannina                    26   10   3    0    36   10   8    4    1    26   11   61
2nd     PAS Giannina                    26   7    6    0    27   14   8    2    3    23   19   53
1st     PAS Giannina                    26   11   1    1    38   9    8    3    2    29   14   61
1st     PAS Giannina                    26   9    3    1    30   11   10   2    1    33   14   62
1st     PAS Giannina                    26   10   3    0    35   11   9    3    1    26   14   63
2nd     PAS Giannina                    26   8    3    2    29   17   8    2    3    23   10   53
1st     PAS Giannina                    26   10   3    0    36   15   9    3    1    27   13   63
1st     PAS Giannina                    26   9    3    1    33   15   10   3    0    30   12   63
1st     PAS Giannina                    26   9    1    3    36   22   11   1    1    33   5    62
1st     PAS Giannina                    26   9    2    2    30   13   8    4    1    25   11   57
1st     PAS Giannina                    26   11   1    1    38   14   8    2    3    21   14   60
2nd     PAS Giannina                    26   12   0    1    31   5    6    2    5    25   18   56
2nd     PAS Giannina                    26   7    5    1    29   12   5    4    4    24   19   45
1st     PAS Giannina                    26   10   3    0    30   9    11   1    1    31   11   67
1st     PAS Giannina                    26   12   1    0    30   10   9    2    2    24   12   66
1st     PAS Giannina                    26   10   3    0    40   17   5    3    5    23   18   51
1st     PAS Giannina                    26   9    3    1    26   9    9    2    2    28   16   59
1st     PAS Giannina                    26   11   1    1    38   19   12   0    1    39   10   70
1st     PAS Giannina                    26   12   0    1    38   19   9    2    2    37   19   65
1st     PAS Giannina                    26   10   2    1    28   11   7    4    2    30   17   57
1st     PAS Giannina                    26   11   2    0    34   11   9    2    2    31   14   64
1st     PAS Giannina                    26   11   1    1    31   12   7    2    4    25   17   57
1st     PAS Giannina                    26   9    2    2    34   14   6    3    4    25   18   50
1st     PAS Giannina                    26   11   1    1    36   12   11   0    2    34   16   67
1st     PAS Giannina                    26   10   1    2    34   11   10   1    2    32   18   62
3rd     PAS Giannina                    26   8    4    1    32   20   6    3    4    26   23   49
1st     PAS Giannina                    26   13   0    0    40   15   10   0    3    35   14   69
1st     PAS Giannina                    26   10   2    1    28   6    10   1    2    30   13   63
1st     PAS Giannina                    26   9    3    1    34   13   11   2    0    31   9    65
1st     PAS Giannina                    26   12   1    0    34   9    7    4    2    32   18   62
1st     PAS Giannina                    26   12   1    0    34   7    6    4    3    25   14   59
1st     PAS Giannina                    26   6    3    4    25   19   11   1    1    35   10   55
5th     PAS Giannina                    26   8    0    5    28   19   5    2    6    26   23   41
1st     PAS Giannina                    26   10   1    2    35   13   11   2    0    31   10   66
1st     PAS Giannina                    26   12   1    0    33   8    8    3    2    27   16   64
1st     PAS Giannina                    26   10   3    0    31   11   10   3    0    27   12   66
1st     PAS Giannina                    26   11   0    2    32   11   8    3    2    21   13   60
1st     PAS Giannina                    26   8    5    0    35   18   6    5    2    32   17   52
2nd     PAS Giannina                    26   9    2    2    35   16   7    3    3    18   10   53
1st     PAS Giannina                    26   10   1    2    38   15   8    2    3    30   14   57
1st     PAS Giannina                    26   10   2    1    36   13   9    3    1    23   10   62
1st     PAS Giannina                    26   11   1    1    32   13   11   1    1    33   13   68
1st     PAS Giannina                    26   11   2    0    36   15   9    2    2    25   14   64
1st     PAS Giannina                    26   11   1    1    33   12   8    3    2    29   14   61
2nd     PAS Giannina                    26   6    5    2    18   12   6    4    3    30   15   45
1st     PAS Giannina                    26   12   1    0    39   13   8    2    3    31   20   63
1st     PAS Giannina                    26   10   2    1    31   13   6    4    3    21   15   54
2nd     PAS Giannina                    26   10   3    0    34   15   5    4    4    28   24   52
1st     PAS Giannina                    26   8    2    3    28   15   9    1    3    23   10   54
1st     PAS Giannina                    26   10   2    1    33   15   10   2    1    29   11   64
2nd     PAS Giannina                    26   10   2    1    33   12   6    6    1    29   19   56
1st     PAS Giannina                    26   12   1    0    36   12   8    2    3    23   14   63
1st     PAS Giannina                    26   10   2    1    32   9    7    3    3    20   13   56
1st     PAS Giannina                    26   9    1    3    25   13   10   1    2    32   13   59
1st     PAS Giannina                    26   11   1    1    42   12   10   2    1    32   10   66
1st     PAS Giannina                    26   9    2    2    42   13   8    2    3    28   13   55
1st     PAS Giannina                    26   11   2    0    31   7    10   2    1    29   14   67
1st     PAS Giannina                    26   11   2    0    40   13   10   2    1    31   10   67
1st     PAS Giannina                    26   11   2    0    40   15   6    5    2    25   15   58
1st     PAS Giannina                    26   12   1    0    40   19   8    3    2    30   8    64
1st     PAS Giannina                    26   10   1    2    30   14   8    2    3    26   13   57
2nd     PAS Giannina                    26   9    2    2    34   14   5    5    3    25   14   49
1st     PAS Giannina                    26   11   1    1    40   10   10   0    3    30   16   64
1st     PAS Giannina                    26   12   0    1    38   13   9    3    1    35   14   66
1st     PAS Giannina                    26   11   2    0    36   10   10   1    2    28   14   66
1st     PAS Giannina                    26   12   1    0    35   10   10   2    1    28   15   69
1st     PAS Giannina                    26   10   2    1    37   14   7    3    3    27   11   56
2nd     PAS Giannina                    26   11   0    2    39   13   8    2    3    23   14   59
1st     PAS Giannina                    26   9    3    1    27   13   12   1    0    31   6    67
1st     PAS Giannina                    26   8    4    1    32   15   8    4    1    33   16   56
1st     PAS Giannina                    26   11   2    0    37   9    9    3    1    23   11   65
1st     PAS Giannina                    26   10   2    1    32   9    7    4    2    27   17   57
1st     PAS Giannina                    26   12   0    1    35   17   9    0    4    31   15   63
1st     PAS Giannina                    26   11   2    0    32   10   10   2    1    30   11   67
1st     PAS Giannina                    26   10   1    2    37   15   9    3    1    38   17   61
1st     PAS Giannina                    26   11   1    1    40   13   8    4    1    36   20   62
1st     PAS Giannina                    26   9    2    2    32   13   8    2    3    29   16   55
2nd     PAS Giannina                    26   10   2    1    30   12   7    4    2    23   13   57
1st     PAS Giannina                    26   9    2    2    33   22   8    3    2    26   11   56
1st     PAS Giannina                    26   12   1    0    38   14   8    3    2    29   16   64
1st     PAS Giannina                    26   9    2    2    24   15   11   0    2    27   8    62