2nd     PAS Giannina                    26   9    2    2    26   13   4    6    3    22   18   47   
1st     PAS Giannina                    26   10   3    0    29   7    9    2    2    35   15   62   
1st     PAS Giannina                    26   13   0    0    30   5    5    2    6    26   26   56   
1st     PAS Giannina                    26   11   1    1    32   12   7    2    4    28   21   57   
1st     PAS Giannina                    26   11   1    1    34   10   7    2    4    21   12   57   
2nd     PAS Giannina                    26   9    4    0    31   10   10   1    2    32   13   62   
1st     PAS Giannina                    26   12   1    0    34   11   9    1    3    23   11   65   
1st     PAS Giannina                    26   12   1    0    39   14   9    2    2    32   15   66   
2nd     PAS Giannina                    26   10   2    1    27   10   9    2    2    30   13   61   
2nd     PAS Giannina                    26   8    5    0    28   13   7    2    4    28   22   52   
1st     PAS Giannina                    26   11   1    1    35   13   9    1    3    28   16   62   
1st     PAS Giannina                    26   10   1    2    31   14   8    3    2    22   12   58   
1st     PAS Giannina                    26   9    4    0    29   8    7    5    1    21   12   57   
1st     PAS Giannina                    26   11   1    1    36   6    9    2    2    25   11   63   
2nd     PAS Giannina                    26   9    3    1    20   7    5    2    6    31   27   47   
1st     PAS Giannina                    26   13   0    0    39   6    8    3    2    22   14   66   
1st     PAS Giannina                    26   10   1    2    27   7    7    5    1    25   13   57   
1st     PAS Giannina                    26   10   3    0    28   6    10   1    2    32   10   64   
1st     PAS Giannina                    26   13   0    0    37   7    8    3    2    23   14   66   
1st     PAS Giannina                    26   12   1    0    37   7    8    1    4    21   14   62   
1st     PAS Giannina                    26   12   1    0    37   6    6    1    6    15   13   56   
1st     PAS Giannina                    26   12   0    1    32   9    9    2    2    26   11   65   
1st     PAS Giannina                    26   9    2    2    23   9    10   1    2    32   15   60   
1st     PAS Giannina                    26   11   0    2    35   11   10   3    0    34   16   66   
1st     PAS Giannina                    26   10   2    1    31   13   7    1    5    17   13   54   
1st     PAS Giannina                    26   10   3    0    36   11   9    1    3    29   15   61   
1st     PAS Giannina                    26   10   3    0    42   10   6    6    1    25   11   57   
1st     PAS Giannina                    26   12   1    0    33   7    8    3    2    30   20   64   
1st     PAS Giannina                    26   13   0    0    34   8    7    3    3    29   19   63   
1st     PAS Giannina                    26   11   1    1    33   12   7    2    4    22   13   57   
1st     PAS Giannina                    26   11   1    1    36   15   10   3    0    27   10   67   
1st     PAS Giannina                    26   10   3    0    33   7    7    2    4    23   20   56   
1st     PAS Giannina                    26   9    2    2    26   8    7    6    0    26   17   56   
1st     PAS Giannina                    26   12   0    1    41   13   10   2    1    28   15   68   
1st     PAS Giannina                    26   10   3    0    35   13   10   2    1    33   10   65   
1st     PAS Giannina                    26   9    3    1    32   12   8    4    1    26   12   58   
2nd     PAS Giannina                    26   9    1    3    30   11   10   1    2    28   12   59   
1st     PAS Giannina                    26   10   3    0    35   13   8    4    1    23   11   61   
1st     PAS Giannina                    26   8    4    1    34   15   11   1    1    37   14   62   
1st     PAS Giannina                    26   11   2    0    35   7    9    2    2    23   12   64   
1st     PAS Giannina                    26   11   1    1    25   9    7    4    2    24   16   59   
1st     PAS Giannina                    26   11   2    0    36   10   6    5    2    27   17   58   
1st     PAS Giannina                    26   11   1    1    33   9    6    4    3    22   11   56   
2nd     PAS Giannina                    26   9    4    0    26   10   6    3    4    24   15   52   
1st     PAS Giannina                    26   10   2    1    37   12   11   2    0    29   8    67   
1st     PAS Giannina                    26   9    2    2    22   15   8    2    3    20   14   55   
1st     PAS Giannina                    26   12   0    1    29   7    8    3    2    29   12   63   
1st     PAS Giannina                    26   9    3    1    25   10   8    4    1    29   16   58   
2nd     PAS Giannina                    26   12   1    0    33   7    6    4    3    22   14   59   
1st     PAS Giannina                    26   11   2    0    37   13   7    2    4    18   13   58   
1st     PAS Giannina                    26   12   0    1    33   7    8    3    2    29   14   63   
1st     PAS Giannina                    26   10   2    1    31   15   4    4    5    18   19   48   
1st     PAS Giannina                    26   12   0    1    33   9    8    4    1    28   14   64   
1st     PAS Giannina                    26   12   0    1    36   12   7    2    4    30   14   59   
1st     PAS Giannina                    26   8    4    1    35   13   9    3    1    31   10   58   
1st     PAS Giannina                    26   11   2    0    30   15   11   1    1    33   12   69   
1st     PAS Giannina                    26   13   0    0    39   10   3    4    6    21   23   52   
1st     PAS Giannina                    26   9    3    1    35   17   6    5    2    29   16   53   
2nd     PAS Giannina                    26   9    3    1    27   10   6    4    3    21   17   52   
2nd     PAS Giannina                    26   10   1    2    32   13   5    3    5    21   20   49   
1st     PAS Giannina                    26   11   2    0    31   9    10   3    0    25   9    68   
2nd     PAS Giannina                    26   11   1    1    31   10   7    3    3    18   11   58   
1st     PAS Giannina                    26   11   0    2    35   13   7    4    2    24   11   58   
2nd     PAS Giannina                    26   9    3    1    31   13   6    3    4    24   15   51   
1st     PAS Giannina                    26   11   2    0    38   11   10   0    3    25   10   65   
2nd     PAS Giannina                    26   8    3    2    28   12   10   0    3    27   11   57   
2nd     PAS Giannina                    26   9    3    1    34   11   6    4    3    16   9    52   
2nd     PAS Giannina                    26   10   2    1    34   12   7    5    1    23   8    58   
2nd     PAS Giannina                    26   11   2    0    35   10   7    2    4    23   17   58   
1st     PAS Giannina                    26   9    3    1    30   12   7    6    0    19   10   57   
1st     PAS Giannina                    26   11   2    0    37   8    8    3    2    27   11   62   
1st     PAS Giannina                    26   8    4    1    28   12   8    5    0    29   12   57   
1st     PAS Giannina                    26   10   2    1    30   12   7    3    3    26   18   56   
2nd     PAS Giannina                    26   10   2    1    35   13   7    3    3    24   10   56   
1st     PAS Giannina                    26   11   1    1    36   11   8    2    3    24   15   60   
1st     PAS Giannina                    26   11   1    1    29   8    9    2    2    36   12   63   
1st     PAS Giannina                    26   9    2    2    33   11   9    3    1    25   9    59   
2nd     PAS Giannina                    26   12   1    0    35   8    3    4    6    27   22   50   
1st     PAS Giannina                    26   12   0    1    31   9    5    6    2    20   17   57   
1st     PAS Giannina                    26   10   3    0    33   11   10   1    2    33   18   64   
1st     PAS Giannina                    26   12   1    0    32   6    9    0    4    21   14   64   
1st     PAS Giannina                    26   12   1    0    37   10   7    3    3    21   13   61   
1st     PAS Giannina                    26   12   0    1    33   10   8    2    3    29   12   62   
1st     PAS Giannina                    26   11   1    1    38   13   9    3    1    27   11   64   
2nd     PAS Giannina                    26   9    3    1    26   8    6    4    3    30   17   52   
1st     PAS Giannina                    26   8    2    3    26   16   9    2    2    27   13   55   
1st     PAS Giannina                    26   11   1    1    29   11   8    5    0    29   11   63   
1st     PAS Giannina                    26   11   2    0    29   4    10   1    2    28   9    66   
1st     PAS Giannina                    26   12   1    0    31   7    7    3    3    20   10   61   
1st     PAS Giannina                    26   10   2    1    26   12   8    2    3    26   14   58   
1st     PAS Giannina                    26   12   0    1    33   9    7    3    3    24   18   60   
1st     PAS Giannina                    26   11   2    0    38   12   9    3    1    30   15   65   
1st     PAS Giannina                    26   11   2    0    33   10   9    1    3    26   14   63   
1st     PAS Giannina                    26   10   0    3    30   15   9    3    1    28   9    60   
1st     PAS Giannina                    26   8    3    2    30   13   6    4    3    21   15   49   
1st     PAS Giannina                    26   12   1    0    38   10   11   1    1    35   14   71   
1st     PAS Giannina                    26   9    4    0    33   13   9    1    3    28   13   59   
1st     PAS Giannina                    26   9    3    1    36   14   8    4    1    29   9    58   
1st     PAS Giannina                    26   11   1    1    38   13   9    2    2    32   17   63   
1st     PAS Giannina                    26   10   2    1    36   10   10   2    1    27   12   64   