14th     PAS Giannina                    26   1    1    11   25   61   2    5    6    30   43   15
14th     PAS Giannina                    26   2    2    9    34   59   2    3    8    23   39   17
14th     PAS Giannina                    26   3    3    7    44   55   2    3    8    26   45   21
11th    PAS Giannina                    26   5    1    7    36   51   4    2    7    28   39   30
12th    PAS Giannina                    26   4    0    9    35   58   4    2    7    32   34   26
12th    PAS Giannina                    26   4    0    9    39   52   3    1    9    27   38   22
13th     PAS Giannina                    26   1    2    10   31   59   6    1    6    28   30   24
14th     PAS Giannina                    26   3    0    10   45   64   4    3    6    31   39   24
13th     PAS Giannina                    26   3    1    9    43   59   2    6    5    27   40   22
8th     PAS Giannina                    26   5    1    7    33   52   5    1    7    23   39   32
12th    PAS Giannina                    26   3    1    9    35   54   5    2    6    29   33   27
14th     PAS Giannina                    26   3    2    8    36   48   1    3    9    24   39   17
14th     PAS Giannina                    26   2    1    10   35   54   4    2    7    32   43   21
10th    PAS Giannina                    26   4    1    8    49   61   4    4    5    30   40   29
12th    PAS Giannina                    26   3    2    8    34   57   4    2    7    31   38   25
14th     PAS Giannina                    26   2    3    8    31   57   2    1    10   26   39   16
11th    PAS Giannina                    26   4    1    8    38   57   6    0    7    38   36   31
14th     PAS Giannina                    26   2    2    9    33   55   2    4    7    27   41   18
13th     PAS Giannina                    26   1    2    10   32   68   5    1    7    30   37   21
14th     PAS Giannina                    26   0    1    12   39   66   3    3    7    28   41   13
13th     PAS Giannina                    26   5    2    6    43   50   3    1    9    29   44   27
12th    PAS Giannina                    26   3    1    9    34   52   4    1    8    24   41   23
14th     PAS Giannina                    26   2    0    11   26   58   1    4    8    24   41   13
11th    PAS Giannina                    26   5    4    4    42   47   1    6    6    32   50   28
14th     PAS Giannina                    26   2    1    10   28   54   3    4    6    31   36   20
10th    PAS Giannina                    26   5    0    8    39   53   3    3    7    29   37   27
14th     PAS Giannina                    26   3    0    10   33   57   2    2    9    24   43   17
11th    PAS Giannina                    26   5    2    6    42   53   4    2    7    32   44   31
14th     PAS Giannina                    26   5    1    7    43   53   2    1    10   25   49   23
9th     PAS Giannina                    26   5    1    7    36   44   5    0    8    23   37   31
12th    PAS Giannina                    26   4    2    7    42   48   4    2    7    31   36   28
9th     PAS Giannina                    26   3    3    7    39   50   7    1    5    37   37   34
14th     PAS Giannina                    26   2    0    11   30   63   5    1    7    28   35   22
13th     PAS Giannina                    26   5    0    8    39   46   3    2    8    36   49   26
14th     PAS Giannina                    26   3    2    8    40   63   3    3    7    25   38   23
14th     PAS Giannina                    26   1    2    10   31   53   2    5    6    27   41   16
14th     PAS Giannina                    26   4    1    8    38   54   1    1    11   24   41   17
14th     PAS Giannina                    26   1    2    10   38   59   4    2    7    35   41   19
9th     PAS Giannina                    26   4    1    8    36   60   7    2    4    30   26   36
12th    PAS Giannina                    26   3    3    7    38   54   5    2    6    35   40   29
13th     PAS Giannina                    26   5    2    6    40   54   2    2    9    26   46   25
11th    PAS Giannina                    26   3    3    7    45   53   4    5    4    38   38   29
14th     PAS Giannina                    26   2    3    8    43   62   1    1    11   26   43   13
14th     PAS Giannina                    26   0    2    11   37   60   4    2    7    24   35   16
14th     PAS Giannina                    26   4    1    8    36   51   2    1    10   27   44   20
14th     PAS Giannina                    26   3    2    8    39   50   1    5    7    24   38   19
14th     PAS Giannina                    26   5    3    5    42   51   0    3    10   22   42   21
12th    PAS Giannina                    26   4    1    8    28   50   4    3    6    35   42   28
14th     PAS Giannina                    26   4    2    7    38   51   2    3    8    25   43   23
12th    PAS Giannina                    26   3    4    6    42   55   4    3    6    32   39   28
12th    PAS Giannina                    26   5    0    8    37   46   2    2    9    22   35   23
13th     PAS Giannina                    26   3    4    6    45   56   2    1    10   21   43   20
11th    PAS Giannina                    26   7    0    6    36   42   1    4    8    24   38   28
13th     PAS Giannina                    26   2    3    8    30   55   2    5    6    32   45   20
14th     PAS Giannina                    26   0    4    9    32   61   2    2    9    20   32   12
14th     PAS Giannina                    26   3    1    9    40   61   2    2    9    26   39   18
14th     PAS Giannina                    26   0    1    12   26   62   0    3    10   23   43   4
10th    PAS Giannina                    26   4    1    8    40   51   6    0    7    30   33   31
13th     PAS Giannina                    26   2    0    11   32   58   4    1    8    28   43   19
13th     PAS Giannina                    26   5    0    8    38   55   2    2    9    21   37   23
8th     PAS Giannina                    26   4    2    7    37   50   5    2    6    30   35   31
14th     PAS Giannina                    26   5    0    8    46   63   2    2    9    25   47   23
12th    PAS Giannina                    26   6    0    7    39   44   3    1    9    30   50   28
13th     PAS Giannina                    26   4    2    7    41   51   2    2    9    27   43   22
14th     PAS Giannina                    26   3    0    10   46   58   3    0    10   18   45   18
13th     PAS Giannina                    26   3    1    9    36   66   4    1    8    31   39   23
14th     PAS Giannina                    26   0    3    10   28   52   4    0    9    27   45   15
14th     PAS Giannina                    26   4    0    9    36   57   1    2    10   23   44   17
11th    PAS Giannina                    26   4    1    8    43   60   4    1    8    24   37   26
14th     PAS Giannina                    26   1    5    7    46   60   4    1    8    29   37   21
13th     PAS Giannina                    26   4    0    9    36   50   4    1    8    29   38   25
14th     PAS Giannina                    26   1    1    11   43   65   2    1    10   22   36   11
14th     PAS Giannina                    26   1    1    11   41   58   4    1    8    26   34   17
8th     PAS Giannina                    26   6    1    6    41   51   4    2    7    27   33   33
13th     PAS Giannina                    26   3    1    9    31   51   4    2    7    24   34   24
14th     PAS Giannina                    26   3    1    9    24   42   1    1    11   22   46   14
11th    PAS Giannina                    26   5    2    6    40   44   4    1    8    28   45   30
13th     PAS Giannina                    26   2    0    11   30   57   5    0    8    32   45   21
13th     PAS Giannina                    26   5    2    6    41   49   2    1    10   25   40   24
11th    PAS Giannina                    26   4    2    7    35   47   3    2    8    27   40   25
10th    PAS Giannina                    26   4    4    5    39   49   3    5    5    25   35   30
13th     PAS Giannina                    26   4    1    8    37   50   3    4    6    25   32   26
13th     PAS Giannina                    26   3    3    7    40   50   1    3    9    23   39   18
9th     PAS Giannina                    26   3    1    9    36   57   7    2    4    33   33   33
14th     PAS Giannina                    26   3    3    7    33   54   1    3    9    31   47   18
8th     PAS Giannina                    26   6    2    5    49   51   3    4    6    28   38   33
12th    PAS Giannina                    26   4    0    9    31   54   3    2    8    18   36   23
13th     PAS Giannina                    26   2    1    10   36   61   4    4    5    25   31   23
10th    PAS Giannina                    26   4    4    5    42   51   5    1    7    27   36   32
14th     PAS Giannina                    26   3    0    10   40   61   1    3    9    22   41   15
13th     PAS Giannina                    26   4    1    8    43   56   2    4    7    24   38   23
14th     PAS Giannina                    26   1    2    10   28   54   4    1    8    26   31   18
5th     PAS Giannina                    26   8    0    5    44   52   4    2    7    29   39   38
13th     PAS Giannina                    26   2    4    7    39   55   4    1    8    29   36   23
11th    PAS Giannina                    26   4    1    8    36   51   6    3    4    33   38   34
14th     PAS Giannina                    26   2    1    10   25   60   2    1    10   18   45   14
11th    PAS Giannina                    26   6    0    7    38   46   4    0    9    28   43   30
14th     PAS Giannina                    26   3    4    6    39   53   3    2    8    25   39   24
14th     PAS Giannina                    26   2    1    10   29   58   3    1    9    24   36   17
12th    PAS Giannina                    26   3    0    10   31   62   5    2    6    28   37   26