13th    PAS Giannina                    26   4    3    6    12   16   2    3    8    11   24   24
12th    PAS Giannina                    26   5    4    4    17   16   2    2    9    13   26   27
14th    PAS Giannina                    26   1    5    7    15   24   0    2    11   6    25   10
12th    PAS Giannina                    26   7    3    3    18   13   1    1    11   10   25   28
9th     PAS Giannina                    26   6    2    5    23   22   1    8    4    8    13   31
11th    PAS Giannina                    26   5    1    7    21   23   3    4    6    10   25   29
14th    PAS Giannina                    26   6    0    7    22   19   1    2    10   14   28   23
14th    PAS Giannina                    26   2    5    6    14   23   2    4    7    11   24   21
14th    PAS Giannina                    26   5    2    6    23   26   1    3    9    9    29   23
8th     PAS Giannina                    26   8    3    2    22   17   2    2    9    13   25   35
13th    PAS Giannina                    26   5    3    5    20   24   1    3    9    16   31   24
11th    PAS Giannina                    26   6    3    4    22   21   0    7    6    9    22   28
14th    PAS Giannina                    26   2    2    9    15   29   2    3    8    11   22   17
12th    PAS Giannina                    26   6    1    6    19   23   2    2    9    6    20   27
12th    PAS Giannina                    26   5    2    6    21   21   4    0    9    16   23   29
14th    PAS Giannina                    26   3    4    6    16   20   0    2    11   7    29   15
13th    PAS Giannina                    26   6    1    6    19   24   1    1    11   7    28   23
13th    PAS Giannina                    26   5    3    5    15   16   1    3    9    10   22   24
14th    PAS Giannina                    26   5    0    8    20   24   1    4    8    10   20   22
12th    PAS Giannina                    26   5    5    3    22   16   1    2    10   8    27   25
5th     PAS Giannina                    26   7    3    3    24   17   4    1    8    15   21   37
12th    PAS Giannina                    26   6    5    2    20   13   1    1    11   7    23   27
12th    PAS Giannina                    26   5    5    3    17   15   1    5    7    14   26   28
13th    PAS Giannina                    26   5    5    3    21   19   1    3    9    9    22   26
4th     PAS Giannina                    26   7    4    2    23   18   3    4    6    15   19   38
4th     PAS Giannina                    26   9    3    1    26   14   3    1    9    11   24   40
13th    PAS Giannina                    26   3    5    5    21   23   1    1    11   12   30   18
10th    PAS Giannina                    26   6    3    4    21   19   2    3    8    12   26   30
9th     PAS Giannina                    26   6    3    4    23   21   3    3    7    10   20   33
10th    PAS Giannina                    26   5    2    6    18   19   2    4    7    14   19   27
12th    PAS Giannina                    26   7    3    3    24   16   1    1    11   10   26   28
14th    PAS Giannina                    26   3    4    6    15   20   2    3    8    6    18   22
13th    PAS Giannina                    26   6    1    6    18   22   1    3    9    6    23   25
5th     PAS Giannina                    26   8    1    4    23   17   5    1    7    15   19   41
8th     PAS Giannina                    26   8    1    4    25   22   1    4    8    15   25   32
11th    PAS Giannina                    26   6    4    3    23   18   2    1    10   10   24   29
12th    PAS Giannina                    26   5    4    4    18   20   1    3    9    7    26   25
7th     PAS Giannina                    26   7    5    1    27   16   2    2    9    15   27   34
14th    PAS Giannina                    26   3    6    4    18   21   1    2    10   10   26   20
8th     PAS Giannina                    26   5    3    5    19   15   5    1    7    19   25   34
13th    PAS Giannina                    26   6    4    3    27   20   1    4    8    12   29   29
7th     PAS Giannina                    26   8    3    2    20   12   3    3    7    14   22   39
14th    PAS Giannina                    26   4    2    7    23   28   1    4    8    7    24   21
13th    PAS Giannina                    26   4    5    4    21   20   1    2    10   7    22   22
14th    PAS Giannina                    26   5    2    6    23   27   1    1    11   9    31   21
11th    PAS Giannina                    26   6    5    2    20   14   2    1    10   11   30   30
11th    PAS Giannina                    26   6    1    6    23   25   3    2    8    12   19   30
9th     PAS Giannina                    26   3    5    5    13   17   4    5    4    21   23   31
11th    PAS Giannina                    26   6    3    4    22   22   2    4    7    13   22   31
9th     PAS Giannina                    26   5    3    5    18   16   4    3    6    14   25   33
14th    PAS Giannina                    26   5    6    2    19   13   0    3    10   7    20   24
11th    PAS Giannina                    26   5    4    4    17   17   2    2    9    11   22   27
13th    PAS Giannina                    26   3    6    4    15   16   2    4    7    13   24   25
13th    PAS Giannina                    26   7    2    4    23   16   0    3    10   11   27   26
9th     PAS Giannina                    26   8    2    3    20   14   2    4    7    15   26   36
13th    PAS Giannina                    26   3    1    9    16   21   4    1    8    16   19   23
4th     PAS Giannina                    26   7    1    5    24   17   6    2    5    19   19   42
13th    PAS Giannina                    26   3    5    5    18   22   1    2    10   11   32   19
14th    PAS Giannina                    26   4    2    7    21   23   2    4    7    16   25   24
14th    PAS Giannina                    26   3    6    4    14   19   0    2    11   10   27   17
3rd     PAS Giannina                    26   10   1    2    30   12   4    1    8    14   19   44
10th    PAS Giannina                    26   6    2    5    19   21   3    2    8    12   25   31
9th     PAS Giannina                    26   7    3    3    22   14   3    3    7    16   24   36
9th     PAS Giannina                    26   7    2    4    19   16   2    5    6    16   24   34
14th    PAS Giannina                    26   4    2    7    19   18   2    3    8    9    26   23
13th    PAS Giannina                    26   5    3    5    18   24   1    2    10   13   34   23
9th     PAS Giannina                    26   7    2    4    24   18   2    4    7    14   24   33
13th    PAS Giannina                    26   4    3    6    19   23   3    1    9    14   24   25
12th    PAS Giannina                    26   3    3    7    15   19   3    2    8    13   27   23
12th    PAS Giannina                    26   5    2    6    21   26   1    4    8    9    22   24
11th    PAS Giannina                    26   4    2    7    19   25   3    3    7    10   15   26
12th    PAS Giannina                    26   7    1    5    16   11   1    2    10   12   29   27
14th    PAS Giannina                    26   6    1    6    23   24   1    1    11   10   28   23
11th    PAS Giannina                    26   5    5    3    19   21   0    4    9    12   26   24
14th    PAS Giannina                    26   3    5    5    14   20   0    2    11   8    35   16
7th     PAS Giannina                    26   7    2    4    25   16   2    5    6    19   24   34
13th    PAS Giannina                    26   3    5    5    18   26   3    3    7    13   20   26
5th     PAS Giannina                    26   8    2    3    25   15   3    3    7    12   18   38
12th    PAS Giannina                    26   6    2    5    22   20   1    3    9    9    22   26
7th     PAS Giannina                    26   7    1    5    21   16   2    7    4    14   16   35
13th    PAS Giannina                    26   4    4    5    20   19   2    2    9    12   29   24
14th    PAS Giannina                    26   4    2    7    23   28   1    3    9    14   29   20
7th     PAS Giannina                    26   7    2    4    24   16   2    3    8    10   24   32
14th    PAS Giannina                    26   3    4    6    15   20   2    1    10   9    26   20
9th     PAS Giannina                    26   7    3    3    24   13   3    2    8    12   20   35
9th     PAS Giannina                    26   8    2    3    27   16   2    3    8    10   22   35
14th    PAS Giannina                    26   1    1    11   9    26   0    1    12   9    29   5
14th    PAS Giannina                    26   7    2    4    20   13   0    1    12   6    23   24
9th     PAS Giannina                    26   6    3    4    19   15   3    5    5    15   17   35
9th     PAS Giannina                    26   4    5    4    20   18   3    4    6    13   21   30
6th     PAS Giannina                    26   7    3    3    32   15   3    4    6    15   25   37
14th    PAS Giannina                    26   4    3    6    23   26   2    2    9    7    24   23
13th    PAS Giannina                    26   4    3    6    14   20   1    4    8    12   25   22
12th    PAS Giannina                    26   5    2    6    24   26   2    2    9    7    26   25
14th    PAS Giannina                    26   3    5    5    17   23   1    1    11   13   26   18
13th    PAS Giannina                    26   3    6    4    18   18   1    5    7    11   23   23
12th    PAS Giannina                    26   5    2    6    19   21   1    5    7    12   24   25
14th    PAS Giannina                    26   2    6    5    10   15   1    2    10   9    25   17
13th    PAS Giannina                    26   6    2    5    22   20   1    5    7    7    21   28
13th    PAS Giannina                    26   3    4    6    12   20   3    0    10   6    20   22