3rd     PAS Giannina                    26   7    3    3    27   18   7    2    4    23   20   47   
4th     PAS Giannina                    26   8    3    2    30   19   5    1    7    16   12   43   
1st     PAS Giannina                    26   9    2    2    28   12   8    2    3    25   17   55   
2nd     PAS Giannina                    26   11   2    0    34   12   4    4    5    17   17   51   
2nd     PAS Giannina                    26   10   3    0    33   15   5    2    6    24   20   50   
1st     PAS Giannina                    26   12   0    1    34   14   7    3    3    30   16   60   
1st     PAS Giannina                    26   12   1    0    37   12   8    2    3    25   16   63   
1st     PAS Giannina                    26   9    3    1    35   16   8    1    4    24   16   55   
1st     PAS Giannina                    26   9    2    2    27   15   8    2    3    22   15   55   
1st     PAS Giannina                    26   12   1    0    32   9    7    3    3    26   17   61   
1st     PAS Giannina                    26   8    2    3    27   13   5    8    0    22   15   49   
1st     PAS Giannina                    26   11   2    0    29   10   8    2    3    22   13   61   
2nd     PAS Giannina                    26   10   2    1    33   15   3    8    2    23   19   49   
1st     PAS Giannina                    26   7    5    1    32   20   9    2    2    26   18   55   
1st     PAS Giannina                    26   9    4    0    34   13   9    1    3    30   16   59   
2nd     PAS Giannina                    26   8    3    2    25   14   8    2    3    26   18   53   
1st     PAS Giannina                    26   9    3    1    28   12   10   1    2    24   12   61   
2nd     PAS Giannina                    26   7    3    3    22   16   7    4    2    19   12   49   
2nd     PAS Giannina                    26   10   3    0    35   17   6    3    4    25   19   54   
1st     PAS Giannina                    26   11   1    1    35   15   7    3    3    23   13   58   
1st     PAS Giannina                    26   9    2    2    39   19   6    3    4    26   17   50   
2nd     PAS Giannina                    26   9    1    3    30   14   4    6    3    19   15   46   
2nd     PAS Giannina                    26   6    5    2    21   15   8    4    1    30   15   51   
1st     PAS Giannina                    26   9    2    2    32   16   7    3    3    25   18   53   
3rd     PAS Giannina                    26   8    4    1    29   16   7    2    4    17   13   51   
3rd     PAS Giannina                    26   8    4    1    30   16   6    3    4    30   20   49   
1st     PAS Giannina                    26   9    2    2    33   19   8    3    2    20   8    56   
1st     PAS Giannina                    26   10   2    1    35   18   8    4    1    33   16   60   
1st     PAS Giannina                    26   10   2    1    26   10   7    3    3    21   14   56   
2nd     PAS Giannina                    26   7    2    4    31   17   9    1    3    29   20   51   
2nd     PAS Giannina                    26   8    4    1    30   16   7    2    4    27   16   51   
1st     PAS Giannina                    26   9    2    2    26   16   8    4    1    29   15   57   
1st     PAS Giannina                    26   11   1    1    41   13   5    2    6    16   15   51   
2nd     PAS Giannina                    26   9    3    1    34   11   7    5    1    33   20   56   
1st     PAS Giannina                    26   9    4    0    33   16   9    2    2    30   16   60   
3rd     PAS Giannina                    26   8    3    2    41   20   4    6    3    20   17   45   
2nd     PAS Giannina                    26   8    3    2    19   13   9    1    3    33   19   55   
1st     PAS Giannina                    26   11   1    1    28   15   7    3    3    17   15   58   
1st     PAS Giannina                    26   11   2    0    33   10   9    1    3    31   13   63   
2nd     PAS Giannina                    26   10   0    3    31   14   6    5    2    30   21   53   
1st     PAS Giannina                    26   8    4    1    28   17   7    3    3    23   15   52   
1st     PAS Giannina                    26   9    3    1    28   17   9    2    2    29   10   59   
3rd     PAS Giannina                    26   6    3    4    25   15   7    2    4    24   16   44   
2nd     PAS Giannina                    26   9    2    2    23   13   7    4    2    25   14   54   
2nd     PAS Giannina                    26   10   1    2    38   15   7    2    4    26   17   54   
1st     PAS Giannina                    26   8    2    3    29   18   9    3    1    27   8    56   
1st     PAS Giannina                    26   12   0    1    42   15   9    1    3    28   19   64   
1st     PAS Giannina                    26   11   2    0    40   12   7    4    2    24   13   60   
1st     PAS Giannina                    26   10   2    1    29   13   9    3    1    24   12   62   
2nd     PAS Giannina                    26   7    5    1    32   18   5    5    3    24   21   46   
4th     PAS Giannina                    26   8    3    2    26   12   3    6    4    20   22   42   
2nd     PAS Giannina                    26   8    5    0    31   13   7    2    4    19   14   52   
1st     PAS Giannina                    26   12   1    0    38   15   9    1    3    30   18   65   
2nd     PAS Giannina                    26   9    3    1    38   12   4    5    4    22   22   47   
2nd     PAS Giannina                    26   9    2    2    34   15   6    5    2    22   14   52   
2nd     PAS Giannina                    26   12   0    1    29   16   4    3    6    22   23   51   
2nd     PAS Giannina                    26   8    3    2    26   13   7    3    3    19   11   51   
3rd     PAS Giannina                    26   8    2    3    28   12   3    8    2    14   12   43   
1st     PAS Giannina                    26   9    3    1    27   14   8    2    3    22   16   56   
1st     PAS Giannina                    26   9    2    2    33   14   8    4    1    21   9    57   
1st     PAS Giannina                    26   9    3    1    29   17   8    3    2    26   13   57   
2nd     PAS Giannina                    26   10   1    2    34   16   6    4    3    25   21   53   
1st     PAS Giannina                    26   10   2    1    30   10   7    3    3    24   14   56   
2nd     PAS Giannina                    26   10   2    1    32   14   8    1    4    25   18   57   
1st     PAS Giannina                    26   12   0    1    38   11   7    3    3    21   12   60   
2nd     PAS Giannina                    26   9    2    2    27   12   7    3    3    21   14   53   
2nd     PAS Giannina                    26   10   0    3    32   14   5    4    4    17   16   49   
2nd     PAS Giannina                    26   10   1    2    37   15   7    2    4    31   23   54   
1st     PAS Giannina                    26   11   2    0    34   13   9    0    4    25   13   62   
3rd     PAS Giannina                    26   9    2    2    30   16   3    4    6    20   24   42   
2nd     PAS Giannina                    26   8    3    2    31   17   8    3    2    27   15   54   
1st     PAS Giannina                    26   9    4    0    27   9    4    5    4    18   18   48   
1st     PAS Giannina                    26   12   0    1    36   13   6    3    4    25   24   57   
2nd     PAS Giannina                    26   7    4    2    25   15   9    1    3    24   10   53   
1st     PAS Giannina                    26   13   0    0    35   13   7    1    5    28   22   61   
1st     PAS Giannina                    26   10   3    0    24   7    7    4    2    31   19   58   
1st     PAS Giannina                    26   10   2    1    31   15   6    4    3    29   23   54   
1st     PAS Giannina                    26   9    0    4    30   15   8    2    3    28   17   53   
3rd     PAS Giannina                    26   8    4    1    31   15   3    5    5    17   21   42   
5th     PAS Giannina                    26   6    2    5    25   23   6    2    5    20   17   40   
1st     PAS Giannina                    26   8    4    1    25   13   6    5    2    23   14   51   
2nd     PAS Giannina                    26   10   3    0    32   14   6    2    5    23   21   53   
1st     PAS Giannina                    26   10   2    1    33   14   9    2    2    32   15   61   
1st     PAS Giannina                    26   9    3    1    34   10   9    2    2    26   15   59   
1st     PAS Giannina                    26   8    2    3    26   18   8    3    2    26   12   53   
2nd     PAS Giannina                    26   7    3    3    27   18   8    3    2    23   15   51   
3rd     PAS Giannina                    26   9    2    2    33   15   7    3    3    33   24   53   
1st     PAS Giannina                    26   11   0    2    33   14   6    1    6    15   16   52   
1st     PAS Giannina                    26   10   3    0    35   14   9    0    4    30   17   60   
3rd     PAS Giannina                    26   11   1    1    33   18   3    1    9    20   26   44   
4th     PAS Giannina                    26   10   2    1    29   11   3    6    4    19   17   47   
1st     PAS Giannina                    26   10   2    1    34   18   8    2    3    22   12   58   
2nd     PAS Giannina                    26   9    3    1    34   15   5    4    4    25   21   49   
2nd     PAS Giannina                    26   9    2    2    31   17   5    4    4    27   24   48   
1st     PAS Giannina                    26   11   2    0    33   10   8    1    4    25   17   60   
1st     PAS Giannina                    26   11   1    1    37   14   10   2    1    32   11   66   
2nd     PAS Giannina                    26   10   2    1    34   12   5    3    5    25   22   50   
2nd     PAS Giannina                    26   9    0    4    34   21   8    2    3    27   17   53   
2nd     PAS Giannina                    26   9    2    2    27   16   6    4    3    25   13   51   
2nd     PAS Giannina                    26   9    2    2    31   19   10   0    3    36   22   59   