1st      PAS Giannina                    26   10   1    2    34   13   11   1    1    31   8    65
1st      PAS Giannina                    26   10   1    2    36   15   5    3    5    21   19   49
1st      PAS Giannina                    26   13   0    0    32   9    10   2    1    33   10   71
1st      PAS Giannina                    26   9    4    0    30   9    10   3    0    36   17   64
1st      PAS Giannina                    26   11   2    0    32   11   9    3    1    33   15   65
1st      PAS Giannina                    26   10   3    0    26   5    7    6    0    29   13   60
2nd     PAS Giannina                    26   9    4    0    26   10   7    3    3    25   13   55
2nd     PAS Giannina                    26   9    4    0    35   13   9    1    3    25   12   59
1st      PAS Giannina                    26   10   2    1    35   14   6    5    2    25   20   55
1st      PAS Giannina                    26   9    3    1    28   10   9    2    2    34   14   59
1st      PAS Giannina                    26   12   1    0    30   9    12   1    0    32   7    74
2nd     PAS Giannina                    26   9    1    3    34   15   6    7    0    26   13   53
1st      PAS Giannina                    26   13   0    0    36   7    12   0    1    35   10   75
1st      PAS Giannina                    26   10   2    1    33   9    10   2    1    26   8    64
1st      PAS Giannina                    26   12   1    0    30   4    10   1    2    24   9    68
1st      PAS Giannina                    26   11   1    1    33   10   8    3    2    28   16   61
1st      PAS Giannina                    26   12   1    0    35   11   10   1    2    29   12   68
1st      PAS Giannina                    26   10   1    2    29   10   8    4    1    28   16   59
2nd     PAS Giannina                    26   6    3    4    28   23   8    4    1    28   11   49
2nd     PAS Giannina                    26   11   1    1    28   9    3    4    6    19   21   47
1st      PAS Giannina                    26   11   2    0    33   13   8    3    2    26   13   62
1st      PAS Giannina                    26   9    3    1    32   11   13   0    0    33   13   69
1st      PAS Giannina                    26   11   2    0    30   8    12   1    0    33   9    72
2nd     PAS Giannina                    26   11   1    1    28   15   8    1    4    33   19   59
1st      PAS Giannina                    26   12   0    1    39   10   6    3    4    21   20   57
1st      PAS Giannina                    26   9    3    1    28   12   10   1    2    33   10   61
1st      PAS Giannina                    26   10   3    0    34   13   9    2    2    30   12   62
2nd     PAS Giannina                    26   10   3    0    33   16   8    4    1    32   8    61
1st      PAS Giannina                    26   10   2    1    28   9    9    2    2    26   13   61
1st      PAS Giannina                    26   10   3    0    30   10   6    5    2    28   16   56
1st      PAS Giannina                    26   11   2    0    37   11   10   2    1    25   11   67
1st      PAS Giannina                    26   9    3    1    30   14   9    2    2    33   13   59
1st      PAS Giannina                    26   11   1    1    30   9    8    3    2    29   16   61
1st      PAS Giannina                    26   8    4    1    27   12   9    3    1    28   11   58
1st      PAS Giannina                    26   12   0    1    30   8    9    2    2    28   12   65
1st      PAS Giannina                    26   12   1    0    38   9    7    5    1    23   13   63
1st      PAS Giannina                    26   11   1    1    34   10   9    1    3    30   11   62
1st      PAS Giannina                    26   11   2    0    37   16   10   2    1    28   10   67
1st      PAS Giannina                    26   13   0    0    39   13   10   3    0    38   15   72
1st      PAS Giannina                    26   10   1    2    32   12   10   3    0    32   6    64
1st      PAS Giannina                    26   9    3    1    33   14   9    0    4    28   15   57
1st      PAS Giannina                    26   12   0    1    37   11   9    2    2    32   12   65
1st      PAS Giannina                    26   11   1    1    29   13   10   1    2    33   12   65
1st      PAS Giannina                    26   10   2    1    38   14   12   0    1    34   14   68
1st      PAS Giannina                    26   12   1    0    38   9    9    3    1    32   13   67
2nd     PAS Giannina                    26   12   1    0    34   11   9    1    3    28   15   65
1st      PAS Giannina                    26   12   0    1    33   8    9    2    2    25   10   65
1st      PAS Giannina                    26   10   1    2    29   9    9    2    2    32   16   60
1st      PAS Giannina                    26   11   2    0    38   14   10   1    2    29   11   66
1st      PAS Giannina                    26   13   0    0    37   6    10   2    1    29   15   71
1st      PAS Giannina                    26   11   2    0    33   10   9    1    3    23   11   63
1st      PAS Giannina                    26   12   0    1    36   12   8    3    2    32   13   63
1st      PAS Giannina                    26   10   2    1    38   14   11   1    1    34   12   66
1st      PAS Giannina                    26   8    5    0    25   8    8    4    1    28   14   57
1st      PAS Giannina                    26   13   0    0    34   9    12   0    1    31   10   75
1st      PAS Giannina                    26   13   0    0    37   8    7    3    3    28   14   63
1st      PAS Giannina                    26   11   2    0    34   14   11   0    2    32   14   68
1st      PAS Giannina                    26   11   2    0    36   10   9    2    2    30   13   64
1st      PAS Giannina                    26   9    1    3    31   17   10   2    1    29   7    60
1st      PAS Giannina                    26   9    4    0    24   4    9    2    2    31   12   60
1st      PAS Giannina                    26   11   2    0    28   4    6    5    2    23   15   58
1st      PAS Giannina                    26   10   1    2    29   13   11   1    1    24   9    65
1st      PAS Giannina                    26   11   2    0    39   13   10   2    1    30   10   67
1st      PAS Giannina                    26   8    5    0    36   11   8    2    3    30   19   55
2nd     PAS Giannina                    26   8    4    1    31   12   7    3    3    22   11   52
1st      PAS Giannina                    26   10   2    1    36   14   8    4    1    25   11   60
1st      PAS Giannina                    26   10   2    1    39   19   10   2    1    28   12   64
1st      PAS Giannina                    26   13   0    0    44   11   9    4    0    32   15   70
1st      PAS Giannina                    26   11   1    1    29   8    10   1    2    33   15   65
1st      PAS Giannina                    26   11   1    1    36   11   11   1    1    33   11   68
1st      PAS Giannina                    26   12   1    0    38   12   6    2    5    26   17   57
1st      PAS Giannina                    26   12   0    1    35   8    8    3    2    32   14   63
1st      PAS Giannina                    26   11   2    0    34   11   10   2    1    29   12   67
1st      PAS Giannina                    26   11   1    1    27   8    11   1    1    29   12   68
2nd     PAS Giannina                    26   11   0    2    32   10   8    3    2    29   16   60
1st      PAS Giannina                    26   11   0    2    29   11   11   1    1    37   10   67
1st      PAS Giannina                    26   11   1    1    34   9    7    3    3    31   15   58
1st      PAS Giannina                    26   13   0    0    41   14   9    1    3    26   12   67
1st      PAS Giannina                    26   9    3    1    31   11   8    4    1    28   15   58
1st      PAS Giannina                    26   13   0    0    42   15   8    3    2    28   16   66
1st      PAS Giannina                    26   6    6    1    34   16   9    2    2    31   14   53
1st      PAS Giannina                    26   11   2    0    30   6    8    5    0    30   10   64
1st      PAS Giannina                    26   11   1    1    30   8    9    2    2    28   11   63
1st      PAS Giannina                    26   11   1    1    35   10   10   1    2    32   13   65
1st      PAS Giannina                    26   11   1    1    41   12   5    5    3    26   19   54
1st      PAS Giannina                    26   11   1    1    37   8    7    4    2    24   14   59
1st      PAS Giannina                    26   12   1    0    39   10   12   1    0    30   12   74
1st      PAS Giannina                    26   10   1    2    34   12   10   1    2    26   10   62
1st      PAS Giannina                    26   6    5    2    23   16   10   2    1    30   11   55
1st      PAS Giannina                    26   11   0    2    25   6    6    7    0    24   13   58
1st      PAS Giannina                    26   11   2    0    37   11   10   2    1    33   13   67
1st      PAS Giannina                    26   10   3    0    33   10   9    3    1    27   7    63
1st      PAS Giannina                    26   11   0    2    28   10   8    3    2    30   18   60
2nd     PAS Giannina                    26   12   1    0    40   11   7    5    1    25   12   63
1st      PAS Giannina                    26   11   1    1    37   12   8    4    1    29   15   62
1st      PAS Giannina                    26   10   2    1    32   12   7    2    4    25   17   55
1st      PAS Giannina                    26   9    2    2    36   16   9    3    1    31   12   59
2nd     PAS Giannina                    26   10   2    1    30   8    7    1    5    24   19   54
1st      PAS Giannina                    26   12   1    0    42   12   10   1    2    35   9    68
2nd     PAS Giannina                    26   11   2    0    35   11   9    2    2    34   13   64