1st      PAS Giannina                    26   12   1    0    38   17   6    2    5    18   20   57
1st      PAS Giannina                    26   12   1    0    34   12   9    3    1    25   9    67
1st      PAS Giannina                    26   11   2    0    28   5    8    2    3    20   9    61
2nd     PAS Giannina                    26   11   1    1    36   11   5    6    2    26   18   55
2nd     PAS Giannina                    26   12   0    1    36   7    7    3    3    22   14   60
1st      PAS Giannina                    26   9    4    0    34   13   8    3    2    22   11   58
1st      PAS Giannina                    26   13   0    0    37   5    8    3    2    20   10   66
2nd     PAS Giannina                    26   9    3    1    31   13   9    2    2    29   9    59
2nd     PAS Giannina                    26   10   2    1    31   9    6    3    4    21   16   53
3rd     PAS Giannina                    26   10   1    2    30   12   6    4    3    27   16   53
2nd     PAS Giannina                    26   9    3    1    31   11   7    3    3    24   14   54
1st      PAS Giannina                    26   9    4    0    32   7    8    3    2    24   11   58
1st      PAS Giannina                    26   11   1    1    32   8    12   1    0    32   7    71
1st      PAS Giannina                    26   10   1    2    32   10   10   2    1    25   14   63
1st      PAS Giannina                    26   11   1    1    28   9    8    3    2    28   9    61
1st      PAS Giannina                    26   11   2    0    33   11   7    0    6    20   12   56
1st      PAS Giannina                    26   10   3    0    31   12   8    3    2    26   15   60
1st      PAS Giannina                    26   11   2    0    30   8    6    6    1    20   13   59
2nd     PAS Giannina                    26   11   1    1    27   7    8    1    4    26   13   59
2nd     PAS Giannina                    26   8    3    2    19   8    5    4    4    18   17   46
1st      PAS Giannina                    26   9    3    1    40   12   9    3    1    25   11   60
1st      PAS Giannina                    26   10   2    1    30   12   7    4    2    18   4    57
1st      PAS Giannina                    26   11   1    1    30   8    8    2    3    22   13   60
1st      PAS Giannina                    26   8    2    3    26   14   7    2    4    26   15   49
1st      PAS Giannina                    26   11   2    0    32   8    8    2    3    26   13   61
1st      PAS Giannina                    26   12   1    0    29   8    9    1    3    18   6    65
1st      PAS Giannina                    26   13   0    0    34   7    9    1    3    24   11   67
2nd     PAS Giannina                    26   9    1    3    32   11   8    2    3    26   14   54
1st      PAS Giannina                    26   10   2    1    28   13   8    5    0    26   10   61
3rd     PAS Giannina                    26   9    2    2    32   15   4    4    5    17   16   45
1st      PAS Giannina                    26   9    2    2    32   13   8    4    1    24   13   57
2nd     PAS Giannina                    26   11   2    0    32   12   5    5    3    19   14   55
1st      PAS Giannina                    26   11   2    0    38   15   7    4    2    28   15   60
1st      PAS Giannina                    26   11   1    1    29   9    6    1    6    21   14   53
1st      PAS Giannina                    26   11   1    1    30   7    9    4    0    26   13   65
1st      PAS Giannina                    26   10   3    0    29   11   11   1    1    30   13   67
1st      PAS Giannina                    26   12   1    0    35   12   8    4    1    26   14   65
2nd     PAS Giannina                    26   8    3    2    24   11   10   0    3    29   13   57
1st      PAS Giannina                    26   10   1    2    30   12   8    4    1    27   8    59
1st      PAS Giannina                    26   12   1    0    36   11   7    4    2    23   15   62
1st      PAS Giannina                    26   11   2    0    35   8    7    4    2    23   12   60
1st      PAS Giannina                    26   10   2    1    38   14   9    1    3    23   11   60
1st      PAS Giannina                    26   9    2    2    27   11   10   2    1    29   10   61
1st      PAS Giannina                    26   9    1    3    25   12   11   0    2    30   9    61
1st      PAS Giannina                    26   9    4    0    24   6    8    2    3    31   15   57
1st      PAS Giannina                    26   11   1    1    32   10   5    4    4    19   15   53
1st      PAS Giannina                    26   10   3    0    29   6    7    3    3    23   13   57
2nd     PAS Giannina                    26   10   3    0    29   9    6    4    3    21   13   55
1st      PAS Giannina                    26   9    4    0    27   11   11   2    0    32   11   66
2nd     PAS Giannina                    26   11   2    0    28   6    5    4    4    15   12   54
1st      PAS Giannina                    26   10   0    3    37   14   8    2    3    24   15   56
1st      PAS Giannina                    26   10   3    0    30   9    9    3    1    32   7    63
1st      PAS Giannina                    26   10   1    2    33   14   9    2    2    26   12   60
1st      PAS Giannina                    26   10   1    2    26   10   9    4    0    21   5    62
2nd     PAS Giannina                    26   9    2    2    29   13   5    3    5    18   15   47
1st      PAS Giannina                    26   13   0    0    37   8    8    3    2    29   10   66
1st      PAS Giannina                    26   11   1    1    26   9    10   3    0    26   9    67
2nd     PAS Giannina                    26   9    4    0    30   11   6    3    4    24   18   52
1st      PAS Giannina                    26   12   1    0    35   7    9    2    2    32   14   66
1st      PAS Giannina                    26   9    4    0    34   10   8    4    1    19   9    59
1st      PAS Giannina                    26   11   1    1    32   11   7    3    3    22   10   58
1st      PAS Giannina                    26   11   1    1    31   9    10   1    2    28   14   65
1st      PAS Giannina                    26   10   3    0    32   7    8    2    3    23   11   59
1st      PAS Giannina                    26   11   1    1    37   12   7    3    3    20   11   58
1st      PAS Giannina                    26   9    2    2    30   12   8    2    3    23   11   55
1st      PAS Giannina                    26   10   3    0    27   11   6    4    3    26   17   55
1st      PAS Giannina                    26   11   1    1    39   8    7    5    1    25   13   60
1st      PAS Giannina                    26   10   3    0    30   8    9    3    1    28   12   63
1st      PAS Giannina                    26   12   1    0    34   7    9    4    0    25   10   68
1st      PAS Giannina                    26   8    2    3    24   12   6    3    4    27   15   47
1st      PAS Giannina                    26   13   0    0    34   5    7    2    4    19   14   62
2nd     PAS Giannina                    26   11   1    1    30   5    7    3    3    20   12   58
1st      PAS Giannina                    26   10   1    2    25   10   9    3    1    26   8    61
1st      PAS Giannina                    26   12   1    0    41   12   10   2    1    34   13   69
1st      PAS Giannina                    26   12   1    0    44   10   8    3    2    25   16   64
2nd     PAS Giannina                    26   6    5    2    22   13   9    2    2    26   13   52
2nd     PAS Giannina                    26   9    3    1    31   12   7    2    4    30   16   53
1st      PAS Giannina                    26   13   0    0    39   13   10   2    1    21   6    71
1st      PAS Giannina                    26   11   2    0    36   13   11   1    1    30   12   69
1st      PAS Giannina                    26   11   2    0    33   9    9    2    2    29   13   64
1st      PAS Giannina                    26   10   2    1    31   12   8    1    4    23   8    57
1st      PAS Giannina                    26   11   2    0    39   9    7    3    3    27   14   59
1st      PAS Giannina                    26   11   1    1    34   13   8    2    3    31   17   60
1st      PAS Giannina                    26   9    2    2    30   13   9    2    2    35   15   58
1st      PAS Giannina                    26   10   2    1    28   8    10   2    1    31   12   64
1st      PAS Giannina                    26   11   0    2    29   10   8    2    3    21   14   59
1st      PAS Giannina                    26   13   0    0    37   9    8    3    2    33   14   66
1st      PAS Giannina                    26   10   2    1    27   11   9    3    1    26   9    62
1st      PAS Giannina                    26   13   0    0    40   13   8    4    1    17   5    67
1st      PAS Giannina                    26   9    4    0    24   10   9    3    1    28   12   61
2nd     PAS Giannina                    26   11   0    2    33   13   6    2    5    21   18   53
1st      PAS Giannina                    26   11   2    0    38   8    10   2    1    23   8    67
1st      PAS Giannina                    26   12   1    0    29   7    7    1    5    18   13   59
2nd     PAS Giannina                    26   10   1    2    32   9    7    3    3    31   13   55
1st      PAS Giannina                    26   10   3    0    36   14   11   1    1    26   9    67
5th     PAS Giannina                    26   8    4    1    28   10   3    2    8    15   19   39
2nd     PAS Giannina                    26   8    3    2    30   10   5    6    2    22   10   48
1st      PAS Giannina                    26   8    3    2    29   13   8    1    4    28   14   52
2nd     PAS Giannina                    26   10   2    1    29   10   7    4    2    18   8    57
1st      PAS Giannina                    26   11   1    1    29   6    9    0    4    22   15   61