1st     PAS Giannina                    26   12   1    0    29   6    11   2    0    43   14   72   
1st     PAS Giannina                    26   11   1    1    32   11   8    3    2    30   16   61   
1st     PAS Giannina                    26   11   2    0    35   12   10   3    0    35   13   68   
1st     PAS Giannina                    26   13   0    0    41   5    11   0    2    33   13   72   
1st     PAS Giannina                    26   10   3    0    35   12   9    2    2    29   13   62   
1st     PAS Giannina                    26   11   1    1    33   15   10   2    1    36   15   66   
1st     PAS Giannina                    26   13   0    0    38   8    9    3    1    29   9    69   
1st     PAS Giannina                    26   9    2    2    33   15   8    2    3    31   15   55   
1st     PAS Giannina                    26   11   2    0    34   10   8    2    3    37   16   61   
1st     PAS Giannina                    26   13   0    0    40   11   11   1    1    38   11   73   
1st     PAS Giannina                    26   13   0    0    36   11   10   2    1    30   14   71   
1st     PAS Giannina                    26   11   1    1    34   11   9    3    1    31   12   64   
2nd     PAS Giannina                    26   10   3    0    30   11   7    4    2    22   12   58   
1st     PAS Giannina                    26   9    3    1    32   11   9    1    3    35   11   58   
1st     PAS Giannina                    26   11   0    2    31   13   8    5    0    29   9    62   
1st     PAS Giannina                    26   9    3    1    27   10   9    3    1    40   16   60   
1st     PAS Giannina                    26   10   2    1    40   12   12   0    1    36   10   68   
1st     PAS Giannina                    26   11   1    1    36   10   12   0    1    33   12   70   
1st     PAS Giannina                    26   13   0    0    37   8    11   1    1    35   14   73   
1st     PAS Giannina                    26   13   0    0    38   11   12   0    1    37   13   75   
1st     PAS Giannina                    26   10   3    0    39   5    10   2    1    35   9    65   
1st     PAS Giannina                    26   10   2    1    28   12   11   1    1    36   13   66   
1st     PAS Giannina                    26   12   0    1    31   6    9    1    3    31   17   64   
1st     PAS Giannina                    26   9    3    1    31   7    9    0    4    26   13   57   
1st     PAS Giannina                    26   10   2    1    36   14   7    5    1    23   11   58   
1st     PAS Giannina                    26   11   2    0    40   16   10   2    1    34   9    67   
1st     PAS Giannina                    26   11   1    1    35   10   10   2    1    41   9    66   
1st     PAS Giannina                    26   12   1    0    36   14   12   1    0    34   10   74   
1st     PAS Giannina                    26   12   0    1    31   13   8    4    1    35   13   64   
1st     PAS Giannina                    26   9    3    1    32   13   13   0    0    39   11   69   
1st     PAS Giannina                    26   12   0    1    27   9    10   2    1    31   10   68   
1st     PAS Giannina                    26   10   3    0    42   15   13   0    0    36   11   72   
1st     PAS Giannina                    26   8    3    2    28   13   11   2    0    38   13   62   
1st     PAS Giannina                    26   12   1    0    35   12   8    3    2    29   19   64   
1st     PAS Giannina                    26   12   0    1    39   8    12   1    0    38   9    73   
2nd     PAS Giannina                    26   9    1    3    37   16   9    4    0    26   10   59   
1st     PAS Giannina                    26   11   0    2    36   13   9    2    2    36   18   62   
1st     PAS Giannina                    26   10   3    0    31   8    11   2    0    29   8    68   
1st     PAS Giannina                    26   12   1    0    30   6    7    6    0    36   17   64   
2nd     PAS Giannina                    26   9    2    2    30   17   8    1    4    27   16   54   
1st     PAS Giannina                    26   10   2    1    36   11   10   0    3    36   17   62   
1st     PAS Giannina                    26   11   1    1    40   12   9    2    2    27   10   63   
1st     PAS Giannina                    26   12   0    1    38   10   11   1    1    29   11   70   
1st     PAS Giannina                    26   11   2    0    27   5    10   1    2    30   11   66   
1st     PAS Giannina                    26   10   1    2    38   12   11   2    0    41   14   66   
1st     PAS Giannina                    26   12   0    1    46   9    8    3    2    32   16   63   
1st     PAS Giannina                    26   10   2    1    30   11   11   2    0    41   13   67   
1st     PAS Giannina                    26   12   1    0    38   10   8    4    1    29   13   65   
1st     PAS Giannina                    26   13   0    0    38   9    9    3    1    29   13   69   
1st     PAS Giannina                    26   11   1    1    37   16   11   2    0    35   5    69   
1st     PAS Giannina                    26   12   1    0    41   7    9    3    1    29   15   67   
1st     PAS Giannina                    26   10   2    1    38   15   10   0    3    29   16   62   
1st     PAS Giannina                    26   10   2    1    30   10   10   2    1    35   17   64   
1st     PAS Giannina                    26   12   0    1    39   11   12   1    0    38   12   73   
1st     PAS Giannina                    26   9    2    2    29   10   11   2    0    32   7    64   
1st     PAS Giannina                    26   11   1    1    37   13   9    4    0    27   13   65   
1st     PAS Giannina                    26   10   3    0    33   10   12   1    0    38   9    70   
1st     PAS Giannina                    26   11   1    1    27   10   11   1    1    34   11   68   
1st     PAS Giannina                    26   13   0    0    38   6    9    2    2    33   17   68   
1st     PAS Giannina                    26   12   1    0    34   8    7    4    2    28   17   62   
1st     PAS Giannina                    26   9    4    0    32   10   9    4    0    28   9    62   
1st     PAS Giannina                    26   10   1    2    34   12   9    3    1    31   14   61   
2nd     PAS Giannina                    26   10   2    1    33   14   10   2    1    37   12   64   
1st     PAS Giannina                    26   10   2    1    33   14   10   2    1    30   13   64   
1st     PAS Giannina                    26   13   0    0    43   10   6    3    4    25   14   60   
1st     PAS Giannina                    26   11   2    0    36   10   9    1    3    27   10   63   
1st     PAS Giannina                    26   12   0    1    34   7    8    4    1    35   13   64   
1st     PAS Giannina                    26   13   0    0    33   6    11   2    0    36   8    74   
1st     PAS Giannina                    26   12   1    0    30   6    10   2    1    30   11   69   
2nd     PAS Giannina                    26   8    3    2    27   11   6    4    3    27   14   49   
1st     PAS Giannina                    26   11   2    0    41   11   11   0    2    33   9    68   
1st     PAS Giannina                    26   10   0    3    37   15   8    1    4    31   18   55   
1st     PAS Giannina                    26   11   2    0    32   9    8    4    1    34   18   63   
1st     PAS Giannina                    26   9    3    1    36   16   7    3    3    30   18   54   
1st     PAS Giannina                    26   10   2    1    35   10   8    2    3    30   15   58   
1st     PAS Giannina                    26   12   0    1    43   10   10   1    2    35   13   67   
1st     PAS Giannina                    26   11   1    1    35   13   9    1    3    30   13   62   
1st     PAS Giannina                    26   8    3    2    28   16   10   2    1    30   9    59   
1st     PAS Giannina                    26   12   1    0    40   9    9    2    2    31   16   66   
1st     PAS Giannina                    26   11   1    1    32   11   10   0    3    36   15   64   
1st     PAS Giannina                    26   9    3    1    28   12   8    5    0    27   12   59   
1st     PAS Giannina                    26   12   1    0    53   21   12   1    0    39   8    74   
1st     PAS Giannina                    26   12   1    0    39   12   8    2    3    34   16   63   
1st     PAS Giannina                    26   9    3    1    28   11   11   1    1    32   12   64   
1st     PAS Giannina                    26   12   1    0    27   3    9    3    1    31   12   67   
1st     PAS Giannina                    26   10   1    2    31   11   12   1    0    44   7    68   
1st     PAS Giannina                    26   11   2    0    35   11   10   1    2    37   15   66   
1st     PAS Giannina                    26   11   1    1    34   16   10   2    1    29   13   66   
1st     PAS Giannina                    26   11   1    1    27   8    9    2    2    36   15   63   
1st     PAS Giannina                    26   13   0    0    36   11   8    5    0    31   16   68   
1st     PAS Giannina                    26   11   2    0    34   10   10   1    2    26   9    66   
1st     PAS Giannina                    26   8    4    1    26   14   8    2    3    36   19   54   
1st     PAS Giannina                    26   10   1    2    46   16   10   1    2    34   16   62   
1st     PAS Giannina                    26   11   1    1    35   10   10   1    2    36   19   65   
1st     PAS Giannina                    26   10   1    2    39   14   9    2    2    28   11   60   
1st     PAS Giannina                    26   11   1    1    38   14   11   1    1    34   14   68   
1st     PAS Giannina                    26   10   3    0    39   12   10   1    2    30   9    64   
1st     PAS Giannina                    26   11   2    0    38   15   10   2    1    32   10   67   
1st     PAS Giannina                    26   11   2    0    35   14   10   2    1    35   16   67   
1st     PAS Giannina                    26   10   3    0    37   14   8    3    2    29   13   60   