1st     PAS Giannina                    26   11   2    0    37   18   7    3    3    33   18   59   
1st     PAS Giannina                    26   10   2    1    47   27   11   2    0    34   12   67   
1st     PAS Giannina                    26   10   2    1    36   18   8    3    2    35   21   59   
1st     PAS Giannina                    26   11   1    1    40   15   8    3    2    44   19   61   
1st     PAS Giannina                    26   12   0    1    44   11   9    2    2    40   21   65   
1st     PAS Giannina                    26   9    3    1    39   17   11   0    2    36   11   63   
1st     PAS Giannina                    26   10   2    1    38   17   10   0    3    44   20   62   
1st     PAS Giannina                    26   8    5    0    32   15   11   0    2    46   17   62   
1st     PAS Giannina                    26   11   1    1    35   17   11   2    0    33   13   69   
1st     PAS Giannina                    26   10   2    1    33   15   8    3    2    38   21   59   
1st     PAS Giannina                    26   10   3    0    32   14   10   0    3    35   19   63   
1st     PAS Giannina                    26   13   0    0    45   11   12   1    0    41   10   76   
1st     PAS Giannina                    26   12   0    1    41   14   10   2    1    37   16   68   
1st     PAS Giannina                    26   11   2    0    38   10   13   0    0    43   13   74   
1st     PAS Giannina                    26   11   1    1    41   20   11   1    1    39   11   68   
1st     PAS Giannina                    26   12   1    0    41   17   11   1    1    39   13   71   
1st     PAS Giannina                    26   11   0    2    41   10   6    2    5    36   26   53   
1st     PAS Giannina                    26   11   1    1    45   20   9    4    0    33   12   65   
1st     PAS Giannina                    26   12   0    1    38   15   11   2    0    40   12   71   
1st     PAS Giannina                    26   12   1    0    42   15   10   2    1    36   14   69   
1st     PAS Giannina                    26   9    3    1    37   15   8    3    2    40   24   57   
1st     PAS Giannina                    26   11   1    1    32   13   9    4    0    41   21   65   
1st     PAS Giannina                    26   13   0    0    48   11   8    2    3    37   22   65   
1st     PAS Giannina                    26   12   0    1    38   14   10   1    2    37   20   67   
1st     PAS Giannina                    26   10   1    2    36   16   8    4    1    29   14   59   
1st     PAS Giannina                    26   9    3    1    38   19   12   0    1    37   13   66   
1st     PAS Giannina                    26   12   1    0    44   14   11   2    0    36   15   72   
1st     PAS Giannina                    26   9    2    2    34   13   7    2    4    32   22   52   
1st     PAS Giannina                    26   12   0    1    47   11   7    4    2    34   19   61   
1st     PAS Giannina                    26   10   2    1    36   19   11   2    0    39   16   67   
1st     PAS Giannina                    26   11   2    0    36   10   7    4    2    38   22   60   
1st     PAS Giannina                    26   13   0    0    44   16   8    2    3    43   19   65   
1st     PAS Giannina                    26   13   0    0    49   14   8    3    2    33   18   66   
1st     PAS Giannina                    26   11   2    0    41   16   12   1    0    45   13   72   
1st     PAS Giannina                    26   10   3    0    34   13   9    2    2    36   21   62   
1st     PAS Giannina                    26   11   1    1    38   22   10   2    1    34   15   66   
1st     PAS Giannina                    26   11   1    1    38   16   11   1    1    39   16   68   
1st     PAS Giannina                    26   12   0    1    33   10   9    3    1    36   15   66   
1st     PAS Giannina                    26   8    2    3    28   12   12   1    0    32   7    63   
1st     PAS Giannina                    26   10   1    2    37   16   9    2    2    39   12   60   
1st     PAS Giannina                    26   9    2    2    31   15   11   2    0    38   10   64   
1st     PAS Giannina                    26   8    5    0    33   12   13   0    0    40   14   68   
1st     PAS Giannina                    26   11   2    0    38   12   11   1    1    42   14   69   
1st     PAS Giannina                    26   9    4    0    28   11   10   2    1    37   15   63   
1st     PAS Giannina                    26   11   1    1    41   14   9    1    3    32   17   62   
1st     PAS Giannina                    26   11   0    2    45   20   7    4    2    38   16   58   
1st     PAS Giannina                    26   9    3    1    40   23   10   0    3    33   17   60   
1st     PAS Giannina                    26   10   3    0    34   13   9    4    0    43   16   64   
1st     PAS Giannina                    26   10   3    0    38   12   9    0    4    32   19   60   
1st     PAS Giannina                    26   11   2    0    40   12   9    2    2    40   17   64   
1st     PAS Giannina                    26   13   0    0    45   13   8    2    3    33   15   65   
1st     PAS Giannina                    26   11   0    2    45   14   8    1    4    41   21   58   
1st     PAS Giannina                    26   10   2    1    41   18   8    3    2    30   15   59   
1st     PAS Giannina                    26   10   2    1    37   15   9    1    3    36   19   60   
1st     PAS Giannina                    26   12   0    1    36   12   10   1    2    32   14   67   
1st     PAS Giannina                    26   11   1    1    39   18   9    2    2    33   15   63   
1st     PAS Giannina                    26   10   1    2    37   13   9    3    1    33   11   61   
1st     PAS Giannina                    26   10   1    2    36   12   11   2    0    33   6    66   
1st     PAS Giannina                    26   11   2    0    37   14   12   0    1    38   9    71   
1st     PAS Giannina                    26   11   1    1    43   15   8    2    3    40   25   60   
1st     PAS Giannina                    26   12   0    1    39   12   9    3    1    34   16   66   
1st     PAS Giannina                    26   10   1    2    37   12   10   2    1    36   13   63   
1st     PAS Giannina                    26   12   0    1    42   23   9    3    1    35   13   66   
1st     PAS Giannina                    26   12   0    1    42   15   8    4    1    36   19   64   
1st     PAS Giannina                    26   10   3    0    42   16   10   1    2    40   21   64   
1st     PAS Giannina                    26   12   0    1    42   14   10   2    1    30   16   68   
1st     PAS Giannina                    26   12   0    1    43   13   10   1    2    35   12   67   
1st     PAS Giannina                    26   13   0    0    39   12   8    3    2    39   20   66   
1st     PAS Giannina                    26   12   1    0    36   11   11   1    1    38   11   71   
1st     PAS Giannina                    26   11   1    1    41   13   5    6    2    33   26   55   
1st     PAS Giannina                    26   13   0    0    36   9    9    3    1    34   18   69   
1st     PAS Giannina                    26   12   1    0    49   18   10   0    3    43   18   67   
1st     PAS Giannina                    26   12   1    0    38   7    8    2    3    29   17   63   
2nd     PAS Giannina                    26   8    1    4    36   22   8    2    3    31   18   51   
2nd     PAS Giannina                    26   8    4    1    40   12   9    1    3    32   12   56   
1st     PAS Giannina                    26   10   3    0    36   15   8    1    4    32   18   58   
1st     PAS Giannina                    26   11   2    0    46   18   10   2    1    43   15   67   
1st     PAS Giannina                    26   10   3    0    45   20   9    2    2    42   19   62   
1st     PAS Giannina                    26   10   3    0    41   15   12   1    0    44   14   70   
1st     PAS Giannina                    26   12   1    0    45   13   9    2    2    33   18   66   
2nd     PAS Giannina                    26   10   3    0    36   15   7    4    2    36   20   58   
1st     PAS Giannina                    26   12   1    0    40   13   7    3    3    38   20   61   
1st     PAS Giannina                    26   9    3    1    36   15   9    2    2    35   14   59   
1st     PAS Giannina                    26   12   1    0    37   13   11   2    0    42   16   72   
1st     PAS Giannina                    26   10   2    1    36   15   9    3    1    38   14   62   
1st     PAS Giannina                    26   12   1    0    47   12   8    3    2    41   21   64   
2nd     PAS Giannina                    26   8    3    2    29   13   10   1    2    32   21   58   
1st     PAS Giannina                    26   10   3    0    34   10   9    1    3    33   18   61   
1st     PAS Giannina                    26   11   1    1    37   13   9    2    2    30   16   63   
2nd     PAS Giannina                    26   12   0    1    44   11   7    4    2    33   19   61   
1st     PAS Giannina                    26   12   1    0    43   15   9    1    3    36   20   65   
1st     PAS Giannina                    26   10   2    1    37   10   10   0    3    36   20   62   
1st     PAS Giannina                    26   12   0    1    41   17   8    3    2    31   14   63   
1st     PAS Giannina                    26   11   2    0    38   17   11   1    1    41   25   69   
1st     PAS Giannina                    26   10   1    2    38   20   13   0    0    42   11   70   
1st     PAS Giannina                    26   9    4    0    42   16   9    1    3    32   14   59   
1st     PAS Giannina                    26   12   1    0    37   9    10   2    1    25   10   69   
1st     PAS Giannina                    26   12   1    0    39   13   6    3    4    28   23   58   
1st     PAS Giannina                    26   12   1    0    45   14   9    1    3    38   19   65   
1st     PAS Giannina                    26   12   1    0    41   11   9    1    3    39   17   65   