5th     PAS Giannina                    26   7    2    4    26   17   5    3    5    21   22   41
8th     PAS Giannina                    26   4    4    5    18   15   5    3    5    14   15   34
11th    PAS Giannina                    26   6    2    5    18   20   2    3    8    17   26   29
7th     PAS Giannina                    26   5    7    1    26   16   4    1    8    16   26   35
4th     PAS Giannina                    26   9    3    1    28   12   3    2    8    20   30   41
12th    PAS Giannina                    26   5    4    4    24   16   3    2    8    16   22   30
9th     PAS Giannina                    26   7    2    4    32   24   2    5    6    17   26   34
6th     PAS Giannina                    26   6    7    0    23   14   3    3    7    16   24   37
5th     PAS Giannina                    26   6    4    3    25   18   6    1    6    21   23   41
7th     PAS Giannina                    26   5    5    3    23   17   4    4    5    16   20   36
6th     PAS Giannina                    26   9    3    1    30   15   3    2    8    12   21   41
6th     PAS Giannina                    26   8    3    2    26   13   3    2    8    15   24   38
9th     PAS Giannina                    26   6    2    5    29   26   5    2    6    22   28   37
8th     PAS Giannina                    26   7    2    4    29   24   1    4    8    18   29   30
10th    PAS Giannina                    26   7    2    4    25   20   2    2    9    10   20   31
9th     PAS Giannina                    26   7    5    1    23   10   3    0    10   15   28   35
2nd     PAS Giannina                    26   8    5    0    31   13   3    5    5    18   22   43
5th     PAS Giannina                    26   8    2    3    21   12   3    4    6    13   20   39
11th    PAS Giannina                    26   7    0    6    24   20   2    2    9    14   26   29
8th     PAS Giannina                    26   8    4    1    31   13   1    3    9    8    22   34
5th     PAS Giannina                    26   6    4    3    22   17   4    2    7    12   19   36
1st     PAS Giannina                    26   12   0    1    32   14   3    5    5    19   29   50
7th     PAS Giannina                    26   6    6    1    32   18   2    6    5    18   22   36
2nd     PAS Giannina                    26   9    2    2    29   12   7    2    4    22   19   52
2nd     PAS Giannina                    26   8    1    4    29   19   5    2    6    20   23   42
2nd     PAS Giannina                    26   8    1    4    24   14   5    6    2    23   19   46
3rd     PAS Giannina                    26   8    2    3    26   13   7    0    6    27   21   47
7th     PAS Giannina                    26   8    1    4    22   14   2    5    6    21   23   36
13th     PAS Giannina                    26   5    2    6    17   20   1    4    8    13   32   24
7th     PAS Giannina                    26   7    2    4    22   18   3    6    4    20   25   38
13th     PAS Giannina                    26   4    4    5    22   24   4    1    8    17   24   29
6th     PAS Giannina                    26   7    3    3    20   17   4    3    6    17   22   39
6th     PAS Giannina                    26   5    7    1    26   19   5    1    7    16   20   38
3rd     PAS Giannina                    26   8    4    1    31   17   5    4    4    21   20   47
14th     PAS Giannina                    26   4    3    6    20   24   2    2    9    17   26   23
5th     PAS Giannina                    26   11   1    1    30   14   2    2    9    12   24   42
11th    PAS Giannina                    26   5    4    4    24   21   2    5    6    17   27   30
4th     PAS Giannina                    26   9    1    3    29   17   4    4    5    18   21   44
7th     PAS Giannina                    26   5    5    3    21   12   4    4    5    21   23   36
14th     PAS Giannina                    26   4    4    5    23   23   1    3    9    12   30   22
4th     PAS Giannina                    26   5    4    4    23   17   6    1    6    21   26   38
6th     PAS Giannina                    26   5    5    3    20   15   3    6    4    16   20   35
8th     PAS Giannina                    26   9    2    2    24   17   2    1    10   18   29   36
8th     PAS Giannina                    26   7    4    2    22   15   2    4    7    17   22   35
9th     PAS Giannina                    26   8    4    1    25   11   0    4    9    13   33   32
2nd     PAS Giannina                    26   8    2    3    33   22   6    3    4    26   24   47
8th     PAS Giannina                    26   7    4    2    25   15   2    4    7    16   27   35
9th     PAS Giannina                    26   7    2    4    26   18   2    1    10   10   24   30
12th    PAS Giannina                    26   4    7    2    24   18   1    5    7    13   24   27
9th     PAS Giannina                    26   4    6    3    21   14   4    3    6    15   19   33
3rd     PAS Giannina                    26   8    5    0    28   12   3    4    6    17   25   42
12th    PAS Giannina                    26   5    4    4    26   26   2    3    8    17   30   28
11th    PAS Giannina                    26   5    6    2    21   18   1    7    5    13   19   31
1st     PAS Giannina                    26   11   2    0    31   12   6    1    6    20   21   54
5th     PAS Giannina                    26   7    3    3    32   19   3    4    6    19   20   37
5th     PAS Giannina                    26   9    0    4    28   13   3    2    8    18   27   38
7th     PAS Giannina                    26   10   1    2    30   18   1    3    9    11   26   37
5th     PAS Giannina                    26   8    1    4    30   20   4    6    3    23   20   43
6th     PAS Giannina                    26   9    1    3    32   13   1    8    4    16   19   39
10th    PAS Giannina                    26   5    6    2    27   20   3    2    8    17   23   32
12th    PAS Giannina                    26   5    3    5    25   19   2    2    9    16   25   26
3rd     PAS Giannina                    26   8    5    0    35   17   3    4    6    24   28   42
7th     PAS Giannina                    26   8    3    2    33   19   2    4    7    16   29   37
6th     PAS Giannina                    26   7    4    2    25   12   3    4    6    15   26   38
7th     PAS Giannina                    26   6    4    3    31   23   3    5    5    24   27   36
4th     PAS Giannina                    26   10   2    1    24   13   4    1    8    14   23   45
7th     PAS Giannina                    26   6    5    2    25   15   4    1    8    17   26   36
5th     PAS Giannina                    26   10   0    3    31   12   1    4    8    17   27   37
4th     PAS Giannina                    26   6    6    1    23   16   5    2    6    19   24   41
10th    PAS Giannina                    26   6    4    3    21   13   4    0    9    15   20   34
8th     PAS Giannina                    26   9    1    3    28   16   2    2    9    13   22   36
14th     PAS Giannina                    26   5    6    2    28   22   1    1    11   12   28   25
2nd     PAS Giannina                    26   10   3    0    32   14   5    2    6    21   20   50
6th     PAS Giannina                    26   6    2    5    20   18   3    7    3    19   21   36
4th     PAS Giannina                    26   9    2    2    28   16   3    4    6    19   23   42
5th     PAS Giannina                    26   6    5    2    21   14   5    2    6    20   25   40
8th     PAS Giannina                    26   6    4    3    22   17   4    2    7    20   25   36
10th    PAS Giannina                    26   8    2    3    30   15   1    5    7    16   27   34
2nd     PAS Giannina                    26   9    3    1    28   14   5    3    5    21   19   48
14th     PAS Giannina                    26   2    2    9    20   29   5    0    8    19   24   23
6th     PAS Giannina                    26   7    5    1    28   11   3    3    7    23   27   38
8th     PAS Giannina                    26   7    3    3    25   13   0    8    5    17   27   32
13th     PAS Giannina                    26   6    1    6    21   18   0    5    8    15   27   24
2nd     PAS Giannina                    26   10   1    2    35   13   5    2    6    28   28   48
8th     PAS Giannina                    26   6    2    5    20   13   4    5    4    23   17   37
7th     PAS Giannina                    26   9    2    2    30   16   1    3    9    11   25   35
7th     PAS Giannina                    26   6    4    3    30   25   2    6    5    11   17   34
8th     PAS Giannina                    26   5    2    6    18   16   4    3    6    16   24   32
9th     PAS Giannina                    26   5    5    3    23   17   2    6    5    15   18   32
8th     PAS Giannina                    26   6    1    6    15   12   5    1    7    21   24   35
2nd     PAS Giannina                    26   11   1    1    31   11   4    3    6    17   22   49
12th    PAS Giannina                    26   4    2    7    18   25   3    5    5    16   20   28
3rd     PAS Giannina                    26   8    3    2    25   15   4    3    6    15   16   42
10th    PAS Giannina                    26   6    4    3    25   17   1    5    7    19   25   30
5th     PAS Giannina                    26   9    3    1    34   14   2    5    6    14   20   41
11th    PAS Giannina                    26   4    6    3    23   22   3    2    8    17   27   29
9th     PAS Giannina                    26   6    4    3    26   17   2    3    8    14   26   31
11th    PAS Giannina                    26   6    3    4    17   14   2    3    8    19   25   30
4th     PAS Giannina                    26   7    2    4    29   24   5    2    6    21   25   40
7th     PAS Giannina                    26   8    4    1    26   15   1    5    7    15   26   36