1st     PAS Giannina                    26   9    4    0    22   9    8    4    1    20   7    59   
2nd     PAS Giannina                    26   8    2    3    25   11   9    2    2    20   14   55   
2nd     PAS Giannina                    26   12   0    1    33   12   5    4    4    19   15   55   
1st     PAS Giannina                    26   9    1    3    26   12   4    6    3    20   15   46   
2nd     PAS Giannina                    26   9    2    2    24   12   5    2    6    11   11   46   
2nd     PAS Giannina                    26   7    4    2    26   16   6    3    4    18   18   46   
1st     PAS Giannina                    26   8    3    2    27   15   6    6    1    20   12   51   
1st     PAS Giannina                    26   11   1    1    33   10   5    5    3    19   12   54   
2nd     PAS Giannina                    26   10   3    0    31   7    5    3    5    18   17   51   
1st     PAS Giannina                    26   11   2    0    29   11   8    3    2    19   9    62   
1st     PAS Giannina                    26   13   0    0    32   8    8    3    2    26   16   66   
2nd     PAS Giannina                    26   10   3    0    32   14   8    1    4    22   15   58   
5th     PAS Giannina                    26   9    2    2    25   15   3    5    5    9    11   43   
2nd     PAS Giannina                    26   9    2    2    29   15   5    4    4    20   14   48   
1st     PAS Giannina                    26   8    4    1    26   13   7    6    0    21   10   55   
1st     PAS Giannina                    26   10   3    0    26   8    7    3    3    18   9    57   
4th     PAS Giannina                    26   8    3    2    28   11   4    3    6    16   17   42   
2nd     PAS Giannina                    26   8    3    2    28   13   7    2    4    17   13   50   
1st     PAS Giannina                    26   9    3    1    29   12   8    2    3    22   13   56   
7th     PAS Giannina                    26   7    3    3    23   13   3    3    7    15   22   36   
1st     PAS Giannina                    26   10   3    0    35   16   10   3    0    24   8    66   
2nd     PAS Giannina                    26   12   0    1    40   15   6    2    5    18   11   56   
1st     PAS Giannina                    26   9    4    0    31   15   4    4    5    13   12   47   
1st     PAS Giannina                    26   10   0    3    27   15   10   0    3    24   11   60   
1st     PAS Giannina                    26   11   1    1    32   9    5    4    4    15   13   53   
1st     PAS Giannina                    26   11   0    2    33   14   5    7    1    18   6    55   
2nd     PAS Giannina                    26   10   3    0    25   6    5    5    3    19   11   53   
1st     PAS Giannina                    26   9    3    1    25   10   4    6    3    15   14   48   
4th     PAS Giannina                    26   7    5    1    32   14   5    4    4    17   14   45   
1st     PAS Giannina                    26   10   2    1    28   10   8    4    1    27   16   60   
4th     PAS Giannina                    26   10   2    1    29   8    4    4    5    18   13   48   
3rd     PAS Giannina                    26   8    2    3    22   13   6    3    4    20   18   47   
1st     PAS Giannina                    26   11   0    2    28   9    7    1    5    21   18   55   
1st     PAS Giannina                    26   8    3    2    30   18   8    4    1    27   13   55   
1st     PAS Giannina                    26   11   2    0    29   6    9    3    1    28   9    65   
4th     PAS Giannina                    26   8    2    3    23   10   5    4    4    17   13   45   
2nd     PAS Giannina                    26   11   1    1    32   7    6    3    4    18   15   55   
1st     PAS Giannina                    26   11   1    1    32   13   8    3    2    21   15   61   
2nd     PAS Giannina                    26   10   3    0    33   13   5    1    7    19   19   49   
3rd     PAS Giannina                    26   11   1    1    32   12   3    4    6    17   17   47   
3rd     PAS Giannina                    26   9    3    1    26   14   3    5    5    12   13   44   
9th     PAS Giannina                    26   6    5    2    22   13   2    5    6    19   23   34   
1st     PAS Giannina                    26   12   0    1    30   10   8    2    3    18   11   62   
4th     PAS Giannina                    26   8    3    2    22   11   4    3    6    22   19   42   
1st     PAS Giannina                    26   11   0    2    35   15   5    7    1    25   15   55   
2nd     PAS Giannina                    26   9    2    2    27   13   4    4    5    15   14   45   
1st     PAS Giannina                    26   10   1    2    32   16   7    3    3    18   14   55   
2nd     PAS Giannina                    26   9    3    1    25   9    5    3    5    17   15   48   
3rd     PAS Giannina                    26   9    2    2    23   14   6    3    4    17   13   50   
2nd     PAS Giannina                    26   8    3    2    20   10   6    4    3    15   12   49   
1st     PAS Giannina                    26   11   1    1    38   19   7    5    1    22   13   60   
4th     PAS Giannina                    26   8    5    0    30   11   4    5    4    12   16   46   
2nd     PAS Giannina                    26   9    2    2    26   14   8    2    3    20   12   55   
2nd     PAS Giannina                    26   7    4    2    22   10   7    2    4    23   17   48   
1st     PAS Giannina                    26   11   1    1    30   13   9    2    2    23   13   63   
1st     PAS Giannina                    26   9    3    1    27   12   7    3    3    19   9    54   
2nd     PAS Giannina                    26   9    3    1    29   18   7    1    5    14   13   52   
2nd     PAS Giannina                    26   8    4    1    28   13   7    1    5    19   14   50   
2nd     PAS Giannina                    26   10   1    2    31   12   6    3    4    17   13   52   
2nd     PAS Giannina                    26   9    3    1    37   20   6    4    3    18   15   52   
1st     PAS Giannina                    26   9    2    2    30   13   11   1    1    28   13   63   
5th     PAS Giannina                    26   8    3    2    24   13   4    6    3    16   11   45   
2nd     PAS Giannina                    26   10   0    3    30   15   6    2    5    17   16   50   
1st     PAS Giannina                    26   13   0    0    36   8    6    4    3    18   9    61   
1st     PAS Giannina                    26   10   3    0    32   14   6    2    5    24   18   53   
1st     PAS Giannina                    26   10   2    1    31   16   8    2    3    25   14   58   
2nd     PAS Giannina                    26   8    2    3    27   16   4    5    4    16   11   43   
1st     PAS Giannina                    26   11   2    0    32   13   9    2    2    22   11   64   
1st     PAS Giannina                    26   9    3    1    21   7    7    2    4    20   16   53   
2nd     PAS Giannina                    26   9    3    1    36   15   3    5    5    15   16   44   
1st     PAS Giannina                    26   10   3    0    25   8    8    4    1    19   10   61   
2nd     PAS Giannina                    26   7    4    2    24   11   6    2    5    13   14   45   
1st     PAS Giannina                    26   12   1    0    31   7    7    1    5    18   17   59   
1st     PAS Giannina                    26   10   3    0    32   13   5    5    3    21   15   53   
1st     PAS Giannina                    26   11   1    1    31   11   7    5    1    21   9    60   
2nd     PAS Giannina                    26   9    3    1    30   7    9    0    4    15   10   57   
1st     PAS Giannina                    26   11   2    0    36   15   7    6    0    20   11   62   
2nd     PAS Giannina                    26   9    1    3    24   11   6    3    4    20   15   49   
1st     PAS Giannina                    26   10   1    2    32   15   8    2    3    22   12   57   
4th     PAS Giannina                    26   6    5    2    24   14   4    4    5    18   19   39   
1st     PAS Giannina                    26   11   1    1    31   11   6    4    3    17   12   56   
1st     PAS Giannina                    26   11   2    0    24   9    9    3    1    20   8    65   
2nd     PAS Giannina                    26   12   1    0    33   11   6    3    4    25   16   58   
1st     PAS Giannina                    26   11   1    1    34   10   8    1    4    27   16   59   
1st     PAS Giannina                    26   13   0    0    38   8    5    4    4    17   16   58   
1st     PAS Giannina                    26   12   0    1    33   13   6    4    3    17   12   58   
1st     PAS Giannina                    26   9    2    2    26   10   7    3    3    17   12   53   
1st     PAS Giannina                    26   9    3    1    25   7    7    3    3    19   13   54   
1st     PAS Giannina                    26   8    3    2    30   15   7    3    3    23   11   51   
5th     PAS Giannina                    26   8    0    5    20   14   5    3    5    16   18   42   
2nd     PAS Giannina                    26   7    5    1    28   15   9    0    4    25   16   53   
2nd     PAS Giannina                    26   8    4    1    24   11   6    5    2    20   8    51   
1st     PAS Giannina                    26   12   0    1    31   12   8    1    4    21   16   61   
1st     PAS Giannina                    26   11   2    0    36   15   6    3    4    20   15   56   
1st     PAS Giannina                    26   10   3    0    25   6    8    2    3    20   15   59   
1st     PAS Giannina                    26   11   0    2    35   18   5    4    4    15   16   52   
6th     PAS Giannina                    26   5    3    5    15   15   6    1    6    21   19   37   
4th     PAS Giannina                    26   7    4    2    23   13   6    2    5    15   14   45   
2nd     PAS Giannina                    26   6    6    1    22   14   8    4    1    27   10   52   
1st     PAS Giannina                    26   9    2    2    30   13   7    4    2    14   8    54   