12th    PAS Giannina                    26   7    1    5    20   17   1    3    9    24   38   28
1st      PAS Giannina                    26   9    2    2    33   19   5    1    7    21   28   45
9th     PAS Giannina                    26   5    6    2    22   14   2    6    5    18   21   33
4th     PAS Giannina                    26   8    3    2    33   21   4    5    4    19   18   44
5th     PAS Giannina                    26   8    2    3    28   24   3    4    6    16   23   39
13th    PAS Giannina                    26   2    6    5    12   17   3    1    9    21   32   22
13th    PAS Giannina                    26   5    4    4    22   14   2    1    10   16   32   26
12th    PAS Giannina                    26   7    1    5    29   30   1    4    8    15   28   29
9th     PAS Giannina                    26   6    5    2    33   23   3    2    8    26   30   34
3rd     PAS Giannina                    26   7    2    4    28   23   6    2    5    20   23   43
6th     PAS Giannina                    26   7    5    1    30   20   3    0    10   12   28   35
10th    PAS Giannina                    26   7    3    3    19   17   2    1    10   18   37   31
4th     PAS Giannina                    26   9    2    2    28   14   4    1    8    16   23   42
7th     PAS Giannina                    26   7    2    4    25   17   4    3    6    20   29   38
7th     PAS Giannina                    26   8    3    2    26   13   1    5    7    16   31   35
8th     PAS Giannina                    26   7    2    4    21   21   3    3    7    17   26   35
9th     PAS Giannina                    26   5    5    3    23   19   3    2    8    18   23   31
11th    PAS Giannina                    26   5    3    5    22   17   3    2    8    15   25   29
11th    PAS Giannina                    26   7    3    3    23   19   1    2    10   14   31   29
3rd     PAS Giannina                    26   10   0    3    27   16   3    6    4    20   29   45
4th     PAS Giannina                    26   6    5    2    21   17   6    1    6    17   25   42
12th    PAS Giannina                    26   6    3    4    24   19   1    4    8    15   29   28
9th     PAS Giannina                    26   7    3    3    30   17   3    1    9    13   26   34
14th    PAS Giannina                    26   6    2    5    21   21   0    2    11   9    31   22
5th     PAS Giannina                    26   8    0    5    29   20   2    5    6    15   25   35
14th    PAS Giannina                    26   4    3    6    21   26   3    2    8    15   28   26
4th     PAS Giannina                    26   11   1    1    27   15   1    6    6    13   23   43
3rd     PAS Giannina                    26   10   0    3    29   20   4    5    4    19   19   47
5th     PAS Giannina                    26   8    3    2    28   17   3    3    7    20   29   39
8th     PAS Giannina                    26   6    5    2    19   15   2    5    6    18   27   34
9th     PAS Giannina                    26   7    4    2    21   15   1    3    9    17   32   31
11th    PAS Giannina                    26   6    1    6    28   23   4    0    9    16   24   31
3rd     PAS Giannina                    26   9    4    0    27   7    3    3    7    14   24   43
12th    PAS Giannina                    26   5    2    6    20   19   3    2    8    17   25   28
10th    PAS Giannina                    26   7    2    4    26   19   2    2    9    15   31   31
2nd     PAS Giannina                    26   10   3    0    25   9    5    3    5    19   22   51
4th     PAS Giannina                    26   7    4    2    24   15   4    2    7    20   24   39
11th    PAS Giannina                    26   5    4    4    33   26   4    1    8    16   25   32
13th    PAS Giannina                    26   5    0    8    18   19   4    3    6    14   21   30
7th     PAS Giannina                    26   8    1    4    30   22   2    3    8    19   27   34
8th     PAS Giannina                    26   7    2    4    23   19   2    3    8    14   22   32
10th    PAS Giannina                    26   5    3    5    21   25   4    0    9    19   28   30
6th     PAS Giannina                    26   10   0    3    32   20   2    2    9    24   36   38
11th    PAS Giannina                    26   5    3    5    21   21   3    3    7    17   26   30
6th     PAS Giannina                    26   5    5    3    22   17   5    4    4    22   20   39
10th    PAS Giannina                    26   5    3    5    21   21   4    1    8    12   20   31
5th     PAS Giannina                    26   5    3    5    17   19   5    4    4    20   21   37
14th    PAS Giannina                    26   5    4    4    19   18   2    1    10   12   28   26
10th    PAS Giannina                    26   8    2    3    31   20   1    2    10   14   32   31
6th     PAS Giannina                    26   6    3    4    26   20   6    2    5    18   24   41
8th     PAS Giannina                    26   8    0    5    26   19   4    1    8    18   31   37
10th    PAS Giannina                    26   9    1    3    29   21   0    4    9    18   30   32
10th    PAS Giannina                    26   5    4    4    25   22   3    2    8    21   33   30
14th    PAS Giannina                    26   8    2    3    26   17   0    1    12   6    24   27
8th     PAS Giannina                    26   5    3    5    19   15   5    1    7    17   23   34
2nd     PAS Giannina                    26   10   2    1    35   17   3    4    6    20   23   45
10th    PAS Giannina                    26   6    4    3    26   23   3    4    6    15   25   35
6th     PAS Giannina                    26   9    1    3    29   19   3    2    8    18   26   39
10th    PAS Giannina                    26   7    2    4    23   16   2    1    10   16   33   30
14th    PAS Giannina                    26   2    3    8    17   26   2    1    10   17   32   16
7th     PAS Giannina                    26   7    0    6    25   23   4    3    6    25   28   36
11th    PAS Giannina                    26   7    3    3    24   19   1    3    9    12   26   30
12th    PAS Giannina                    26   7    2    4    33   19   0    4    9    15   32   27
6th     PAS Giannina                    26   7    2    4    27   19   2    5    6    16   24   34
11th    PAS Giannina                    26   4    4    5    18   21   3    3    7    20   30   28
13th    PAS Giannina                    26   2    5    6    15   22   3    3    7    17   25   23
5th     PAS Giannina                    26   9    2    2    32   19   2    3    8    20   27   38
11th    PAS Giannina                    26   7    1    5    25   25   2    3    8    18   29   31
3rd     PAS Giannina                    26   10   2    1    30   12   3    4    6    22   25   45
10th    PAS Giannina                    26   5    5    3    28   26   2    6    5    21   27   32
2nd     PAS Giannina                    26   8    2    3    30   21   5    2    6    22   26   43
3rd     PAS Giannina                    26   7    3    3    24   14   5    3    5    17   20   42
14th    PAS Giannina                    26   3    5    5    18   19   1    0    12   11   29   17
11th    PAS Giannina                    26   6    5    2    31   18   0    5    8    12   29   28
13th    PAS Giannina                    26   4    5    4    18   15   2    2    9    13   28   25
9th     PAS Giannina                    26   7    5    1    28   17   1    2    10   17   37   31
4th     PAS Giannina                    26   8    3    2    27   16   4    2    7    18   25   41
9th     PAS Giannina                    26   7    2    4    28   21   3    1    9    14   28   33
6th     PAS Giannina                    26   10   2    1    26   8    1    1    11   10   27   36
9th     PAS Giannina                    26   8    1    4    25   18   1    5    7    14   25   33
10th    PAS Giannina                    26   5    5    3    30   21   4    1    8    16   22   33
4th     PAS Giannina                    26   9    4    0    35   22   3    2    8    12   19   42
8th     PAS Giannina                    26   7    1    5    23   21   3    5    5    19   22   36
6th     PAS Giannina                    26   8    1    4    28   19   3    2    8    15   25   36
2nd     PAS Giannina                    26   9    3    1    31   14   4    5    4    21   26   47
11th    PAS Giannina                    26   4    8    1    27   22   2    2    9    15   29   28
7th     PAS Giannina                    26   5    5    3    25   19   5    3    5    17   25   38
8th     PAS Giannina                    26   7    4    2    29   16   2    2    9    14   34   33
8th     PAS Giannina                    26   9    1    3    30   18   1    2    10   15   32   33
11th    PAS Giannina                    26   6    3    4    25   22   2    2    9    17   28   29
5th     PAS Giannina                    26   6    5    2    27   17   5    3    5    16   18   41
7th     PAS Giannina                    26   7    3    3    24   15   3    2    8    15   27   35
5th     PAS Giannina                    26   9    3    1    29   13   3    0    10   20   31   39
6th     PAS Giannina                    26   8    3    2    28   16   4    3    6    18   25   42
12th    PAS Giannina                    26   6    4    3    26   19   1    5    7    17   27   30
11th    PAS Giannina                    26   4    7    2    21   17   3    3    7    16   26   31
11th    PAS Giannina                    26   6    2    5    26   25   4    0    9    15   31   32
11th    PAS Giannina                    26   6    4    3    26   17   1    1    11   14   32   26
13th    PAS Giannina                    26   8    0    5    23   13   0    1    12   17   35   25
13th    PAS Giannina                    26   6    2    5    28   26   1    3    9    15   33   26