1st     PAS Giannina                    26   10   2    1    34   13   10   1    2    36   12   63   
1st     PAS Giannina                    26   11   1    1    36   14   8    3    2    33   17   61   
1st     PAS Giannina                    26   11   1    1    38   12   11   1    1    34   12   68   
1st     PAS Giannina                    26   11   2    0    42   11   9    2    2    33   14   64   
1st     PAS Giannina                    26   10   2    1    32   14   8    4    1    33   17   60   
1st     PAS Giannina                    26   11   1    1    36   10   11   1    1    41   13   68   
1st     PAS Giannina                    26   11   1    1    42   16   8    4    1    36   16   62   
1st     PAS Giannina                    26   10   1    2    41   16   13   0    0    32   6    70   
1st     PAS Giannina                    26   10   1    2    35   10   9    2    2    36   16   60   
1st     PAS Giannina                    26   12   1    0    39   13   8    1    4    29   18   62   
2nd     PAS Giannina                    26   11   1    1    32   10   10   0    3    35   15   64   
1st     PAS Giannina                    26   8    3    2    26   13   10   2    1    36   15   59   
1st     PAS Giannina                    26   10   3    0    34   13   8    4    1    29   12   61   
1st     PAS Giannina                    26   11   1    1    37   13   9    3    1    27   11   64   
1st     PAS Giannina                    26   11   2    0    37   15   9    2    2    30   13   64   
1st     PAS Giannina                    26   11   0    2    30   13   10   0    3    29   10   63   
1st     PAS Giannina                    26   11   2    0    41   14   9    1    3    34   14   63   
1st     PAS Giannina                    26   10   1    2    27   14   12   1    0    38   10   68   
1st     PAS Giannina                    26   9    1    3    35   18   9    2    2    32   11   57   
1st     PAS Giannina                    26   10   2    1    31   15   10   2    1    39   11   64   
1st     PAS Giannina                    26   11   0    2    35   11   10   2    1    35   13   65   
1st     PAS Giannina                    26   10   3    0    40   15   10   3    0    34   11   66   
1st     PAS Giannina                    26   12   1    0    44   8    7    3    3    31   18   61   
1st     PAS Giannina                    26   10   3    0    37   16   7    5    1    27   14   59   
1st     PAS Giannina                    26   11   1    1    36   14   11   1    1    41   16   68   
1st     PAS Giannina                    26   12   1    0    42   7    9    3    1    37   18   67   
1st     PAS Giannina                    26   12   1    0    44   11   9    3    1    30   9    67   
1st     PAS Giannina                    26   11   2    0    32   12   12   1    0    35   11   72   
1st     PAS Giannina                    26   12   1    0    40   10   12   0    1    37   10   73   
1st     PAS Giannina                    26   12   1    0    39   15   12   1    0    39   11   74   
1st     PAS Giannina                    26   10   1    2    34   12   9    1    3    34   14   59   
1st     PAS Giannina                    26   10   2    1    34   10   8    3    2    31   14   59   
1st     PAS Giannina                    26   11   2    0    35   15   9    3    1    31   13   65   
1st     PAS Giannina                    26   11   2    0    34   8    7    2    4    25   13   58   
1st     PAS Giannina                    26   11   1    1    43   17   9    2    2    34   12   63   
1st     PAS Giannina                    26   11   1    1    38   14   10   2    1    36   14   66   
1st     PAS Giannina                    26   9    3    1    36   15   10   0    3    40   19   60   
1st     PAS Giannina                    26   9    3    1    36   15   9    3    1    34   11   60   
1st     PAS Giannina                    26   10   3    0    36   11   10   2    1    30   7    65   
1st     PAS Giannina                    26   11   1    1    31   10   9    2    2    32   10   63   
1st     PAS Giannina                    26   11   0    2    35   17   7    5    1    34   16   59   
1st     PAS Giannina                    26   9    0    4    29   20   11   2    0    32   7    62   
2nd     PAS Giannina                    26   11   1    1    41   12   7    3    3    28   11   58   
1st     PAS Giannina                    26   11   0    2    38   12   10   1    2    30   11   64   
1st     PAS Giannina                    26   12   0    1    40   13   10   2    1    34   15   68   
1st     PAS Giannina                    26   11   0    2    36   13   8    4    1    32   14   61   
1st     PAS Giannina                    26   11   1    1    28   7    10   1    2    30   13   65   
1st     PAS Giannina                    26   12   1    0    39   9    11   1    1    37   17   71   
1st     PAS Giannina                    26   12   1    0    39   12   11   0    2    37   18   70   
1st     PAS Giannina                    26   11   0    2    30   14   9    3    1    39   17   63   
1st     PAS Giannina                    26   10   1    2    35   17   9    3    1    33   11   61   
1st     PAS Giannina                    26   12   0    1    34   8    8    3    2    36   14   63   
1st     PAS Giannina                    26   11   2    0    38   8    9    2    2    35   19   64   
1st     PAS Giannina                    26   11   2    0    35   15   11   2    0    29   10   70   
1st     PAS Giannina                    26   9    3    1    36   14   10   1    2    36   12   61   
1st     PAS Giannina                    26   13   0    0    38   8    10   2    1    31   15   71   
1st     PAS Giannina                    26   13   0    0    46   14   8    2    3    26   15   65   
2nd     PAS Giannina                    26   11   0    2    35   9    7    4    2    29   14   58   
1st     PAS Giannina                    26   13   0    0    44   10   11   0    2    41   14   72   
1st     PAS Giannina                    26   9    3    1    32   11   8    2    3    32   19   56   
1st     PAS Giannina                    26   12   1    0    32   10   8    4    1    36   23   65   
1st     PAS Giannina                    26   11   1    1    33   10   9    2    2    33   14   63   
1st     PAS Giannina                    26   11   2    0    32   12   12   1    0    33   7    72   
1st     PAS Giannina                    26   11   1    1    34   15   10   2    1    28   10   66   
1st     PAS Giannina                    26   12   1    0    40   11   9    3    1    31   17   67   
2nd     PAS Giannina                    26   10   1    2    34   11   8    3    2    34   14   58   
1st     PAS Giannina                    26   12   1    0    38   9    7    3    3    25   13   61   
1st     PAS Giannina                    26   13   0    0    47   17   8    5    0    33   13   68   
1st     PAS Giannina                    26   10   2    1    33   11   11   1    1    38   14   66   
1st     PAS Giannina                    26   13   0    0    32   9    9    4    0    38   17   70   
1st     PAS Giannina                    26   11   2    0    38   11   11   1    1    35   9    69   
1st     PAS Giannina                    26   13   0    0    41   11   11   0    2    36   11   72   
1st     PAS Giannina                    26   10   2    1    35   12   9    3    1    27   10   62   
1st     PAS Giannina                    26   13   0    0    41   7    11   0    2    35   14   72   
1st     PAS Giannina                    26   12   1    0    35   11   9    3    1    34   15   67   
1st     PAS Giannina                    26   12   1    0    38   12   11   1    1    32   8    71   
1st     PAS Giannina                    26   12   1    0    40   7    7    5    1    31   17   63   
1st     PAS Giannina                    26   12   1    0    31   9    9    2    2    28   13   66   
1st     PAS Giannina                    26   10   2    1    37   13   8    2    3    23   11   58   
1st     PAS Giannina                    26   13   0    0    37   10   10   2    1    40   17   71   
1st     PAS Giannina                    26   12   1    0    34   12   11   2    0    40   11   72   
1st     PAS Giannina                    26   11   0    2    36   13   7    4    2    31   16   58   
1st     PAS Giannina                    26   12   1    0    42   15   8    2    3    30   16   63   
1st     PAS Giannina                    26   12   1    0    38   10   10   2    1    36   8    69   
1st     PAS Giannina                    26   11   1    1    39   14   8    2    3    25   16   60   
1st     PAS Giannina                    26   10   2    1    39   16   9    3    1    36   15   62   
1st     PAS Giannina                    26   8    2    3    32   15   6    6    1    26   14   50   
1st     PAS Giannina                    26   10   1    2    32   15   12   1    0    37   8    68   
1st     PAS Giannina                    26   13   0    0    39   9    12   1    0    42   16   76   
1st     PAS Giannina                    26   12   0    1    37   10   8    3    2    29   15   63   
1st     PAS Giannina                    26   13   0    0    42   13   11   1    1    37   13   73   
1st     PAS Giannina                    26   10   2    1    36   16   11   2    0    32   10   67   
1st     PAS Giannina                    26   12   1    0    40   14   8    2    3    26   17   63   
1st     PAS Giannina                    26   11   1    1    34   14   8    4    1    40   17   62   
1st     PAS Giannina                    26   13   0    0    39   9    10   2    1    41   16   71   
1st     PAS Giannina                    26   10   1    2    32   11   9    3    1    28   11   61   
2nd     PAS Giannina                    26   11   1    1    37   10   7    0    6    23   22   55   
1st     PAS Giannina                    26   11   0    2    38   20   10   3    0    36   10   66   
1st     PAS Giannina                    26   11   1    1    35   10   11   1    1    32   12   68   
1st     PAS Giannina                    26   11   1    1    38   14   9    2    2    36   19   63   