1st     PAS Giannina                    26   9    2    2    29   17   8    2    3    17   8    55   
1st     PAS Giannina                    26   9    3    1    29   17   7    3    3    23   10   54   
1st     PAS Giannina                    26   9    4    0    27   9    6    3    4    23   15   52   
1st     PAS Giannina                    26   9    1    3    26   12   8    4    1    27   11   56   
1st     PAS Giannina                    26   12   1    0    26   4    9    1    3    23   13   65   
1st     PAS Giannina                    26   8    4    1    30   14   7    5    1    21   13   54   
1st     PAS Giannina                    26   9    4    0    40   13   9    2    2    30   17   60   
1st     PAS Giannina                    26   10   1    2    33   14   7    2    4    24   12   54   
1st     PAS Giannina                    26   12   0    1    32   9    10   1    2    25   10   67   
1st     PAS Giannina                    26   10   1    2    27   10   8    3    2    22   13   58   
1st     PAS Giannina                    26   10   3    0    30   10   7    2    4    26   14   56   
2nd     PAS Giannina                    26   11   0    2    25   9    4    5    4    18   16   50   
2nd     PAS Giannina                    26   6    4    3    19   13   7    2    4    22   14   45   
1st     PAS Giannina                    26   11   2    0    34   8    8    2    3    27   13   61   
1st     PAS Giannina                    26   10   2    1    28   10   8    2    3    26   8    58   
1st     PAS Giannina                    26   11   1    1    33   12   8    3    2    34   14   61   
1st     PAS Giannina                    26   8    5    0    28   9    7    2    4    24   16   52   
1st     PAS Giannina                    26   12   1    0    35   11   7    4    2    15   7    62   
1st     PAS Giannina                    26   10   3    0    26   8    6    4    3    19   10   55   
1st     PAS Giannina                    26   10   2    1    27   8    8    4    1    21   7    60   
1st     PAS Giannina                    26   9    3    1    22   9    5    6    2    15   8    51   
1st     PAS Giannina                    26   13   0    0    38   5    9    1    3    28   13   67   
1st     PAS Giannina                    26   10   3    0    36   18   7    2    4    18   15   56   
1st     PAS Giannina                    26   10   2    1    28   15   7    3    3    23   12   56   
2nd     PAS Giannina                    26   10   2    1    36   8    6    4    3    30   17   54   
1st     PAS Giannina                    26   12   1    0    34   10   8    2    3    24   16   63   
1st     PAS Giannina                    26   11   0    2    27   9    9    3    1    29   13   63   
1st     PAS Giannina                    26   9    2    2    30   13   11   0    2    26   9    62   
2nd     PAS Giannina                    26   8    3    2    29   16   9    2    2    32   14   56   
1st     PAS Giannina                    26   11   0    2    30   10   7    4    2    25   15   58   
1st     PAS Giannina                    26   10   1    2    30   7    11   1    1    24   5    65   
1st     PAS Giannina                    26   8    3    2    30   12   7    5    1    29   17   53   
2nd     PAS Giannina                    26   9    2    2    28   14   7    3    3    22   12   53   
1st     PAS Giannina                    26   8    5    0    32   11   10   0    3    29   11   59   
2nd     PAS Giannina                    26   10   3    0    26   9    4    4    5    21   20   49   
1st     PAS Giannina                    26   11   1    1    27   11   7    4    2    25   14   59   
1st     PAS Giannina                    26   9    3    1    36   15   10   2    1    31   8    62   
1st     PAS Giannina                    26   12   1    0    32   10   8    4    1    20   9    65   
1st     PAS Giannina                    26   12   1    0    30   5    9    3    1    19   8    67   
2nd     PAS Giannina                    26   9    3    1    29   13   6    2    5    19   13   50   
1st     PAS Giannina                    26   10   3    0    35   9    5    5    3    22   18   53   
2nd     PAS Giannina                    26   9    2    2    29   14   7    1    5    18   11   51   
1st     PAS Giannina                    26   11   2    0    31   10   7    3    3    25   11   59   
1st     PAS Giannina                    26   10   2    1    32   11   7    5    1    22   8    58   
2nd     PAS Giannina                    26   9    3    1    31   16   6    4    3    19   14   52   
1st     PAS Giannina                    26   9    3    1    27   10   7    4    2    16   9    55   
2nd     PAS Giannina                    26   7    4    2    17   12   10   2    1    28   11   57   
1st     PAS Giannina                    26   11   2    0    27   7    8    4    1    26   13   63   
1st     PAS Giannina                    26   11   1    1    33   12   7    5    1    24   13   60   
1st     PAS Giannina                    26   9    0    4    32   14   8    3    2    19   10   54   
1st     PAS Giannina                    26   12   1    0    31   9    8    2    3    17   15   63   
4th     PAS Giannina                    26   6    2    5    22   16   6    2    5    20   18   40   
2nd     PAS Giannina                    26   7    2    4    22   16   9    4    0    31   12   54   
2nd     PAS Giannina                    26   10   3    0    30   9    6    5    2    22   14   56   
1st     PAS Giannina                    26   11   2    0    27   10   9    2    2    25   9    64   
1st     PAS Giannina                    26   11   1    1    33   8    9    2    2    29   16   63   
2nd     PAS Giannina                    26   11   2    0    33   8    7    3    3    25   17   59   
1st     PAS Giannina                    26   12   0    1    32   8    9    2    2    28   8    65   
1st     PAS Giannina                    26   10   2    1    34   10   8    2    3    31   12   58   
1st     PAS Giannina                    26   12   1    0    29   9    7    3    3    18   10   61   
1st     PAS Giannina                    26   11   1    1    39   13   6    4    3    23   11   56   
1st     PAS Giannina                    26   11   0    2    28   12   3    5    5    17   19   47   
1st     PAS Giannina                    26   10   1    2    27   7    10   3    0    26   10   64   
1st     PAS Giannina                    26   11   2    0    26   6    9    4    0    28   13   66   
1st     PAS Giannina                    26   11   1    1    30   9    10   2    1    30   13   66   
1st     PAS Giannina                    26   10   2    1    30   10   8    4    1    28   18   60   
1st     PAS Giannina                    26   12   0    1    34   12   7    4    2    26   14   61   
1st     PAS Giannina                    26   11   2    0    28   7    10   2    1    29   12   67   
1st     PAS Giannina                    26   12   1    0    36   8    11   1    1    24   8    71   
1st     PAS Giannina                    26   9    3    1    31   14   7    5    1    22   13   56   
3rd     PAS Giannina                    26   10   0    3    29   14   5    3    5    19   15   48   
2nd     PAS Giannina                    26   8    2    3    30   14   4    7    2    16   12   45   
1st     PAS Giannina                    26   9    3    1    26   11   9    3    1    34   13   60   
1st     PAS Giannina                    26   12   0    1    31   12   9    1    3    25   7    64   
2nd     PAS Giannina                    26   11   1    1    36   10   4    4    5    20   19   50   
1st     PAS Giannina                    26   10   2    1    30   9    9    2    2    28   13   61   
1st     PAS Giannina                    26   8    3    2    27   13   10   2    1    30   11   59   
2nd     PAS Giannina                    26   8    4    1    26   14   7    4    2    23   14   53   
1st     PAS Giannina                    26   11   1    1    28   11   7    5    1    29   17   60   
1st     PAS Giannina                    26   10   1    2    27   8    7    2    4    16   9    54   
2nd     PAS Giannina                    26   8    3    2    21   12   8    4    1    24   13   55   
1st     PAS Giannina                    26   8    3    2    24   8    8    2    3    19   12   53   
1st     PAS Giannina                    26   11   1    1    36   14   7    3    3    20   14   58   
1st     PAS Giannina                    26   7    2    4    25   18   10   3    0    32   14   56   
2nd     PAS Giannina                    26   9    2    2    28   12   9    2    2    30   14   58   
1st     PAS Giannina                    26   10   2    1    30   11   8    3    2    27   13   59   
2nd     PAS Giannina                    26   8    3    2    32   17   5    6    2    17   14   48   
1st     PAS Giannina                    26   9    2    2    24   13   8    4    1    25   12   57   
1st     PAS Giannina                    26   10   2    1    29   12   7    6    0    24   14   59   
2nd     PAS Giannina                    26   8    0    5    22   13   6    3    4    22   17   45   
1st     PAS Giannina                    26   9    3    1    24   11   8    3    2    23   10   57   
1st     PAS Giannina                    26   11   0    2    28   9    7    4    2    24   10   58   
2nd     PAS Giannina                    26   10   2    1    34   7    6    3    4    20   13   53   
1st     PAS Giannina                    26   11   2    0    39   19   8    2    3    30   13   61   
1st     PAS Giannina                    26   10   3    0    32   11   7    3    3    20   10   57   
1st     PAS Giannina                    26   11   1    1    30   8    10   1    2    25   12   65   
1st     PAS Giannina                    26   10   3    0    31   7    10   3    0    33   11   66   
1st     PAS Giannina                    26   10   1    2    26   15   8    3    2    26   14   58   
1st     PAS Giannina                    26   13   0    0    33   6    8    3    2    28   16   66   
2nd     PAS Giannina                    26   10   2    1    26   10   6    5    2    12   8    55   