7th     PAS Giannina                    26   9    3    1    29   15   0    5    8    10   21   35   
3rd     PAS Giannina                    26   8    2    3    24   17   4    5    4    17   16   43   
2nd     PAS Giannina                    26   10   1    2    24   8    4    3    6    12   14   46   
2nd     PAS Giannina                    26   10   3    0    31   10   4    5    4    18   15   50   
2nd     PAS Giannina                    26   7    1    5    25   15   6    6    1    18   10   46   
2nd     PAS Giannina                    26   8    1    4    22   13   7    3    3    22   14   49   
2nd     PAS Giannina                    26   6    6    1    29   18   7    3    3    17   14   48   
2nd     PAS Giannina                    26   8    3    2    32   14   6    3    4    19   15   48   
6th     PAS Giannina                    26   7    4    2    24   12   4    3    6    22   26   40   
6th     PAS Giannina                    26   8    3    2    27   16   3    3    7    12   18   39   
2nd     PAS Giannina                    26   7    4    2    25   12   6    2    5    17   13   45   
2nd     PAS Giannina                    26   10   2    1    25   12   4    5    4    18   17   49   
3rd     PAS Giannina                    26   9    1    3    29   11   5    4    4    15   15   47   
1st     PAS Giannina                    26   10   1    2    34   14   7    3    3    20   10   55   
2nd     PAS Giannina                    26   8    2    3    26   17   4    5    4    24   20   43   
3rd     PAS Giannina                    26   8    5    0    30   16   4    4    5    15   14   45   
6th     PAS Giannina                    26   7    3    3    18   8    3    2    8    14   19   35   
1st     PAS Giannina                    26   9    4    0    29   11   7    4    2    19   10   56   
3rd     PAS Giannina                    26   9    2    2    26   14   4    2    7    19   26   43   
3rd     PAS Giannina                    26   12   0    1    42   11   3    2    8    16   21   47   
1st     PAS Giannina                    26   10   1    2    31   13   6    3    4    19   16   52   
2nd     PAS Giannina                    26   8    3    2    26   13   7    3    3    20   15   51   
5th     PAS Giannina                    26   7    3    3    23   12   3    4    6    14   18   37   
5th     PAS Giannina                    26   8    2    3    20   10   2    5    6    13   17   37   
7th     PAS Giannina                    26   6    3    4    19   13   5    2    6    15   16   38   
6th     PAS Giannina                    26   5    6    2    26   14   4    4    5    23   21   37   
3rd     PAS Giannina                    26   11   2    0    31   10   2    4    7    12   22   45   
4th     PAS Giannina                    26   9    4    0    31   10   3    6    4    20   20   46   
3rd     PAS Giannina                    26   10   0    3    28   14   4    5    4    18   19   47   
1st     PAS Giannina                    26   10   2    1    27   10   5    6    2    20   10   53   
5th     PAS Giannina                    26   10   1    2    26   13   3    3    7    10   21   43   
2nd     PAS Giannina                    26   9    4    0    27   7    4    6    3    20   20   49   
2nd     PAS Giannina                    26   11   1    1    33   11   6    1    6    21   18   53   
3rd     PAS Giannina                    26   7    3    3    23   14   3    6    4    13   12   39   
3rd     PAS Giannina                    26   10   2    1    32   7    3    6    4    16   16   47   
2nd     PAS Giannina                    26   8    4    1    31   15   7    1    5    16   14   50   
1st     PAS Giannina                    26   10   2    1    30   15   7    1    5    19   15   54   
1st     PAS Giannina                    26   8    4    1    27   11   7    5    1    23   15   54   
3rd     PAS Giannina                    26   8    3    2    29   12   5    2    6    18   18   44   
5th     PAS Giannina                    26   5    3    5    21   19   6    3    4    24   20   39   
1st     PAS Giannina                    26   11   1    1    30   8    7    1    5    21   12   56   
2nd     PAS Giannina                    26   11   2    0    30   5    4    5    4    15   15   52   
1st     PAS Giannina                    26   10   1    2    30   13   7    3    3    20   13   55   
1st     PAS Giannina                    26   9    3    1    30   8    7    3    3    20   14   54   
1st     PAS Giannina                    26   10   1    2    33   15   8    2    3    21   11   57   
1st     PAS Giannina                    26   11   2    0    32   10   8    3    2    23   11   62   
1st     PAS Giannina                    26   9    3    1    25   10   9    2    2    21   13   59   
1st     PAS Giannina                    26   7    3    3    21   16   7    2    4    12   9    47   
5th     PAS Giannina                    26   8    2    3    29   14   5    2    6    15   20   43   
3rd     PAS Giannina                    26   7    2    4    24   16   4    8    1    24   21   43   
7th     PAS Giannina                    26   6    5    2    23   14   3    4    6    16   18   36   
5th     PAS Giannina                    26   10   2    1    31   11   3    2    8    15   19   43   
1st     PAS Giannina                    26   11   1    1    27   13   9    3    1    30   15   64   
2nd     PAS Giannina                    26   12   0    1    27   9    2    3    8    9    14   45   
1st     PAS Giannina                    26   9    1    3    25   14   7    5    1    19   9    54   
3rd     PAS Giannina                    26   10   2    1    32   16   4    4    5    14   14   48   
2nd     PAS Giannina                    26   11   0    2    36   17   2    3    8    9    16   42   
1st     PAS Giannina                    26   11   1    1    34   12   4    4    5    19   18   50   
1st     PAS Giannina                    26   11   1    1    28   12   5    4    4    14   10   53   
1st     PAS Giannina                    26   9    3    1    26   13   8    2    3    20   11   56   
1st     PAS Giannina                    26   9    3    1    29   8    6    1    6    25   17   49   
6th     PAS Giannina                    26   8    4    1    21   11   2    3    8    14   20   37   
2nd     PAS Giannina                    26   12   1    0    35   8    4    3    6    14   16   52   
1st     PAS Giannina                    26   10   1    2    25   10   9    3    1    26   9    61   
1st     PAS Giannina                    26   11   2    0    31   8    6    3    4    22   17   56   
1st     PAS Giannina                    26   10   2    1    26   9    9    2    2    24   12   61   
5th     PAS Giannina                    26   6    4    3    24   16   5    3    5    12   15   40   
4th     PAS Giannina                    26   8    3    2    26   17   3    4    6    14   20   40   
3rd     PAS Giannina                    26   8    3    2    26   18   7    1    5    17   16   49   
5th     PAS Giannina                    26   8    2    3    26   13   3    5    5    16   18   40   
2nd     PAS Giannina                    26   10   1    2    33   14   5    4    4    16   13   50   
11th    PAS Giannina                    26   4    4    5    22   21   3    4    6    12   15   29   
7th     PAS Giannina                    26   7    5    1    23   13   3    4    6    15   19   39   
2nd     PAS Giannina                    26   10   1    2    28   8    6    3    4    18   20   52   
3rd     PAS Giannina                    26   7    3    3    26   14   4    5    4    16   17   41   
5th     PAS Giannina                    26   8    3    2    23   13   3    4    6    13   16   40   
2nd     PAS Giannina                    26   9    2    2    23   9    5    4    4    23   20   48   
4th     PAS Giannina                    26   8    2    3    27   16   4    4    5    21   25   42   
1st     PAS Giannina                    26   10   2    1    27   11   8    2    3    17   12   58   
5th     PAS Giannina                    26   6    5    2    22   13   4    4    5    12   14   39   
3rd     PAS Giannina                    26   10   1    2    28   14   5    1    7    12   19   47   
4th     PAS Giannina                    26   6    4    3    19   12   5    4    4    18   11   41   
3rd     PAS Giannina                    26   9    1    3    31   19   4    5    4    19   17   45   
2nd     PAS Giannina                    26   7    2    4    26   18   9    1    3    23   16   51   
2nd     PAS Giannina                    26   8    3    2    28   16   6    2    5    19   15   47   
1st     PAS Giannina                    26   8    3    2    27   10   7    3    3    20   8    51   
2nd     PAS Giannina                    26   7    4    2    20   13   3    7    3    11   15   41   
4th     PAS Giannina                    26   8    4    1    29   12   5    2    6    14   22   45   
4th     PAS Giannina                    26   6    3    4    24   15   6    2    5    16   15   41   
2nd     PAS Giannina                    26   9    1    3    24   12   6    4    3    17   12   50   
2nd     PAS Giannina                    26   9    2    2    26   12   8    1    4    19   13   54   
1st     PAS Giannina                    26   10   2    1    27   10   7    4    2    25   21   57   
2nd     PAS Giannina                    26   10   3    0    41   15   6    4    3    22   14   55   
1st     PAS Giannina                    26   9    1    3    26   12   7    3    3    16   14   52   
5th     PAS Giannina                    26   6    2    5    29   17   6    4    3    19   13   42   
4th     PAS Giannina                    26   9    2    2    29   16   3    3    7    11   17   41   
2nd     PAS Giannina                    26   12   1    0    39   9    5    3    5    23   19   55   
2nd     PAS Giannina                    26   8    2    3    29   16   6    5    2    24   19   49   
2nd     PAS Giannina                    26   11   1    1    29   9    4    4    5    17   23   50   
3rd     PAS Giannina                    26   9    3    1    26   13   3    5    5    14   22   44   