1st      PAS Giannina            26   10   1    2    30   11   8    2    3    23   15   57
1st      PAS Giannina            26   8    1    4    23   15   8    3    2    21   16   52
2nd     PAS Giannina            26   10   3    0    22   9    5    3    5    19   14   51
1st      PAS Giannina            26   9    1    3    26   15   9    2    2    27   16   57
1st      PAS Giannina            26   8    4    1    27   12   8    1    4    19   15   53
3rd     PAS Giannina            26   9    1    3    36   16   5    5    3    24   16   48
5th     PAS Giannina            26   5    3    5    23   19   5    6    2    18   13   39
7th     PAS Giannina            26   5    4    4    21   21   3    7    3    18   19   35
4th     PAS Giannina            26   8    3    2    25   17   4    5    4    24   24   44
2nd     PAS Giannina            26   10   1    2    32   15   5    6    2    17   13   52
1st      PAS Giannina            26   10   1    2    32   15   5    5    3    19   16   51
3rd     PAS Giannina            26   9    2    2    33   13   3    6    4    18   20   44
1st      PAS Giannina            26   10   2    1    31   11   9    0    4    26   20   59
1st      PAS Giannina            26   11   0    2    26   13   7    4    2    27   18   58
4th     PAS Giannina            26   7    4    2    33   18   5    2    6    22   24   42
1st      PAS Giannina            26   11   1    1    29   11   6    2    5    23   19   54
1st      PAS Giannina            26   9    3    1    28   11   7    3    3    16   12   54
3rd     PAS Giannina            26   11   1    1    27   12   5    5    3    14   10   54
1st      PAS Giannina            26   10   0    3    27   11   5    5    3    24   20   50
1st      PAS Giannina            26   11   2    0    36   14   8    1    4    25   19   60
3rd     PAS Giannina            26   10   2    1    36   13   5    4    4    28   23   51
2nd     PAS Giannina            26   8    5    0    29   16   4    5    4    20   18   46
2nd     PAS Giannina            26   10   1    2    29   15   6    4    3    20   15   53
2nd     PAS Giannina            26   9    4    0    30   11   6    2    5    21   17   51
2nd     PAS Giannina            26   9    2    2    32   14   7    2    4    22   15   52
3rd     PAS Giannina            26   10   1    2    31   15   4    3    6    14   16   46
3rd     PAS Giannina            26   3    7    3    18   14   9    1    3    22   8    44
1st      PAS Giannina            26   9    3    1    28   9    10   1    2    35   18   61
1st      PAS Giannina            26   11   1    1    31   12   8    4    1    20   7    62
1st      PAS Giannina            26   10   2    1    23   10   5    4    4    26   21   51
2nd     PAS Giannina            26   8    3    2    26   14   6    2    5    19   18   47
1st      PAS Giannina            26   9    4    0    28   13   8    3    2    25   17   58
1st      PAS Giannina            26   11   0    2    36   16   6    4    3    29   15   55
1st      PAS Giannina            26   11   2    0    30   11   3    6    4    19   19   50
2nd     PAS Giannina            26   9    3    1    32   13   7    5    1    28   19   56
1st      PAS Giannina            26   9    2    2    29   14   6    7    0    25   16   54
2nd     PAS Giannina            26   10   3    0    28   7    6    2    5    22   20   53
1st      PAS Giannina            26   9    3    1    27   13   5    6    2    20   12   51
1st      PAS Giannina            26   10   1    2    34   16   6    4    3    20   17   53
1st      PAS Giannina            26   11   2    0    39   13   9    3    1    22   9    65
1st      PAS Giannina            26   8    3    2    26   11   6    3    4    22   15   48
2nd     PAS Giannina            26   9    4    0    29   14   6    5    2    19   13   54
1st      PAS Giannina            26   10   0    3    30   13   6    3    4    15   13   51
1st      PAS Giannina            26   10   1    2    33   18   7    2    4    19   19   54
4th     PAS Giannina            26   7    4    2    21   10   3    4    6    22   22   38
1st      PAS Giannina            26   9    3    1    24   9    6    4    3    19   13   52
1st      PAS Giannina            26   12   1    0    31   9    4    6    3    11   10   55
1st      PAS Giannina            26   10   2    1    36   12   6    4    3    23   18   54
1st      PAS Giannina            26   11   0    2    39   15   6    4    3    19   15   55
2nd     PAS Giannina            26   9    2    2    34   16   5    5    3    17   14   49
2nd     PAS Giannina            26   11   0    2    36   13   6    2    5    24   19   53
1st      PAS Giannina            26   9    4    0    31   16   7    4    2    28   15   56
2nd     PAS Giannina            26   8    4    1    30   16   6    2    5    26   20   48
1st      PAS Giannina            26   9    3    1    25   12   12   0    1    29   11   66
2nd     PAS Giannina            26   10   1    2    29   15   8    1    4    25   14   56
3rd     PAS Giannina            26   7    3    3    29   14   4    5    4    18   17   41
2nd     PAS Giannina            26   7    2    4    28   18   4    6    3    14   15   41
4th     PAS Giannina            26   7    3    3    25   13   5    4    4    28   22   43
3rd     PAS Giannina            26   8    2    3    24   15   5    1    7    20   20   42
2nd     PAS Giannina            26   8    2    3    26   13   8    2    3    25   14   52
4th     PAS Giannina            26   8    3    2    28   15   5    4    4    19   16   46
2nd     PAS Giannina            26   8    2    3    27   17   7    4    2    19   14   51
6th     PAS Giannina            26   9    2    2    25   9    2    4    7    16   20   39
4th     PAS Giannina            26   7    1    5    27   15   7    0    6    20   18   43
1st      PAS Giannina            26   8    4    1    29   11   9    1    3    22   10   56
2nd     PAS Giannina            26   6    5    2    25   18   7    1    5    16   13   45
1st      PAS Giannina            26   10   2    1    31   13   5    6    2    17   12   53
3rd     PAS Giannina            26   9    3    1    33   11   5    2    6    18   18   47
2nd     PAS Giannina            26   8    1    4    35   14   6    5    2    25   14   48
2nd     PAS Giannina            26   7    5    1    24   12   6    3    4    19   15   47
1st      PAS Giannina            26   12   1    0    30   8    7    2    4    22   15   60
1st      PAS Giannina            26   9    1    3    34   19   6    5    2    21   14   51
2nd     PAS Giannina            26   7    3    3    26   14   6    3    4    15   12   45
1st      PAS Giannina            26   10   2    1    36   14   10   2    1    30   15   64
6th     PAS Giannina            26   5    3    5    24   16   6    3    4    23   19   39
1st      PAS Giannina            26   10   2    1    33   16   9    2    2    30   14   61
2nd     PAS Giannina            26   8    4    1    29   16   7    4    2    20   10   53
5th     PAS Giannina            26   7    1    5    24   14   5    1    7    19   19   38
1st      PAS Giannina            26   9    2    2    29   12   10   1    2    21   8    60
1st      PAS Giannina            26   9    3    1    37   18   9    3    1    25   14   60
1st      PAS Giannina            26   9    3    1    27   11   6    4    3    22   16   52
2nd     PAS Giannina            26   8    2    3    27   15   7    3    3    24   18   50
1st      PAS Giannina            26   11   0    2    30   11   7    4    2    19   12   58
2nd     PAS Giannina            26   9    1    3    28   16   5    4    4    17   17   47
1st      PAS Giannina            26   12   1    0    32   10   7    1    5    28   16   59
2nd     PAS Giannina            26   9    2    2    29   17   6    1    6    17   19   48
1st      PAS Giannina            26   10   3    0    31   9    7    1    5    25   17   55
3rd     PAS Giannina            26   8    2    3    27   21   6    6    1    26   16   50
2nd     PAS Giannina            26   7    4    2    28   15   9    3    1    24   13   55
2nd     PAS Giannina            26   8    3    2    30   15   5    4    4    15   15   46
1st      PAS Giannina            26   10   2    1    29   15   5    5    3    26   19   52
1st      PAS Giannina            26   11   0    2    33   12   6    4    3    18   15   55
3rd     PAS Giannina            26   8    4    1    32   16   5    3    5    17   18   46
3rd     PAS Giannina            26   10   1    2    30   13   4    4    5    17   16   47
1st      PAS Giannina            26   12   1    0    27   6    6    3    4    26   18   58
2nd     PAS Giannina            26   10   2    1    31   10   4    2    7    22   17   46
2nd     PAS Giannina            26   9    1    3    27   14   7    1    5    25   17   50
2nd     PAS Giannina            26   7    1    5    23   14   7    2    4    26   14   45
1st      PAS Giannina            26   10   2    1    35   19   6    3    4    23   17   53
1st      PAS Giannina            26   9    4    0    33   18   6    3    4    21   18   52