2nd     PAS Giannina                    26   8    3    2    20   13   6    4    3    15   14   49   
1st     PAS Giannina                    26   9    2    2    28   15   7    3    3    24   15   53   
2nd     PAS Giannina                    26   9    2    2    22   10   4    4    5    18   20   45   
4th     PAS Giannina                    26   8    3    2    24   15   3    5    5    18   25   41   
1st     PAS Giannina                    26   10   2    1    34   17   7    1    5    22   15   54   
4th     PAS Giannina                    26   8    3    2    28   16   3    4    6    13   19   40   
3rd     PAS Giannina                    26   9    1    3    30   15   5    2    6    18   16   45   
2nd     PAS Giannina                    26   8    3    2    29   18   4    6    3    20   18   45   
4th     PAS Giannina                    26   9    3    1    35   21   2    5    6    9    17   41   
1st     PAS Giannina                    26   10   2    1    28   10   6    3    4    18   15   53   
2nd     PAS Giannina                    26   10   2    1    28   11   5    3    5    17   23   50   
5th     PAS Giannina                    26   5    4    4    17   14   6    2    5    16   14   39   
9th     PAS Giannina                    26   5    4    4    20   20   4    2    7    15   21   33   
2nd     PAS Giannina                    26   10   0    3    27   16   3    7    3    15   13   46   
2nd     PAS Giannina                    26   9    3    1    28   14   6    4    3    25   19   52   
4th     PAS Giannina                    26   8    1    4    28   21   3    6    4    14   16   40   
2nd     PAS Giannina                    26   12   0    1    32   15   5    2    6    21   19   53   
2nd     PAS Giannina                    26   8    2    3    26   15   6    3    4    16   17   47   
2nd     PAS Giannina                    26   9    1    3    25   13   6    4    3    24   18   50   
7th     PAS Giannina                    26   8    2    3    26   16   3    2    8    13   21   37   
4th     PAS Giannina                    26   9    1    3    28   17   4    4    5    13   13   44   
7th     PAS Giannina                    26   5    4    4    24   25   6    1    6    21   20   38   
7th     PAS Giannina                    26   7    2    4    27   16   3    4    6    18   20   36   
8th     PAS Giannina                    26   6    4    3    27   19   3    3    7    14   14   34   
1st     PAS Giannina                    26   9    2    2    27   14   5    5    3    20   15   49   
2nd     PAS Giannina                    26   8    3    2    27   15   4    5    4    16   13   44   
5th     PAS Giannina                    26   8    3    2    25   13   3    5    5    15   16   41   
1st     PAS Giannina                    26   8    5    0    35   17   6    1    6    18   20   48   
5th     PAS Giannina                    26   6    4    3    20   11   5    2    6    20   23   39   
3rd     PAS Giannina                    26   8    2    3    22   17   6    4    3    23   16   48   
6th     PAS Giannina                    26   5    4    4    19   16   6    3    4    19   17   40   
8th     PAS Giannina                    26   5    5    3    28   18   4    2    7    19   20   34   
8th     PAS Giannina                    26   8    3    2    31   15   2    2    9    12   20   35   
2nd     PAS Giannina                    26   12   1    0    35   12   1    7    5    19   24   47   
2nd     PAS Giannina                    26   7    4    2    26   17   5    3    5    19   16   43   
2nd     PAS Giannina                    26   10   2    1    28   12   6    2    5    14   19   52   
2nd     PAS Giannina                    26   11   0    2    27   8    6    3    4    15   18   54   
2nd     PAS Giannina                    26   8    4    1    26   12   6    2    5    18   18   48   
1st     PAS Giannina                    26   11   1    1    36   15   7    3    3    15   10   58   
2nd     PAS Giannina                    26   11   1    1    32   16   5    2    6    19   22   51   
1st     PAS Giannina                    26   9    3    1    29   12   9    0    4    22   15   57   
5th     PAS Giannina                    26   7    5    1    28   16   5    4    4    15   13   45   
3rd     PAS Giannina                    26   9    1    3    28   15   5    1    7    16   21   44   
3rd     PAS Giannina                    26   8    3    2    29   13   5    2    6    18   20   44   
2nd     PAS Giannina                    26   10   2    1    27   10   7    0    6    24   23   53   
4th     PAS Giannina                    26   12   0    1    29   6    2    4    7    12   19   46   
1st     PAS Giannina                    26   10   3    0    32   16   5    3    5    22   18   51   
5th     PAS Giannina                    26   10   0    3    24   12   2    3    8    14   29   39   
5th     PAS Giannina                    26   9    2    2    29   11   1    5    7    10   20   37   
5th     PAS Giannina                    26   10   2    1    28   8    1    4    8    14   23   39   
3rd     PAS Giannina                    26   10   1    2    28   10   1    5    7    13   21   39   
8th     PAS Giannina                    26   6    4    3    25   16   2    4    7    8    16   32   
5th     PAS Giannina                    26   8    3    2    27   16   2    6    5    10   14   39   
2nd     PAS Giannina                    26   11   0    2    25   12   3    3    7    15   25   45   
4th     PAS Giannina                    26   8    4    1    26   14   3    4    6    16   21   41   
10th    PAS Giannina                    26   8    3    2    29   18   1    0    12   7    25   30   
6th     PAS Giannina                    26   6    6    1    29   22   3    4    6    14   18   37   
9th     PAS Giannina                    26   6    6    1    26   19   1    5    7    18   29   32   
4th     PAS Giannina                    26   8    3    2    20   15   6    2    5    21   19   47   
5th     PAS Giannina                    26   8    1    4    31   16   5    3    5    15   13   43   
4th     PAS Giannina                    26   9    0    4    26   17   4    3    6    19   17   42   
3rd     PAS Giannina                    26   9    2    2    22   15   5    4    4    22   20   48   
6th     PAS Giannina                    26   7    0    6    25   18   6    3    4    17   12   42   
11th    PAS Giannina                    26   6    3    4    27   22   1    4    8    9    19   28   
4th     PAS Giannina                    26   11   1    1    31   12   3    4    6    18   25   47   
1st     PAS Giannina                    26   9    4    0    29   16   9    1    3    23   13   59   
1st     PAS Giannina                    26   8    1    4    28   22   7    2    4    26   18   48   
5th     PAS Giannina                    26   8    0    5    30   17   5    3    5    15   13   42   
11th    PAS Giannina                    26   4    4    5    21   24   3    4    6    10   15   29   
3rd     PAS Giannina                    26   11   1    1    33   12   2    6    5    14   20   46   
3rd     PAS Giannina                    26   8    2    3    27   16   4    5    4    15   12   43   
6th     PAS Giannina                    26   9    1    3    34   19   2    4    7    12   17   38   
5th     PAS Giannina                    26   7    1    5    26   22   6    2    5    17   17   42   
4th     PAS Giannina                    26   7    5    1    27   16   4    3    6    19   23   41   
1st     PAS Giannina                    26   11   1    1    35   14   6    3    4    14   13   55   
5th     PAS Giannina                    26   7    5    1    29   15   4    2    7    13   17   40   
4th     PAS Giannina                    26   8    2    3    31   17   3    5    5    12   15   40   
4th     PAS Giannina                    26   7    4    2    22   15   4    3    6    11   19   40   
5th     PAS Giannina                    26   8    3    2    23   15   3    4    6    12   19   40   
4th     PAS Giannina                    26   11   1    1    29   12   1    4    8    12   21   41   
3rd     PAS Giannina                    26   9    3    1    36   11   3    3    7    14   20   42   
10th    PAS Giannina                    26   6    4    3    21   16   2    3    8    14   25   31   
2nd     PAS Giannina                    26   9    2    2    23   13   5    3    5    17   11   47   
5th     PAS Giannina                    26   6    4    3    26   18   5    4    4    15   16   41   
5th     PAS Giannina                    26   8    3    2    26   14   4    3    6    13   19   42   
11th    PAS Giannina                    26   5    2    6    22   22   3    2    8    13   20   28   
10th    PAS Giannina                    26   6    2    5    21   23   3    4    6    10   13   33   
5th     PAS Giannina                    26   10   0    3    25   16   3    6    4    19   21   45   
2nd     PAS Giannina                    26   10   1    2    31   11   6    2    5    22   21   51   
1st     PAS Giannina                    26   7    6    0    31   19   7    3    3    21   16   51   
3rd     PAS Giannina                    26   10   2    1    25   9    2    5    6    21   24   43   
13th    PAS Giannina                    26   4    3    6    20   21   3    2    8    20   25   26   
2nd     PAS Giannina                    26   9    3    1    26   11   3    6    4    23   22   45   
2nd     PAS Giannina                    26   7    4    2    25   17   7    1    5    23   24   47   
9th     PAS Giannina                    26   4    3    6    17   21   3    5    5    14   21   29   
2nd     PAS Giannina                    26   9    2    2    33   16   6    3    4    18   18   50   
3rd     PAS Giannina                    26   8    4    1    30   19   4    6    3    21   19   46   
3rd     PAS Giannina                    26   10   1    2    28   13   5    3    5    19   21   49   
1st     PAS Giannina                    26   11   1    1    32   15   8    1    4    18   14   59   
2nd     PAS Giannina                    26   9    2    2    24   13   4    3    6    17   16   44   