4th     PAS Giannina                    26   8    1    4    32   24   6    2    5    30   24   45
2nd     PAS Giannina                    26   10   2    1    35   15   6    2    5    28   26   52
7th     PAS Giannina                    26   8    1    4    29   17   4    3    6    26   29   40
12th    PAS Giannina                    26   8    2    3    30   21   1    1    11   12   30   30
10th    PAS Giannina                    26   6    3    4    32   25   2    2    9    23   32   29
5th     PAS Giannina                    26   6    3    4    30   22   5    2    6    27   32   38
2nd     PAS Giannina                    26   9    1    3    33   21   6    4    3    35   28   50
1st      PAS Giannina                    26   9    3    1    34   18   5    4    4    29   33   49
8th     PAS Giannina                    26   6    2    5    31   28   3    4    6    28   30   33
8th     PAS Giannina                    26   6    5    2    30   18   3    2    8    18   32   34
7th     PAS Giannina                    26   5    4    4    32   30   5    2    6    25   30   36
5th     PAS Giannina                    26   8    3    2    31   19   3    4    6    17   24   40
5th     PAS Giannina                    26   10   1    2    32   21   1    3    9    19   34   37
3rd     PAS Giannina                    26   9    2    2    33   21   5    0    8    18   28   44
5th     PAS Giannina                    26   9    3    1    36   14   2    2    9    21   32   38
6th     PAS Giannina                    26   7    3    3    24   22   4    2    7    24   32   38
6th     PAS Giannina                    26   5    5    3    25   21   4    4    5    29   26   36
8th     PAS Giannina                    26   6    4    3    30   23   3    3    7    25   34   34
9th     PAS Giannina                    26   7    1    5    28   23   3    4    6    25   31   35
3rd     PAS Giannina                    26   8    4    1    35   24   3    4    6    21   26   41
5th     PAS Giannina                    26   8    0    5    32   25   5    1    7    28   34   40
11th    PAS Giannina                    26   5    2    6    28   28   2    1    10   15   32   24
3rd     PAS Giannina                    26   10   1    2    37   22   3    4    6    31   34   44
10th    PAS Giannina                    26   6    1    6    21   19   2    5    6    26   32   30
1st      PAS Giannina                    26   7    5    1    27   17   5    3    5    25   23   44
6th     PAS Giannina                    26   6    4    3    26   21   5    2    6    31   29   39
6th     PAS Giannina                    26   7    2    4    33   22   4    1    8    25   32   36
8th     PAS Giannina                    26   9    1    3    33   22   1    3    9    13   34   34
9th     PAS Giannina                    26   7    4    2    38   27   1    4    8    25   37   32
10th    PAS Giannina                    26   5    3    5    31   27   3    1    9    18   30   28
10th    PAS Giannina                    26   5    2    6    28   28   4    3    6    24   30   32
6th     PAS Giannina                    26   8    2    3    25   15   3    3    7    23   34   38
7th     PAS Giannina                    26   7    4    2    36   27   1    5    7    19   29   33
11th    PAS Giannina                    26   7    3    3    25   15   0    5    8    23   37   29
8th     PAS Giannina                    26   5    2    6    26   28   4    4    5    24   26   33
8th     PAS Giannina                    26   7    1    5    29   22   4    3    6    22   25   37
7th     PAS Giannina                    26   5    4    4    28   21   5    2    6    27   28   36
8th     PAS Giannina                    26   6    4    3    29   30   4    2    7    21   31   36
4th     PAS Giannina                    26   8    2    3    33   24   5    3    5    27   25   44
8th     PAS Giannina                    26   6    6    1    34   18   2    4    7    19   26   34
3rd     PAS Giannina                    26   9    2    2    28   17   3    4    6    27   31   42
3rd     PAS Giannina                    26   9    1    3    33   25   3    4    6    23   32   41
2nd     PAS Giannina                    26   9    1    3    35   20   7    2    4    29   28   51
10th    PAS Giannina                    26   7    5    1    33   20   2    2    9    21   39   34
4th     PAS Giannina                    26   7    4    2    26   19   6    2    5    26   21   45
3rd     PAS Giannina                    26   9    1    3    35   24   4    4    5    28   28   44
6th     PAS Giannina                    26   7    4    2    29   17   4    2    7    22   26   39
8th     PAS Giannina                    26   7    2    4    32   22   2    5    6    27   31   34
7th     PAS Giannina                    26   6    4    3    31   26   3    5    5    21   22   36
8th     PAS Giannina                    26   6    5    2    31   18   2    3    8    19   32   32
3rd     PAS Giannina                    26   10   2    1    39   23   3    4    6    16   26   45
4th     PAS Giannina                    26   6    4    3    34   21   5    1    7    28   27   38
2nd     PAS Giannina                    26   8    2    3    33   21   6    3    4    30   24   47
5th     PAS Giannina                    26   9    2    2    41   26   2    6    5    21   25   41
7th     PAS Giannina                    26   8    3    2    30   21   3    1    9    16   28   37
9th     PAS Giannina                    26   5    4    4    29   29   2    6    5    19   25   31
1st      PAS Giannina                    26   8    2    3    29   19   5    4    4    30   24   45
8th     PAS Giannina                    26   6    2    5    29   20   4    1    8    27   36   33
3rd     PAS Giannina                    26   10   1    2    39   23   2    6    5    22   27   43
6th     PAS Giannina                    26   7    2    4    32   25   5    2    6    27   28   40
6th     PAS Giannina                    26   9    2    2    39   24   1    7    5    24   30   39
6th     PAS Giannina                    26   7    5    1    35   24   3    4    6    24   31   39
5th     PAS Giannina                    26   7    4    2    24   20   5    0    8    21   28   40
3rd     PAS Giannina                    26   8    4    1    32   20   6    1    6    26   26   47
4th     PAS Giannina                    26   10   3    0    40   18   3    3    7    25   34   45
5th     PAS Giannina                    26   6    4    3    31   27   6    2    5    31   32   42
5th     PAS Giannina                    26   8    1    4    24   18   2    5    6    20   27   36
9th     PAS Giannina                    26   6    3    4    30   28   3    2    8    18   27   32
8th     PAS Giannina                    26   6    3    4    27   22   4    2    7    21   28   35
6th     PAS Giannina                    26   8    2    3    39   30   4    1    8    25   29   39
9th     PAS Giannina                    26   4    6    3    27   24   4    1    8    27   32   31
2nd     PAS Giannina                    26   10   2    1    37   17   3    3    7    26   32   44
12th    PAS Giannina                    26   5    2    6    28   26   3    3    7    22   27   29
5th     PAS Giannina                    26   8    1    4    30   21   5    0    8    23   29   40
5th     PAS Giannina                    26   7    4    2    37   21   4    1    8    22   28   38
9th     PAS Giannina                    26   5    4    4    26   27   4    1    8    22   25   32
4th     PAS Giannina                    26   8    4    1    40   20   3    3    7    23   30   40
4th     PAS Giannina                    26   7    3    3    36   30   5    4    4    32   33   43
13th   PAS Giannina                    26   6    3    4    28   23   2    3    8    20   33   30
7th     PAS Giannina                    26   6    3    4    29   26   5    3    5    21   23   39
13th   PAS Giannina                    26   7    1    5    27   26   1    3    9    20   33   28
8th     PAS Giannina                    26   8    2    3    36   25   2    3    8    23   34   35
9th     PAS Giannina                    26   5    5    3    27   21   2    5    6    23   30   31
7th     PAS Giannina                    26   9    1    3    35   20   2    3    8    23   31   37
5th     PAS Giannina                    26   8    3    2    39   25   3    3    7    28   28   39
7th     PAS Giannina                    26   7    2    4    31   24   3    3    7    30   35   35
4th     PAS Giannina                    26   7    2    4    30   23   3    5    5    29   28   37
6th     PAS Giannina                    26   9    3    1    35   18   3    1    9    18   27   40
6th     PAS Giannina                    26   7    3    3    29   21   3    6    4    27   27   39
6th     PAS Giannina                    26   9    2    2    33   19   2    2    9    22   36   37
5th     PAS Giannina                    26   9    1    3    38   27   2    5    6    34   39   39
5th     PAS Giannina                    26   9    1    3    31   16   3    1    9    25   38   38
3rd     PAS Giannina                    26   8    1    4    28   18   5    6    2    30   21   46
5th     PAS Giannina                    26   7    2    4    29   23   4    3    6    22   29   38
5th     PAS Giannina                    26   6    3    4    26   22   5    3    5    29   30   39
2nd     PAS Giannina                    26   9    2    2    30   20   5    0    8    22   28   44
9th     PAS Giannina                    26   6    4    3    35   25   2    5    6    16   26   33
8th     PAS Giannina                    26   7    2    4    33   25   2    6    5    21   21   35
12th    PAS Giannina                    26   6    3    4    29   24   2    3    8    18   36   30
12th    PAS Giannina                    26   6    4    3    32   28   3    1    9    20   35   32