3rd     PAS Giannina                    26   8    2    3    25   12   7    3    3    27   24   50   
6th     PAS Giannina                    26   7    4    2    23   12   5    1    7    16   23   41   
2nd     PAS Giannina                    26   8    4    1    32   12   5    4    4    17   15   47   
6th     PAS Giannina                    26   7    4    2    27   18   3    2    8    19   27   36   
3rd     PAS Giannina                    26   11   0    2    38   16   3    2    8    10   16   44   
2nd     PAS Giannina                    26   10   1    2    32   13   4    4    5    21   22   47   
1st     PAS Giannina                    26   9    2    2    29   17   6    6    1    26   16   53   
11th    PAS Giannina                    26   5    8    0    22   11   1    3    9    7    19   29   
6th     PAS Giannina                    26   8    0    5    30   19   4    4    5    13   16   40   
2nd     PAS Giannina                    26   10   1    2    32   15   7    3    3    27   14   55   
2nd     PAS Giannina                    26   10   2    1    29   13   3    5    5    17   21   46   
3rd     PAS Giannina                    26   7    3    3    28   18   8    1    4    20   15   49   
2nd     PAS Giannina                    26   8    5    0    29   12   5    5    3    16   14   49   
3rd     PAS Giannina                    26   7    5    1    29   15   5    5    3    20   15   46   
1st     PAS Giannina                    26   12   0    1    28   15   6    4    3    23   15   58   
3rd     PAS Giannina                    26   10   1    2    30   17   3    4    6    19   23   44   
2nd     PAS Giannina                    26   9    2    2    28   15   5    4    4    19   15   48   
3rd     PAS Giannina                    26   9    4    0    30   12   5    2    6    18   18   48   
5th     PAS Giannina                    26   8    4    1    31   16   3    4    6    17   20   41   
4th     PAS Giannina                    26   5    4    4    23   16   6    6    1    23   15   43   
1st     PAS Giannina                    26   10   2    1    31   14   7    1    5    25   16   54   
1st     PAS Giannina                    26   10   2    1    36   15   6    1    6    20   18   51   
3rd     PAS Giannina                    26   10   2    1    31   17   4    2    7    15   20   46   
6th     PAS Giannina                    26   11   1    1    33   11   0    3    10   14   31   37   
3rd     PAS Giannina                    26   8    4    1    21   11   4    4    5    24   25   44   
1st     PAS Giannina                    26   9    3    1    30   12   6    7    0    24   14   55   
4th     PAS Giannina                    26   9    2    2    30   17   4    5    4    23   21   46   
1st     PAS Giannina                    26   10   2    1    35   15   8    2    3    25   18   58   
3rd     PAS Giannina                    26   11   2    0    35   12   3    2    8    15   24   46   
3rd     PAS Giannina                    26   8    2    3    26   19   5    7    1    23   17   48   
4th     PAS Giannina                    26   7    1    5    19   15   5    3    5    13   17   40   
1st     PAS Giannina                    26   8    4    1    27   16   7    3    3    26   16   52   
2nd     PAS Giannina                    26   9    2    2    30   15   4    6    3    19   17   47   
5th     PAS Giannina                    26   8    2    3    29   15   3    4    6    22   24   39   
3rd     PAS Giannina                    26   7    3    3    20   13   6    3    4    22   16   45   
2nd     PAS Giannina                    26   10   1    2    30   7    5    2    6    20   20   48   
2nd     PAS Giannina                    26   10   1    2    29   14   5    6    2    22   17   52   
1st     PAS Giannina                    26   7    4    2    29   16   6    4    3    25   18   47   
2nd     PAS Giannina                    26   8    3    2    28   18   8    1    4    29   21   52   
1st     PAS Giannina                    26   7    4    2    22   14   7    2    4    18   12   48   
5th     PAS Giannina                    26   7    1    5    26   16   4    5    4    25   21   39   
2nd     PAS Giannina                    26   8    2    3    27   11   8    0    5    20   16   50   
1st     PAS Giannina                    26   12   1    0    27   10   6    2    5    24   18   57   
2nd     PAS Giannina                    26   6    4    3    25   19   8    1    4    18   13   47   
1st     PAS Giannina                    26   10   1    2    36   18   7    2    4    26   18   54   
3rd     PAS Giannina                    26   10   1    2    28   15   4    5    4    23   20   48   
2nd     PAS Giannina                    26   8    3    2    33   14   5    5    3    23   15   47   
1st     PAS Giannina                    26   9    3    1    28   9    7    3    3    21   17   54   
2nd     PAS Giannina                    26   9    2    2    24   11   4    3    6    15   18   44   
2nd     PAS Giannina                    26   11   2    0    41   16   5    4    4    16   16   54   
1st     PAS Giannina                    26   9    1    3    29   14   7    2    4    31   24   51   
6th     PAS Giannina                    26   5    5    3    26   22   5    2    6    20   19   37   
2nd     PAS Giannina                    26   8    4    1    27   16   5    4    4    18   14   47   
3rd     PAS Giannina                    26   8    3    2    29   14   7    3    3    25   16   51   
4th     PAS Giannina                    26   8    3    2    32   13   4    2    7    21   21   41   
2nd     PAS Giannina                    26   8    5    0    26   9    5    3    5    18   17   47   
3rd     PAS Giannina                    26   9    1    3    21   12   4    5    4    18   15   45   
2nd     PAS Giannina                    26   9    2    2    28   15   6    2    5    27   21   49   
3rd     PAS Giannina                    26   8    2    3    30   15   6    3    4    17   14   47   
3rd     PAS Giannina                    26   7    5    1    27   12   6    3    4    16   16   47   
5th     PAS Giannina                    26   7    3    3    25   15   5    3    5    19   19   42   
1st     PAS Giannina                    26   10   2    1    34   12   5    4    4    21   19   51   
4th     PAS Giannina                    26   9    1    3    28   15   2    9    2    22   20   43   
2nd     PAS Giannina                    26   9    4    0    30   12   4    4    5    20   21   47   
2nd     PAS Giannina                    26   7    5    1    27   15   7    2    4    22   18   49   
4th     PAS Giannina                    26   9    4    0    29   10   2    4    7    20   29   41   
3rd     PAS Giannina                    26   6    2    5    25   22   5    4    4    23   20   39   
2nd     PAS Giannina                    26   10   2    1    29   15   6    2    5    20   19   52   
3rd     PAS Giannina                    26   6    3    4    31   18   6    2    5    21   19   41   
1st     PAS Giannina                    26   10   1    2    29   12   6    2    5    19   14   51   
4th     PAS Giannina                    26   8    1    4    31   19   4    5    4    19   20   42   
1st     PAS Giannina                    26   10   3    0    26   8    10   2    1    25   13   65   
1st     PAS Giannina                    26   10   2    1    33   14   6    3    4    23   18   53   
2nd     PAS Giannina                    26   9    1    3    25   15   8    1    4    25   20   53   
2nd     PAS Giannina                    26   11   2    0    33   10   2    5    6    14   21   46   
2nd     PAS Giannina                    26   11   2    0    36   10   5    1    7    19   20   51   
2nd     PAS Giannina                    26   10   0    3    30   12   4    5    4    22   19   47   
5th     PAS Giannina                    26   9    0    4    29   19   3    4    6    25   25   40   
2nd     PAS Giannina                    26   10   2    1    28   14   6    0    7    24   18   50   
1st     PAS Giannina                    26   8    5    0    32   14   8    2    3    30   20   55   
2nd     PAS Giannina                    26   9    1    3    32   20   5    4    4    23   20   47   
1st     PAS Giannina                    26   10   2    1    32   12   7    3    3    21   16   56   
4th     PAS Giannina                    26   8    4    1    28   13   5    4    4    18   20   47   
3rd     PAS Giannina                    26   10   2    1    30   15   5    2    6    20   18   49   
1st     PAS Giannina                    26   9    2    2    28   14   7    2    4    21   15   52   
2nd     PAS Giannina                    26   9    1    3    36   15   6    3    4    18   12   49   
1st     PAS Giannina                    26   11   2    0    34   8    7    5    1    30   17   61   
2nd     PAS Giannina                    26   10   3    0    28   10   3    6    4    16   21   48   
1st     PAS Giannina                    26   12   1    0    29   6    7    3    3    28   19   61   
3rd     PAS Giannina                    26   7    4    2    26   15   7    1    5    23   19   47   
3rd     PAS Giannina                    26   7    3    3    22   19   7    0    6    24   22   45   
2nd     PAS Giannina                    26   9    3    1    33   12   6    3    4    18   16   51   
2nd     PAS Giannina                    26   11   2    0    35   10   6    3    4    20   17   56   
1st     PAS Giannina                    26   10   1    2    36   12   7    3    3    21   15   55   
1st     PAS Giannina                    26   8    4    1    30   18   9    1    3    23   13   56   
2nd     PAS Giannina                    26   11   0    2    28   13   4    3    6    19   23   48   
1st     PAS Giannina                    26   5    5    3    21   16   11   0    2    22   12   53   
8th     PAS Giannina                    26   6    3    4    26   16   4    4    5    20   22   37   
1st     PAS Giannina                    26   8    3    2    27   13   7    1    5    26   19   49   
3rd     PAS Giannina                    26   8    4    1    18   9    4    6    3    24   20   46   