1st     PAS Giannina                    26   11   0    2    42   20   12   1    0    54   13   70   
1st     PAS Giannina                    26   8    5    0    38   16   11   2    0    36   16   64   
1st     PAS Giannina                    26   11   0    2    44   15   9    2    2    33   15   62   
1st     PAS Giannina                    26   11   2    0    41   15   9    4    0    35   20   66   
1st     PAS Giannina                    26   10   2    1    30   15   10   2    1    48   18   64   
1st     PAS Giannina                    26   10   3    0    34   17   8    4    1    38   15   61   
1st     PAS Giannina                    26   11   1    1    45   17   8    3    2    34   17   61   
1st     PAS Giannina                    26   10   2    1    33   14   10   1    2    34   10   63   
1st     PAS Giannina                    26   12   1    0    41   17   9    2    2    34   19   66   
1st     PAS Giannina                    26   9    3    1    37   16   7    1    5    33   25   52   
2nd     PAS Giannina                    26   10   3    0    29   13   8    1    4    33   17   58   
1st     PAS Giannina                    26   11   1    1    42   16   10   1    2    31   15   65   
1st     PAS Giannina                    26   10   1    2    41   15   8    3    2    34   19   58   
1st     PAS Giannina                    26   11   1    1    35   16   10   1    2    26   10   65   
1st     PAS Giannina                    26   12   1    0    44   15   11   2    0    39   17   72   
1st     PAS Giannina                    26   11   2    0    40   17   7    3    3    34   27   59   
1st     PAS Giannina                    26   9    4    0    47   23   10   1    2    35   14   62   
1st     PAS Giannina                    26   11   2    0    41   13   8    2    3    32   22   61   
1st     PAS Giannina                    26   11   1    1    41   13   9    2    2    36   15   63   
1st     PAS Giannina                    26   11   0    2    39   18   10   3    0    37   16   66   
1st     PAS Giannina                    26   12   0    1    40   15   12   1    0    49   16   73   
1st     PAS Giannina                    26   11   1    1    32   11   8    0    5    30   15   58   
1st     PAS Giannina                    26   11   1    1    45   22   10   2    1    32   10   66   
2nd     PAS Giannina                    26   8    3    2    33   17   10   2    1    37   13   59   
1st     PAS Giannina                    26   11   2    0    32   17   9    3    1    33   16   65   
1st     PAS Giannina                    26   10   1    2    38   18   10   2    1    40   17   63   
1st     PAS Giannina                    26   10   1    2    36   14   11   0    2    36   14   64   
1st     PAS Giannina                    26   11   1    1    47   16   9    4    0    33   15   65   
1st     PAS Giannina                    26   11   1    1    38   16   10   0    3    30   14   64   
1st     PAS Giannina                    26   12   1    0    41   16   10   1    2    39   18   68   
1st     PAS Giannina                    26   13   0    0    46   15   9    0    4    32   21   66   
2nd     PAS Giannina                    26   9    3    1    42   16   11   1    1    36   16   64   
1st     PAS Giannina                    26   9    3    1    40   14   11   1    1    39   19   64   
1st     PAS Giannina                    26   11   2    0    39   12   9    2    2    31   15   64   
1st     PAS Giannina                    26   10   2    1    36   12   7    4    2    34   19   57   
1st     PAS Giannina                    26   8    1    4    32   18   10   1    2    33   16   56   
1st     PAS Giannina                    26   10   2    1    35   18   10   2    1    34   13   64   
1st     PAS Giannina                    26   11   2    0    44   16   10   2    1    42   18   67   
1st     PAS Giannina                    26   12   0    1    40   14   9    4    0    42   16   67   
1st     PAS Giannina                    26   9    3    1    37   19   10   3    0    31   8    63   
1st     PAS Giannina                    26   11   1    1    38   15   11   2    0    38   14   69   
1st     PAS Giannina                    26   11   0    2    38   15   10   2    1    34   16   65   
1st     PAS Giannina                    26   11   2    0    44   19   9    2    2    31   19   64   
2nd     PAS Giannina                    26   8    4    1    33   16   7    4    2    32   20   53   
1st     PAS Giannina                    26   12   1    0    43   16   8    2    3    30   16   63   
1st     PAS Giannina                    26   12   1    0    43   11   13   0    0    35   7    76   
1st     PAS Giannina                    26   9    2    2    37   19   10   1    2    39   21   60   
1st     PAS Giannina                    26   13   0    0    41   10   9    1    3    33   17   67   
1st     PAS Giannina                    26   11   1    1    44   16   10   2    1    41   19   66   
1st     PAS Giannina                    26   10   0    3    41   20   10   2    1    31   9    62   
1st     PAS Giannina                    26   11   2    0    42   15   13   0    0    37   15   74   
1st     PAS Giannina                    26   11   1    1    47   21   8    3    2    39   19   61   
1st     PAS Giannina                    26   12   1    0    46   12   10   1    2    32   15   68   
1st     PAS Giannina                    26   13   0    0    45   16   8    3    2    30   16   66   
1st     PAS Giannina                    26   10   2    1    36   10   12   0    1    43   12   68   
1st     PAS Giannina                    26   9    3    1    42   15   10   1    2    36   16   61   
1st     PAS Giannina                    26   8    2    3    35   20   8    4    1    33   14   54   
1st     PAS Giannina                    26   9    2    2    37   22   8    2    3    33   17   55   
1st     PAS Giannina                    26   10   2    1    44   14   9    2    2    39   17   61   
1st     PAS Giannina                    26   11   1    1    39   15   9    2    2    30   17   63   
1st     PAS Giannina                    26   12   1    0    39   11   11   0    2    38   20   70   
1st     PAS Giannina                    26   12   0    1    45   16   8    1    4    28   17   61   
1st     PAS Giannina                    26   11   1    1    41   16   11   0    2    37   14   67   
1st     PAS Giannina                    26   12   1    0    47   11   10   1    2    34   17   68   
1st     PAS Giannina                    26   11   2    0    32   9    10   2    1    45   18   67   
2nd     PAS Giannina                    26   9    1    3    36   20   8    4    1    34   16   56   
1st     PAS Giannina                    26   11   2    0    34   13   11   2    0    32   6    70   
2nd     PAS Giannina                    26   10   2    1    39   15   10   1    2    36   14   63   
1st     PAS Giannina                    26   12   1    0    45   15   9    3    1    28   17   67   
1st     PAS Giannina                    26   12   1    0    43   14   9    2    2    39   15   66   
1st     PAS Giannina                    26   10   3    0    34   12   9    0    4    38   22   60   
1st     PAS Giannina                    26   10   3    0    45   20   9    3    1    37   11   63   
2nd     PAS Giannina                    26   10   1    2    41   17   10   2    1    39   16   63   
1st     PAS Giannina                    26   9    2    2    38   21   8    5    0    33   10   58   
1st     PAS Giannina                    26   11   0    2    39   11   8    3    2    27   16   60   
1st     PAS Giannina                    26   12   0    1    48   12   9    4    0    37   16   67   
1st     PAS Giannina                    26   11   2    0    33   11   7    3    3    35   19   59   
1st     PAS Giannina                    26   11   1    1    40   15   10   1    2    30   11   65   
1st     PAS Giannina                    26   10   1    2    40   20   9    1    3    36   15   59   
1st     PAS Giannina                    26   11   2    0    42   15   9    3    1    35   19   65   
1st     PAS Giannina                    26   12   0    1    40   14   9    3    1    38   17   66   
1st     PAS Giannina                    26   11   2    0    43   20   11   1    1    44   17   69   
1st     PAS Giannina                    26   11   2    0    39   19   11   0    2    41   10   68   
1st     PAS Giannina                    26   12   0    1    42   9    8    3    2    32   13   63   
1st     PAS Giannina                    26   13   0    0    42   11   8    1    4    33   21   64   
1st     PAS Giannina                    26   11   2    0    41   17   10   2    1    33   16   67   
1st     PAS Giannina                    26   11   2    0    45   13   10   1    2    35   14   66   
1st     PAS Giannina                    26   12   1    0    42   13   9    1    3    26   16   65   
1st     PAS Giannina                    26   10   0    3    37   21   10   2    1    27   9    62   
2nd     PAS Giannina                    26   8    3    2    32   14   8    1    4    34   26   52   
1st     PAS Giannina                    26   9    1    3    34   19   12   1    0    41   19   65   
1st     PAS Giannina                    26   12   1    0    36   13   9    1    3    37   18   65   
1st     PAS Giannina                    26   11   2    0    37   10   10   2    1    41   19   67   
1st     PAS Giannina                    26   10   2    1    43   17   12   1    0    38   12   69   
1st     PAS Giannina                    26   10   3    0    38   18   11   1    1    35   12   67   
1st     PAS Giannina                    26   13   0    0    41   18   7    2    4    31   21   62   
2nd     PAS Giannina                    26   11   0    2    44   19   9    2    2    29   16   62   
3rd     PAS Giannina                    26   8    3    2    36   18   7    3    3    29   15   51   
1st     PAS Giannina                    26   10   3    0    42   21   9    2    2    38   24   62   
1st     PAS Giannina                    26   9    2    2    40   18   10   3    0    42   17   62   