1st     PAS Giannina                    26   8    3    2    23   11   8    4    1    24   9    55   
2nd     PAS Giannina                    26   7    6    0    28   16   7    2    4    22   13   50   
2nd     PAS Giannina                    26   8    4    1    22   9    5    4    4    23   19   47   
1st     PAS Giannina                    26   11   1    1    34   14   7    3    3    21   14   58   
1st     PAS Giannina                    26   11   0    2    30   12   7    4    2    19   9    58   
1st     PAS Giannina                    26   8    5    0    30   15   6    3    4    21   17   50   
1st     PAS Giannina                    26   9    4    0    29   12   7    4    2    21   12   56   
1st     PAS Giannina                    26   10   2    1    27   12   10   2    1    24   9    64   
1st     PAS Giannina                    26   9    3    1    30   15   8    3    2    33   14   57   
1st     PAS Giannina                    26   9    2    2    24   12   8    5    0    22   9    58   
2nd     PAS Giannina                    26   9    4    0    36   13   10   1    2    24   12   62   
1st     PAS Giannina                    26   10   2    1    35   14   6    6    1    25   16   56   
1st     PAS Giannina                    26   9    2    2    31   14   8    2    3    28   8    55   
1st     PAS Giannina                    26   12   1    0    31   6    7    3    3    15   9    61   
2nd     PAS Giannina                    26   10   2    1    33   8    5    7    1    27   17   54   
1st     PAS Giannina                    26   11   1    1    32   12   9    3    1    32   17   64   
1st     PAS Giannina                    26   10   2    1    35   17   8    3    2    24   13   59   
1st     PAS Giannina                    26   11   2    0    41   17   8    4    1    21   11   63   
1st     PAS Giannina                    26   10   2    1    32   9    7    1    5    33   18   54   
1st     PAS Giannina                    26   12   0    1    33   14   6    4    3    18   16   58   
1st     PAS Giannina                    26   11   0    2    32   12   7    4    2    22   11   58   
1st     PAS Giannina                    26   10   1    2    30   11   8    2    3    17   9    57   
1st     PAS Giannina                    26   10   2    1    29   10   7    4    2    22   14   57   
1st     PAS Giannina                    26   10   1    2    35   14   7    3    3    22   13   55   
1st     PAS Giannina                    26   10   2    1    33   13   9    4    0    34   10   63   
1st     PAS Giannina                    26   7    5    1    21   9    9    3    1    34   14   56   
1st     PAS Giannina                    26   8    4    1    26   13   7    5    1    27   6    54   
1st     PAS Giannina                    26   9    3    1    31   9    8    3    2    29   15   57   
1st     PAS Giannina                    26   11   1    1    28   8    6    4    3    23   12   56   
2nd     PAS Giannina                    26   9    3    1    29   12   5    4    4    25   18   49   
1st     PAS Giannina                    26   11   2    0    34   6    9    2    2    21   10   64   
1st     PAS Giannina                    26   11   2    0    32   13   6    4    3    26   13   57   
1st     PAS Giannina                    26   11   0    2    32   18   7    5    1    20   9    59   
1st     PAS Giannina                    26   12   1    0    37   9    9    4    0    36   13   68   
1st     PAS Giannina                    26   9    3    1    32   16   4    4    5    17   17   46   
2nd     PAS Giannina                    26   7    5    1    27   10   6    5    2    21   14   49   
1st     PAS Giannina                    26   10   2    1    28   9    8    3    2    26   14   59   
1st     PAS Giannina                    26   11   1    1    30   10   6    4    3    22   14   56   
2nd     PAS Giannina                    26   10   1    2    30   10   7    2    4    21   11   54   
2nd     PAS Giannina                    26   10   2    1    27   10   6    3    4    17   16   53   
3rd     PAS Giannina                    26   7    2    4    28   17   6    1    6    19   19   42   
2nd     PAS Giannina                    26   9    2    2    28   10   8    1    4    26   12   54   
1st     PAS Giannina                    26   11   1    1    29   9    10   1    2    27   14   65   
1st     PAS Giannina                    26   13   0    0    39   9    6    5    2    26   16   62   
1st     PAS Giannina                    26   10   1    2    37   12   7    3    3    20   11   55   
3rd     PAS Giannina                    26   10   0    3    29   14   5    3    5    19   15   48   
1st     PAS Giannina                    26   11   2    0    32   9    6    4    3    21   11   57   
2nd     PAS Giannina                    26   8    3    2    34   17   7    0    6    21   16   48   
2nd     PAS Giannina                    26   10   1    2    30   10   5    4    4    20   15   50   
1st     PAS Giannina                    26   12   0    1    34   10   7    3    3    28   17   60   
1st     PAS Giannina                    26   12   1    0    37   10   6    5    2    22   14   60   
2nd     PAS Giannina                    26   10   1    2    28   13   6    5    2    28   14   54   
1st     PAS Giannina                    26   13   0    0    38   8    6    2    5    22   19   59   
1st     PAS Giannina                    26   10   2    1    36   14   6    4    3    16   15   54   
1st     PAS Giannina                    26   8    3    2    29   13   8    3    2    27   14   54   
2nd     PAS Giannina                    26   5    5    3    19   11   8    3    2    21   13   47   
3rd     PAS Giannina                    26   10   1    2    34   16   4    2    7    16   17   45   
2nd     PAS Giannina                    26   12   1    0    33   8    3    5    5    16   17   51   
1st     PAS Giannina                    26   11   1    1    29   9    6    2    5    24   20   54   
1st     PAS Giannina                    26   8    3    2    21   11   7    4    2    20   10   52   
3rd     PAS Giannina                    26   7    3    3    24   15   5    6    2    19   12   45   
2nd     PAS Giannina                    26   9    2    2    34   15   5    4    4    26   18   48   
2nd     PAS Giannina                    26   12   1    0    42   9    5    3    5    20   16   55   
1st     PAS Giannina                    26   9    3    1    26   9    7    3    3    21   14   54   
2nd     PAS Giannina                    26   8    2    3    26   15   9    1    3    26   14   54   
1st     PAS Giannina                    26   11   1    1    27   11   7    4    2    22   11   59   
2nd     PAS Giannina                    26   8    3    2    32   15   7    4    2    30   18   52   
1st     PAS Giannina                    26   12   0    1    32   10   10   1    2    24   7    67   
2nd     PAS Giannina                    26   9    4    0    27   11   7    3    3    24   14   55   
1st     PAS Giannina                    26   9    2    2    25   11   5    7    1    14   9    51   
1st     PAS Giannina                    26   10   3    0    32   10   8    1    4    21   14   58   
1st     PAS Giannina                    26   11   2    0    38   10   6    2    5    15   12   55   
2nd     PAS Giannina                    26   11   1    1    32   15   9    0    4    19   15   61   
1st     PAS Giannina                    26   9    4    0    38   13   10   2    1    28   17   63   
2nd     PAS Giannina                    26   9    4    0    32   8    6    3    4    21   16   52   
2nd     PAS Giannina                    26   9    3    1    28   13   7    2    4    21   13   53   
1st     PAS Giannina                    26   11   0    2    31   13   8    1    4    28   12   58   
1st     PAS Giannina                    26   9    3    1    23   9    6    1    6    23   17   49   
1st     PAS Giannina                    26   10   2    1    30   12   10   1    2    26   10   63   
1st     PAS Giannina                    26   10   3    0    24   6    6    4    3    18   13   55   
2nd     PAS Giannina                    26   11   0    2    30   11   6    3    4    19   11   54   
1st     PAS Giannina                    26   9    3    1    31   13   10   2    1    30   9    62   
3rd     PAS Giannina                    26   7    3    3    28   13   6    2    5    22   17   44   
2nd     PAS Giannina                    26   11   1    1    34   12   6    4    3    22   17   56   
2nd     PAS Giannina                    26   11   0    2    33   16   6    2    5    22   19   53   
1st     PAS Giannina                    26   10   1    2    34   15   6    3    4    24   13   52   
2nd     PAS Giannina                    26   8    2    3    25   15   7    3    3    18   12   50   
1st     PAS Giannina                    26   11   2    0    34   11   10   2    1    26   10   67   
1st     PAS Giannina                    26   12   1    0    37   13   6    2    5    20   14   57   
1st     PAS Giannina                    26   10   2    1    27   11   7    4    2    24   14   57   
1st     PAS Giannina                    26   10   1    2    26   9    6    4    3    23   16   53   
1st     PAS Giannina                    26   9    2    2    36   15   10   2    1    25   11   61   
1st     PAS Giannina                    26   10   2    1    30   12   7    5    1    17   8    58   
1st     PAS Giannina                    26   9    3    1    32   11   7    3    3    26   15   54   
2nd     PAS Giannina                    26   9    2    2    30   14   6    5    2    17   12   52   
1st     PAS Giannina                    26   11   1    1    31   12   10   0    3    21   11   64   
4th     PAS Giannina                    26   8    2    3    35   17   5    5    3    20   13   46   
2nd     PAS Giannina                    26   10   1    2    30   8    5    3    5    22   20   49   
1st     PAS Giannina                    26   8    2    3    29   16   7    3    3    18   13   50   
1st     PAS Giannina                    26   11   0    2    31   12   9    2    2    24   12   62   