1st     PAS Giannina                    26   11   0    2    34   16   9    3    1    40   13   63
1st     PAS Giannina                    26   9    4    0    34   15   10   0    3    31   15   61
1st     PAS Giannina                    26   10   2    1    36   15   9    3    1    27   12   62
1st     PAS Giannina                    26   10   1    2    39   15   11   2    0    38   14   66
1st     PAS Giannina                    26   7    4    2    32   17   11   1    1    29   14   59
2nd     PAS Giannina                    26   9    2    2    29   12   6    4    3    25   15   51
1st     PAS Giannina                    26   10   3    0    26   9    9    4    0    30   11   64
1st     PAS Giannina                    26   10   2    1    36   13   8    2    3    30   19   58
1st     PAS Giannina                    26   10   1    2    25   10   7    2    4    30   18   54
1st     PAS Giannina                    26   13   0    0    38   9    8    4    1    24   11   67
1st     PAS Giannina                    26   11   1    1    32   9    11   2    0    34   11   69
1st     PAS Giannina                    26   11   1    1    29   12   10   0    3    29   17   64
1st     PAS Giannina                    26   11   2    0    33   13   7    4    2    31   18   60
1st     PAS Giannina                    26   11   2    0    31   8    10   0    3    25   10   65
1st     PAS Giannina                    26   12   0    1    46   12   9    4    0    29   8    67
1st     PAS Giannina                    26   10   3    0    34   7    10   1    2    32   17   64
2nd     PAS Giannina                    26   11   1    1    38   11   7    4    2    27   18   59
1st     PAS Giannina                    26   10   1    2    26   10   9    3    1    35   14   61
1st     PAS Giannina                    26   11   1    1    26   8    8    3    2    28   14   61
1st     PAS Giannina                    26   12   1    0    38   8    12   0    1    34   8    73
1st     PAS Giannina                    26   9    4    0    27   14   9    3    1    30   12   61
1st     PAS Giannina                    26   9    4    0    28   11   8    3    2    29   9    58
1st     PAS Giannina                    26   12   1    0    39   9    6    5    2    25   16   60
1st     PAS Giannina                    26   10   2    1    30   7    9    4    0    33   10   63
1st     PAS Giannina                    26   9    4    0    35   15   6    3    4    28   14   52
1st     PAS Giannina                    26   12   1    0    31   8    10   1    2    33   16   68
1st     PAS Giannina                    26   11   2    0    35   5    13   0    0    38   4    74
1st     PAS Giannina                    26   13   0    0    38   6    10   2    1    25   7    71
1st     PAS Giannina                    26   9    2    2    30   11   6    3    4    22   13   50
1st     PAS Giannina                    26   12   1    0    44   14   9    3    1    31   7    67
1st     PAS Giannina                    26   9    4    0    30   5    12   1    0    37   10   68
1st     PAS Giannina                    26   10   2    1    29   9    11   1    1    30   11   66
1st     PAS Giannina                    26   9    3    1    32   10   8    4    1    27   11   58
1st     PAS Giannina                    26   11   1    1    32   13   10   0    3    27   13   64
1st     PAS Giannina                    26   12   1    0    38   9    10   3    0    30   4    70
1st     PAS Giannina                    26   8    2    3    20   9    10   1    2    33   12   57
1st     PAS Giannina                    26   12   1    0    27   8    9    3    1    30   11   67
1st     PAS Giannina                    26   12   0    1    37   9    9    3    1    29   14   66
1st     PAS Giannina                    26   9    3    1    25   7    8    4    1    26   9    58
1st     PAS Giannina                    26   12   1    0    37   9    9    1    3    25   16   65
1st     PAS Giannina                    26   11   1    1    32   9    9    2    2    28   13   63
1st     PAS Giannina                    26   13   0    0    40   6    8    2    3    30   14   65
1st     PAS Giannina                    26   9    2    2    29   11   12   1    0    42   13   66
1st     PAS Giannina                    26   10   1    2    23   9    10   3    0    42   11   64
1st     PAS Giannina                    26   13   0    0    39   6    6    3    4    25   20   60
1st     PAS Giannina                    26   13   0    0    34   8    9    3    1    38   13   69
1st     PAS Giannina                    26   11   1    1    41   13   12   0    1    36   11   70
1st     PAS Giannina                    26   10   2    1    33   9    11   2    0    34   16   67
1st     PAS Giannina                    26   13   0    0    34   10   5    5    3    21   18   59
1st     PAS Giannina                    26   13   0    0    38   12   11   1    1    36   12   73
1st     PAS Giannina                    26   10   3    0    35   10   8    3    2    33   17   60
1st     PAS Giannina                    26   12   0    1    37   14   11   0    2    39   13   69
1st     PAS Giannina                    26   11   2    0    34   9    9    3    1    28   11   65
2nd     PAS Giannina                    26   8    2    3    26   15   9    3    1    27   4    56
1st     PAS Giannina                    26   13   0    0    36   7    8    4    1    36   17   67
1st     PAS Giannina                    26   11   1    1    36   13   9    1    3    29   13   62
1st     PAS Giannina                    26   12   1    0    34   8    12   1    0    40   14   74
1st     PAS Giannina                    26   10   2    1    32   7    8    4    1    28   16   60
1st     PAS Giannina                    26   10   3    0    33   11   11   1    1    33   5    67
1st     PAS Giannina                    26   7    4    2    25   10   9    3    1    30   12   55
1st     PAS Giannina                    26   12   1    0    32   8    11   2    0    36   12   72
1st     PAS Giannina                    26   11   2    0    32   8    9    2    2    32   15   64
1st     PAS Giannina                    26   10   3    0    33   13   10   2    1    36   12   65
1st     PAS Giannina                    26   9    3    1    26   8    11   1    1    37   14   64
2nd     PAS Giannina                    26   10   3    0    32   12   7    1    5    26   21   55
1st     PAS Giannina                    26   10   2    1    31   12   9    4    0    34   14   63
1st     PAS Giannina                    26   9    2    2    26   14   10   0    3    28   18   59
2nd     PAS Giannina                    26   10   2    1    32   6    5    5    3    24   21   52
1st     PAS Giannina                    26   8    3    2    30   13   11   0    2    35   12   60
1st     PAS Giannina                    26   11   1    1    35   10   9    2    2    30   13   63
1st     PAS Giannina                    26   11   0    2    30   10   11   1    1    35   10   67
2nd     PAS Giannina                    26   9    1    3    25   9    9    3    1    27   9    58
1st     PAS Giannina                    26   10   1    2    35   13   11   1    1    35   9    65
1st     PAS Giannina                    26   12   0    1    37   10   9    2    2    28   16   65
1st     PAS Giannina                    26   10   3    0    41   12   11   0    2    36   13   66
1st     PAS Giannina                    26   12   1    0    34   11   10   2    1    30   10   69
1st     PAS Giannina                    26   10   2    1    30   11   10   2    1    32   15   64
1st     PAS Giannina                    26   10   2    1    39   14   10   3    0    34   16   65
1st     PAS Giannina                    26   13   0    0    40   7    10   2    1    32   14   71
1st     PAS Giannina                    26   11   1    1    38   14   9    3    1    32   12   64
1st     PAS Giannina                    26   11   2    0    39   13   10   2    1    31   15   67
1st     PAS Giannina                    26   13   0    0    39   9    11   1    1    34   9    73
1st     PAS Giannina                    26   9    2    2    29   13   7    3    3    26   17   53
1st     PAS Giannina                    26   11   2    0    25   10   11   1    1    26   9    69
1st     PAS Giannina                    26   12   1    0    44   9    9    2    2    24   11   66
1st     PAS Giannina                    26   12   1    0    31   6    9    2    2    32   14   66
1st     PAS Giannina                    26   7    6    0    31   14   8    2    3    29   16   53
1st     PAS Giannina                    26   8    2    3    26   11   9    2    2    23   13   55
1st     PAS Giannina                    26   10   2    1    33   7    7    4    2    26   17   57
1st     PAS Giannina                    26   11   2    0    38   15   12   1    0    37   10   72
1st     PAS Giannina                    26   12   1    0    38   9    9    1    3    31   13   65
1st     PAS Giannina                    26   11   1    1    38   8    8    3    2    28   11   61
1st     PAS Giannina                    26   11   0    2    33   8    11   1    1    33   14   67
1st     PAS Giannina                    26   10   2    1    30   11   12   1    0    40   10   69
2nd     PAS Giannina                    26   7    5    1    25   12   6    1    6    35   21   45
1st     PAS Giannina                    26   8    3    2    27   14   11   2    0    37   6    62
1st     PAS Giannina                    26   10   3    0    27   9    9    1    3    35   13   61
1st     PAS Giannina                    26   13   0    0    43   9    9    2    2    39   10   68
1st     PAS Giannina                    26   10   2    1    25   7    9    1    3    35   12   60
1st     PAS Giannina                    26   12   0    1    35   5    11   1    1    37   15   70