1st     PAS Giannina                    26   10   3    0    33   7    10   3    0    33   12   66   
1st     PAS Giannina                    26   11   1    1    33   10   9    2    2    30   16   63   
1st     PAS Giannina                    26   10   2    1    32   7    9    2    2    23   8    61   
1st     PAS Giannina                    26   11   1    1    35   7    9    1    3    33   10   62   
1st     PAS Giannina                    26   10   2    1    37   13   8    4    1    29   11   60   
2nd     PAS Giannina                    26   8    4    1    29   10   7    2    4    22   14   51   
1st     PAS Giannina                    26   11   2    0    41   13   6    3    4    24   18   56   
1st     PAS Giannina                    26   12   0    1    29   8    8    3    2    24   9    63   
1st     PAS Giannina                    26   10   2    1    38   10   9    2    2    27   12   61   
1st     PAS Giannina                    26   8    3    2    24   12   9    3    1    25   9    57   
1st     PAS Giannina                    26   11   1    1    38   14   9    2    2    26   11   63   
1st     PAS Giannina                    26   11   2    0    31   12   12   0    1    29   10   71   
2nd     PAS Giannina                    26   12   0    1    40   12   8    1    4    19   13   61   
1st     PAS Giannina                    26   10   1    2    39   16   10   1    2    33   14   62   
2nd     PAS Giannina                    26   8    5    0    37   14   7    2    4    20   13   52   
2nd     PAS Giannina                    26   9    1    3    25   10   8    2    3    27   14   54   
1st     PAS Giannina                    26   12   1    0    35   13   9    2    2    36   12   66   
1st     PAS Giannina                    26   10   2    1    26   8    9    1    3    25   12   60   
1st     PAS Giannina                    26   9    2    2    30   16   9    3    1    29   13   59   
1st     PAS Giannina                    26   11   1    1    35   9    10   3    0    33   11   67   
1st     PAS Giannina                    26   11   2    0    33   10   7    2    4    30   18   58   
1st     PAS Giannina                    26   12   1    0    29   6    10   1    2    29   14   68   
1st     PAS Giannina                    26   11   2    0    34   9    5    6    2    19   14   56   
2nd     PAS Giannina                    26   11   0    2    35   12   5    4    4    26   20   52   
2nd     PAS Giannina                    26   10   1    2    30   12   6    3    4    23   15   52   
1st     PAS Giannina                    26   11   1    1    33   11   11   1    1    33   10   68   
1st     PAS Giannina                    26   11   1    1    36   8    7    5    1    34   17   60   
2nd     PAS Giannina                    26   9    3    1    35   16   5    3    5    21   17   48   
1st     PAS Giannina                    26   12   1    0    34   8    10   1    2    33   17   68   
1st     PAS Giannina                    26   12   1    0    35   8    11   1    1    31   6    71   
1st     PAS Giannina                    26   12   1    0    39   13   8    4    1    29   13   65   
1st     PAS Giannina                    26   10   2    1    36   12   9    0    4    30   13   59   
1st     PAS Giannina                    26   10   2    1    28   10   8    3    2    30   17   59   
1st     PAS Giannina                    26   11   2    0    35   6    11   2    0    28   8    70   
1st     PAS Giannina                    26   11   2    0    31   10   10   2    1    29   12   67   
2nd     PAS Giannina                    26   9    3    1    33   13   7    4    2    28   18   55   
1st     PAS Giannina                    26   11   1    1    32   13   8    1    4    20   16   59   
1st     PAS Giannina                    26   9    1    3    27   13   7    4    2    29   16   53   
1st     PAS Giannina                    26   10   2    1    28   8    10   1    2    30   15   63   
1st     PAS Giannina                    26   13   0    0    34   5    8    5    0    35   19   68   
1st     PAS Giannina                    26   11   1    1    31   13   9    4    0    29   8    65   
2nd     PAS Giannina                    26   10   2    1    39   13   6    4    3    29   16   54   
2nd     PAS Giannina                    26   10   1    2    34   17   7    3    3    22   10   55   
1st     PAS Giannina                    26   10   3    0    36   8    6    5    2    25   20   56   
1st     PAS Giannina                    26   9    4    0    24   7    8    2    3    29   13   57   
1st     PAS Giannina                    26   10   2    1    35   11   8    1    4    32   15   57   
1st     PAS Giannina                    26   10   2    1    33   16   10   0    3    29   15   62   
1st     PAS Giannina                    26   11   1    1    33   13   8    3    2    28   15   61   
1st     PAS Giannina                    26   10   3    0    28   8    6    4    3    28   15   55   
1st     PAS Giannina                    26   11   1    1    32   13   6    5    2    26   13   57   
1st     PAS Giannina                    26   11   2    0    49   12   9    1    3    31   17   63   
1st     PAS Giannina                    26   11   2    0    34   8    7    4    2    24   16   60   
1st     PAS Giannina                    26   11   1    1    39   10   10   2    1    37   12   66   
1st     PAS Giannina                    26   10   2    1    26   9    9    1    3    38   20   60   
1st     PAS Giannina                    26   12   1    0    37   10   9    3    1    30   11   67   
1st     PAS Giannina                    26   10   3    0    34   12   10   2    1    39   14   65   
1st     PAS Giannina                    26   11   2    0    30   11   11   2    0    32   11   70   
1st     PAS Giannina                    26   12   0    1    40   11   8    3    2    28   12   63   
1st     PAS Giannina                    26   10   2    1    33   8    10   1    2    39   17   63   
1st     PAS Giannina                    26   12   1    0    34   10   11   1    1    29   7    71   
2nd     PAS Giannina                    26   8    2    3    26   12   7    2    4    24   17   49   
2nd     PAS Giannina                    26   10   1    2    33   10   8    4    1    30   12   59   
2nd     PAS Giannina                    26   11   0    2    39   12   7    3    3    23   13   57   
1st     PAS Giannina                    26   10   2    1    41   14   11   1    1    33   12   66   
1st     PAS Giannina                    26   12   1    0    36   9    10   2    1    29   11   69   
1st     PAS Giannina                    26   11   1    1    29   7    7    4    2    22   10   59   
1st     PAS Giannina                    26   10   1    2    33   13   12   1    0    35   16   68   
1st     PAS Giannina                    26   11   1    1    41   10   9    3    1    31   9    64   
1st     PAS Giannina                    26   11   1    1    32   11   10   1    2    35   11   65   
1st     PAS Giannina                    26   11   1    1    29   9    8    3    2    31   12   61   
1st     PAS Giannina                    26   11   1    1    32   6    9    2    2    29   14   63   
1st     PAS Giannina                    26   12   1    0    38   13   8    3    2    39   15   64   
1st     PAS Giannina                    26   10   2    1    37   11   6    4    3    30   22   54   
1st     PAS Giannina                    26   8    2    3    32   13   10   2    1    26   12   58   
1st     PAS Giannina                    26   12   1    0    34   9    10   3    0    30   12   70   
1st     PAS Giannina                    26   10   3    0    28   11   7    4    2    23   14   58   
1st     PAS Giannina                    26   10   3    0    35   8    10   3    0    30   14   66   
1st     PAS Giannina                    26   12   1    0    35   13   10   2    1    30   11   69   
1st     PAS Giannina                    26   11   2    0    36   9    8    1    4    21   9    60   
1st     PAS Giannina                    26   9    3    1    28   11   9    2    2    26   13   59   
1st     PAS Giannina                    26   12   1    0    39   12   10   2    1    34   14   69   
1st     PAS Giannina                    26   10   1    2    28   9    8    3    2    29   14   58   
1st     PAS Giannina                    26   12   1    0    35   9    9    2    2    29   16   66   
2nd     PAS Giannina                    26   8    3    2    26   12   11   0    2    35   11   60   
2nd     PAS Giannina                    26   8    4    1    31   9    5    6    2    28   18   49   
1st     PAS Giannina                    26   11   2    0    32   7    6    7    0    33   17   60   
1st     PAS Giannina                    26   11   1    1    35   9    9    4    0    27   7    65   
1st     PAS Giannina                    26   10   3    0    30   9    11   1    1    34   9    67   
1st     PAS Giannina                    26   12   0    1    36   10   11   1    1    39   16   70   
1st     PAS Giannina                    26   12   0    1    36   8    10   2    1    31   14   68   
1st     PAS Giannina                    26   10   3    0    27   11   6    5    2    27   16   56   
1st     PAS Giannina                    26   8    4    1    24   14   8    3    2    32   18   55   
1st     PAS Giannina                    26   10   3    0    32   11   9    3    1    26   8    63   
1st     PAS Giannina                    26   11   1    1    31   15   7    2    4    24   13   57   
1st     PAS Giannina                    26   8    3    2    19   8    9    1    3    28   13   55   
1st     PAS Giannina                    26   11   2    0    37   8    6    4    3    21   13   57   
1st     PAS Giannina                    26   8    3    2    36   15   9    4    0    25   8    58   
1st     PAS Giannina                    26   10   1    2    30   12   7    5    1    24   14   57   
1st     PAS Giannina                    26   10   1    2    29   10   8    5    0    23   11   60   
1st     PAS Giannina                    26   9    4    0    31   10   11   2    0    37   10   66   