1st     PAS Giannina                    26   10   1    2    31   11   7    3    3    22   12   55   
2nd     PAS Giannina                    26   9    2    2    35   17   7    3    3    25   18   53   
1st     PAS Giannina                    26   11   1    1    34   12   9    3    1    38   16   64   
1st     PAS Giannina                    26   8    3    2    28   8    8    3    2    24   14   54   
2nd     PAS Giannina                    26   9    2    2    27   11   6    3    4    19   12   50   
1st     PAS Giannina                    26   12   1    0    31   6    11   1    1    30   10   71   
1st     PAS Giannina                    26   11   2    0    38   16   10   0    3    31   14   65   
1st     PAS Giannina                    26   10   2    1    28   9    11   1    1    26   7    66   
1st     PAS Giannina                    26   11   2    0    38   11   10   2    1    30   9    67   
1st     PAS Giannina                    26   7    3    3    25   12   9    1    3    23   12   52   
1st     PAS Giannina                    26   11   2    0    32   7    6    3    4    17   11   56   
1st     PAS Giannina                    26   12   1    0    36   8    9    2    2    26   10   66   
1st     PAS Giannina                    26   10   2    1    30   9    10   1    2    29   13   63   
1st     PAS Giannina                    26   8    4    1    27   14   6    3    4    27   18   49   
2nd     PAS Giannina                    26   10   2    1    33   11   8    2    3    22   14   58   
1st     PAS Giannina                    26   8    2    3    28   14   8    5    0    27   12   55   
1st     PAS Giannina                    26   12   1    0    35   11   11   1    1    33   9    71   
2nd     PAS Giannina                    26   9    3    1    30   17   8    2    3    26   15   56   
1st     PAS Giannina                    26   11   2    0    28   6    8    4    1    28   15   63   
2nd     PAS Giannina                    26   8    2    3    24   9    10   1    2    35   11   57   
1st     PAS Giannina                    26   9    4    0    31   11   10   1    2    42   16   62   
2nd     PAS Giannina                    26   11   2    0    29   7    6    1    6    21   18   54   
2nd     PAS Giannina                    26   12   0    1    34   6    7    2    4    23   12   59   
1st     PAS Giannina                    26   10   2    1    36   9    8    3    2    30   17   59   
1st     PAS Giannina                    26   11   1    1    35   13   6    5    2    35   17   57   
2nd     PAS Giannina                    26   8    3    2    28   13   9    2    2    23   12   56   
1st     PAS Giannina                    26   11   1    1    33   14   7    4    2    21   10   59   
2nd     PAS Giannina                    26   10   2    1    30   11   7    4    2    18   7    57   
1st     PAS Giannina                    26   10   3    0    28   5    11   1    1    36   12   67   
1st     PAS Giannina                    26   12   0    1    35   9    10   1    2    26   16   67   
1st     PAS Giannina                    26   12   1    0    36   8    11   2    0    27   7    72   
1st     PAS Giannina                    26   9    3    1    35   10   11   1    1    34   19   64   
1st     PAS Giannina                    26   12   0    1    36   10   8    2    3    27   15   62   
1st     PAS Giannina                    26   9    4    0    29   12   8    2    3    22   13   57   
1st     PAS Giannina                    26   12   1    0    36   6    10   1    2    31   14   68   
1st     PAS Giannina                    26   10   2    1    29   14   10   0    3    28   13   62   
1st     PAS Giannina                    26   11   1    1    38   12   6    6    1    27   16   58   
1st     PAS Giannina                    26   9    2    2    24   11   11   1    1    33   12   63   
1st     PAS Giannina                    26   9    2    2    22   7    8    2    3    22   14   55   
1st     PAS Giannina                    26   10   1    2    26   9    10   3    0    37   6    64   
2nd     PAS Giannina                    26   9    1    3    30   10   7    4    2    18   7    53   
1st     PAS Giannina                    26   11   1    1    28   11   9    3    1    32   16   64   
1st     PAS Giannina                    26   9    4    0    28   12   8    4    1    30   13   59   
1st     PAS Giannina                    26   11   2    0    36   11   7    4    2    24   12   60   
1st     PAS Giannina                    26   9    3    1    28   8    7    4    2    29   18   55   
1st     PAS Giannina                    26   11   1    1    39   14   9    2    2    25   9    63   
1st     PAS Giannina                    26   9    2    2    26   10   6    3    4    24   18   50   
1st     PAS Giannina                    26   12   1    0    38   9    9    3    1    30   17   67   
1st     PAS Giannina                    26   9    0    4    29   13   8    3    2    29   16   54   
1st     PAS Giannina                    26   11   2    0    30   13   10   1    2    29   10   66   
2nd     PAS Giannina                    26   8    1    4    30   13   8    4    1    25   13   53   
1st     PAS Giannina                    26   10   1    2    27   16   9    1    3    30   16   59   
1st     PAS Giannina                    26   12   1    0    27   4    9    4    0    38   13   68   
1st     PAS Giannina                    26   13   0    0    33   8    11   1    1    47   19   73   
1st     PAS Giannina                    26   12   0    1    29   9    10   2    1    25   9    68   
1st     PAS Giannina                    26   9    4    0    25   14   11   1    1    33   11   65   
1st     PAS Giannina                    26   10   3    0    27   11   6    6    1    27   15   57   
2nd     PAS Giannina                    26   10   3    0    32   11   5    4    4    23   17   52   
1st     PAS Giannina                    26   12   0    1    35   11   9    4    0    26   11   67   
1st     PAS Giannina                    26   11   2    0    32   6    6    4    3    28   12   57   
2nd     PAS Giannina                    26   10   1    2    23   7    6    3    4    20   16   52   
2nd     PAS Giannina                    26   9    4    0    26   8    7    0    6    30   17   52   
1st     PAS Giannina                    26   11   1    1    36   11   10   2    1    29   9    66   
1st     PAS Giannina                    26   9    3    1    26   8    8    3    2    25   13   57   
3rd     PAS Giannina                    26   7    5    1    26   12   7    4    2    28   15   51   
1st     PAS Giannina                    26   12   1    0    40   12   9    2    2    25   8    66   
1st     PAS Giannina                    26   8    5    0    31   11   8    5    0    27   11   58   
1st     PAS Giannina                    26   11   2    0    36   11   8    3    2    22   10   62   
1st     PAS Giannina                    26   11   2    0    31   7    8    3    2    25   15   62   
2nd     PAS Giannina                    26   10   2    1    34   8    7    5    1    25   14   58   
2nd     PAS Giannina                    26   8    4    1    27   13   7    3    3    25   15   52   
2nd     PAS Giannina                    26   7    4    2    23   12   9    0    4    33   18   52   
2nd     PAS Giannina                    26   9    2    2    27   11   6    2    5    20   16   49   
1st     PAS Giannina                    26   10   2    1    35   13   8    1    4    23   13   57   
1st     PAS Giannina                    26   9    4    0    25   9    8    4    1    30   12   59   
1st     PAS Giannina                    26   10   2    1    35   11   9    4    0    28   11   63   
1st     PAS Giannina                    26   11   2    0    30   9    7    5    1    34   20   61   
1st     PAS Giannina                    26   9    2    2    27   12   9    2    2    24   12   58   
2nd     PAS Giannina                    26   10   1    2    23   9    8    0    5    25   14   55   
1st     PAS Giannina                    26   10   1    2    32   16   9    1    3    22   9    59   
2nd     PAS Giannina                    26   9    3    1    30   12   7    3    3    23   12   54   
1st     PAS Giannina                    26   10   3    0    28   13   10   1    2    28   15   64   
1st     PAS Giannina                    26   9    3    1    32   14   10   0    3    30   17   60   
1st     PAS Giannina                    26   9    3    1    31   15   9    3    1    27   11   60   
1st     PAS Giannina                    26   9    1    3    32   17   8    2    3    25   14   54   
1st     PAS Giannina                    26   10   2    1    34   10   8    3    2    25   11   59   
1st     PAS Giannina                    26   10   3    0    33   14   7    4    2    31   14   58   
1st     PAS Giannina                    26   11   2    0    32   5    7    4    2    29   18   60   
2nd     PAS Giannina                    26   8    5    0    31   13   6    3    4    20   15   50   
1st     PAS Giannina                    26   11   0    2    33   10   10   2    1    33   8    65   
1st     PAS Giannina                    26   10   3    0    28   12   10   3    0    33   8    66   
1st     PAS Giannina                    26   11   1    1    35   9    11   1    1    32   12   68   
2nd     PAS Giannina                    26   10   1    2    28   8    8    3    2    34   15   58   
1st     PAS Giannina                    26   10   3    0    31   10   10   2    1    27   9    65   
2nd     PAS Giannina                    26   10   2    1    32   12   5    4    4    25   13   51   
1st     PAS Giannina                    26   7    6    0    22   10   8    1    4    30   15   52   
1st     PAS Giannina                    26   10   2    1    31   8    10   2    1    30   14   64   
1st     PAS Giannina                    26   10   2    1    23   10   9    0    4    34   13   59   
1st     PAS Giannina                    26   8    3    2    22   7    9    3    1    25   11   57   
2nd     PAS Giannina                    26   10   2    1    24   7    7    2    4    25   13   55   