2nd     PAS Giannina                    26   8    2    3    29   20   6    5    2    22   18   49   
2nd     PAS Giannina                    26   8    4    1    28   13   5    2    6    19   23   45   
10th    PAS Giannina                    26   6    3    4    22   18   2    4    7    17   24   31   
3rd     PAS Giannina                    26   9    1    3    24   16   4    3    6    16   21   43   
6th     PAS Giannina                    26   8    2    3    30   19   4    2    7    14   23   40   
9th     PAS Giannina                    26   5    5    3    24   20   3    3    7    11   16   32   
10th    PAS Giannina                    26   7    1    5    27   15   3    1    9    14   25   32   
1st     PAS Giannina                    26   8    2    3    25   13   6    3    4    20   17   47   
6th     PAS Giannina                    26   8    2    3    21   8    3    3    7    11   23   38   
5th     PAS Giannina                    26   8    3    2    29   16   3    3    7    16   22   39   
9th     PAS Giannina                    26   7    4    2    25   16   2    1    10   11   32   32   
2nd     PAS Giannina                    26   8    3    2    34   16   3    6    4    17   20   42   
6th     PAS Giannina                    26   7    3    3    21   15   4    2    7    16   24   38   
5th     PAS Giannina                    26   8    3    2    24   14   3    3    7    11   19   39   
5th     PAS Giannina                    26   8    3    2    22   10   4    0    9    19   21   39   
3rd     PAS Giannina                    26   7    4    2    23   12   6    4    3    17   16   47   
8th     PAS Giannina                    26   5    6    2    21   15   5    0    8    15   18   36   
8th     PAS Giannina                    26   8    1    4    25   18   2    4    7    17   27   35   
10th    PAS Giannina                    26   9    3    1    26   12   1    1    11   5    22   34   
9th     PAS Giannina                    26   7    5    1    27   15   2    2    9    12   23   34   
5th     PAS Giannina                    26   7    4    2    22   14   3    4    6    20   22   38   
9th     PAS Giannina                    26   7    2    4    25   15   2    3    8    9    19   32   
9th     PAS Giannina                    26   6    7    0    22   16   2    3    8    9    21   34   
7th     PAS Giannina                    26   4    3    6    15   20   4    4    5    14   20   31   
8th     PAS Giannina                    26   6    2    5    21   16   3    5    5    16   18   34   
3rd     PAS Giannina                    26   8    3    2    21   11   5    4    4    23   19   46   
1st     PAS Giannina                    26   11   2    0    33   17   4    4    5    16   21   51   
7th     PAS Giannina                    26   8    3    2    22   14   3    1    9    11   22   37   
13th    PAS Giannina                    26   3    4    6    21   18   3    6    4    18   22   28   
5th     PAS Giannina                    26   7    4    2    26   15   4    4    5    15   20   41   
4th     PAS Giannina                    26   9    1    3    20   8    2    6    5    11   19   40   
4th     PAS Giannina                    26   8    1    4    23   14   4    6    3    15   15   43   
4th     PAS Giannina                    26   7    2    4    23   17   5    3    5    20   24   41   
3rd     PAS Giannina                    26   10   1    2    26   12   4    1    8    15   21   44   
7th     PAS Giannina                    26   5    7    1    24   17   5    3    5    18   17   40   
7th     PAS Giannina                    26   6    6    1    24   14   3    4    6    10   20   37   
1st     PAS Giannina                    26   8    2    3    22   15   9    1    3    16   7    54   
3rd     PAS Giannina                    26   8    5    0    29   12   4    2    7    17   22   43   
5th     PAS Giannina                    26   5    5    3    20   14   6    1    6    21   21   39   
3rd     PAS Giannina                    26   9    3    1    28   15   3    3    7    13   22   42   
6th     PAS Giannina                    26   5    6    2    24   14   3    6    4    15   18   36   
3rd     PAS Giannina                    26   9    2    2    29   19   7    2    4    21   13   52   
5th     PAS Giannina                    26   8    2    3    25   12   3    3    7    10   17   38   
3rd     PAS Giannina                    26   11   1    1    25   14   5    2    6    13   13   51   
5th     PAS Giannina                    26   8    2    3    22   14   2    7    4    14   21   39   
5th     PAS Giannina                    26   6    2    5    22   16   4    3    6    20   18   35   
3rd     PAS Giannina                    26   9    1    3    25   11   4    2    7    15   18   42   
2nd     PAS Giannina                    26   9    0    4    28   11   6    2    5    16   18   47   
7th     PAS Giannina                    26   7    3    3    26   15   2    6    5    13   19   36   
6th     PAS Giannina                    26   10   1    2    26   11   1    4    8    10   20   38   
4th     PAS Giannina                    26   9    4    0    26   9    3    3    7    16   19   43   
10th    PAS Giannina                    26   6    5    2    21   15   1    3    9    4    23   29   
6th     PAS Giannina                    26   6    6    1    28   16   4    3    6    17   21   39   
13th    PAS Giannina                    26   5    4    4    18   20   1    3    9    11   26   25   
4th     PAS Giannina                    26   8    1    4    28   21   3    4    6    17   21   38   
5th     PAS Giannina                    26   11   1    1    26   9    1    1    11   12   33   38   
4th     PAS Giannina                    26   9    3    1    23   10   3    2    8    19   27   41   
5th     PAS Giannina                    26   7    4    2    25   17   5    1    7    21   25   41   
4th     PAS Giannina                    26   8    3    2    20   9    5    0    8    18   21   42   
13th    PAS Giannina                    26   4    5    4    19   19   2    2    9    12   25   25   
7th     PAS Giannina                    26   7    4    2    16   9    2    4    7    10   20   35   
8th     PAS Giannina                    26   6    4    3    19   16   3    3    7    14   22   34   
5th     PAS Giannina                    26   5    4    4    25   20   4    6    3    16   16   37   
5th     PAS Giannina                    26   8    1    4    21   13   3    3    7    15   24   37   
7th     PAS Giannina                    26   8    0    5    25   13   2    4    7    17   25   34   
1st     PAS Giannina                    26   10   2    1    25   10   7    0    6    20   20   53   
10th    PAS Giannina                    26   7    0    6    20   17   3    3    7    14   24   33   
6th     PAS Giannina                    26   6    2    5    24   21   5    3    5    17   16   38   
8th     PAS Giannina                    26   8    3    2    27   17   2    3    8    15   26   36   
3rd     PAS Giannina                    26   8    2    3    26   15   5    3    5    16   16   44   
5th     PAS Giannina                    26   10   0    3    30   16   2    4    7    7    16   40   
5th     PAS Giannina                    26   9    1    3    22   9    3    3    7    14   25   40   
5th     PAS Giannina                    26   9    2    2    23   9    2    4    7    11   21   39   
10th    PAS Giannina                    26   6    2    5    22   20   3    3    7    14   19   32   
10th    PAS Giannina                    26   6    4    3    20   14   2    3    8    11   23   31   
9th     PAS Giannina                    26   8    1    4    24   17   2    3    8    13   26   34   
2nd     PAS Giannina                    26   10   2    1    25   11   4    4    5    19   21   48   
7th     PAS Giannina                    26   5    4    4    23   24   5    1    7    19   24   35   
1st     PAS Giannina                    26   9    1    3    21   12   6    2    5    16   17   48   
2nd     PAS Giannina                    26   10   1    2    28   10   4    3    6    14   22   46   
11th    PAS Giannina                    26   6    6    1    27   14   1    2    10   10   23   29   
11th    PAS Giannina                    26   5    4    4    21   18   3    3    7    14   23   31   
5th     PAS Giannina                    26   7    3    3    23   17   4    4    5    15   16   40   
14th    PAS Giannina                    26   4    2    7    17   23   3    4    6    21   23   27   
3rd     PAS Giannina                    26   7    3    3    23   16   3    5    5    10   13   38   
3rd     PAS Giannina                    26   8    2    3    27   10   4    2    7    15   18   40   
5th     PAS Giannina                    26   8    3    2    23   13   2    6    5    12   16   39   
10th    PAS Giannina                    26   7    5    1    29   15   1    2    10   15   34   31   
8th     PAS Giannina                    26   7    2    4    24   14   3    4    6    15   21   36   
8th     PAS Giannina                    26   6    3    4    19   17   4    2    7    19   27   35   
7th     PAS Giannina                    26   5    3    5    15   15   5    2    6    21   22   35   
13th    PAS Giannina                    26   6    5    2    20   13   1    2    10   15   33   28   
5th     PAS Giannina                    26   7    2    4    22   15   5    2    6    12   15   40   
3rd     PAS Giannina                    26   9    1    3    23   11   5    1    7    20   23   44   
9th     PAS Giannina                    26   6    6    1    23   10   2    2    9    12   26   32   
3rd     PAS Giannina                    26   10   1    2    25   10   3    5    5    11   14   45   
5th     PAS Giannina                    26   7    4    2    20   14   5    2    6    20   24   42   
2nd     PAS Giannina                    26   11   2    0    24   8    2    3    8    14   28   44   
9th     PAS Giannina                    26   8    2    3    20   18   1    4    8    16   27   33   
2nd     PAS Giannina                    26   8    2    3    32   16   6    2    5    19   20   46   