1st     PAS Giannina                    26   13   0    0    28   3    7    3    3    26   21   63   
1st     PAS Giannina                    26   12   0    1    43   12   10   3    0    38   17   69   
1st     PAS Giannina                    26   11   2    0    41   12   8    3    2    26   12   62   
1st     PAS Giannina                    26   10   3    0    30   7    9    3    1    30   9    63   
1st     PAS Giannina                    26   10   3    0    31   9    10   1    2    32   14   64   
1st     PAS Giannina                    26   10   1    2    36   18   8    3    2    35   18   58   
1st     PAS Giannina                    26   13   0    0    41   10   10   1    2    32   11   70   
1st     PAS Giannina                    26   12   1    0    39   11   9    2    2    23   11   66   
1st     PAS Giannina                    26   11   1    1    36   13   8    4    1    28   12   62   
1st     PAS Giannina                    26   11   1    1    35   11   11   2    0    27   10   69   
1st     PAS Giannina                    26   12   0    1    37   16   11   1    1    31   12   70   
1st     PAS Giannina                    26   11   0    2    28   10   10   2    1    34   11   65   
1st     PAS Giannina                    26   13   0    0    42   10   4    5    4    18   16   56   
1st     PAS Giannina                    26   13   0    0    34   9    8    2    3    27   16   65   
1st     PAS Giannina                    26   11   1    1    37   12   7    2    4    20   17   57   
1st     PAS Giannina                    26   11   1    1    33   8    3    8    2    19   15   51   
1st     PAS Giannina                    26   11   2    0    34   11   6    4    3    28   15   57   
1st     PAS Giannina                    26   11   2    0    35   15   10   2    1    31   11   67   
1st     PAS Giannina                    26   10   2    1    29   10   8    3    2    23   11   59   
1st     PAS Giannina                    26   12   1    0    31   10   9    4    0    27   7    68   
1st     PAS Giannina                    26   11   1    1    33   12   7    1    5    28   15   56   
2nd     PAS Giannina                    26   12   0    1    37   9    8    2    3    24   17   62   
1st     PAS Giannina                    26   12   1    0    44   12   11   1    1    34   12   71   
1st     PAS Giannina                    26   13   0    0    36   8    11   2    0    29   11   74   
1st     PAS Giannina                    26   13   0    0    39   13   6    4    3    21   10   61   
1st     PAS Giannina                    26   12   0    1    37   10   6    4    3    19   11   58   
2nd     PAS Giannina                    26   10   2    1    37   11   7    1    5    29   21   54   
1st     PAS Giannina                    26   12   0    1    41   10   11   0    2    32   15   69   
1st     PAS Giannina                    26   9    2    2    35   12   11   1    1    33   11   63   
1st     PAS Giannina                    26   12   1    0    40   13   9    4    0    31   14   68   
1st     PAS Giannina                    26   12   0    1    32   15   11   2    0    24   6    71   
1st     PAS Giannina                    26   10   2    1    26   9    8    1    4    29   18   57   
1st     PAS Giannina                    26   12   1    0    35   11   7    5    1    30   19   63   
1st     PAS Giannina                    26   9    2    2    31   14   9    4    0    29   13   60   
2nd     PAS Giannina                    26   8    5    0    31   13   9    2    2    27   12   58   
2nd     PAS Giannina                    26   11   1    1    34   10   6    3    4    19   13   55   
1st     PAS Giannina                    26   11   2    0    30   12   9    3    1    32   11   65   
1st     PAS Giannina                    26   10   1    2    36   7    7    2    4    25   16   54   
1st     PAS Giannina                    26   10   1    2    32   14   10   1    2    29   6    62   
1st     PAS Giannina                    26   10   3    0    33   12   7    3    3    25   12   57   
1st     PAS Giannina                    26   13   0    0    44   14   8    3    2    29   15   66   
1st     PAS Giannina                    26   12   0    1    42   14   9    4    0    29   12   67   
1st     PAS Giannina                    26   9    3    1    30   12   10   3    0    30   15   63   
1st     PAS Giannina                    26   10   3    0    43   12   9    4    0    38   14   64   
1st     PAS Giannina                    26   12   0    1    33   10   8    2    3    29   16   62   
1st     PAS Giannina                    26   13   0    0    36   7    5    4    4    24   20   58   
2nd     PAS Giannina                    26   7    4    2    31   14   9    1    3    29   12   53   
1st     PAS Giannina                    26   9    4    0    25   9    10   2    1    27   12   63   
1st     PAS Giannina                    26   10   1    2    34   8    9    3    1    25   15   61   
1st     PAS Giannina                    26   10   2    1    34   11   7    2    4    24   14   55   
1st     PAS Giannina                    26   10   3    0    38   13   6    5    2    24   17   56   
1st     PAS Giannina                    26   10   2    1    28   8    12   1    0    33   8    69   
1st     PAS Giannina                    26   10   3    0    34   12   8    1    4    25   14   58   
1st     PAS Giannina                    26   13   0    0    34   7    8    2    3    26   12   65   
1st     PAS Giannina                    26   11   2    0    33   11   9    2    2    34   12   64   
1st     PAS Giannina                    26   9    3    1    27   9    8    3    2    26   14   57   
1st     PAS Giannina                    26   10   2    1    28   9    9    3    1    32   14   62   
1st     PAS Giannina                    26   11   2    0    39   12   11   1    1    42   8    69   
1st     PAS Giannina                    26   11   2    0    34   15   9    2    2    26   15   64   
1st     PAS Giannina                    26   10   2    1    30   10   7    2    4    23   15   55   
1st     PAS Giannina                    26   10   3    0    32   12   11   0    2    36   14   66   
1st     PAS Giannina                    26   11   2    0    36   12   7    3    3    29   16   59   
1st     PAS Giannina                    26   11   2    0    34   12   9    3    1    32   13   65   
1st     PAS Giannina                    26   10   2    1    26   14   11   1    1    31   11   66   
1st     PAS Giannina                    26   11   2    0    37   8    7    2    4    32   14   58   
1st     PAS Giannina                    26   6    7    0    25   8    10   2    1    29   7    57   
1st     PAS Giannina                    26   11   1    1    38   10   8    2    3    32   17   60   
2nd     PAS Giannina                    26   9    2    2    35   13   9    3    1    34   14   59   
1st     PAS Giannina                    26   11   1    1    40   12   11   2    0    25   9    69   
1st     PAS Giannina                    26   12   1    0    35   11   12   1    0    39   14   74   
1st     PAS Giannina                    26   13   0    0    34   9    9    3    1    30   13   69   
1st     PAS Giannina                    26   7    5    1    26   15   11   2    0    38   9    61   
2nd     PAS Giannina                    26   9    4    0    22   8    8    3    2    22   12   58   
1st     PAS Giannina                    26   10   2    1    31   11   10   1    2    26   10   63   
1st     PAS Giannina                    26   10   3    0    31   8    7    4    2    30   20   58   
2nd     PAS Giannina                    26   9    4    0    32   10   5    5    3    15   12   51   
1st     PAS Giannina                    26   12   0    1    38   11   10   3    0    33   14   69   
1st     PAS Giannina                    26   12   1    0    41   13   9    3    1    25   7    67   
1st     PAS Giannina                    26   10   2    1    33   7    9    2    2    29   13   61   
1st     PAS Giannina                    26   13   0    0    38   8    8    4    1    28   15   67   
1st     PAS Giannina                    26   12   1    0    33   11   8    3    2    31   19   64   
1st     PAS Giannina                    26   11   0    2    36   13   10   3    0    31   11   66   
1st     PAS Giannina                    26   12   1    0    39   11   10   3    0    29   6    70   
1st     PAS Giannina                    26   10   1    2    35   12   11   2    0    41   14   66   
2nd     PAS Giannina                    26   11   0    2    34   10   6    4    3    24   16   55   
1st     PAS Giannina                    26   11   2    0    34   8    11   0    2    33   10   68   
1st     PAS Giannina                    26   12   1    0    33   9    11   1    1    29   6    71   
1st     PAS Giannina                    26   13   0    0    40   10   9    2    2    40   14   68   
1st     PAS Giannina                    26   10   2    1    26   11   10   2    1    31   9    64   
1st     PAS Giannina                    26   10   2    1    33   14   9    4    0    26   8    63   
2nd     PAS Giannina                    26   10   2    1    30   14   6    4    3    21   20   54   
1st     PAS Giannina                    26   12   1    0    43   11   10   2    1    28   11   69   
2nd     PAS Giannina                    26   10   2    1    33   10   4    3    6    18   19   47   
1st     PAS Giannina                    26   11   2    0    36   16   8    5    0    30   14   64   
1st     PAS Giannina                    26   11   1    1    31   12   8    3    2    29   16   61   
1st     PAS Giannina                    26   10   2    1    27   12   11   2    0    31   8    67   
1st     PAS Giannina                    26   11   1    1    35   13   9    2    2    29   15   63   
2nd     PAS Giannina                    26   9    2    2    31   15   7    4    2    31   16   54   
2nd     PAS Giannina                    26   10   2    1    29   10   5    4    4    19   13   51   
1st     PAS Giannina                    26   12   1    0    27   7    12   1    0    31   7    74   