1st     PAS Giannina                    26   10   0    3    30   14   9    1    3    20   12   58   
1st     PAS Giannina                    26   11   2    0    29   7    9    4    0    30   12   66   
1st     PAS Giannina                    26   11   0    2    28   10   9    2    2    29   15   62   
1st     PAS Giannina                    26   10   2    1    25   10   11   1    1    28   8    66   
1st     PAS Giannina                    26   10   3    0    36   18   8    3    2    24   13   60   
1st     PAS Giannina                    26   9    3    1    34   15   10   1    2    28   12   61   
1st     PAS Giannina                    26   11   2    0    30   10   7    4    2    29   13   60   
1st     PAS Giannina                    26   10   1    2    30   10   7    3    3    29   15   55   
2nd     PAS Giannina                    26   9    2    2    32   11   5    5    3    27   18   49   
1st     PAS Giannina                    26   11   2    0    29   13   8    1    4    22   15   60   
2nd     PAS Giannina                    26   8    2    3    28   11   5    8    0    19   12   49   
1st     PAS Giannina                    26   10   3    0    29   5    5    4    4    22   15   52   
3rd     PAS Giannina                    26   7    5    1    29   18   5    5    3    20   15   46   
1st     PAS Giannina                    26   12   1    0    40   13   8    3    2    24   12   64   
1st     PAS Giannina                    26   9    2    2    27   17   10   2    1    28   13   61   
1st     PAS Giannina                    26   10   2    1    37   16   9    1    3    21   10   60   
2nd     PAS Giannina                    26   8    4    1    26   12   7    4    2    29   16   53   
2nd     PAS Giannina                    26   11   0    2    32   15   8    2    3    26   15   59   
1st     PAS Giannina                    26   11   2    0    37   6    6    5    2    29   21   58   
1st     PAS Giannina                    26   11   1    1    33   10   10   3    0    30   11   67   
1st     PAS Giannina                    26   9    4    0    27   12   8    3    2    26   14   58   
1st     PAS Giannina                    26   9    2    2    26   12   6    4    3    24   15   51   
2nd     PAS Giannina                    26   11   1    1    33   13   5    0    8    18   22   49   
2nd     PAS Giannina                    26   9    2    2    29   12   6    2    5    21   18   49   
2nd     PAS Giannina                    26   7    5    1    27   16   6    3    4    19   20   47   
1st     PAS Giannina                    26   10   3    0    41   13   8    3    2    25   11   60   
2nd     PAS Giannina                    26   9    1    3    34   15   6    5    2    24   19   51   
1st     PAS Giannina                    26   10   3    0    29   10   5    3    5    19   15   51   
1st     PAS Giannina                    26   10   1    2    31   16   8    3    2    28   16   58   
1st     PAS Giannina                    26   8    4    1    29   10   9    1    3    25   13   56   
1st     PAS Giannina                    26   11   1    1    33   9    7    3    3    26   17   58   
1st     PAS Giannina                    26   11   1    1    31   7    8    2    3    28   17   60   
2nd     PAS Giannina                    26   10   2    1    36   15   5    4    4    19   19   51   
1st     PAS Giannina                    26   10   1    2    29   14   8    4    1    22   12   59   
1st     PAS Giannina                    26   9    0    4    26   14   10   0    3    23   11   57   
1st     PAS Giannina                    26   11   1    1    33   8    10   2    1    29   12   66   
1st     PAS Giannina                    26   9    2    2    28   10   8    3    2    23   15   56   
2nd     PAS Giannina                    26   8    1    4    28   16   7    4    2    20   14   50   
2nd     PAS Giannina                    26   9    2    2    33   14   8    3    2    30   17   56   
1st     PAS Giannina                    26   11   2    0    33   9    5    6    2    26   19   56   
1st     PAS Giannina                    26   10   2    1    30   6    5    5    3    22   17   52   
3rd     PAS Giannina                    26   7    4    2    24   13   6    2    5    24   23   45   
1st     PAS Giannina                    26   8    5    0    33   12   10   1    2    32   12   60   
2nd     PAS Giannina                    26   9    2    2    34   18   5    5    3    17   17   49   
1st     PAS Giannina                    26   9    1    3    31   10   7    3    3    22   15   52   
1st     PAS Giannina                    26   12   1    0    34   14   9    1    3    28   13   65   
1st     PAS Giannina                    26   11   1    1    34   8    9    1    3    24   15   62   
1st     PAS Giannina                    26   11   2    0    34   9    4    7    2    30   28   54   
3rd     PAS Giannina                    26   9    1    3    26   12   5    3    5    27   23   46   
3rd     PAS Giannina                    26   9    2    2    32   15   7    3    3    19   11   53   
2nd     PAS Giannina                    26   10   3    0    30   8    5    4    4    22   20   52   
3rd     PAS Giannina                    26   9    2    2    27   12   5    3    5    15   18   47   
2nd     PAS Giannina                    26   11   1    1    31   10   4    5    4    23   23   51   
1st     PAS Giannina                    26   11   1    1    36   12   7    5    1    29   20   60   
1st     PAS Giannina                    26   9    4    0    32   16   8    1    4    18   12   56   
1st     PAS Giannina                    26   12   1    0    33   7    8    3    2    30   18   64   
1st     PAS Giannina                    26   10   1    2    34   11   7    3    3    26   18   55   
1st     PAS Giannina                    26   9    4    0    32   13   6    3    4    21   16   52   
2nd     PAS Giannina                    26   12   0    1    32   7    6    4    3    24   17   58   
1st     PAS Giannina                    26   9    2    2    32   13   5    5    3    21   13   49   
1st     PAS Giannina                    26   10   2    1    28   10   7    1    5    26   22   54   
1st     PAS Giannina                    26   10   3    0    33   9    8    1    4    23   14   58   
1st     PAS Giannina                    26   9    2    2    24   11   8    3    2    27   11   56   
1st     PAS Giannina                    26   9    3    1    35   16   9    1    3    27   16   58   
2nd     PAS Giannina                    26   11   1    1    32   7    4    5    4    27   22   51   
1st     PAS Giannina                    26   12   1    0    34   11   10   2    1    31   19   69   
2nd     PAS Giannina                    26   11   0    2    41   14   4    8    1    22   17   53   
1st     PAS Giannina                    26   11   2    0    33   11   6    5    2    28   18   58   
1st     PAS Giannina                    26   11   1    1    38   13   9    3    1    24   13   64   
2nd     PAS Giannina                    26   7    5    1    25   11   7    3    3    26   11   50   
1st     PAS Giannina                    26   9    3    1    24   7    7    1    5    24   18   52   
1st     PAS Giannina                    26   10   3    0    32   10   6    5    2    22   15   56   
1st     PAS Giannina                    26   12   1    0    30   6    7    3    3    28   14   61   
2nd     PAS Giannina                    26   12   1    0    32   10   3    6    4    22   23   52   
1st     PAS Giannina                    26   10   2    1    30   15   5    5    3    24   15   52   
1st     PAS Giannina                    26   10   3    0    31   7    7    5    1    23   12   59   
1st     PAS Giannina                    26   12   0    1    32   7    6    2    5    24   22   56   
2nd     PAS Giannina                    26   9    3    1    32   15   6    1    6    23   18   49   
2nd     PAS Giannina                    26   7    2    4    31   19   9    2    2    25   10   52   
3rd     PAS Giannina                    26   11   1    1    33   11   4    7    2    27   20   53   
2nd     PAS Giannina                    26   11   0    2    35   15   5    5    3    24   16   53   
1st     PAS Giannina                    26   11   0    2    32   16   6    4    3    20   13   55   
1st     PAS Giannina                    26   9    3    1    27   11   10   1    2    30   10   61   
1st     PAS Giannina                    26   9    3    1    30   14   11   2    0    28   9    65   
1st     PAS Giannina                    26   9    3    1    36   15   8    2    3    31   15   56   
1st     PAS Giannina                    26   11   2    0    30   9    7    3    3    26   15   59   
1st     PAS Giannina                    26   10   2    1    34   12   8    2    3    23   10   58   
1st     PAS Giannina                    26   12   1    0    37   13   8    2    3    29   14   63   
1st     PAS Giannina                    26   10   1    2    33   12   10   1    2    24   7    62   
1st     PAS Giannina                    26   9    4    0    29   12   8    5    0    34   20   60   
1st     PAS Giannina                    26   13   0    0    39   11   6    4    3    23   16   61   
1st     PAS Giannina                    26   10   0    3    32   14   9    2    2    31   18   59   
1st     PAS Giannina                    26   13   0    0    39   6    5    5    3    20   17   59   
1st     PAS Giannina                    26   10   2    1    30   9    7    3    3    25   16   56   
1st     PAS Giannina                    26   10   2    1    38   13   8    1    4    22   13   57   
1st     PAS Giannina                    26   9    4    0    35   7    7    2    4    30   23   54   
2nd     PAS Giannina                    26   9    3    1    34   12   4    1    8    19   24   43   
1st     PAS Giannina                    26   12   1    0    31   6    9    3    1    33   18   67   
1st     PAS Giannina                    26   10   3    0    28   14   13   0    0    36   10   72   
3rd     PAS Giannina                    26   9    1    3    28   16   7    1    5    29   23   50   