9th     PAS Giannina                    26   7    2    4    27   21   3    2    8    12   21   34   
3rd     PAS Giannina                    26   6    5    2    29   18   5    3    5    17   17   41   
2nd     PAS Giannina                    26   11   2    0    30   13   3    3    7    14   18   47   
4th     PAS Giannina                    26   8    1    4    21   16   4    4    5    12   17   41   
4th     PAS Giannina                    26   8    2    3    24   14   4    3    6    15   20   41   
3rd     PAS Giannina                    26   11   1    1    31   13   3    5    5    19   20   48   
4th     PAS Giannina                    26   7    2    4    21   11   6    4    3    17   15   45   
4th     PAS Giannina                    26   6    4    3    19   15   5    2    6    19   24   39   
9th     PAS Giannina                    26   8    2    3    22   8    2    3    8    15   22   35   
5th     PAS Giannina                    26   6    1    6    21   23   6    0    7    21   22   37   
3rd     PAS Giannina                    26   7    4    2    22   13   6    3    4    22   20   46   
9th     PAS Giannina                    26   7    5    1    30   18   1    6    6    16   27   35   
4th     PAS Giannina                    26   9    1    3    31   16   3    4    6    18   24   41   
4th     PAS Giannina                    26   9    2    2    17   7    4    2    7    16   23   43   
13th    PAS Giannina                    26   6    1    6    25   24   1    2    10   10   26   24   
4th     PAS Giannina                    26   5    3    5    22   18   7    1    5    13   14   40   
5th     PAS Giannina                    26   8    3    2    28   12   2    4    7    17   23   37   
9th     PAS Giannina                    26   4    4    5    17   18   4    2    7    17   21   30   
11th    PAS Giannina                    26   6    3    4    18   12   1    4    8    11   25   28   
6th     PAS Giannina                    26   6    7    0    26   17   3    3    7    11   18   37   
7th     PAS Giannina                    26   8    2    3    26   13   2    3    8    19   25   35   
11th    PAS Giannina                    26   5    3    5    25   21   3    1    9    13   28   28   
5th     PAS Giannina                    26   10   1    2    28   18   3    2    8    12   33   42   
5th     PAS Giannina                    26   8    3    2    26   15   3    3    7    14   28   39   
8th     PAS Giannina                    26   6    5    2    22   15   2    3    8    11   23   32   
3rd     PAS Giannina                    26   7    2    4    23   18   7    0    6    24   25   44   
6th     PAS Giannina                    26   6    3    4    24   23   4    3    6    16   22   36   
7th     PAS Giannina                    26   8    2    3    23   15   3    3    7    17   21   38   
5th     PAS Giannina                    26   8    2    3    29   15   3    4    6    13   20   39   
11th    PAS Giannina                    26   6    2    5    27   19   3    2    8    18   27   31   
11th    PAS Giannina                    26   7    2    4    21   14   2    5    6    13   23   34   
3rd     PAS Giannina                    26   8    5    0    29   19   3    3    7    17   24   41   
4th     PAS Giannina                    26   11   1    1    31   12   3    2    8    15   24   45   
1st     PAS Giannina                    26   9    1    3    29   17   5    4    4    18   16   47   
8th     PAS Giannina                    26   10   2    1    27   10   0    3    10   11   23   35   
4th     PAS Giannina                    26   9    3    1    32   14   2    5    6    13   19   41   
5th     PAS Giannina                    26   9    3    1    20   12   2    3    8    15   25   39   
3rd     PAS Giannina                    26   9    3    1    32   18   3    3    7    16   25   42   
9th     PAS Giannina                    26   6    4    3    20   16   3    3    7    15   23   34   
8th     PAS Giannina                    26   7    1    5    17   14   3    1    9    14   23   32   
2nd     PAS Giannina                    26   9    2    2    28   11   5    3    5    16   21   47   
5th     PAS Giannina                    26   7    0    6    22   23   5    4    4    17   20   40   
6th     PAS Giannina                    26   8    2    3    27   15   3    4    6    10   16   39   
12th    PAS Giannina                    26   6    4    3    20   16   1    1    11   6    24   26   
5th     PAS Giannina                    26   5    4    4    24   18   6    2    5    21   16   39   
4th     PAS Giannina                    26   9    1    3    27   12   3    4    6    16   22   41   
4th     PAS Giannina                    26   6    4    3    19   15   4    4    5    18   20   38   
7th     PAS Giannina                    26   8    2    3    21   12   3    1    9    16   22   36   
4th     PAS Giannina                    26   9    2    2    32   18   4    2    7    22   27   43   
4th     PAS Giannina                    26   6    3    4    21   14   6    2    5    16   16   41   
6th     PAS Giannina                    26   8    4    1    28   17   3    3    7    16   23   40   
10th    PAS Giannina                    26   4    4    5    20   20   4    3    6    13   19   31   
5th     PAS Giannina                    26   8    2    3    22   11   3    3    7    19   29   38   
4th     PAS Giannina                    26   8    5    0    32   18   4    1    8    17   25   42   
5th     PAS Giannina                    26   8    2    3    31   20   5    1    7    19   28   42   
4th     PAS Giannina                    26   7    1    5    24   16   7    1    5    22   22   44   
3rd     PAS Giannina                    26   9    2    2    28   15   4    2    7    11   15   43   
9th     PAS Giannina                    26   7    2    4    22   16   2    5    6    21   29   34   
3rd     PAS Giannina                    26   10   0    3    29   13   3    2    8    15   24   41   
7th     PAS Giannina                    26   6    5    2    25   19   3    4    6    21   29   36   
11th    PAS Giannina                    26   5    3    5    25   24   2    3    8    12   27   27   
10th    PAS Giannina                    26   6    7    0    24   14   1    2    10   11   28   30   
5th     PAS Giannina                    26   7    3    3    28   16   4    1    8    19   28   37   
1st     PAS Giannina                    26   10   3    0    26   8    6    4    3    23   22   55   
8th     PAS Giannina                    26   5    5    3    26   17   2    6    5    19   25   32   
9th     PAS Giannina                    26   6    4    3    20   12   4    1    8    13   21   35   
6th     PAS Giannina                    26   8    2    3    20   14   3    3    7    14   22   38   
4th     PAS Giannina                    26   9    2    2    27   16   3    4    6    15   26   42   
10th    PAS Giannina                    26   6    4    3    25   18   2    4    7    10   20   32   
8th     PAS Giannina                    26   7    2    4    22   20   2    6    5    17   19   35   
12th    PAS Giannina                    26   5    3    5    18   14   1    5    7    9    19   26   
3rd     PAS Giannina                    26   8    2    3    24   15   7    1    5    23   19   48   
7th     PAS Giannina                    26   9    3    1    29   14   1    3    9    11   25   36   
8th     PAS Giannina                    26   7    4    2    25   15   2    3    8    11   22   34   
10th    PAS Giannina                    26   5    3    5    22   19   4    2    7    17   22   32   
6th     PAS Giannina                    26   5    7    1    26   18   4    2    7    18   29   36   
1st     PAS Giannina                    26   11   0    2    36   13   5    1    7    16   19   49   
5th     PAS Giannina                    26   7    5    1    22   15   2    6    5    12   19   38   
8th     PAS Giannina                    26   6    4    3    21   15   2    6    5    18   25   34   
6th     PAS Giannina                    26   5    5    3    25   18   6    0    7    18   19   38   
3rd     PAS Giannina                    26   7    4    2    26   17   5    1    7    25   30   41   
6th     PAS Giannina                    26   7    3    3    23   15   3    2    8    17   23   35   
3rd     PAS Giannina                    26   8    4    1    28   16   5    3    5    13   17   46   
7th     PAS Giannina                    26   8    4    1    25   12   1    5    7    11   21   36   
3rd     PAS Giannina                    26   9    3    1    23   11   3    4    6    19   22   43   
2nd     PAS Giannina                    26   7    4    2    27   19   5    3    5    21   23   43   
11th    PAS Giannina                    26   5    3    5    17   17   2    4    7    21   32   28   
7th     PAS Giannina                    26   7    3    3    28   17   2    5    6    11   22   35   
8th     PAS Giannina                    26   7    1    5    22   19   2    4    7    15   26   32   
3rd     PAS Giannina                    26   8    4    1    23   12   4    3    6    16   20   43   
8th     PAS Giannina                    26   6    4    3    19   14   4    2    7    18   25   36   
5th     PAS Giannina                    26   7    3    3    24   14   3    4    6    18   24   37   
9th     PAS Giannina                    26   4    5    4    25   18   5    2    6    19   26   34   
13th    PAS Giannina                    26   4    5    4    16   19   1    2    10   14   28   22   
8th     PAS Giannina                    26   7    3    3    20   13   3    3    7    11   19   36   
11th    PAS Giannina                    26   6    4    3    19   18   1    3    9    17   30   28   
4th     PAS Giannina                    26   7    3    3    29   17   4    2    7    19   24   38   
5th     PAS Giannina                    26   8    3    2    28   15   4    1    8    18   30   40   
14th    PAS Giannina                    26   6    4    3    19   16   0    1    12   12   39   23   
6th     PAS Giannina                    26   7    1    5    26   16   5    2    6    16   20   39   