4th     PAS Giannina                    26   9    1    3    30   15   4    3    6    22   22   43
6th     PAS Giannina                    26   7    3    3    29   19   5    2    6    17   17   41
5th     PAS Giannina                    26   6    5    2    30   19   3    3    7    11   20   35
2nd     PAS Giannina                    26   9    3    1    27   14   5    5    3    19   14   50
3rd     PAS Giannina                    26   8    3    2    27   17   4    4    5    15   16   43
2nd     PAS Giannina                    26   7    3    3    30   25   6    3    4    26   16   45
3rd     PAS Giannina                    26   8    2    3    29   15   5    5    3    21   16   46
3rd     PAS Giannina                    26   8    3    2    27   19   6    2    5    17   19   47
4th     PAS Giannina                    26   8    2    3    27   20   3    5    5    18   22   40
2nd     PAS Giannina                    26   9    4    0    26   9    5    4    4    16   13   50
4th     PAS Giannina                    26   8    4    1    27   14   4    5    4    17   21   45
2nd     PAS Giannina                    26   10   3    0    28   10   3    5    5    15   17   47
5th     PAS Giannina                    26   7    4    2    23   13   3    5    5    19   21   39
1st      PAS Giannina                    26   8    4    1    31   16   8    3    2    25   16   55
5th     PAS Giannina                    26   7    4    2    30   12   3    4    6    14   20   38
2nd     PAS Giannina                    26   9    2    2    32   15   6    4    3    14   11   51
8th     PAS Giannina                    26   6    3    4    22   15   3    5    5    16   20   35
3rd     PAS Giannina                    26   7    4    2    24   12   4    6    3    21   19   43
1st      PAS Giannina                    26   9    4    0    31   16   8    1    4    22   17   56
3rd     PAS Giannina                    26   7    2    4    33   21   5    5    3    23   20   43
3rd     PAS Giannina                    26   8    1    4    28   12   5    4    4    16   17   44
9th     PAS Giannina                    26   7    0    6    19   15   2    3    8    16   27   30
6th     PAS Giannina                    26   5    5    3    24   16   5    3    5    16   18   38
1st      PAS Giannina                    26   10   2    1    29   13   6    4    3    26   18   54
5th     PAS Giannina                    26   7    4    2    21   15   4    2    7    18   23   39
2nd     PAS Giannina                    26   8    3    2    27   12   6    2    5    22   15   47
3rd     PAS Giannina                    26   7    4    2    27   19   6    2    5    17   14   45
3rd     PAS Giannina                    26   8    1    4    31   15   6    2    5    17   14   45
4th     PAS Giannina                    26   7    4    2    21   13   4    2    7    19   22   39
4th     PAS Giannina                    26   8    3    2    22   11   4    1    8    18   25   40
4th     PAS Giannina                    26   10   1    2    31   15   3    3    7    19   24   43
2nd     PAS Giannina                    26   9    3    1    30   11   6    1    6    21   18   49
4th     PAS Giannina                    26   8    3    2    22   12   5    4    4    21   16   46
1st      PAS Giannina                    26   11   1    1    31   9    6    4    3    25   20   56
4th     PAS Giannina                    26   8    1    4    27   15   4    3    6    14   18   40
2nd     PAS Giannina                    26   9    4    0    27   10   7    4    2    22   13   56
2nd     PAS Giannina                    26   9    3    1    29   17   4    6    3    23   21   48
2nd     PAS Giannina                    26   11   1    1    35   10   5    2    6    16   18   51
6th     PAS Giannina                    26   8    4    1    34   16   1    8    4    15   20   39
2nd     PAS Giannina                    26   8    1    4    25   16   5    4    4    25   15   44
7th     PAS Giannina                    26   6    4    3    27   20   4    2    7    17   18   36
7th     PAS Giannina                    26   6    4    3    23   19   4    1    8    18   26   35
3rd     PAS Giannina                    26   9    2    2    29   16   3    7    3    17   20   45
7th     PAS Giannina                    26   6    2    5    24   22   3    4    6    16   20   33
4th     PAS Giannina                    26   9    3    1    36   16   4    1    8    10   18   43
1st      PAS Giannina                    26   9    2    2    31   13   9    1    3    25   17   57
3rd     PAS Giannina                    26   9    1    3    31   15   5    2    6    19   16   45
8th     PAS Giannina                    26   8    1    4    32   19   2    4    7    15   26   35
1st      PAS Giannina                    26   9    3    1    39   15   8    1    4    24   14   55
8th     PAS Giannina                    26   4    3    6    21   22   6    2    5    22   21   35
5th     PAS Giannina                    26   6    3    4    25   17   3    7    3    20   20   37
2nd     PAS Giannina                    26   9    2    2    34   25   6    3    4    18   15   50
3rd     PAS Giannina                    26   8    2    3    28   23   6    2    5    17   18   46
2nd     PAS Giannina                    26   9    1    3    27   12   8    1    4    22   16   53
4th     PAS Giannina                    26   8    2    3    27   18   5    1    7    15   21   42
3rd     PAS Giannina                    26   11   0    2    34   15   3    3    7    12   17   45
3rd     PAS Giannina                    26   9    3    1    35   17   6    1    6    17   22   49
3rd     PAS Giannina                    26   5    5    3    20   17   8    3    2    27   16   47
2nd     PAS Giannina                    26   8    4    1    25   13   7    1    5    20   19   50
10th    PAS Giannina                    26   6    6    1    30   22   1    3    9    13   32   30
5th     PAS Giannina                    26   7    2    4    22   16   4    4    5    25   24   39
6th     PAS Giannina                    26   4    6    3    21   23   4    5    4    17   20   35
1st      PAS Giannina                    26   10   2    1    31   11   8    2    3    23   17   58
4th     PAS Giannina                    26   10   1    2    29   11   3    4    6    19   21   44
1st      PAS Giannina                    26   9    1    3    28   14   7    2    4    17   16   51
2nd     PAS Giannina                    26   11   0    2    30   13   6    0    7    17   15   51
3rd     PAS Giannina                    26   8    3    2    32   20   6    3    4    17   17   48
3rd     PAS Giannina                    26   8    3    2    26   18   5    4    4    20   22   46
4th     PAS Giannina                    26   9    2    2    32   16   2    4    7    16   25   39
1st      PAS Giannina                    26   9    3    1    28   9    6    3    4    12   13   51
3rd     PAS Giannina                    26   9    1    3    27   16   5    3    5    25   28   46
2nd     PAS Giannina                    26   11   1    1    33   13   4    5    4    24   24   51
5th     PAS Giannina                    26   9    2    2    28   15   3    3    7    18   26   41
4th     PAS Giannina                    26   8    5    0    23   9    3    3    7    10   16   41
2nd     PAS Giannina                    26   11   2    0    30   14   2    5    6    16   23   46
2nd     PAS Giannina                    26   8    4    1    31   17   7    3    3    21   15   52
7th     PAS Giannina                    26   5    3    5    25   21   4    5    4    17   17   35
2nd     PAS Giannina                    26   11   0    2    28   13   7    3    3    21   12   57
5th     PAS Giannina                    26   8    1    4    27   16   4    4    5    23   21   41
4th     PAS Giannina                    26   9    2    2    29   9    3    5    5    15   18   43
13th     PAS Giannina                    26   5    4    4    17   16   2    1    10   21   25   26
1st      PAS Giannina                    26   11   1    1    31   12   8    3    2    28   17   61
2nd     PAS Giannina                    26   10   2    1    35   19   4    2    7    12   17   46
3rd     PAS Giannina                    26   10   0    3    29   16   4    3    6    16   16   45
2nd     PAS Giannina                    26   9    2    2    28   8    5    3    5    14   17   47
6th     PAS Giannina                    26   9    1    3    24   11   2    2    9    12   17   36
1st      PAS Giannina                    26   8    4    1    24   11   7    4    2    28   18   53
1st      PAS Giannina                    26   10   1    2    30   15   5    4    4    19   19   50
9th     PAS Giannina                    26   7    2    4    29   21   2    3    8    13   22   32
5th     PAS Giannina                    26   7    6    0    29   13   3    2    8    14   22   38
3rd     PAS Giannina                    26   9    2    2    27   14   5    2    6    21   20   46
4th     PAS Giannina                    26   6    5    2    22   17   4    4    5    17   18   39
10th    PAS Giannina                    26   5    6    2    23   16   2    3    8    12   21   30
2nd     PAS Giannina                    26   9    3    1    26   12   6    3    4    23   21   51
1st      PAS Giannina                    26   9    3    1    33   16   7    2    4    20   15   53
6th     PAS Giannina                    26   8    3    2    29   14   3    2    8    10   15   38
5th     PAS Giannina                    26   7    5    1    22   11   2    4    7    17   25   36
2nd     PAS Giannina                    26   8    1    4    22   19   7    4    2    24   13   50
2nd     PAS Giannina                    26   8    2    3    26   17   5    4    4    20   22   45
2nd     PAS Giannina                    26   7    4    2    28   15   6    4    3    21   10   47