1st     PAS Giannina                    26   11   1    1    42   15   12   1    0    40   14   71
1st     PAS Giannina                    26   10   3    0    34   17   9    1    3    33   13   61
1st     PAS Giannina                    26   12   1    0    46   6    12   1    0    39   10   74
1st     PAS Giannina                    26   11   1    1    40   11   12   0    1    44   10   70
1st     PAS Giannina                    26   9    2    2    46   20   10   1    2    33   11   60
1st     PAS Giannina                    26   9    2    2    33   10   12   1    0    37   6    66
1st     PAS Giannina                    26   13   0    0    43   8    7    5    1    34   14   65
1st     PAS Giannina                    26   12   1    0    38   10   11   1    1    31   12   71
1st     PAS Giannina                    26   12   0    1    42   8    8    4    1    32   17   64
1st     PAS Giannina                    26   11   1    1    36   14   11   1    1    39   14   68
1st     PAS Giannina                    26   11   2    0    39   12   12   1    0    41   12   72
1st     PAS Giannina                    26   12   1    0    42   10   10   2    1    34   10   69
1st     PAS Giannina                    26   13   0    0    41   15   11   2    0    35   7    74
1st     PAS Giannina                    26   11   2    0    36   11   10   2    1    32   13   67
1st     PAS Giannina                    26   12   0    1    42   6    11   2    0    31   9    71
1st     PAS Giannina                    26   13   0    0    40   7    11   1    1    36   9    73
1st     PAS Giannina                    26   13   0    0    41   11   13   0    0    43   9    78
1st     PAS Giannina                    26   13   0    0    40   13   8    1    4    21   12   64
1st     PAS Giannina                    26   13   0    0    32   5    10   2    1    31   11   71
1st     PAS Giannina                    26   11   1    1    42   14   10   2    1    36   9    66
1st     PAS Giannina                    26   13   0    0    41   8    10   2    1    36   13   71
1st     PAS Giannina                    26   13   0    0    44   9    10   1    2    35   14   70
1st     PAS Giannina                    26   13   0    0    43   10   9    1    3    22   13   67
1st     PAS Giannina                    26   10   2    1    38   14   12   1    0    32   7    69
1st     PAS Giannina                    26   10   2    1    39   14   11   0    2    31   11   65
1st     PAS Giannina                    26   13   0    0    38   10   12   0    1    36   14   75
1st     PAS Giannina                    26   12   0    1    36   17   10   3    0    28   7    69
1st     PAS Giannina                    26   9    3    1    31   13   11   1    1    33   5    64
1st     PAS Giannina                    26   13   0    0    33   7    11   0    2    35   16   72
1st     PAS Giannina                    26   10   2    1    41   14   9    2    2    31   15   61
1st     PAS Giannina                    26   13   0    0    39   8    11   1    1    32   8    73
1st     PAS Giannina                    26   12   1    0    43   9    9    3    1    31   8    67
1st     PAS Giannina                    26   12   1    0    33   6    7    4    2    31   15   62
1st     PAS Giannina                    26   12   1    0    36   11   12   1    0    42   6    74
1st     PAS Giannina                    26   10   3    0    26   9    12   1    0    35   13   70
1st     PAS Giannina                    26   11   2    0    43   10   11   0    2    32   9    68
1st     PAS Giannina                    26   12   1    0    38   10   10   3    0    32   9    70
1st     PAS Giannina                    26   12   1    0    45   15   12   0    1    31   11   73
1st     PAS Giannina                    26   13   0    0    41   8    12   0    1    34   11   75
1st     PAS Giannina                    26   12   1    0    38   9    10   2    1    32   8    69
1st     PAS Giannina                    26   11   2    0    37   16   9    1    3    31   14   63
1st     PAS Giannina                    26   13   0    0    43   12   10   0    3    37   18   69
1st     PAS Giannina                    26   12   0    1    31   8    11   1    1    32   12   70
1st     PAS Giannina                    26   13   0    0    39   9    11   0    2    34   6    72
1st     PAS Giannina                    26   9    4    0    36   10   11   0    2    31   15   64
1st     PAS Giannina                    26   12   1    0    31   8    10   2    1    33   9    69
1st     PAS Giannina                    26   13   0    0    51   15   9    1    3    31   15   67
1st     PAS Giannina                    26   11   1    1    40   13   9    3    1    34   15   64
1st     PAS Giannina                    26   11   2    0    41   9    9    2    2    31   14   64
1st     PAS Giannina                    26   12   1    0    39   11   9    2    2    31   10   66
1st     PAS Giannina                    26   12   0    1    39   10   10   0    3    29   10   66
1st     PAS Giannina                    26   10   1    2    46   17   11   2    0    33   9    66
1st     PAS Giannina                    26   10   2    1    33   9    11   1    1    39   9    66
1st     PAS Giannina                    26   11   2    0    43   13   11   2    0    34   13   70
1st     PAS Giannina                    26   13   0    0    42   15   10   1    2    29   15   70
1st     PAS Giannina                    26   12   0    1    40   10   10   1    2    28   12   67
1st     PAS Giannina                    26   12   0    1    37   12   11   1    1    39   13   70
1st     PAS Giannina                    26   13   0    0    46   11   6    5    2    25   11   62
1st     PAS Giannina                    26   10   1    2    36   17   11   0    2    31   15   64
1st     PAS Giannina                    26   12   1    0    42   14   12   0    1    41   13   73
1st     PAS Giannina                    26   12   1    0    39   13   11   1    1    40   11   71
1st     PAS Giannina                    26   11   2    0    37   15   9    2    2    38   15   64
1st     PAS Giannina                    26   12   1    0    35   9    9    3    1    35   13   67
2nd     PAS Giannina                    26   11   1    1    39   16   9    2    2    39   14   63
1st     PAS Giannina                    26   10   2    1    32   9    10   2    1    29   7    64
1st     PAS Giannina                    26   9    3    1    36   13   10   2    1    28   9    62
1st     PAS Giannina                    26   11   2    0    31   14   9    1    3    31   14   63
1st     PAS Giannina                    26   8    2    3    31   7    12   1    0    35   7    63
1st     PAS Giannina                    26   11   2    0    39   15   11   2    0    36   12   70
1st     PAS Giannina                    26   12   1    0    33   11   11   1    1    32   9    71
1st     PAS Giannina                    26   11   1    1    40   12   10   2    1    24   8    66
1st     PAS Giannina                    26   12   1    0    38   5    10   1    2    42   18   68
2nd     PAS Giannina                    26   11   1    1    41   10   7    4    2    28   18   59
1st     PAS Giannina                    26   12   0    1    45   14   11   2    0    32   6    71
1st     PAS Giannina                    26   13   0    0    45   6    10   1    2    33   13   70
1st     PAS Giannina                    26   13   0    0    37   6    10   2    1    33   13   71
1st     PAS Giannina                    26   10   2    1    31   10   8    2    3    30   21   58
1st     PAS Giannina                    26   11   1    1    39   13   12   0    1    44   10   70
1st     PAS Giannina                    26   8    5    0    37   18   10   2    1    34   10   61
1st     PAS Giannina                    26   10   3    0    37   12   11   1    1    28   11   67
1st     PAS Giannina                    26   11   2    0    40   10   10   2    1    44   16   67
1st     PAS Giannina                    26   12   0    1    47   14   12   0    1    31   8    72
2nd     PAS Giannina                    26   10   1    2    34   12   8    3    2    25   16   58
1st     PAS Giannina                    26   12   1    0    43   10   12   0    1    33   8    73
1st     PAS Giannina                    26   9    4    0    40   14   8    2    3    29   10   57
1st     PAS Giannina                    26   12   1    0    38   8    8    4    1    31   9    65
1st     PAS Giannina                    26   12   1    0    38   10   8    5    0    31   16   66
1st     PAS Giannina                    26   11   1    1    37   13   11   2    0    36   11   69
1st     PAS Giannina                    26   12   0    1    37   8    10   1    2    33   15   67
1st     PAS Giannina                    26   13   0    0    45   8    10   2    1    29   12   71
1st     PAS Giannina                    26   12   0    1    38   5    11   1    1    34   13   70
1st     PAS Giannina                    26   12   0    1    37   11   8    5    0    28   9    65
1st     PAS Giannina                    26   11   2    0    40   13   8    3    2    31   12   62
1st     PAS Giannina                    26   11   1    1    35   12   10   3    0    30   11   67
1st     PAS Giannina                    26   13   0    0    40   9    10   2    1    32   11   71
1st     PAS Giannina                    26   10   3    0    41   11   8    2    3    25   14   59
1st     PAS Giannina                    26   13   0    0    42   10   8    3    2    23   11   66
1st     PAS Giannina                    26   12   0    1    39   14   9    2    2    27   5    65
1st     PAS Giannina                    26   11   1    1    39   15   10   2    1    31   11   66
1st     PAS Giannina                    26   12   0    1    34   8    12   0    1    34   6    72