1st     PAS Giannina                    26   12   0    1    40   15   12   1    0    30   10   73   
1st     PAS Giannina                    26   10   3    0    38   18   9    4    0    29   13   64   
1st     PAS Giannina                    26   12   1    0    42   9    8    1    4    26   12   62   
2nd     PAS Giannina                    26   12   0    1    42   13   6    2    5    22   13   56   
1st     PAS Giannina                    26   10   1    2    33   13   9    4    0    38   14   62   
1st     PAS Giannina                    26   11   2    0    37   13   9    1    3    28   12   63   
1st     PAS Giannina                    26   12   1    0    39   11   11   1    1    39   13   71   
1st     PAS Giannina                    26   11   0    2    35   9    11   1    1    43   16   67   
1st     PAS Giannina                    26   11   2    0    36   13   8    2    3    30   17   61   
1st     PAS Giannina                    26   11   2    0    36   13   11   1    1    29   13   69   
1st     PAS Giannina                    26   12   1    0    40   14   9    2    2    32   19   66   
1st     PAS Giannina                    26   12   1    0    38   14   11   2    0    38   10   72   
1st     PAS Giannina                    26   11   1    1    33   14   10   1    2    33   10   65   
1st     PAS Giannina                    26   11   2    0    43   18   10   2    1    35   13   67   
1st     PAS Giannina                    26   10   2    1    36   17   12   1    0    35   9    69   
2nd     PAS Giannina                    26   10   1    2    34   15   9    2    2    33   16   60   
1st     PAS Giannina                    26   12   0    1    44   18   7    4    2    28   17   61   
1st     PAS Giannina                    26   13   0    0    47   9    6    2    5    29   20   59   
2nd     PAS Giannina                    26   9    4    0    34   14   7    1    5    25   15   53   
1st     PAS Giannina                    26   9    2    2    31   15   8    3    2    24   16   56   
1st     PAS Giannina                    26   11   1    1    40   10   9    3    1    37   15   64   
1st     PAS Giannina                    26   12   0    1    44   17   11   1    1    35   11   70   
1st     PAS Giannina                    26   13   0    0    40   13   8    4    1    27   15   67   
1st     PAS Giannina                    26   11   0    2    39   14   10   1    2    31   12   64   
1st     PAS Giannina                    26   10   2    1    36   12   9    1    3    30   11   60   
1st     PAS Giannina                    26   11   1    1    40   15   8    3    2    23   11   61   
1st     PAS Giannina                    26   11   1    1    36   9    7    5    1    33   18   60   
1st     PAS Giannina                    26   11   2    0    39   11   10   1    2    25   10   66   
1st     PAS Giannina                    26   10   1    2    33   15   12   0    1    38   12   67   
1st     PAS Giannina                    26   13   0    0    40   10   5    4    4    29   22   58   
1st     PAS Giannina                    26   12   0    1    38   13   9    4    0    27   9    67   
1st     PAS Giannina                    26   12   1    0    31   6    9    2    2    36   12   66   
1st     PAS Giannina                    26   9    3    1    35   15   10   0    3    32   12   60   
1st     PAS Giannina                    26   12   1    0    42   15   5    7    1    22   14   59   
1st     PAS Giannina                    26   12   1    0    37   10   12   1    0    31   7    74   
1st     PAS Giannina                    26   10   2    1    43   19   10   3    0    39   15   65   
1st     PAS Giannina                    26   12   1    0    39   12   7    4    2    26   12   62   
1st     PAS Giannina                    26   12   1    0    39   10   8    1    4    24   12   62   
1st     PAS Giannina                    26   10   2    1    39   14   8    2    3    27   17   58   
1st     PAS Giannina                    26   10   2    1    39   13   10   2    1    31   16   64   
1st     PAS Giannina                    26   12   0    1    42   12   9    3    1    32   11   66   
1st     PAS Giannina                    26   11   1    1    36   15   8    0    5    27   15   58   
1st     PAS Giannina                    26   12   1    0    41   8    9    3    1    34   14   67   
2nd     PAS Giannina                    26   12   0    1    37   11   7    4    2    29   19   61   
1st     PAS Giannina                    26   9    3    1    32   16   12   0    1    31   11   66   
1st     PAS Giannina                    26   10   3    0    38   13   9    3    1    34   16   63   
1st     PAS Giannina                    26   12   0    1    41   10   10   3    0    34   11   69   
1st     PAS Giannina                    26   10   3    0    37   15   13   0    0    36   13   72   
1st     PAS Giannina                    26   10   3    0    33   10   6    3    4    28   20   54   
1st     PAS Giannina                    26   10   1    2    39   17   9    1    3    20   12   59   
1st     PAS Giannina                    26   11   2    0    37   15   9    1    3    31   11   63   
1st     PAS Giannina                    26   11   2    0    37   12   8    3    2    23   9    62   
1st     PAS Giannina                    26   12   0    1    45   10   10   2    1    29   10   68   
1st     PAS Giannina                    26   11   1    1    32   14   7    4    2    28   14   59   
1st     PAS Giannina                    26   12   1    0    45   15   11   1    1    35   12   71   
1st     PAS Giannina                    26   10   3    0    39   17   12   1    0    33   11   70   
1st     PAS Giannina                    26   10   2    1    36   16   10   3    0    29   12   65   
2nd     PAS Giannina                    26   11   1    1    32   10   5    5    3    22   15   54   
1st     PAS Giannina                    26   12   0    1    39   14   10   2    1    33   13   68   
1st     PAS Giannina                    26   10   1    2    33   14   8    3    2    26   14   58   
1st     PAS Giannina                    26   12   1    0    43   11   10   2    1    29   14   69   
1st     PAS Giannina                    26   11   1    1    36   15   9    2    2    37   11   63   
1st     PAS Giannina                    26   12   0    1    45   18   7    3    3    26   13   60   
1st     PAS Giannina                    26   10   2    1    35   10   10   3    0    35   12   65   
1st     PAS Giannina                    26   9    1    3    31   15   9    4    0    33   15   59   
1st     PAS Giannina                    26   13   0    0    36   10   6    4    3    27   15   61   
2nd     PAS Giannina                    26   8    2    3    34   19   6    1    6    29   25   45   
2nd     PAS Giannina                    26   11   2    0    38   13   6    7    0    26   14   60   
1st     PAS Giannina                    26   8    3    2    27   17   5    7    1    16   10   49   
1st     PAS Giannina                    26   11   2    0    31   10   7    4    2    29   13   60   
1st     PAS Giannina                    26   12   1    0    47   14   8    3    2    38   15   64   
1st     PAS Giannina                    26   11   1    1    36   8    9    1    3    31   11   62   
1st     PAS Giannina                    26   12   0    1    36   10   10   2    1    30   10   68   
1st     PAS Giannina                    26   10   1    2    29   12   9    3    1    25   13   61   
1st     PAS Giannina                    26   12   0    1    43   16   9    1    3    31   13   64   
1st     PAS Giannina                    26   11   1    1    39   14   10   2    1    31   12   66   
1st     PAS Giannina                    26   12   1    0    38   10   8    2    3    33   17   63   
1st     PAS Giannina                    26   12   0    1    39   7    11   0    2    37   12   69   
1st     PAS Giannina                    26   13   0    0    43   14   8    2    3    39   21   65   
2nd     PAS Giannina                    26   9    1    3    32   19   6    6    1    22   14   52   
1st     PAS Giannina                    26   10   3    0    37   10   9    1    3    24   14   61   
1st     PAS Giannina                    26   11   1    1    39   11   7    4    2    23   14   59   
1st     PAS Giannina                    26   13   0    0    37   7    11   0    2    41   22   72   
2nd     PAS Giannina                    26   8    2    3    33   21   7    5    1    24   13   52   
1st     PAS Giannina                    26   11   1    1    29   5    8    3    2    30   12   61   
1st     PAS Giannina                    26   10   2    1    31   8    10   1    2    30   13   63   
1st     PAS Giannina                    26   13   0    0    42   17   11   0    2    30   13   72   
1st     PAS Giannina                    26   12   1    0    37   10   8    2    3    23   13   63   
1st     PAS Giannina                    26   12   1    0    42   15   7    5    1    31   13   63   
2nd     PAS Giannina                    26   9    1    3    29   16   8    2    3    25   14   54   
1st     PAS Giannina                    26   10   3    0    36   12   10   1    2    29   13   64   
1st     PAS Giannina                    26   11   1    1    36   11   8    3    2    29   16   61   
1st     PAS Giannina                    26   11   2    0    41   15   10   1    2    39   17   66   
1st     PAS Giannina                    26   9    3    1    38   15   7    2    4    18   13   53   
1st     PAS Giannina                    26   12   1    0    37   11   11   1    1    28   10   71   
1st     PAS Giannina                    26   10   2    1    37   19   8    4    1    29   17   60   
1st     PAS Giannina                    26   11   2    0    31   10   8    2    3    36   19   61   
1st     PAS Giannina                    26   8    4    1    40   17   10   2    1    42   16   60   
1st     PAS Giannina                    26   10   1    2    36   17   8    3    2    32   17   58   
1st     PAS Giannina                    26   12   1    0    43   11   11   2    0    29   12   72   