1st     PAS Giannina                    26   10   2    1    34   12   11   0    2    24   7    65   
1st     PAS Giannina                    26   11   1    1    29   8    10   1    2    23   10   65   
1st     PAS Giannina                    26   11   1    1    36   10   9    4    0    27   9    65   
1st     PAS Giannina                    26   11   1    1    30   7    9    2    2    22   9    63   
1st     PAS Giannina                    26   9    1    3    28   13   7    4    2    19   12   53   
1st     PAS Giannina                    26   11   1    1    30   5    9    1    3    28   18   62   
1st     PAS Giannina                    26   10   2    1    35   10   6    5    2    18   9    55   
2nd     PAS Giannina                    26   9    3    1    36   18   7    2    4    26   15   53   
1st     PAS Giannina                    26   11   0    2    29   7    11   1    1    33   8    67   
2nd     PAS Giannina                    26   10   1    2    32   9    6    3    4    23   14   52   
1st     PAS Giannina                    26   11   1    1    36   11   8    4    1    19   5    62   
1st     PAS Giannina                    26   9    4    0    30   7    9    2    2    27   12   60   
1st     PAS Giannina                    26   9    2    2    26   10   9    3    1    27   12   59   
1st     PAS Giannina                    26   11   2    0    32   6    8    4    1    25   9    63   
1st     PAS Giannina                    26   8    4    1    30   11   8    4    1    24   10   56   
1st     PAS Giannina                    26   12   0    1    42   8    7    5    1    21   10   62   
1st     PAS Giannina                    26   11   2    0    34   11   10   1    2    30   16   66   
1st     PAS Giannina                    26   11   1    1    37   6    7    4    2    19   11   59   
1st     PAS Giannina                    26   10   1    2    29   13   10   3    0    32   9    64   
1st     PAS Giannina                    26   11   2    0    35   5    7    2    4    29   17   58   
1st     PAS Giannina                    26   10   2    1    30   9    6    3    4    23   17   53   
1st     PAS Giannina                    26   10   2    1    32   11   5    2    6    17   17   49   
1st     PAS Giannina                    26   7    5    1    25   8    12   1    0    32   10   63   
1st     PAS Giannina                    26   10   2    1    27   12   7    4    2    20   12   57   
1st     PAS Giannina                    26   10   3    0    35   11   6    5    2    22   13   56   
1st     PAS Giannina                    26   11   2    0    33   11   11   1    1    31   11   69   
1st     PAS Giannina                    26   7    5    1    28   13   11   0    2    33   10   59   
1st     PAS Giannina                    26   7    4    2    30   16   9    2    2    22   7    54   
1st     PAS Giannina                    26   10   3    0    38   14   8    1    4    28   19   58   
1st     PAS Giannina                    26   13   0    0    34   2    10   0    3    35   18   69   
1st     PAS Giannina                    26   11   1    1    32   8    7    4    2    28   12   59   
1st     PAS Giannina                    26   11   1    1    32   10   6    5    2    28   15   57   
1st     PAS Giannina                    26   11   2    0    28   10   9    3    1    34   16   65   
1st     PAS Giannina                    26   9    4    0    32   11   9    2    2    32   13   60   
2nd     PAS Giannina                    26   10   2    1    29   12   5    6    2    22   11   53   
1st     PAS Giannina                    26   11   2    0    35   11   8    2    3    22   14   61   
1st     PAS Giannina                    26   12   0    1    37   11   8    3    2    24   11   63   
1st     PAS Giannina                    26   11   1    1    33   17   12   0    1    27   5    70   
1st     PAS Giannina                    26   11   2    0    37   10   8    3    2    25   9    62   
1st     PAS Giannina                    26   12   1    0    34   12   7    4    2    25   14   62   
1st     PAS Giannina                    26   12   1    0    31   12   9    2    2    29   12   66   
1st     PAS Giannina                    26   12   1    0    40   11   9    3    1    30   13   67   
2nd     PAS Giannina                    26   11   1    1    32   12   9    2    2    32   8    63   
1st     PAS Giannina                    26   10   1    2    31   13   9    3    1    31   14   61   
1st     PAS Giannina                    26   12   1    0    33   8    8    3    2    21   7    64   
1st     PAS Giannina                    26   11   2    0    33   6    9    2    2    26   13   64   
2nd     PAS Giannina                    26   11   1    1    34   11   9    2    2    31   15   63   
1st     PAS Giannina                    26   11   2    0    27   4    11   1    1    30   13   69   
1st     PAS Giannina                    26   12   1    0    33   12   9    4    0    30   14   68   
1st     PAS Giannina                    26   9    3    1    20   5    6    3    4    27   19   51   
1st     PAS Giannina                    26   11   2    0    33   7    10   2    1    35   9    67   
1st     PAS Giannina                    26   12   1    0    36   9    8    5    0    22   8    66   
1st     PAS Giannina                    26   10   2    1    33   10   10   2    1    25   10   64   
1st     PAS Giannina                    26   12   1    0    39   10   7    2    4    22   16   60   
1st     PAS Giannina                    26   12   1    0    34   10   8    4    1    27   13   65   
1st     PAS Giannina                    26   11   1    1    35   10   10   3    0    26   9    67   
1st     PAS Giannina                    26   13   0    0    34   8    8    3    2    29   16   66   
1st     PAS Giannina                    26   10   1    2    29   8    10   1    2    27   14   62   
1st     PAS Giannina                    26   10   1    2    32   14   8    4    1    24   13   59   
1st     PAS Giannina                    26   10   2    1    37   16   9    1    3    29   14   60   
1st     PAS Giannina                    26   10   3    0    32   10   8    4    1    31   12   61   
1st     PAS Giannina                    26   10   1    2    30   11   9    2    2    29   11   60   
1st     PAS Giannina                    26   10   3    0    33   10   8    2    3    38   17   59   
1st     PAS Giannina                    26   9    2    2    31   10   10   1    2    27   7    60   
1st     PAS Giannina                    26   9    4    0    35   18   9    1    3    32   18   59   
1st     PAS Giannina                    26   12   1    0    31   11   12   1    0    36   5    74   
1st     PAS Giannina                    26   11   1    1    37   10   9    3    1    37   13   64   
1st     PAS Giannina                    26   11   1    1    37   12   10   2    1    24   12   66   
1st     PAS Giannina                    26   12   1    0    36   12   4    6    3    17   13   55   
1st     PAS Giannina                    26   10   3    0    30   10   11   1    1    23   9    67   
1st     PAS Giannina                    26   9    4    0    29   10   11   1    1    32   10   65   
2nd     PAS Giannina                    26   8    3    2    29   13   7    3    3    25   13   51   
1st     PAS Giannina                    26   12   1    0    36   10   6    5    2    21   14   60   
1st     PAS Giannina                    26   13   0    0    39   10   9    1    3    30   10   67   
1st     PAS Giannina                    26   9    4    0    31   11   7    6    0    27   11   58   
1st     PAS Giannina                    26   11   0    2    30   11   6    4    3    21   18   55   
1st     PAS Giannina                    26   11   0    2    31   13   9    4    0    25   11   64   
1st     PAS Giannina                    26   13   0    0    37   7    9    0    4    23   11   66   
1st     PAS Giannina                    26   10   3    0    34   8    9    1    3    32   18   61   
1st     PAS Giannina                    26   12   1    0    35   9    10   2    1    22   8    69   
1st     PAS Giannina                    26   10   3    0    33   12   8    4    1    31   13   61   
1st     PAS Giannina                    26   12   1    0    30   11   9    1    3    29   15   65   
2nd     PAS Giannina                    26   8    3    2    24   11   6    2    5    21   14   47   
1st     PAS Giannina                    26   11   2    0    34   7    9    2    2    25   12   64   
1st     PAS Giannina                    26   11   0    2    34   12   10   1    2    32   14   64   
1st     PAS Giannina                    26   9    3    1    26   10   9    2    2    25   13   59   
1st     PAS Giannina                    26   13   0    0    27   3    7    2    4    21   14   62   
1st     PAS Giannina                    26   11   2    0    30   9    9    1    3    23   13   63   
2nd     PAS Giannina                    26   10   2    1    32   9    6    4    3    20   13   54   
1st     PAS Giannina                    26   11   0    2    28   11   8    4    1    29   15   61   
1st     PAS Giannina                    26   11   2    0    31   9    8    4    1    22   9    63   
1st     PAS Giannina                    26   11   0    2    27   11   9    0    4    33   14   60   
1st     PAS Giannina                    26   10   3    0    26   6    8    3    2    31   15   60   
1st     PAS Giannina                    26   12   1    0    41   6    8    3    2    22   9    64   
1st     PAS Giannina                    26   11   1    1    35   9    9    2    2    21   12   63   
1st     PAS Giannina                    26   9    4    0    26   11   6    4    3    24   15   53   
1st     PAS Giannina                    26   11   2    0    33   10   9    1    3    28   11   63   
1st     PAS Giannina                    26   10   3    0    28   8    10   1    2    26   9    64   
1st     PAS Giannina                    26   11   2    0    35   5    9    3    1    26   15   65   
1st     PAS Giannina                    26   7    4    2    30   13   10   1    2    35   11   56   