1st     PAS Giannina                    26   10   2    1    42   20   9    4    0    29   16   63   
1st     PAS Giannina                    26   10   2    1    33   11   8    3    2    22   11   59   
1st     PAS Giannina                    26   9    4    0    39   19   9    2    2    32   14   60   
2nd     PAS Giannina                    26   8    4    1    34   16   5    4    4    27   21   47   
1st     PAS Giannina                    26   12   1    0    40   10   10   2    1    34   15   69   
1st     PAS Giannina                    26   11   2    0    33   9    10   2    1    33   11   67   
1st     PAS Giannina                    26   11   2    0    40   17   9    2    2    37   16   64   
1st     PAS Giannina                    26   10   3    0    40   9    11   0    2    30   10   66   
1st     PAS Giannina                    26   11   2    0    34   14   6    3    4    20   12   56   
1st     PAS Giannina                    26   9    3    1    35   12   9    2    2    30   12   59   
1st     PAS Giannina                    26   13   0    0    40   9    10   3    0    27   6    72   
1st     PAS Giannina                    26   10   2    1    33   12   8    2    3    32   16   58   
1st     PAS Giannina                    26   11   2    0    37   12   10   3    0    30   9    68   
2nd     PAS Giannina                    26   10   1    2    32   9    7    2    4    26   18   54   
1st     PAS Giannina                    26   11   2    0    31   5    8    1    4    24   12   60   
1st     PAS Giannina                    26   12   1    0    42   14   9    3    1    35   17   67   
1st     PAS Giannina                    26   11   1    1    36   9    12   0    1    34   12   70   
1st     PAS Giannina                    26   11   1    1    38   15   8    2    3    31   14   60   
1st     PAS Giannina                    26   11   2    0    35   12   12   1    0    37   8    72   
1st     PAS Giannina                    26   12   1    0    52   12   12   1    0    37   12   74   
1st     PAS Giannina                    26   11   2    0    41   15   9    1    3    32   18   63   
1st     PAS Giannina                    26   11   2    0    35   11   10   3    0    30   10   68   
1st     PAS Giannina                    26   12   1    0    39   10   12   1    0    33   7    74   
1st     PAS Giannina                    26   12   1    0    36   12   11   1    1    31   7    71   
1st     PAS Giannina                    26   10   2    1    30   11   11   2    0    34   10   67   
1st     PAS Giannina                    26   11   1    1    32   11   9    1    3    36   14   62   
1st     PAS Giannina                    26   10   2    1    32   9    8    5    0    37   17   61   
1st     PAS Giannina                    26   11   1    1    35   15   8    4    1    26   13   62   
1st     PAS Giannina                    26   13   0    0    40   12   9    2    2    26   8    68   
1st     PAS Giannina                    26   12   1    0    43   11   9    4    0    31   10   68   
1st     PAS Giannina                    26   12   0    1    45   11   9    2    2    30   13   65   
1st     PAS Giannina                    26   11   1    1    35   14   11   0    2    31   9    67   
1st     PAS Giannina                    26   12   1    0    41   10   10   1    2    35   14   68   
1st     PAS Giannina                    26   12   1    0    42   16   9    2    2    29   15   66   
1st     PAS Giannina                    26   12   0    1    32   15   11   1    1    31   12   70   
1st     PAS Giannina                    26   10   1    2    30   17   11   2    0    38   12   66   
1st     PAS Giannina                    26   12   1    0    36   9    9    2    2    39   13   66   
1st     PAS Giannina                    26   12   0    1    32   13   10   3    0    27   10   69   
1st     PAS Giannina                    26   13   0    0    38   5    8    4    1    21   13   67   
2nd     PAS Giannina                    26   10   1    2    34   9    6    4    3    32   14   53   
1st     PAS Giannina                    26   11   2    0    33   9    8    4    1    29   13   63   
1st     PAS Giannina                    26   11   1    1    36   10   10   3    0    31   9    67   
1st     PAS Giannina                    26   9    4    0    39   10   9    2    2    27   14   60   
1st     PAS Giannina                    26   11   2    0    39   12   12   1    0    42   14   72   
1st     PAS Giannina                    26   10   3    0    40   15   10   1    2    32   13   64   
1st     PAS Giannina                    26   11   1    1    37   13   10   1    2    27   13   65   
1st     PAS Giannina                    26   10   3    0    34   8    12   0    1    35   7    69   
1st     PAS Giannina                    26   12   1    0    39   12   9    2    2    29   12   66   
1st     PAS Giannina                    26   13   0    0    38   9    11   2    0    35   10   74   
1st     PAS Giannina                    26   10   1    2    45   14   8    3    2    28   13   58   
1st     PAS Giannina                    26   11   2    0    34   7    11   2    0    37   11   70   
2nd     PAS Giannina                    26   11   0    2    38   12   7    4    2    28   12   58   
1st     PAS Giannina                    26   11   2    0    41   15   9    4    0    31   12   66   
1st     PAS Giannina                    26   11   2    0    36   8    8    3    2    26   7    62   
1st     PAS Giannina                    26   9    3    1    30   11   9    2    2    30   13   59   
1st     PAS Giannina                    26   10   3    0    33   15   10   1    2    35   22   64   
2nd     PAS Giannina                    26   10   2    1    42   13   11   0    2    30   14   65   
1st     PAS Giannina                    26   8    2    3    30   14   9    1    3    30   13   54   
1st     PAS Giannina                    26   10   1    2    37   15   9    1    3    30   16   59   
1st     PAS Giannina                    26   11   1    1    42   10   7    2    4    23   16   57   
1st     PAS Giannina                    26   13   0    0    39   9    9    4    0    35   7    70   
1st     PAS Giannina                    26   12   0    1    38   16   9    4    0    34   16   67   
2nd     PAS Giannina                    26   9    4    0    34   13   8    3    2    30   14   58   
1st     PAS Giannina                    26   7    3    3    33   14   8    3    2    38   18   51   
1st     PAS Giannina                    26   12   1    0    41   11   9    1    3    22   14   65   
1st     PAS Giannina                    26   11   1    1    41   13   12   1    0    39   8    71   
1st     PAS Giannina                    26   12   1    0    43   8    8    2    3    33   14   63   
1st     PAS Giannina                    26   12   1    0    40   10   12   1    0    36   13   74   
1st     PAS Giannina                    26   12   1    0    43   14   9    0    4    26   12   64   
1st     PAS Giannina                    26   11   2    0    35   7    8    4    1    25   10   63   
1st     PAS Giannina                    26   9    1    3    27   13   12   0    1    35   10   64   
1st     PAS Giannina                    26   10   3    0    34   11   11   1    1    30   10   67   
1st     PAS Giannina                    26   10   1    2    29   11   10   2    1    33   9    63   
1st     PAS Giannina                    26   9    3    1    35   16   10   1    2    32   11   61   
1st     PAS Giannina                    26   9    3    1    38   17   9    2    2    26   9    59   
1st     PAS Giannina                    26   11   1    1    37   11   10   3    0    31   9    67   
1st     PAS Giannina                    26   12   1    0    41   12   9    2    2    30   12   66   
1st     PAS Giannina                    26   11   1    1    31   9    11   2    0    28   8    69   
1st     PAS Giannina                    26   12   1    0    40   14   11   1    1    40   15   71   
1st     PAS Giannina                    26   11   2    0    36   10   11   2    0    34   9    70   
1st     PAS Giannina                    26   11   2    0    38   9    10   2    1    26   8    67   
1st     PAS Giannina                    26   12   1    0    43   9    8    2    3    29   13   63   
1st     PAS Giannina                    26   10   3    0    35   14   9    3    1    30   11   63   
2nd     PAS Giannina                    26   10   3    0    39   17   10   1    2    34   15   64   
1st     PAS Giannina                    26   10   2    1    39   16   10   2    1    33   9    64   
2nd     PAS Giannina                    26   10   1    2    35   12   6    4    3    28   18   53   
1st     PAS Giannina                    26   11   2    0    34   6    9    3    1    29   11   65   
1st     PAS Giannina                    26   10   2    1    32   11   8    5    0    33   14   61   
1st     PAS Giannina                    26   10   2    1    35   15   10   1    2    29   14   63   
1st     PAS Giannina                    26   10   3    0    32   14   9    2    2    32   10   62   
1st     PAS Giannina                    26   12   0    1    34   11   9    4    0    27   13   67   
1st     PAS Giannina                    26   10   3    0    34   12   10   2    1    34   11   65   
1st     PAS Giannina                    26   13   0    0    42   9    6    4    3    25   13   61   
1st     PAS Giannina                    26   10   2    1    33   12   9    2    2    31   14   61   
1st     PAS Giannina                    26   11   2    0    36   9    10   2    1    28   10   67   
1st     PAS Giannina                    26   12   0    1    40   11   10   3    0    30   8    69   
1st     PAS Giannina                    26   11   1    1    40   15   10   3    0    34   8    67   
1st     PAS Giannina                    26   13   0    0    36   12   8    5    0    29   12   68   
1st     PAS Giannina                    26   12   1    0    44   17   11   0    2    28   12   70   
1st     PAS Giannina                    26   11   2    0    47   15   9    2    2    33   15   64   