1st     PAS Giannina                    26   9    2    2    32   17   7    4    2    22   13   54   
1st     PAS Giannina                    26   10   2    1    32   12   9    1    3    24   15   60   
1st     PAS Giannina                    26   12   0    1    36   10   9    2    2    31   16   65   
1st     PAS Giannina                    26   8    3    2    27   13   11   2    0    28   7    62   
1st     PAS Giannina                    26   10   2    1    31   12   8    4    1    28   10   60   
1st     PAS Giannina                    26   13   0    0    38   13   11   1    1    34   10   73   
1st     PAS Giannina                    26   11   2    0    32   9    7    5    1    26   13   61   
1st     PAS Giannina                    26   10   3    0    35   16   9    3    1    34   9    63   
1st     PAS Giannina                    26   9    4    0    32   15   8    5    0    29   12   60   
1st     PAS Giannina                    26   10   2    1    35   15   5    5    3    22   15   52   
1st     PAS Giannina                    26   10   2    1    29   9    9    2    2    22   9    61   
1st     PAS Giannina                    26   10   1    2    33   8    7    5    1    26   14   57   
1st     PAS Giannina                    26   11   2    0    33   11   11   0    2    28   13   68   
2nd     PAS Giannina                    26   9    1    3    28   14   9    2    2    31   16   57   
1st     PAS Giannina                    26   10   2    1    30   12   9    2    2    25   11   61   
1st     PAS Giannina                    26   12   0    1    32   6    9    3    1    30   15   66   
1st     PAS Giannina                    26   11   2    0    42   10   10   1    2    30   16   66   
1st     PAS Giannina                    26   10   2    1    32   12   9    3    1    27   10   62   
1st     PAS Giannina                    26   13   0    0    44   12   7    4    2    32   20   64   
1st     PAS Giannina                    26   10   2    1    29   13   9    4    0    31   13   63   
1st     PAS Giannina                    26   9    3    1    33   13   10   2    1    32   15   62   
2nd     PAS Giannina                    26   9    3    1    27   12   7    1    5    20   16   52   
2nd     PAS Giannina                    26   9    2    2    31   14   9    3    1    30   13   59   
1st     PAS Giannina                    26   10   1    2    29   16   8    4    1    32   8    59   
1st     PAS Giannina                    26   12   1    0    31   11   7    1    5    26   21   59   
1st     PAS Giannina                    26   10   1    2    30   11   10   1    2    33   9    62   
1st     PAS Giannina                    26   10   0    3    31   19   8    3    2    21   13   57   
1st     PAS Giannina                    26   12   0    1    34   13   8    3    2    35   16   63   
1st     PAS Giannina                    26   8    4    1    33   19   7    4    2    21   10   53   
1st     PAS Giannina                    26   11   2    0    34   9    10   1    2    27   14   66   
1st     PAS Giannina                    26   12   0    1    32   7    8    4    1    31   16   64   
2nd     PAS Giannina                    26   7    6    0    31   16   9    0    4    26   17   54   
1st     PAS Giannina                    26   12   0    1    39   19   12   1    0    33   11   73   
1st     PAS Giannina                    26   10   2    1    35   10   8    2    3    28   14   58   
1st     PAS Giannina                    26   11   2    0    30   6    7    2    4    28   16   58   
1st     PAS Giannina                    26   10   3    0    31   11   5    3    5    19   21   51   
1st     PAS Giannina                    26   11   2    0    27   7    10   1    2    31   12   66   
1st     PAS Giannina                    26   10   3    0    38   12   8    3    2    24   11   60   
1st     PAS Giannina                    26   10   3    0    37   13   8    3    2    19   10   60   
1st     PAS Giannina                    26   8    2    3    22   10   6    3    4    25   21   47   
1st     PAS Giannina                    26   10   2    1    32   15   8    2    3    21   12   58   
1st     PAS Giannina                    26   10   1    2    41   15   9    2    2    23   9    60   
1st     PAS Giannina                    26   10   3    0    33   9    11   1    1    38   9    67   
1st     PAS Giannina                    26   12   0    1    32   8    7    3    3    29   19   60   
1st     PAS Giannina                    26   11   0    2    30   13   11   2    0    35   9    68   
2nd     PAS Giannina                    26   7    1    5    25   14   8    2    3    25   14   48   
1st     PAS Giannina                    26   13   0    0    40   6    7    4    2    26   9    64   
1st     PAS Giannina                    26   12   1    0    37   13   8    2    3    28   16   63   
1st     PAS Giannina                    26   11   2    0    29   13   11   1    1    36   15   69   
1st     PAS Giannina                    26   10   3    0    35   16   9    4    0    32   16   64   
1st     PAS Giannina                    26   12   1    0    35   6    6    4    3    23   15   59   
1st     PAS Giannina                    26   12   1    0    39   16   4    4    5    17   18   53   
1st     PAS Giannina                    26   12   0    1    38   10   6    7    0    27   15   61   
1st     PAS Giannina                    26   11   1    1    34   9    7    5    1    20   10   60   
1st     PAS Giannina                    26   11   2    0    31   9    9    4    0    28   10   66   
1st     PAS Giannina                    26   11   1    1    33   11   7    3    3    19   12   58   
1st     PAS Giannina                    26   11   1    1    28   11   10   0    3    27   13   64   
1st     PAS Giannina                    26   11   1    1    32   11   6    4    3    23   12   56   
2nd     PAS Giannina                    26   11   1    1    37   14   4    6    3    20   13   52   
2nd     PAS Giannina                    26   9    3    1    27   13   8    4    1    30   16   58   
1st     PAS Giannina                    26   11   1    1    29   6    9    3    1    31   9    64   
1st     PAS Giannina                    26   10   1    2    28   13   8    3    2    26   12   58   
1st     PAS Giannina                    26   11   1    1    34   13   6    4    3    21   14   56   
1st     PAS Giannina                    26   10   3    0    33   9    11   2    0    34   8    68   
1st     PAS Giannina                    26   12   1    0    35   9    8    3    2    21   12   64   
2nd     PAS Giannina                    26   10   1    2    30   8    4    4    5    18   15   47   
1st     PAS Giannina                    26   11   2    0    28   8    9    2    2    26   13   64   
2nd     PAS Giannina                    26   8    4    1    26   12   8    4    1    28   11   56   
1st     PAS Giannina                    26   8    3    2    25   13   9    2    2    35   18   56   
1st     PAS Giannina                    26   12   1    0    38   6    9    3    1    21   6    67   
2nd     PAS Giannina                    26   11   2    0    36   9    5    3    5    20   17   53   
1st     PAS Giannina                    26   11   1    1    33   13   8    2    3    21   10   60   
1st     PAS Giannina                    26   11   1    1    31   10   10   2    1    23   6    66   
2nd     PAS Giannina                    26   10   2    1    29   11   9    4    0    23   12   63   
1st     PAS Giannina                    26   11   2    0    33   10   8    3    2    24   13   62   
1st     PAS Giannina                    26   10   1    2    28   12   9    3    1    43   18   61   
1st     PAS Giannina                    26   8    4    1    32   16   8    3    2    26   13   55   
1st     PAS Giannina                    26   11   1    1    35   8    8    3    2    28   16   61   
1st     PAS Giannina                    26   12   1    0    34   8    7    3    3    22   13   61   
1st     PAS Giannina                    26   9    4    0    34   12   7    4    2    25   9    56   
1st     PAS Giannina                    26   10   2    1    30   11   8    2    3    30   16   58   
1st     PAS Giannina                    26   11   1    1    33   10   10   2    1    28   9    66   
1st     PAS Giannina                    26   10   2    1    34   15   6    2    5    23   15   52   
1st     PAS Giannina                    26   8    3    2    30   15   8    4    1    33   14   55   
1st     PAS Giannina                    26   11   2    0    33   6    7    5    1    21   11   61   
3rd     PAS Giannina                    26   6    3    4    33   21   8    2    3    30   13   47   
1st     PAS Giannina                    26   10   1    2    34   14   8    5    0    31   7    60   
1st     PAS Giannina                    26   10   0    3    29   13   9    2    2    27   9    59   
2nd     PAS Giannina                    26   8    3    2    32   16   8    2    3    28   16   53   
2nd     PAS Giannina                    26   10   2    1    36   14   6    6    1    26   16   56   
2nd     PAS Giannina                    26   11   2    0    38   12   5    5    3    18   14   55   
1st     PAS Giannina                    26   10   3    0    33   11   7    4    2    23   10   58   
1st     PAS Giannina                    26   11   2    0    31   8    9    3    1    27   12   65   
1st     PAS Giannina                    26   10   2    1    38   10   11   2    0    31   10   67   
1st     PAS Giannina                    26   11   0    2    29   15   9    2    2    31   13   62   
2nd     PAS Giannina                    26   9    2    2    32   14   8    1    4    32   14   54   
1st     PAS Giannina                    26   11   1    1    27   7    10   2    1    27   7    66   
1st     PAS Giannina                    26   11   1    1    35   7    10   2    1    28   11   66   
1st     PAS Giannina                    26   10   2    1    33   14   11   0    2    33   12   65   
1st     PAS Giannina                    26   12   0    1    38   8    9    2    2    29   15   65   