1st     PAS Giannina                    26   10   3    0    34   10   7    3    3    31   18   57   
2nd     PAS Giannina                    26   13   0    0    42   10   5    3    5    24   16   57   
1st     PAS Giannina                    26   13   0    0    40   11   11   2    0    37   9    74   
1st     PAS Giannina                    26   10   1    2    37   10   10   2    1    40   12   63   
1st     PAS Giannina                    26   9    1    3    32   14   8    2    3    30   19   54   
1st     PAS Giannina                    26   12   1    0    47   16   8    2    3    32   16   63   
1st     PAS Giannina                    26   12   0    1    43   14   10   2    1    30   15   68   
1st     PAS Giannina                    26   11   1    1    30   10   9    2    2    35   15   63   
1st     PAS Giannina                    26   12   1    0    37   11   8    4    1    32   17   65   
1st     PAS Giannina                    26   11   2    0    43   13   9    1    3    34   16   63   
1st     PAS Giannina                    26   9    4    0    23   9    7    2    4    29   15   54   
1st     PAS Giannina                    26   11   0    2    32   11   12   1    0    38   11   70   
1st     PAS Giannina                    26   12   1    0    38   10   10   2    1    27   7    69   
1st     PAS Giannina                    26   12   0    1    42   12   12   0    1    40   10   72   
1st     PAS Giannina                    26   12   1    0    42   13   10   1    2    31   10   68   
1st     PAS Giannina                    26   10   3    0    43   15   12   1    0    42   17   70   
1st     PAS Giannina                    26   12   0    1    35   5    9    3    1    31   13   66   
1st     PAS Giannina                    26   12   0    1    43   14   10   1    2    32   11   67   
1st     PAS Giannina                    26   11   1    1    35   10   11   1    1    39   14   68   
1st     PAS Giannina                    26   13   0    0    32   8    10   2    1    32   16   71   
1st     PAS Giannina                    26   12   1    0    37   8    10   2    1    32   11   69   
1st     PAS Giannina                    26   11   1    1    35   15   10   2    1    34   13   66   
1st     PAS Giannina                    26   12   1    0    37   12   11   1    1    38   14   71   
1st     PAS Giannina                    26   12   0    1    41   12   12   0    1    33   12   72   
1st     PAS Giannina                    26   10   2    1    36   16   13   0    0    36   7    71   
1st     PAS Giannina                    26   11   2    0    35   7    9    2    2    39   17   64   
1st     PAS Giannina                    26   13   0    0    38   16   6    6    1    28   20   63   
1st     PAS Giannina                    26   12   1    0    39   13   8    1    4    26   20   62   
2nd     PAS Giannina                    26   10   2    1    47   11   6    3    4    34   24   53   
1st     PAS Giannina                    26   11   1    1    33   9    9    2    2    33   12   63   
1st     PAS Giannina                    26   10   3    0    40   14   10   2    1    37   19   65   
1st     PAS Giannina                    26   12   0    1    47   16   10   1    2    36   15   67   
1st     PAS Giannina                    26   10   3    0    35   13   9    1    3    33   16   61   
1st     PAS Giannina                    26   12   1    0    41   6    13   0    0    39   8    76   
1st     PAS Giannina                    26   12   1    0    37   12   9    3    1    34   14   67   
1st     PAS Giannina                    26   12   1    0    47   12   10   2    1    31   11   69   
1st     PAS Giannina                    26   8    3    2    33   15   10   2    1    39   12   59   
1st     PAS Giannina                    26   10   2    1    32   9    12   0    1    41   9    68   
1st     PAS Giannina                    26   12   1    0    37   10   10   3    0    37   8    70   
1st     PAS Giannina                    26   11   2    0    34   9    10   3    0    37   13   68   
1st     PAS Giannina                    26   12   1    0    40   14   9    3    1    34   14   67   
1st     PAS Giannina                    26   10   2    1    36   15   10   2    1    42   10   64   
1st     PAS Giannina                    26   10   2    1    33   15   10   2    1    35   14   64   
1st     PAS Giannina                    26   12   1    0    44   11   13   0    0    32   14   76   
1st     PAS Giannina                    26   10   1    2    34   12   10   2    1    33   16   63   
1st     PAS Giannina                    26   13   0    0    40   13   11   0    2    40   17   72   
1st     PAS Giannina                    26   10   1    2    33   14   9    4    0    33   15   62   
1st     PAS Giannina                    26   12   0    1    29   7    10   1    2    33   11   67   
1st     PAS Giannina                    26   11   1    1    37   14   9    3    1    35   13   64   
1st     PAS Giannina                    26   10   2    1    35   16   10   2    1    39   14   64   
1st     PAS Giannina                    26   11   2    0    31   8    10   1    2    41   13   66   
1st     PAS Giannina                    26   12   1    0    37   11   12   1    0    41   11   74   
1st     PAS Giannina                    26   12   1    0    37   10   10   0    3    33   13   67   
1st     PAS Giannina                    26   11   1    1    45   13   10   2    1    34   12   66   
1st     PAS Giannina                    26   9    3    1    30   11   13   0    0    37   13   69   
1st     PAS Giannina                    26   10   1    2    37   18   11   1    1    33   13   65   
1st     PAS Giannina                    26   11   2    0    36   15   11   0    2    38   15   68   
1st     PAS Giannina                    26   11   2    0    35   14   10   0    3    36   14   65   
1st     PAS Giannina                    26   12   0    1    41   12   10   2    1    31   11   68   
1st     PAS Giannina                    26   11   2    0    45   11   9    2    2    35   14   64   
1st     PAS Giannina                    26   10   2    1    28   9    10   1    2    31   10   63   
1st     PAS Giannina                    26   9    3    1    31   11   10   3    0    37   13   63   
1st     PAS Giannina                    26   13   0    0    37   8    9    3    1    37   12   69   
1st     PAS Giannina                    26   12   0    1    39   9    11   1    1    30   12   70   
1st     PAS Giannina                    26   11   1    1    38   12   7    6    0    31   20   61   
1st     PAS Giannina                    26   10   3    0    40   13   9    4    0    38   13   64   
1st     PAS Giannina                    26   12   1    0    36   5    10   0    3    26   12   67   
1st     PAS Giannina                    26   12   1    0    36   9    9    2    2    34   15   66   
1st     PAS Giannina                    26   9    4    0    43   16   8    3    2    28   14   58   
1st     PAS Giannina                    26   11   0    2    32   13   11   1    1    43   16   67   
1st     PAS Giannina                    26   13   0    0    36   8    9    2    2    30   11   68   
1st     PAS Giannina                    26   11   0    2    39   15   10   3    0    35   13   66   
1st     PAS Giannina                    26   11   1    1    38   15   7    5    1    32   14   60   
1st     PAS Giannina                    26   11   1    1    40   13   12   1    0    42   10   71   
1st     PAS Giannina                    26   12   1    0    31   13   12   0    1    35   12   73   
1st     PAS Giannina                    26   10   0    3    35   14   11   2    0    35   8    65   
1st     PAS Giannina                    26   12   1    0    39   10   10   2    1    32   11   69   
1st     PAS Giannina                    26   13   0    0    40   9    11   1    1    35   15   73   
1st     PAS Giannina                    26   11   1    1    35   8    10   2    1    29   10   66   
1st     PAS Giannina                    26   12   0    1    35   12   9    2    2    33   14   65   
1st     PAS Giannina                    26   10   2    1    32   12   10   1    2    37   19   63   
2nd     PAS Giannina                    26   9    2    2    32   18   9    2    2    34   18   58   
1st     PAS Giannina                    26   13   0    0    36   8    6    4    3    34   21   61   
1st     PAS Giannina                    26   11   1    1    36   14   12   1    0    38   7    71   
1st     PAS Giannina                    26   12   0    1    35   17   12   1    0    49   14   73   
1st     PAS Giannina                    26   9    3    1    34   10   9    3    1    37   22   60   
1st     PAS Giannina                    26   10   2    1    40   18   12   0    1    45   13   68   
1st     PAS Giannina                    26   11   0    2    35   8    11   1    1    39   18   67   
1st     PAS Giannina                    26   9    4    0    43   20   10   2    1    33   18   63   
1st     PAS Giannina                    26   12   1    0    37   7    8    3    2    27   11   64   
1st     PAS Giannina                    26   12   1    0    42   13   10   1    2    34   14   68   
1st     PAS Giannina                    26   11   2    0    36   11   12   1    0    34   8    72   
1st     PAS Giannina                    26   12   1    0    43   15   11   2    0    32   12   72   
1st     PAS Giannina                    26   10   3    0    35   13   9    4    0    39   21   64   
1st     PAS Giannina                    26   13   0    0    41   8    12   0    1    40   9    75   
1st     PAS Giannina                    26   12   1    0    34   10   8    4    1    36   14   65   
1st     PAS Giannina                    26   12   0    1    34   6    13   0    0    39   12   75   
1st     PAS Giannina                    26   10   1    2    35   12   9    3    1    33   14   61   
1st     PAS Giannina                    26   12   0    1    38   10   9    2    2    27   14   65   
1st     PAS Giannina                    26   11   0    2    31   11   10   3    0    38   11   66   