2nd     PAS Giannina                    26   9    1    3    27   15   3    7    3    21   22   44
4th     PAS Giannina                    26   7    0    6    23   18   5    4    4    28   23   40
1st      PAS Giannina                    26   10   3    0    30   12   4    6    3    25   21   51
3rd     PAS Giannina                    26   7    5    1    29   17   5    3    5    29   23   44
2nd     PAS Giannina                    26   9    3    1    32   15   6    3    4    28   19   51
3rd     PAS Giannina                    26   8    3    2    29   16   3    4    6    21   24   40
3rd     PAS Giannina                    26   7    1    5    27   17   5    4    4    27   19   41
1st      PAS Giannina                    26   9    3    1    31   17   8    3    2    29   16   57
5th     PAS Giannina                    26   6    5    2    24   18   5    5    3    14   16   43
2nd     PAS Giannina                    26   6    5    2    32   18   5    6    2    20   15   44
3rd     PAS Giannina                    26   7    3    3    23   17   6    4    3    23   18   46
2nd     PAS Giannina                    26   9    3    1    31   18   6    3    4    25   22   51
4th     PAS Giannina                    26   5    4    4    24   21   7    2    4    29   24   42
3rd     PAS Giannina                    26   9    2    2    30   16   4    3    6    23   25   44
5th     PAS Giannina                    26   4    6    3    24   20   6    2    5    21   20   38
2nd     PAS Giannina                    26   7    4    2    25   11   5    5    3    23   19   45
8th     PAS Giannina                    26   8    4    1    33   15   2    2    9    14   22   36
4th     PAS Giannina                    26   10   3    0    30   12   3    3    7    23   25   45
2nd     PAS Giannina                    26   7    3    3    25   15   4    5    4    19   14   41
1st      PAS Giannina                    26   7    6    0    28   17   7    2    4    31   27   50
1st      PAS Giannina                    26   10   2    1    31   8    8    3    2    31   17   59
2nd     PAS Giannina                    26   8    2    3    31   26   5    4    4    27   22   45
1st      PAS Giannina                    26   6    6    1    26   21   7    3    3    28   18   48
4th     PAS Giannina                    26   6    2    5    29   22   5    4    4    21   18   39
5th     PAS Giannina                    26   8    1    4    29   21   3    5    5    21   20   39
7th     PAS Giannina                    26   7    1    5    30   20   4    1    8    21   26   35
2nd     PAS Giannina                    26   10   2    1    39   20   7    1    5    23   17   54
2nd     PAS Giannina                    26   10   2    1    38   15   5    4    4    23   22   51
1st      PAS Giannina                    26   9    2    2    26   13   10   2    1    26   16   61
3rd     PAS Giannina                    26   10   3    0    33   9    3    3    7    18   23   45
1st      PAS Giannina                    26   8    3    2    25   13   9    1    3    30   24   55
2nd     PAS Giannina                    26   11   2    0    33   12   4    4    5    26   27   51
2nd     PAS Giannina                    26   9    2    2    35   17   7    3    3    28   22   53
3rd     PAS Giannina                    26   8    4    1    31   14   5    3    5    25   21   46
2nd     PAS Giannina                    26   9    3    1    33   18   3    7    3    21   18   46
2nd     PAS Giannina                    26   7    5    1    25   12   6    2    5    24   16   46
2nd     PAS Giannina                    26   9    2    2    35   17   5    4    4    28   20   48
1st      PAS Giannina                    26   10   2    1    31   13   7    3    3    23   17   56
3rd     PAS Giannina                    26   7    5    1    25   13   6    2    5    22   20   46
2nd     PAS Giannina                    26   9    1    3    21   13   6    4    3    28   18   50
6th     PAS Giannina                    26   8    2    3    26   16   2    4    7    20   24   36
7th     PAS Giannina                    26   9    1    3    26   14   2    2    9    10   24   36
3rd     PAS Giannina                    26   7    0    6    29   24   6    4    3    29   18   43
1st      PAS Giannina                    26   8    4    1    31   16   7    4    2    29   19   53
1st      PAS Giannina                    26   11   2    0    29   11   5    4    4    21   19   54
3rd     PAS Giannina                    26   7    4    2    23   10   6    4    3    26   20   47
2nd     PAS Giannina                    26   10   2    1    42   23   3    6    4    25   17   47
3rd     PAS Giannina                    26   10   0    3    35   17   6    6    1    28   15   54
2nd     PAS Giannina                    26   8    3    2    21   14   5    3    5    23   25   45
5th     PAS Giannina                    26   4    6    3    20   17   7    1    5    23   22   40
4th     PAS Giannina                    26   7    3    3    27   18   7    1    5    26   18   46
3rd     PAS Giannina                    26   6    4    3    25   16   8    2    3    28   17   48
1st      PAS Giannina                    26   10   2    1    38   16   10   0    3    28   15   62
3rd     PAS Giannina                    26   11   0    2    37   12   3    2    8    23   29   44
2nd     PAS Giannina                    26   10   0    3    31   17   8    1    4    23   8    55
2nd     PAS Giannina                    26   8    2    3    24   20   7    5    1    31   15   52
6th     PAS Giannina                    26   10   0    3    33   22   2    4    7    15   23   40
1st      PAS Giannina                    26   12   1    0    38   17   8    2    3    28   16   63
1st      PAS Giannina                    26   8    3    2    32   19   7    2    4    28   22   50
5th     PAS Giannina                    26   10   1    2    32   11   2    3    8    20   26   40
2nd     PAS Giannina                    26   9    2    2    41   22   5    4    4    19   19   48
2nd     PAS Giannina                    26   10   2    1    30   16   3    6    4    21   25   47
5th     PAS Giannina                    26   7    3    3    28   17   4    2    7    18   21   38
5th     PAS Giannina                    26   7    2    4    19   15   5    4    4    27   20   42
1st      PAS Giannina                    26   8    2    3    33   20   9    1    3    28   17   54
4th     PAS Giannina                    26   8    2    3    28   16   4    3    6    18   20   41
1st      PAS Giannina                    26   9    4    0    36   16   4    5    4    25   23   48
1st      PAS Giannina                    26   9    3    1    36   18   6    4    3    22   13   52
3rd     PAS Giannina                    26   9    1    3    32   20   6    3    4    24   18   49
2nd     PAS Giannina                    26   8    5    0    37   20   7    2    4    27   16   52
9th     PAS Giannina                    26   5    2    6    22   22   3    6    4    19   19   32
2nd     PAS Giannina                    26   11   1    1    27   9    4    4    5    19   16   50
3rd     PAS Giannina                    26   8    1    4    26   20   7    1    5    24   20   47
2nd     PAS Giannina                    26   10   1    2    44   19   4    4    5    15   17   47
6th     PAS Giannina                    26   5    3    5    21   17   5    4    4    22   21   37
4th     PAS Giannina                    26   6    4    3    27   18   6    3    4    25   18   43
1st      PAS Giannina                    26   11   1    1    31   10   7    0    6    28   22   55
4th     PAS Giannina                    26   6    5    2    24   15   6    1    6    24   21   42
1st      PAS Giannina                    26   9    2    2    28   14   6    3    4    23   15   50
3rd     PAS Giannina                    26   6    3    4    25   18   9    1    3    32   22   49
2nd     PAS Giannina                    26   8    3    2    28   13   7    3    3    24   16   51
2nd     PAS Giannina                    26   8    3    2    35   21   6    3    4    26   22   48
3rd     PAS Giannina                    26   7    2    4    24   11   6    3    4    16   16   44
2nd     PAS Giannina                    26   6    4    3    34   28   7    4    2    28   15   47
4th     PAS Giannina                    26   9    2    2    31   13   3    4    6    24   22   42
1st      PAS Giannina                    26   9    1    3    34   19   8    2    3    30   20   54
1st      PAS Giannina                    26   11   1    1    32   13   6    6    1    34   22   58
1st      PAS Giannina                    26   10   3    0    29   10   4    3    6    20   25   48
8th     PAS Giannina                    26   7    2    4    27   18   3    2    8    23   31   34
2nd     PAS Giannina                    26   6    5    2    21   11   8    2    3    27   18   49
2nd     PAS Giannina                    26   9    2    2    28   14   5    5    3    25   21   49
2nd     PAS Giannina                    26   6    3    4    23   18   6    4    3    27   20   43
3rd     PAS Giannina                    26   5    4    4    19   16   7    3    3    24   17   43
1st      PAS Giannina                    26   11   1    1    31   17   6    4    3    25   14   56
1st      PAS Giannina                    26   10   3    0    30   13   5    5    3    29   21   53
2nd     PAS Giannina                    26   8    4    1    33   20   5    6    2    17   14   49
2nd     PAS Giannina                    26   9    3    1    22   7    7    3    3    26   14   54
6th     PAS Giannina                    26   6    3    4    26   18   5    4    4    28   20   40
2nd     PAS Giannina                    26   10   2    1    31   19   4    4    5    21   24   48
1st      PAS Giannina                    26   9    2    2    36   15   6    1    6    18   17   48