11th    PAS Giannina                    26   6    2    5    20   19   2    3    8    10   21   29
13th     PAS Giannina                    26   3    7    3    13   13   2    3    8    4    17   25
13th     PAS Giannina                    26   3    3    7    13   20   2    4    7    6    20   22
14th     PAS Giannina                    26   4    3    6    12   16   1    4    8    9    23   22
13th     PAS Giannina                    26   3    3    7    13   20   1    5    7    8    22   20
14th     PAS Giannina                    26   3    4    6    14   17   0    2    11   6    26   15
14th     PAS Giannina                    26   5    3    5    17   16   1    3    9    9    21   24
14th     PAS Giannina                    26   4    4    5    15   19   2    1    10   13   29   23
14th     PAS Giannina                    26   2    4    7    11   18   1    3    9    5    20   16
14th     PAS Giannina                    26   2    6    5    10   12   1    4    8    12   26   19
14th     PAS Giannina                    26   1    4    8    11   21   1    1    11   8    25   11
14th     PAS Giannina                    26   0    4    9    6    24   0    4    9    11   28   8
14th     PAS Giannina                    26   3    3    7    12   18   2    4    7    11   25   22
12th    PAS Giannina                    26   7    2    4    24   19   0    4    9    8    26   27
14th     PAS Giannina                    26   2    5    6    14   23   0    3    10   7    28   14
10th    PAS Giannina                    26   5    2    6    11   9    2    5    6    8    17   28
12th    PAS Giannina                    26   6    3    4    14   14   1    4    8    4    18   28
14th     PAS Giannina                    26   2    4    7    11   21   2    2    9    13   27   18
14th     PAS Giannina                    26   2    5    6    16   24   1    1    11   5    19   15
13th     PAS Giannina                    26   5    4    4    19   18   1    1    11   7    25   23
14th     PAS Giannina                    26   4    4    5    14   19   1    1    11   6    24   20
11th    PAS Giannina                    26   5    3    5    19   22   3    0    10   8    23   27
14th     PAS Giannina                    26   4    1    8    15   19   0    5    8    11   26   18
12th    PAS Giannina                    26   3    5    5    14   17   2    6    5    13   19   26
3rd     PAS Giannina                    26   8    2    3    25   18   3    5    5    13   19   40
14th     PAS Giannina                    26   5    1    7    12   15   1    1    11   10   25   20
14th     PAS Giannina                    26   5    2    6    15   18   1    5    7    14   24   25
14th     PAS Giannina                    26   6    2    5    14   11   0    4    9    7    21   24
14th     PAS Giannina                    26   2    3    8    13   22   0    3    10   7    25   12
14th     PAS Giannina                    26   3    3    7    13   21   0    1    12   8    35   13
13th     PAS Giannina                    26   5    3    5    20   20   1    4    8    8    21   25
14th     PAS Giannina                    26   1    5    7    12   26   2    4    7    11   22   18
12th    PAS Giannina                    26   7    1    5    18   13   1    3    9    10   28   28
13th     PAS Giannina                    26   5    1    7    17   19   2    3    8    17   28   25
14th     PAS Giannina                    26   3    4    6    14   18   1    0    12   5    30   16
14th     PAS Giannina                    26   2    5    6    18   26   0    4    9    6    18   15
13th     PAS Giannina                    26   7    0    6    20   20   0    1    12   7    29   22
14th     PAS Giannina                    26   4    4    5    14   14   1    3    9    9    30   22
13th     PAS Giannina                    26   6    2    5    18   15   0    2    11   11   25   22
12th    PAS Giannina                    26   5    3    5    18   17   1    5    7    12   23   26
14th     PAS Giannina                    26   1    5    7    11   18   2    1    10   10   25   15
14th     PAS Giannina                    26   2    5    6    12   21   2    1    10   9    26   18
14th     PAS Giannina                    26   2    5    6    15   21   0    2    11   5    23   13
13th     PAS Giannina                    26   4    5    4    13   13   3    0    10   4    30   26
10th    PAS Giannina                    26   6    3    4    20   13   2    5    6    7    20   32
14th     PAS Giannina                    26   4    4    5    23   23   1    3    9    7    23   22
14th     PAS Giannina                    26   4    3    6    18   19   0    2    11   10   32   17
13th     PAS Giannina                    26   5    5    3    18   17   0    3    10   8    28   23
14th     PAS Giannina                    26   3    5    5    18   23   0    3    10   14   32   17
14th     PAS Giannina                    26   3    5    5    15   17   1    4    8    9    19   21
14th     PAS Giannina                    26   2    5    6    14   21   0    4    9    8    21   15
14th     PAS Giannina                    26   3    3    7    17   24   2    3    8    6    19   21
14th     PAS Giannina                    26   4    4    5    12   16   0    1    12   9    28   17
14th     PAS Giannina                    26   5    5    3    15   12   0    2    11   6    27   22
3rd     PAS Giannina                    26   9    3    1    21   8    3    3    7    10   19   42
4th     PAS Giannina                    26   9    3    1    25   15   3    3    7    6    14   42
13th     PAS Giannina                    26   3    4    6    20   24   2    2    9    14   29   21
14th     PAS Giannina                    26   5    2    6    19   16   0    3    10   5    29   20
11th    PAS Giannina                    26   7    2    4    17   16   2    3    8    10   24   32
14th     PAS Giannina                    26   6    1    6    16   17   0    2    11   4    25   21
13th     PAS Giannina                    26   4    4    5    11   11   2    5    6    7    15   27
14th     PAS Giannina                    26   5    3    5    15   19   0    2    11   5    23   20
12th    PAS Giannina                    26   5    5    3    16   16   1    4    8    6    18   27
14th     PAS Giannina                    26   1    5    7    8    20   0    4    9    9    26   12
13th     PAS Giannina                    26   4    2    7    11   19   0    5    8    4    19   19
13th     PAS Giannina                    26   3    6    4    14   20   3    2    8    11   24   26
11th    PAS Giannina                    26   6    3    4    24   18   0    2    11   6    26   23
14th     PAS Giannina                    26   2    4    7    16   24   1    2    10   10   27   15
14th     PAS Giannina                    26   4    3    6    15   19   1    2    10   8    24   20
14th     PAS Giannina                    26   2    3    8    11   17   0    1    12   1    22   10
14th     PAS Giannina                    26   2    3    8    10   20   1    3    9    6    24   15
13th     PAS Giannina                    26   2    4    7    10   19   2    3    8    8    18   19
13th     PAS Giannina                    26   4    2    7    18   24   1    4    8    9    22   21
14th     PAS Giannina                    26   4    5    4    21   24   0    2    11   7    30   19
13th     PAS Giannina                    26   6    1    6    18   15   1    0    12   4    22   22
14th     PAS Giannina                    26   3    3    7    16   19   2    3    8    9    25   21
13th     PAS Giannina                    26   7    1    5    22   21   0    5    8    5    27   27
9th     PAS Giannina                    26   5    5    3    21   17   3    3    7    10   17   32
11th    PAS Giannina                    26   7    3    3    22   14   1    3    9    5    24   30
13th     PAS Giannina                    26   5    3    5    16   22   1    1    11   9    28   22
13th     PAS Giannina                    26   2    5    6    14   19   1    2    10   8    26   16
14th     PAS Giannina                    26   3    1    9    11   24   1    0    12   6    24   13
12th    PAS Giannina                    26   3    6    4    15   18   2    1    10   8    20   22
14th     PAS Giannina                    26   1    5    7    11   19   2    4    7    12   19   18
10th    PAS Giannina                    26   6    2    5    22   18   3    2    8    14   25   31
14th     PAS Giannina                    26   3    6    4    14   16   2    1    10   10   23   22
14th     PAS Giannina                    26   2    0    11   8    20   0    3    10   12   29   9
14th     PAS Giannina                    26   2    4    7    14   22   0    1    12   5    26   11
14th     PAS Giannina                    26   4    3    6    15   21   1    3    9    12   22   21
14th     PAS Giannina                    26   6    4    3    17   13   0    0    13   9    29   22
14th     PAS Giannina                    26   1    6    6    9    21   2    4    7    9    18   19
13th     PAS Giannina                    26   5    2    6    17   16   0    2    11   9    32   19
14th     PAS Giannina                    26   4    2    7    22   26   1    2    10   9    27   19
13th     PAS Giannina                    26   3    2    8    13   18   0    6    7    8    22   17
13th     PAS Giannina                    26   5    2    6    21   21   1    3    9    7    22   23
12th    PAS Giannina                    26   5    2    6    16   19   3    4    6    15   19   30
14th     PAS Giannina                    26   5    1    7    19   22   2    3    8    13   27   25
14th     PAS Giannina                    26   5    2    6    11   13   1    1    11   3    21   21
14th     PAS Giannina                    26   4    5    4    16   16   0    3    10   4    27   20
12th    PAS Giannina                    26   7    3    3    12   12   0    2    11   5    23   26