1st     PAS Giannina                    26   11   1    1    36   12   9    3    1    35   13   64   
1st     PAS Giannina                    26   11   2    0    49   17   11   1    1    35   13   69   
1st     PAS Giannina                    26   12   0    1    46   15   10   1    2    43   21   67   
1st     PAS Giannina                    26   11   2    0    43   16   9    4    0    39   15   66   
1st     PAS Giannina                    26   10   2    1    37   12   13   0    0    44   13   71   
1st     PAS Giannina                    26   11   1    1    44   19   8    5    0    38   15   63   
1st     PAS Giannina                    26   12   1    0    42   14   8    2    3    27   18   63   
1st     PAS Giannina                    26   13   0    0    42   14   11   1    1    36   12   73   
1st     PAS Giannina                    26   9    3    1    38   16   10   2    1    33   10   62   
1st     PAS Giannina                    26   10   2    1    34   15   11   1    1    45   13   66   
1st     PAS Giannina                    26   13   0    0    49   13   11   2    0    50   10   74   
1st     PAS Giannina                    26   13   0    0    52   19   10   3    0    46   10   72   
1st     PAS Giannina                    26   12   0    1    44   20   13   0    0    41   18   75   
1st     PAS Giannina                    26   13   0    0    44   11   12   1    0    47   16   76   
1st     PAS Giannina                    26   11   2    0    46   15   13   0    0    43   11   74   
1st     PAS Giannina                    26   11   2    0    43   13   11   2    0    44   15   70   
1st     PAS Giannina                    26   13   0    0    50   10   10   2    1    47   20   71   
1st     PAS Giannina                    26   12   1    0    46   19   12   0    1    45   10   73   
1st     PAS Giannina                    26   11   2    0    34   9    13   0    0    47   14   74   
1st     PAS Giannina                    26   11   2    0    53   16   9    2    2    37   13   64   
1st     PAS Giannina                    26   12   0    1    46   16   12   1    0    47   16   73   
1st     PAS Giannina                    26   10   2    1    44   21   11   0    2    32   13   65   
1st     PAS Giannina                    26   12   1    0    43   18   11   1    1    40   13   71   
1st     PAS Giannina                    26   12   1    0    39   7    11   1    1    40   12   71   
1st     PAS Giannina                    26   12   0    1    50   12   9    3    1    32   9    66   
1st     PAS Giannina                    26   13   0    0    40   15   11   1    1    37   14   73   
1st     PAS Giannina                    26   11   1    1    38   9    12   0    1    50   18   70   
1st     PAS Giannina                    26   10   3    0    44   18   10   3    0    37   10   66   
1st     PAS Giannina                    26   12   1    0    45   15   11   1    1    42   14   71   
1st     PAS Giannina                    26   12   1    0    39   6    8    4    1    38   18   65   
1st     PAS Giannina                    26   12   1    0    43   18   10   2    1    42   17   69   
1st     PAS Giannina                    26   12   0    1    49   16   11   1    1    46   13   70   
1st     PAS Giannina                    26   13   0    0    48   13   9    2    2    45   18   68   
1st     PAS Giannina                    26   11   0    2    34   11   11   2    0    37   10   68   
1st     PAS Giannina                    26   12   1    0    48   14   9    4    0    45   16   68   
1st     PAS Giannina                    26   10   3    0    39   18   9    2    2    39   19   62   
1st     PAS Giannina                    26   8    3    2    35   16   9    3    1    34   11   57   
1st     PAS Giannina                    26   12   1    0    47   15   11   2    0    37   16   72   
1st     PAS Giannina                    26   10   1    2    36   13   12   0    1    41   11   67   
1st     PAS Giannina                    26   13   0    0    48   12   10   2    1    35   12   71   
1st     PAS Giannina                    26   11   1    1    46   17   10   0    3    36   11   64   
1st     PAS Giannina                    26   12   1    0    43   13   11   1    1    48   12   71   
1st     PAS Giannina                    26   13   0    0    40   7    11   1    1    43   18   73   
1st     PAS Giannina                    26   9    2    2    37   21   11   2    0    40   14   64   
1st     PAS Giannina                    26   13   0    0    43   14   12   1    0    43   9    76   
1st     PAS Giannina                    26   11   0    2    44   20   10   1    2    41   9    64   
1st     PAS Giannina                    26   9    1    3    33   14   9    3    1    40   18   58   
1st     PAS Giannina                    26   11   2    0    38   10   10   1    2    41   15   66   
1st     PAS Giannina                    26   11   1    1    40   15   11   1    1    42   14   68   
1st     PAS Giannina                    26   13   0    0    50   12   11   2    0    43   14   74   
1st     PAS Giannina                    26   11   1    1    33   7    12   1    0    46   16   71   
1st     PAS Giannina                    26   11   2    0    44   13   11   2    0    38   17   70   
1st     PAS Giannina                    26   10   3    0    43   11   13   0    0    48   9    72   
1st     PAS Giannina                    26   11   1    1    40   17   12   1    0    42   15   71   
1st     PAS Giannina                    26   13   0    0    50   20   10   2    1    34   11   71   
1st     PAS Giannina                    26   12   0    1    47   12   12   0    1    50   17   72   
1st     PAS Giannina                    26   12   1    0    43   12   10   3    0    39   13   70   
1st     PAS Giannina                    26   11   1    1    42   11   11   2    0    44   15   69   
1st     PAS Giannina                    26   11   2    0    41   18   11   1    1    46   13   69   
1st     PAS Giannina                    26   12   1    0    35   9    11   2    0    43   13   72   
1st     PAS Giannina                    26   13   0    0    50   14   10   1    2    40   15   70   
1st     PAS Giannina                    26   12   1    0    44   11   11   1    1    43   18   71   
1st     PAS Giannina                    26   13   0    0    44   14   10   1    2    44   13   70   
1st     PAS Giannina                    26   12   0    1    44   12   11   1    1    40   13   70   
1st     PAS Giannina                    26   12   1    0    47   14   10   1    2    45   19   68   
1st     PAS Giannina                    26   11   2    0    42   17   12   1    0    35   13   72   
1st     PAS Giannina                    26   12   1    0    42   13   10   2    1    38   13   69   
1st     PAS Giannina                    26   13   0    0    46   17   11   2    0    41   11   74   
1st     PAS Giannina                    26   10   3    0    39   16   13   0    0    41   6    72   
1st     PAS Giannina                    26   10   2    1    34   14   10   3    0    44   14   65   
1st     PAS Giannina                    26   12   0    1    47   12   10   2    1    42   16   68   
1st     PAS Giannina                    26   10   2    1    48   15   9    2    2    37   14   61   
1st     PAS Giannina                    26   13   0    0    42   8    9    3    1    38   15   69   
1st     PAS Giannina                    26   11   2    0    44   14   8    5    0    38   16   64   
1st     PAS Giannina                    26   12   1    0    45   12   9    3    1    38   18   67   
1st     PAS Giannina                    26   11   2    0    44   15   10   2    1    41   15   67   
1st     PAS Giannina                    26   11   2    0    36   13   9    2    2    39   13   64   
1st     PAS Giannina                    26   11   2    0    45   16   10   1    2    35   11   66   
1st     PAS Giannina                    26   13   0    0    41   9    11   1    1    34   13   73   
1st     PAS Giannina                    26   12   1    0    39   14   10   3    0    41   11   70   
1st     PAS Giannina                    26   11   2    0    45   12   12   0    1    46   11   71   
1st     PAS Giannina                    26   12   1    0    47   15   11   1    1    45   16   71   
1st     PAS Giannina                    26   13   0    0    38   12   12   1    0    39   11   76   
1st     PAS Giannina                    26   12   1    0    31   10   10   3    0    44   11   70   
1st     PAS Giannina                    26   12   1    0    49   18   10   2    1    38   18   69   
1st     PAS Giannina                    26   11   0    2    40   18   11   1    1    39   16   67   
2nd     PAS Giannina                    26   10   2    1    43   16   6    2    5    26   21   52   
1st     PAS Giannina                    26   12   1    0    37   11   12   0    1    42   14   73   
1st     PAS Giannina                    26   10   1    2    37   15   10   3    0    35   13   64   
1st     PAS Giannina                    26   10   3    0    46   16   13   0    0    48   11   72   
1st     PAS Giannina                    26   13   0    0    47   13   11   0    2    46   18   72   
1st     PAS Giannina                    26   12   1    0    46   14   12   1    0    36   9    74   
1st     PAS Giannina                    26   13   0    0    44   15   11   2    0    49   14   74   
1st     PAS Giannina                    26   10   3    0    47   14   13   0    0    37   6    72   
1st     PAS Giannina                    26   9    2    2    40   18   11   2    0    36   13   64   
1st     PAS Giannina                    26   12   0    1    45   13   11   1    1    51   17   70   
1st     PAS Giannina                    26   12   0    1    48   19   8    2    3    41   21   62   
1st     PAS Giannina                    26   13   0    0    43   11   11   1    1    47   19   73   
1st     PAS Giannina                    26   12   1    0    42   8    9    4    0    31   9    68   
1st     PAS Giannina                    26   12   0    1    41   16   13   0    0    44   14   75   