1st     PAS Giannina                    26   11   1    1    29   7    7    5    1    28   11   60   
1st     PAS Giannina                    26   9    3    1    31   16   10   3    0    29   13   63   
1st     PAS Giannina                    26   10   2    1    36   14   6    5    2    27   14   55   
1st     PAS Giannina                    26   12   1    0    37   11   7    6    0    27   8    64   
3rd     PAS Giannina                    26   8    3    2    30   13   7    1    5    25   15   49   
1st     PAS Giannina                    26   11   1    1    42   12   9    2    2    28   12   63   
1st     PAS Giannina                    26   9    4    0    32   15   10   0    3    28   15   61   
1st     PAS Giannina                    26   9    4    0    38   20   9    1    3    30   18   59   
1st     PAS Giannina                    26   13   0    0    37   9    8    4    1    23   12   67   
2nd     PAS Giannina                    26   7    4    2    22   12   6    3    4    24   18   46   
2nd     PAS Giannina                    26   8    3    2    26   11   7    2    4    28   19   50   
1st     PAS Giannina                    26   9    4    0    33   11   11   1    1    31   7    65   
1st     PAS Giannina                    26   11   2    0    30   11   10   1    2    32   11   66   
2nd     PAS Giannina                    26   11   2    0    44   12   7    3    3    25   10   59   
1st     PAS Giannina                    26   9    3    1    37   21   11   1    1    38   17   64   
1st     PAS Giannina                    26   10   3    0    37   15   6    3    4    27   19   54   
1st     PAS Giannina                    26   10   1    2    32   14   8    4    1    30   17   59   
2nd     PAS Giannina                    26   11   0    2    36   17   6    5    2    22   15   56   
1st     PAS Giannina                    26   11   2    0    36   15   7    4    2    28   18   60   
1st     PAS Giannina                    26   10   3    0    30   12   10   1    2    29   13   64   
5th     PAS Giannina                    26   8    4    1    30   15   3    4    6    17   17   41   
1st     PAS Giannina                    26   12   1    0    33   12   10   2    1    33   17   69   
1st     PAS Giannina                    26   10   1    2    35   15   8    4    1    33   19   59   
2nd     PAS Giannina                    26   11   1    1    31   10   6    4    3    22   15   56   
1st     PAS Giannina                    26   10   2    1    31   13   8    3    2    25   13   59   
2nd     PAS Giannina                    26   9    2    2    32   16   8    1    4    26   19   54   
1st     PAS Giannina                    26   10   3    0    33   9    9    3    1    29   12   63   
1st     PAS Giannina                    26   9    3    1    28   10   7    3    3    25   18   54   
2nd     PAS Giannina                    26   11   1    1    26   10   6    4    3    23   20   56   
1st     PAS Giannina                    26   11   1    1    42   11   8    2    3    31   20   60   
1st     PAS Giannina                    26   8    4    1    28   15   9    3    1    35   15   58   
1st     PAS Giannina                    26   11   2    0    34   11   11   2    0    28   9    70   
1st     PAS Giannina                    26   11   1    1    35   13   7    3    3    28   18   58   
1st     PAS Giannina                    26   8    3    2    21   8    9    3    1    35   12   57   
1st     PAS Giannina                    26   12   1    0    37   9    7    1    5    22   15   59   
1st     PAS Giannina                    26   12   1    0    39   12   7    5    1    25   10   63   
1st     PAS Giannina                    26   10   1    2    28   10   7    4    2    21   11   56   
1st     PAS Giannina                    26   9    3    1    29   9    7    5    1    32   12   56   
1st     PAS Giannina                    26   11   2    0    38   15   9    1    3    28   15   63   
1st     PAS Giannina                    26   10   3    0    39   14   9    3    1    25   12   63   
1st     PAS Giannina                    26   7    4    2    25   16   9    2    2    28   9    54   
1st     PAS Giannina                    26   10   0    3    32   15   8    2    3    20   14   56   
1st     PAS Giannina                    26   9    3    1    34   16   11   1    1    34   13   64   
1st     PAS Giannina                    26   12   1    0    30   9    7    3    3    23   13   61   
2nd     PAS Giannina                    26   10   3    0    33   12   4    2    7    18   21   47   
4th     PAS Giannina                    26   6    3    4    25   13   5    6    2    24   14   42   
1st     PAS Giannina                    26   8    4    1    35   18   9    4    0    33   15   59   
2nd     PAS Giannina                    26   10   2    1    33   15   7    2    4    26   10   55   
1st     PAS Giannina                    26   12   0    1    41   10   6    3    4    18   11   57   
2nd     PAS Giannina                    26   10   2    1    28   10   9    2    2    25   12   61   
1st     PAS Giannina                    26   10   2    1    33   12   7    4    2    30   19   57   
1st     PAS Giannina                    26   9    2    2    30   14   9    1    3    28   11   57   
2nd     PAS Giannina                    26   10   2    1    31   9    6    3    4    28   18   53   
1st     PAS Giannina                    26   12   1    0    30   7    9    2    2    30   15   66   
1st     PAS Giannina                    26   9    2    2    31   16   8    5    0    28   13   58   
1st     PAS Giannina                    26   9    2    2    24   13   8    4    1    25   13   57   
2nd     PAS Giannina                    26   10   3    0    40   14   6    4    3    21   14   55   
1st     PAS Giannina                    26   12   1    0    32   13   8    3    2    25   14   64   
1st     PAS Giannina                    26   12   0    1    35   7    8    3    2    27   14   63   
1st     PAS Giannina                    26   12   0    1    31   10   10   2    1    27   12   68   
1st     PAS Giannina                    26   9    4    0    29   11   10   1    2    21   6    62   
1st     PAS Giannina                    26   10   2    1    32   12   10   1    2    32   12   63   
1st     PAS Giannina                    26   11   2    0    34   15   5    5    3    23   14   55   
1st     PAS Giannina                    26   11   2    0    37   13   10   3    0    28   9    68   
1st     PAS Giannina                    26   11   1    1    36   17   7    4    2    24   9    59   
1st     PAS Giannina                    26   9    2    2    32   15   9    1    3    32   16   57   
1st     PAS Giannina                    26   12   1    0    43   8    6    3    4    24   20   58   
1st     PAS Giannina                    26   13   0    0    37   7    8    2    3    26   19   65   
1st     PAS Giannina                    26   7    5    1    30   14   10   1    2    29   12   57   
1st     PAS Giannina                    26   10   3    0    36   7    6    5    2    24   21   56   
1st     PAS Giannina                    26   11   1    1    38   14   9    3    1    28   8    64   
1st     PAS Giannina                    26   9    3    1    26   9    9    2    2    30   12   59   
1st     PAS Giannina                    26   12   1    0    38   7    9    2    2    29   16   66   
2nd     PAS Giannina                    26   8    1    4    26   18   8    2    3    21   9    51   
2nd     PAS Giannina                    26   8    5    0    33   13   5    4    4    18   15   48   
1st     PAS Giannina                    26   9    3    1    31   11   10   2    1    27   12   62   
1st     PAS Giannina                    26   12   1    0    35   9    9    4    0    25   10   68   
1st     PAS Giannina                    26   12   0    1    35   12   9    3    1    26   11   66   
1st     PAS Giannina                    26   11   1    1    29   13   8    2    3    34   19   60   
1st     PAS Giannina                    26   12   0    1    33   10   7    3    3    24   15   60   
1st     PAS Giannina                    26   12   1    0    34   7    9    1    3    31   15   65   
2nd     PAS Giannina                    26   10   1    2    32   13   6    5    2    27   16   54   
1st     PAS Giannina                    26   11   1    1    32   8    5    2    6    23   19   51   
1st     PAS Giannina                    26   8    2    3    30   19   8    3    2    26   14   53   
1st     PAS Giannina                    26   9    3    1    38   15   9    3    1    27   11   60   
1st     PAS Giannina                    26   7    2    4    25   12   10   2    1    26   12   55   
1st     PAS Giannina                    26   8    3    2    34   21   7    5    1    31   11   53   
1st     PAS Giannina                    26   13   0    0    32   8    9    2    2    30   16   68   
1st     PAS Giannina                    26   9    1    3    35   14   10   3    0    26   9    61   
1st     PAS Giannina                    26   8    4    1    29   8    10   1    2    30   13   59   
1st     PAS Giannina                    26   11   1    1    34   10   7    2    4    24   16   57   
1st     PAS Giannina                    26   13   0    0    33   5    11   2    0    30   9    74   
2nd     PAS Giannina                    26   10   0    3    31   13   9    1    3    33   15   58   
1st     PAS Giannina                    26   9    3    1    24   7    7    3    3    23   13   54   
3rd     PAS Giannina                    26   6    6    1    33   17   7    2    4    29   22   47   
1st     PAS Giannina                    26   11   2    0    39   10   8    2    3    27   19   61   
1st     PAS Giannina                    26   10   2    1    33   13   8    2    3    27   20   58   
1st     PAS Giannina                    26   12   0    1    35   8    11   1    1    30   11   70   
2nd     PAS Giannina                    26   9    1    3    28   13   9    1    3    27   13   56   
1st     PAS Giannina                    26   10   3    0    24   7    6    5    2    28   16   56   