9th     PAS Giannina                    26   6    2    5    23   26   3    2    8    19   27   31
13th    PAS Giannina                    26   5    3    5    29   28   2    2    9    21   33   26
1st      PAS Giannina                    26   8    3    2    28   15   6    5    2    23   16   50
8th     PAS Giannina                    26   8    3    2    33   18   0    4    9    17   36   31
3rd     PAS Giannina                    26   9    2    2    33   19   2    4    7    18   27   39
5th     PAS Giannina                    26   8    1    4    35   24   3    2    8    23   31   36
2nd     PAS Giannina                    26   10   1    2    35   16   5    2    6    21   29   48
4th     PAS Giannina                    26   9    2    2    28   15   3    2    8    18   32   40
14th    PAS Giannina                    26   2    4    7    20   25   1    2    10   14   35   15
11th    PAS Giannina                    26   5    4    4    27   25   1    5    7    19   27   27
5th     PAS Giannina                    26   9    1    3    31   20   3    3    7    18   30   40
12th    PAS Giannina                    26   4    3    6    19   23   3    2    8    18   26   26
8th     PAS Giannina                    26   5    4    4    24   22   5    3    5    23   22   37
9th     PAS Giannina                    26   6    2    5    31   28   3    3    7    22   28   32
5th     PAS Giannina                    26   5    4    4    28   21   6    3    4    31   27   40
6th     PAS Giannina                    26   7    4    2    30   23   3    4    6    22   24   38
4th     PAS Giannina                    26   8    4    1    29   20   5    1    7    23   27   44
10th    PAS Giannina                    26   7    2    4    30   28   2    1    10   17   33   30
12th    PAS Giannina                    26   4    4    5    28   23   1    4    8    21   32   23
3rd     PAS Giannina                    26   11   0    2    37   23   2    2    9    20   33   41
9th     PAS Giannina                    26   7    2    4    26   26   3    1    9    16   27   33
9th     PAS Giannina                    26   8    1    4    26   15   2    3    8    14   32   34
12th    PAS Giannina                    26   4    7    2    24   23   2    2    9    17   35   27
1st      PAS Giannina                    26   9    3    1    34   21   6    1    6    23   22   49
12th    PAS Giannina                    26   7    1    5    29   22   1    2    10   23   38   27
12th    PAS Giannina                    26   4    4    5    25   27   4    0    9    22   27   28
7th     PAS Giannina                    26   9    2    2    36   21   2    0    11   19   36   35
9th     PAS Giannina                    26   6    1    6    26   29   3    3    7    21   29   31
11th    PAS Giannina                    26   5    3    5    23   25   2    2    9    18   28   26
12th    PAS Giannina                    26   3    5    5    28   33   4    2    7    21   25   28
6th     PAS Giannina                    26   8    1    4    31   19   2    4    7    18   24   35
9th     PAS Giannina                    26   5    5    3    25   22   3    2    8    16   27   31
11th    PAS Giannina                    26   5    3    5    24   23   4    0    9    16   26   30
13th    PAS Giannina                    26   5    3    5    32   31   2    2    9    14   30   26
13th    PAS Giannina                    26   6    3    4    31   30   0    4    9    21   38   25
11th    PAS Giannina                    26   6    2    5    26   22   2    4    7    17   26   30
10th    PAS Giannina                    26   5    4    4    25   25   2    4    7    19   27   29
8th     PAS Giannina                    26   5    6    2    26   14   2    5    6    22   29   32
10th    PAS Giannina                    26   6    5    2    27   21   3    1    9    18   27   33
8th     PAS Giannina                    26   7    2    4    25   19   3    2    8    19   25   34
6th     PAS Giannina                    26   7    4    2    26   19   4    2    7    18   22   39
12th    PAS Giannina                    26   5    2    6    28   31   2    3    8    17   27   26
9th     PAS Giannina                    26   5    5    3    30   24   3    3    7    18   31   32
6th     PAS Giannina                    26   7    0    6    25   23   6    0    7    23   30   39
11th    PAS Giannina                    26   4    2    7    23   24   3    3    7    17   35   26
2nd     PAS Giannina                    26   7    5    1    31   18   7    3    3    29   28   50
8th     PAS Giannina                    26   8    3    2    33   23   3    2    8    19   29   38
12th    PAS Giannina                    26   5    5    3    25   19   1    6    6    24   33   29
6th     PAS Giannina                    26   7    3    3    30   20   2    5    6    18   22   35
13th    PAS Giannina                    26   5    0    8    23   33   2    2    9    20   36   23
13th    PAS Giannina                    26   6    4    3    30   27   1    1    11   13   31   26
12th    PAS Giannina                    26   5    6    2    31   26   2    3    8    23   33   30
9th     PAS Giannina                    26   9    2    2    31   18   1    4    8    15   27   36
6th     PAS Giannina                    26   8    2    3    35   25   3    3    7    16   20   38
11th    PAS Giannina                    26   3    4    6    25   24   3    3    7    18   23   25
10th    PAS Giannina                    26   5    4    4    22   20   3    2    8    21   33   30
3rd     PAS Giannina                    26   11   2    0    31   12   2    3    8    17   26   44
12th    PAS Giannina                    26   6    1    6    24   25   2    2    9    19   29   27
14th    PAS Giannina                    26   3    4    6    21   28   1    2    10   9    34   18
13th    PAS Giannina                    26   3    6    4    27   27   1    4    8    15   35   22
5th     PAS Giannina                    26   8    3    2    31   18   2    6    5    21   27   39
9th     PAS Giannina                    26   6    3    4    23   25   4    5    4    19   22   38
9th     PAS Giannina                    26   7    3    3    33   24   1    3    9    13   35   30
5th     PAS Giannina                    26   6    3    4    34   25   4    3    6    15   18   36
12th    PAS Giannina                    26   4    2    7    27   29   4    1    8    17   27   27
4th     PAS Giannina                    26   9    1    3    32   22   3    4    6    16   21   41
6th     PAS Giannina                    26   6    5    2    31   24   4    4    5    22   25   39
12th    PAS Giannina                    26   3    3    7    27   31   5    2    6    24   30   29
11th    PAS Giannina                    26   7    1    5    27   19   2    4    7    19   31   32
4th     PAS Giannina                    26   10   2    1    37   17   1    4    8    18   36   39
10th    PAS Giannina                    26   6    3    4    29   21   3    2    8    24   36   32
11th    PAS Giannina                    26   5    4    4    24   23   2    6    5    22   34   31
12th    PAS Giannina                    26   6    1    6    35   31   1    3    9    13   33   25
11th    PAS Giannina                    26   7    4    2    29   21   1    2    10   17   34   30
6th     PAS Giannina                    26   9    1    3    35   21   3    2    8    17   31   39
13th    PAS Giannina                    26   5    3    5    28   30   2    4    7    20   29   28
8th     PAS Giannina                    26   6    4    3    23   20   3    5    5    23   27   36
5th     PAS Giannina                    26   7    1    5    33   28   4    3    6    19   25   37
10th    PAS Giannina                    26   7    2    4    25   23   1    4    8    14   25   30
14th    PAS Giannina                    26   3    4    6    21   25   1    4    8    22   34   20
10th    PAS Giannina                    26   5    4    4    27   18   3    2    8    24   30   30
12th    PAS Giannina                    26   4    5    4    29   28   1    3    9    12   26   23
11th    PAS Giannina                    26   7    3    3    30   19   1    1    11   14   29   28
2nd     PAS Giannina                    26   11   1    1    33   15   4    1    8    21   33   47
12th    PAS Giannina                    26   7    1    5    22   27   1    3    9    15   31   28
5th     PAS Giannina                    26   6    5    2    31   18   3    3    7    24   29   35
11th    PAS Giannina                    26   8    1    4    27   21   2    1    10   17   30   32
10th    PAS Giannina                    26   4    6    3    29   29   4    1    8    23   34   31
10th    PAS Giannina                    26   6    3    4    24   19   4    0    9    20   34   33
3rd     PAS Giannina                    26   9    3    1    27   14   4    3    6    32   25   45
8th     PAS Giannina                    26   7    5    1    27   21   1    6    6    19   32   35
13th    PAS Giannina                    26   3    3    7    24   26   3    3    7    20   30   24
7th     PAS Giannina                    26   7    4    2    29   20   3    4    6    23   27   38
11th    PAS Giannina                    26   5    3    5    25   22   4    3    6    27   30   33
10th    PAS Giannina                    26   6    5    2    30   22   1    3    9    21   38   29
9th     PAS Giannina                    26   7    3    3    26   18   3    1    9    18   31   34
6th     PAS Giannina                    26   8    1    4    32   23   4    2    7    21   28   39
8th     PAS Giannina                    26   5    6    2    27   23   3    4    6    20   29   34
12th    PAS Giannina                    26   5    2    6    31   27   2    3    8    16   28   26
8th     PAS Giannina                    26   7    3    3    34   27   2    4    7    20   25   34