1st     PAS Giannina                    26   9    1    3    29   16   7    0    6    25   21   49   
2nd     PAS Giannina                    26   10   2    1    31   16   4    4    5    19   26   48   
11th    PAS Giannina                    26   8    3    2    25   15   1    2    10   8    27   32   
8th     PAS Giannina                    26   6    4    3    23   18   4    0    9    13   22   34   
6th     PAS Giannina                    26   7    1    5    20   14   6    1    6    18   15   41   
10th    PAS Giannina                    26   7    3    3    24   14   2    4    7    12   19   34   
7th     PAS Giannina                    26   6    2    5    19   16   4    4    5    18   20   36   
6th     PAS Giannina                    26   8    3    2    28   16   4    1    8    17   26   40   
9th     PAS Giannina                    26   8    2    3    25   17   2    3    8    19   23   35   
13th    PAS Giannina                    26   2    5    6    16   20   2    2    9    14   24   19   
8th     PAS Giannina                    26   7    3    3    22   14   2    3    8    14   25   33   
9th     PAS Giannina                    26   7    3    3    27   15   2    2    9    14   30   32   
9th     PAS Giannina                    26   8    2    3    22   21   2    1    10   15   32   33   
11th    PAS Giannina                    26   4    6    3    28   25   2    4    7    14   20   28   
8th     PAS Giannina                    26   6    4    3    17   11   3    3    7    14   23   34   
3rd     PAS Giannina                    26   9    2    2    25   15   5    1    7    17   20   45   
5th     PAS Giannina                    26   6    3    4    23   22   5    3    5    23   23   39   
11th    PAS Giannina                    26   3    7    3    20   19   3    3    7    16   25   28   
6th     PAS Giannina                    26   7    5    1    18   11   3    2    8    12   21   37   
11th    PAS Giannina                    26   6    2    5    25   18   2    3    8    16   30   29   
10th    PAS Giannina                    26   4    4    5    15   14   4    2    7    19   21   30   
6th     PAS Giannina                    26   6    6    1    25   14   5    1    7    19   25   40   
8th     PAS Giannina                    26   7    2    4    23   16   3    2    8    16   25   34   
2nd     PAS Giannina                    26   10   1    2    31   14   7    1    5    15   18   53   
10th    PAS Giannina                    26   4    5    4    19   18   3    5    5    13   21   31   
8th     PAS Giannina                    26   7    3    3    22   15   2    6    5    22   27   36   
4th     PAS Giannina                    26   9    2    2    31   13   3    3    7    13   19   41   
7th     PAS Giannina                    26   9    0    4    18   9    2    7    4    16   22   40   
7th     PAS Giannina                    26   5    4    4    24   16   5    2    6    16   21   36   
5th     PAS Giannina                    26   10   2    1    26   11   2    2    9    12   25   40   
8th     PAS Giannina                    26   5    4    4    21   18   5    3    5    21   26   37   
10th    PAS Giannina                    26   6    5    2    28   19   2    3    8    19   29   32   
12th    PAS Giannina                    26   3    4    6    16   22   4    3    6    18   17   28   
2nd     PAS Giannina                    26   10   2    1    31   16   6    1    6    17   19   51   
3rd     PAS Giannina                    26   6    1    6    22   20   6    3    4    18   16   40   
5th     PAS Giannina                    26   10   2    1    28   10   2    2    9    20   29   40   
8th     PAS Giannina                    26   6    6    1    24   16   2    5    6    22   26   35   
3rd     PAS Giannina                    26   10   1    2    27   14   4    2    7    15   24   45   
13th    PAS Giannina                    26   4    4    5    25   22   2    2    9    11   25   24   
4th     PAS Giannina                    26   8    3    2    22   13   5    3    5    21   22   45   
2nd     PAS Giannina                    26   9    2    2    24   11   4    2    7    17   24   43   
5th     PAS Giannina                    26   7    3    3    24   12   4    2    7    16   21   38   
6th     PAS Giannina                    26   8    3    2    26   14   3    2    8    13   24   38   
6th     PAS Giannina                    26   7    3    3    32   22   3    5    5    16   20   38   
4th     PAS Giannina                    26   8    2    3    28   17   3    6    4    22   23   41   
6th     PAS Giannina                    26   5    5    3    24   17   5    4    4    23   24   39   
4th     PAS Giannina                    26   8    4    1    29   13   4    2    7    14   20   42   
11th    PAS Giannina                    26   7    4    2    23   11   1    2    10   10   23   30   
6th     PAS Giannina                    26   8    2    3    23   11   4    1    8    15   22   39   
9th     PAS Giannina                    26   7    1    5    25   13   3    2    8    19   29   33   
6th     PAS Giannina                    26   9    3    1    34   18   2    4    7    18   31   40   
10th    PAS Giannina                    26   8    1    4    25   18   2    2    9    19   28   33   
6th     PAS Giannina                    26   6    6    1    22   16   4    2    7    17   27   38   
10th    PAS Giannina                    26   7    3    3    31   20   2    2    9    16   26   32   
14th    PAS Giannina                    26   3    3    7    16   25   3    1    9    14   31   22   
11th    PAS Giannina                    26   7    3    3    21   14   3    2    8    14   25   35   
13th    PAS Giannina                    26   3    4    6    16   23   2    3    8    14   29   22   
8th     PAS Giannina                    26   5    4    4    31   26   4    4    5    18   21   35   
5th     PAS Giannina                    26   8    2    3    30   20   3    5    5    14   15   40   
7th     PAS Giannina                    26   11   0    2    31   14   1    2    10   15   34   38   
5th     PAS Giannina                    26   6    2    5    26   19   5    4    4    19   15   39   
8th     PAS Giannina                    26   5    6    2    18   14   3    3    7    21   32   33   
2nd     PAS Giannina                    26   8    2    3    25   12   6    1    6    19   15   45   
4th     PAS Giannina                    26   8    4    1    26   14   4    2    7    21   26   42   
9th     PAS Giannina                    26   6    3    4    18   19   1    9    3    12   18   33   
6th     PAS Giannina                    26   8    3    2    25   15   4    3    6    17   23   42   
9th     PAS Giannina                    26   7    3    3    28   17   2    4    7    16   27   34   
3rd     PAS Giannina                    26   8    3    2    29   17   3    4    6    25   29   40   
5th     PAS Giannina                    26   9    3    1    32   16   2    3    8    13   22   39   
4th     PAS Giannina                    26   8    2    3    33   20   5    1    7    16   27   42   
9th     PAS Giannina                    26   6    4    3    18   11   2    5    6    17   27   33   
14th    PAS Giannina                    26   2    4    7    12   21   1    6    6    9    16   19   
2nd     PAS Giannina                    26   9    3    1    35   13   4    4    5    20   20   46   
4th     PAS Giannina                    26   7    2    4    24   15   5    2    6    19   21   40   
3rd     PAS Giannina                    26   8    3    2    26   15   3    6    4    15   20   42   
2nd     PAS Giannina                    26   9    3    1    29   14   6    3    4    28   18   51   
7th     PAS Giannina                    26   7    3    3    26   15   4    3    6    19   24   39   
4th     PAS Giannina                    26   8    3    2    30   17   4    2    7    17   18   41   
1st     PAS Giannina                    26   11   1    1    31   11   4    4    5    18   17   50   
8th     PAS Giannina                    26   7    2    4    20   19   3    2    8    15   26   34   
10th    PAS Giannina                    26   7    1    5    19   11   3    1    9    14   19   32   
4th     PAS Giannina                    26   6    6    1    19   15   5    1    7    22   23   40   
4th     PAS Giannina                    26   9    0    4    27   14   4    2    7    19   25   41   
6th     PAS Giannina                    26   9    3    1    30   18   2    2    9    16   25   38   
5th     PAS Giannina                    26   7    2    4    23   17   4    4    5    19   19   39   
14th    PAS Giannina                    26   3    4    6    22   29   1    3    9    16   28   19   
11th    PAS Giannina                    26   4    6    3    25   19   2    3    8    16   28   27   
5th     PAS Giannina                    26   7    2    4    17   14   5    4    4    19   18   42   
8th     PAS Giannina                    26   5    3    5    18   16   4    2    7    17   23   32   
7th     PAS Giannina                    26   7    0    6    25   20   4    3    6    19   19   36   
11th    PAS Giannina                    26   8    1    4    26   20   1    2    10   10   29   30   
12th    PAS Giannina                    26   7    2    4    23   21   0    5    8    13   27   28   
5th     PAS Giannina                    26   6    5    2    20   12   4    3    6    19   25   38   
12th    PAS Giannina                    26   4    4    5    17   18   2    5    6    15   19   27   
12th    PAS Giannina                    26   7    2    4    22   17   0    7    6    12   22   30   
9th     PAS Giannina                    26   8    3    2    30   12   1    5    7    15   27   35   
4th     PAS Giannina                    26   10   1    2    31   15   2    4    7    12   23   41   
14th    PAS Giannina                    26   5    3    5    22   20   2    2    9    14   32   26   
12th    PAS Giannina                    26   5    5    3    20   16   2    1    10   12   25   27   
10th    PAS Giannina                    26   4    4    5    18   21   3    4    6    12   21   29   