1st     PAS Giannina                    26   12   1    0    41   11   10   1    2    33   16   68   
1st     PAS Giannina                    26   10   1    2    36   13   9    1    3    29   13   59   
1st     PAS Giannina                    26   12   1    0    36   9    11   2    0    32   9    72   
1st     PAS Giannina                    26   9    4    0    34   14   10   2    1    33   7    63   
1st     PAS Giannina                    26   9    3    1    33   10   10   1    2    33   12   61   
1st     PAS Giannina                    26   12   1    0    35   11   11   0    2    38   13   70   
1st     PAS Giannina                    26   10   3    0    34   10   9    3    1    35   11   63   
1st     PAS Giannina                    26   9    4    0    30   12   9    3    1    28   13   61   
1st     PAS Giannina                    26   12   1    0    38   9    9    2    2    28   13   66   
1st     PAS Giannina                    26   10   1    2    34   15   9    3    1    35   13   61   
1st     PAS Giannina                    26   13   0    0    37   6    8    4    1    29   15   67   
1st     PAS Giannina                    26   9    4    0    35   14   9    2    2    32   17   60   
1st     PAS Giannina                    26   13   0    0    37   8    9    1    3    29   15   67   
1st     PAS Giannina                    26   10   2    1    33   8    8    2    3    23   13   58   
1st     PAS Giannina                    26   12   1    0    39   13   11   2    0    31   10   72   
1st     PAS Giannina                    26   12   1    0    40   7    12   1    0    27   6    74   
2nd     PAS Giannina                    26   10   1    2    35   16   8    3    2    32   16   58   
1st     PAS Giannina                    26   11   1    1    39   13   8    4    1    34   9    62   
1st     PAS Giannina                    26   12   1    0    35   9    7    5    1    25   12   63   
1st     PAS Giannina                    26   12   0    1    38   13   9    2    2    26   13   65   
1st     PAS Giannina                    26   12   1    0    43   9    8    3    2    33   13   64   
1st     PAS Giannina                    26   13   0    0    39   8    9    2    2    26   16   68   
1st     PAS Giannina                    26   8    4    1    33   13   13   0    0    42   5    67   
1st     PAS Giannina                    26   11   1    1    33   14   13   0    0    32   4    73   
1st     PAS Giannina                    26   8    2    3    31   13   11   2    0    38   8    61   
1st     PAS Giannina                    26   10   1    2    30   10   13   0    0    29   5    70   
1st     PAS Giannina                    26   12   1    0    34   8    12   0    1    34   15   73   
1st     PAS Giannina                    26   10   1    2    38   15   12   0    1    33   6    67   
1st     PAS Giannina                    26   13   0    0    42   13   12   1    0    33   6    76   
1st     PAS Giannina                    26   13   0    0    37   12   11   1    1    38   16   73   
1st     PAS Giannina                    26   10   3    0    35   12   12   1    0    32   8    70   
1st     PAS Giannina                    26   12   1    0    38   12   10   3    0    37   13   70   
1st     PAS Giannina                    26   11   0    2    36   13   8    4    1    26   12   61   
1st     PAS Giannina                    26   13   0    0    35   7    11   1    1    40   16   73   
1st     PAS Giannina                    26   10   2    1    36   15   10   0    3    31   9    62   
1st     PAS Giannina                    26   10   2    1    31   8    10   2    1    33   11   64   
1st     PAS Giannina                    26   10   2    1    27   12   9    2    2    26   7    61   
1st     PAS Giannina                    26   10   2    1    31   9    10   2    1    32   11   64   
1st     PAS Giannina                    26   10   1    2    29   10   9    2    2    29   10   60   
1st     PAS Giannina                    26   11   2    0    34   7    10   1    2    29   14   66   
1st     PAS Giannina                    26   12   0    1    40   13   10   2    1    32   6    68   
1st     PAS Giannina                    26   11   1    1    32   9    12   1    0    37   8    71   
1st     PAS Giannina                    26   10   2    1    37   10   9    4    0    40   12   63   
1st     PAS Giannina                    26   10   3    0    36   13   11   1    1    26   10   67   
1st     PAS Giannina                    26   12   1    0    34   10   10   2    1    36   11   69   
1st     PAS Giannina                    26   12   0    1    36   10   7    5    1    29   12   62   
1st     PAS Giannina                    26   12   1    0    43   12   10   3    0    35   12   70   
1st     PAS Giannina                    26   11   0    2    29   8    9    3    1    27   13   63   
1st     PAS Giannina                    26   11   2    0    35   8    9    1    3    31   14   63   
1st     PAS Giannina                    26   12   1    0    36   10   9    3    1    27   11   67   
1st     PAS Giannina                    26   8    4    1    34   14   8    2    3    32   14   54   
1st     PAS Giannina                    26   12   1    0    35   6    9    1    3    26   14   65   
1st     PAS Giannina                    26   13   0    0    42   12   9    2    2    30   14   68   
1st     PAS Giannina                    26   12   1    0    39   8    7    4    2    23   15   62   
1st     PAS Giannina                    26   9    3    1    32   13   10   2    1    32   11   62   
1st     PAS Giannina                    26   9    3    1    33   12   12   0    1    27   6    66   
1st     PAS Giannina                    26   12   1    0    35   10   8    3    2    32   19   64   
1st     PAS Giannina                    26   11   2    0    32   12   10   1    2    30   9    66   
1st     PAS Giannina                    26   12   1    0    36   9    12   0    1    33   12   73   
1st     PAS Giannina                    26   13   0    0    42   9    10   2    1    40   16   71   
1st     PAS Giannina                    26   11   2    0    47   16   7    2    4    24   16   58   
1st     PAS Giannina                    26   11   1    1    31   9    6    5    2    24   13   57   
1st     PAS Giannina                    26   12   0    1    37   11   9    3    1    28   10   66   
1st     PAS Giannina                    26   12   1    0    37   10   7    5    1    31   12   63   
1st     PAS Giannina                    26   10   3    0    38   14   8    3    2    32   16   60   
1st     PAS Giannina                    26   10   1    2    29   8    10   2    1    32   14   63   
1st     PAS Giannina                    26   12   1    0    31   7    9    3    1    32   14   67   
1st     PAS Giannina                    26   12   1    0    34   8    11   1    1    35   12   71   
1st     PAS Giannina                    26   12   0    1    34   9    8    2    3    27   11   62   
1st     PAS Giannina                    26   10   1    2    35   9    12   0    1    39   12   67   
1st     PAS Giannina                    26   13   0    0    40   15   9    2    2    29   17   68   
1st     PAS Giannina                    26   12   1    0    38   9    10   2    1    28   7    69   
1st     PAS Giannina                    26   11   2    0    32   10   9    3    1    31   10   65   
1st     PAS Giannina                    26   12   0    1    43   12   8    2    3    25   11   62   
1st     PAS Giannina                    26   11   2    0    37   15   9    2    2    31   15   64   
1st     PAS Giannina                    26   11   1    1    33   12   10   2    1    35   9    66   
1st     PAS Giannina                    26   12   1    0    38   10   10   2    1    33   10   69   
1st     PAS Giannina                    26   9    4    0    33   15   8    4    1    29   16   59   
1st     PAS Giannina                    26   8    2    3    31   16   11   2    0    38   8    61   
1st     PAS Giannina                    26   11   2    0    36   5    8    3    2    32   13   62   
1st     PAS Giannina                    26   11   1    1    42   20   11   2    0    30   10   69   
1st     PAS Giannina                    26   12   1    0    36   10   6    3    4    27   14   58   
1st     PAS Giannina                    26   13   0    0    38   14   9    1    3    32   14   67   
1st     PAS Giannina                    26   12   1    0    40   11   7    1    5    26   15   59   
1st     PAS Giannina                    26   12   1    0    38   11   9    3    1    32   9    67   
1st     PAS Giannina                    26   13   0    0    31   9    5    6    2    26   19   60   
1st     PAS Giannina                    26   11   2    0    35   9    10   3    0    31   13   68   
1st     PAS Giannina                    26   11   1    1    38   16   11   1    1    36   7    68   
1st     PAS Giannina                    26   7    4    2    31   15   9    2    2    32   12   54   
1st     PAS Giannina                    26   11   0    2    39   12   9    3    1    28   8    63   
1st     PAS Giannina                    26   12   1    0    43   11   7    4    2    30   16   62   
1st     PAS Giannina                    26   12   1    0    40   11   9    4    0    28   13   68   
1st     PAS Giannina                    26   11   0    2    31   11   10   2    1    36   13   65   
1st     PAS Giannina                    26   11   2    0    34   7    9    2    2    32   13   64   
2nd     PAS Giannina                    26   8    3    2    36   19   10   1    2    29   6    58   
1st     PAS Giannina                    26   11   2    0    37   13   8    2    3    32   15   61   
1st     PAS Giannina                    26   9    0    4    33   16   10   3    0    35   13   60   
1st     PAS Giannina                    26   12   1    0    43   15   9    1    3    34   11   65   
1st     PAS Giannina                    26   13   0    0    39   7    9    2    2    36   16   68   
1st     PAS Giannina                    26   13   0    0    32   5    11   2    0    31   10   74   