1st      PAS Giannina                    26   11   2    0    39   13   10   2    1    32   14   67
1st      PAS Giannina                    26   10   1    2    35   17   10   2    1    33   11   63
2nd     PAS Giannina                    26   11   1    1    35   11   8    4    1    29   11   62
1st      PAS Giannina                    26   11   1    1    30   11   8    4    1    23   12   62
2nd     PAS Giannina                    26   9    3    1    30   8    8    1    4    26   18   55
2nd     PAS Giannina                    26   11   2    0    39   11   7    2    4    31   21   58
1st      PAS Giannina                    26   12   1    0    38   6    10   2    1    32   10   69
1st      PAS Giannina                    26   12   1    0    34   11   12   1    0    33   12   74
1st      PAS Giannina                    26   13   0    0    45   14   8    2    3    27   12   65
1st      PAS Giannina                    26   13   0    0    36   6    8    3    2    29   12   66
1st      PAS Giannina                    26   12   1    0    44   9    7    3    3    31   17   61
1st      PAS Giannina                    26   12   0    1    39   17   9    2    2    25   12   65
1st      PAS Giannina                    26   12   0    1    43   9    7    4    2    23   9    61
1st      PAS Giannina                    26   10   1    2    35   9    9    2    2    28   14   60
1st      PAS Giannina                    26   11   1    1    33   10   9    2    2    34   11   63
1st      PAS Giannina                    26   12   1    0    38   8    8    3    2    28   15   64
1st      PAS Giannina                    26   11   1    1    32   9    10   2    1    29   8    66
1st      PAS Giannina                    26   12   0    1    46   14   11   0    2    39   16   69
1st      PAS Giannina                    26   10   2    1    33   11   9    2    2    35   13   61
1st      PAS Giannina                    26   12   1    0    38   13   7    5    1    33   20   63
1st      PAS Giannina                    26   12   1    0    33   12   8    2    3    27   10   63
1st      PAS Giannina                    26   8    4    1    30   10   9    2    2    31   16   57
1st      PAS Giannina                    26   11   2    0    29   9    9    0    4    34   20   62
1st      PAS Giannina                    26   12   1    0    41   8    12   1    0    37   10   74
1st      PAS Giannina                    26   12   1    0    45   8    7    3    3    26   12   61
1st      PAS Giannina                    26   10   1    2    36   12   10   2    1    32   19   63
1st      PAS Giannina                    26   12   0    1    46   12   8    3    2    38   16   63
1st      PAS Giannina                    26   9    3    1    33   10   7    2    4    22   11   53
1st      PAS Giannina                    26   11   2    0    38   15   11   0    2    34   10   68
1st      PAS Giannina                    26   9    0    4    31   17   12   0    1    30   12   63
1st      PAS Giannina                    26   13   0    0    33   9    10   3    0    29   11   72
1st      PAS Giannina                    26   10   2    1    34   11   9    3    1    34   11   62
1st      PAS Giannina                    26   9    4    0    38   13   8    3    2    28   9    58
1st      PAS Giannina                    26   10   1    2    35   13   8    2    3    27   14   57
1st      PAS Giannina                    26   12   1    0    32   10   10   2    1    29   16   69
1st      PAS Giannina                    26   12   1    0    43   10   9    2    2    32   17   66
1st      PAS Giannina                    26   11   1    1    33   14   9    3    1    32   11   64
1st      PAS Giannina                    26   10   2    1    41   13   9    3    1    36   17   62
1st      PAS Giannina                    26   12   0    1    35   14   5    5    3    25   17   56
1st      PAS Giannina                    26   12   1    0    39   8    7    2    4    24   12   60
1st      PAS Giannina                    26   9    4    0    44   19   8    3    2    31   12   58
2nd     PAS Giannina                    26   13   0    0    39   14   7    2    4    23   13   62
1st      PAS Giannina                    26   11   2    0    35   11   9    1    3    33   12   63
1st      PAS Giannina                    26   11   2    0    33   11   8    2    3    28   12   61
1st      PAS Giannina                    26   9    2    2    30   15   11   1    1    31   8    63
1st      PAS Giannina                    26   12   0    1    31   13   9    2    2    33   12   65
1st      PAS Giannina                    26   13   0    0    49   13   10   1    2    33   10   70
1st      PAS Giannina                    26   11   0    2    29   14   7    5    1    31   21   59
1st      PAS Giannina                    26   12   0    1    41   7    7    4    2    25   17   61
1st      PAS Giannina                    26   10   1    2    41   15   13   0    0    35   11   70
1st      PAS Giannina                    26   11   0    2    38   9    7    2    4    22   10   56
1st      PAS Giannina                    26   11   1    1    39   14   11   0    2    28   12   67
1st      PAS Giannina                    26   9    2    2    29   15   9    3    1    29   12   59
2nd     PAS Giannina                    26   9    3    1    35   13   8    2    3    27   16   56
1st      PAS Giannina                    26   8    3    2    40   14   10   2    1    32   10   59
1st      PAS Giannina                    26   12   0    1    33   9    12   1    0    38   8    73
1st      PAS Giannina                    26   10   2    1    33   14   10   2    1    30   10   64
1st      PAS Giannina                    26   11   2    0    42   10   10   2    1    32   8    67
2nd     PAS Giannina                    26   9    4    0    34   13   7    2    4    29   20   54
1st      PAS Giannina                    26   11   1    1    32   8    10   1    2    23   9    65
1st      PAS Giannina                    26   12   1    0    41   9    10   1    2    29   10   68
1st      PAS Giannina                    26   8    3    2    30   12   6    4    3    22   15   49
1st      PAS Giannina                    26   12   0    1    39   13   11   1    1    31   15   70
1st      PAS Giannina                    26   9    3    1    33   11   10   2    1    37   17   62
1st      PAS Giannina                    26   13   0    0    36   7    8    2    3    31   12   65
1st      PAS Giannina                    26   11   2    0    30   7    8    4    1    35   14   63
1st      PAS Giannina                    26   12   1    0    41   15   10   3    0    29   9    70
1st      PAS Giannina                    26   10   1    2    33   13   6    5    2    24   14   54
1st      PAS Giannina                    26   9    3    1    26   10   9    2    2    25   13   59
2nd     PAS Giannina                    26   8    3    2    39   20   8    3    2    31   19   54
1st      PAS Giannina                    26   9    2    2    27   14   9    2    2    30   16   58
1st      PAS Giannina                    26   9    4    0    36   18   9    3    1    30   12   61
1st      PAS Giannina                    26   13   0    0    39   12   8    2    3    25   12   65
1st      PAS Giannina                    26   11   2    0    30   6    9    2    2    21   9    64
1st      PAS Giannina                    26   11   0    2    35   10   10   2    1    22   9    65
1st      PAS Giannina                    26   13   0    0    45   12   9    2    2    33   14   68
1st      PAS Giannina                    26   9    2    2    36   19   11   1    1    37   14   63
1st      PAS Giannina                    26   10   2    1    41   14   7    3    3    27   16   56
1st      PAS Giannina                    26   12   0    1    41   14   8    4    1    32   15   64
1st      PAS Giannina                    26   11   1    1    47   17   8    4    1    32   14   62
1st      PAS Giannina                    26   10   2    1    28   12   9    4    0    33   9    63
1st      PAS Giannina                    26   8    3    2    31   15   9    3    1    30   12   57
1st      PAS Giannina                    26   7    4    2    25   13   10   2    1    35   17   57
1st      PAS Giannina                    26   13   0    0    43   10   9    2    2    26   11   68
2nd     PAS Giannina                    26   8    5    0    26   12   8    2    3    29   14   55
1st      PAS Giannina                    26   11   1    1    35   9    6    5    2    21   11   57
1st      PAS Giannina                    26   11   2    0    37   15   8    3    2    28   8    62
1st      PAS Giannina                    26   12   1    0    40   13   8    3    2    25   13   64
1st      PAS Giannina                    26   9    2    2    28   8    9    4    0    28   6    60
1st      PAS Giannina                    26   13   0    0    42   10   8    4    1    29   9    67
1st      PAS Giannina                    26   11   1    1    35   14   8    4    1    32   19   62
1st      PAS Giannina                    26   9    4    0    32   9    11   2    0    36   15   66
1st      PAS Giannina                    26   10   2    1    36   12   9    1    3    29   13   60
1st      PAS Giannina                    26   10   2    1    41   11   9    3    1    26   12   62
1st      PAS Giannina                    26   11   2    0    39   15   8    3    2    29   15   62
1st      PAS Giannina                    26   10   3    0    37   12   10   1    2    33   11   64
2nd     PAS Giannina                    26   8    4    1    32   12   5    6    2    29   16   49
1st      PAS Giannina                    26   12   1    0    39   12   8    5    0    32   13   66
1st      PAS Giannina                    26   11   2    0    33   3    11   2    0    37   12   70
1st      PAS Giannina                    26   12   1    0    40   14   11   0    2    30   3    70