2nd     PAS Giannina                    26   7    4    2    27   18   6    4    3    19   13   47   
2nd     PAS Giannina                    26   10   2    1    27   9    9    1    3    19   11   60   
1st     PAS Giannina                    26   10   3    0    28   10   8    5    0    27   10   62   
2nd     PAS Giannina                    26   8    1    4    28   17   8    3    2    25   14   52   
1st     PAS Giannina                    26   12   1    0    33   7    10   1    2    22   11   68   
1st     PAS Giannina                    26   11   2    0    33   8    7    4    2    26   16   60   
1st     PAS Giannina                    26   12   1    0    41   7    9    3    1    29   7    67   
2nd     PAS Giannina                    26   11   1    1    35   14   5    5    3    19   12   54   
1st     PAS Giannina                    26   10   2    1    37   12   8    3    2    31   11   59   
1st     PAS Giannina                    26   11   0    2    32   9    8    3    2    20   14   60   
1st     PAS Giannina                    26   11   2    0    38   15   10   2    1    29   9    67   
1st     PAS Giannina                    26   11   2    0    40   14   6    4    3    18   11   57   
1st     PAS Giannina                    26   9    3    1    27   10   6    4    3    20   16   52   
1st     PAS Giannina                    26   12   1    0    36   8    12   0    1    31   7    73   
1st     PAS Giannina                    26   9    1    3    33   14   10   2    1    29   9    60   
1st     PAS Giannina                    26   11   1    1    35   13   7    4    2    17   10   59   
1st     PAS Giannina                    26   11   2    0    37   13   10   0    3    32   14   65   
1st     PAS Giannina                    26   10   2    1    24   13   7    2    4    23   18   55   
1st     PAS Giannina                    26   12   0    1    36   9    8    3    2    24   11   63   
1st     PAS Giannina                    26   9    3    1    29   13   8    4    1    29   12   58   
2nd     PAS Giannina                    26   8    5    0    36   17   7    5    1    26   11   55   
2nd     PAS Giannina                    26   8    4    1    28   13   6    3    4    23   12   49   
1st     PAS Giannina                    26   13   0    0    34   8    8    5    0    26   11   68   
1st     PAS Giannina                    26   11   2    0    29   8    8    2    3    27   17   61   
1st     PAS Giannina                    26   10   3    0    37   13   12   0    1    33   11   69   
1st     PAS Giannina                    26   11   2    0    33   7    8    3    2    24   12   62   
1st     PAS Giannina                    26   8    5    0    27   13   10   1    2    28   4    60   
1st     PAS Giannina                    26   9    2    2    31   14   9    3    1    31   11   59   
1st     PAS Giannina                    26   11   1    1    32   7    7    1    5    29   19   56   
1st     PAS Giannina                    26   11   1    1    28   7    7    3    3    24   17   58   
1st     PAS Giannina                    26   11   1    1    37   14   11   0    2    31   12   67   
1st     PAS Giannina                    26   10   2    1    26   9    8    2    3    27   13   58   
1st     PAS Giannina                    26   10   2    1    27   10   9    3    1    29   16   62   
2nd     PAS Giannina                    26   10   2    1    33   11   7    4    2    26   18   57   
1st     PAS Giannina                    26   9    3    1    32   12   9    2    2    24   10   59   
1st     PAS Giannina                    26   9    2    2    29   11   6    3    4    20   17   50   
4th     PAS Giannina                    26   8    3    2    31   16   5    2    6    16   16   44   
2nd     PAS Giannina                    26   9    3    1    34   18   7    5    1    22   12   56   
1st     PAS Giannina                    26   13   0    0    37   10   7    6    0    24   12   66   
1st     PAS Giannina                    26   10   1    2    33   14   7    3    3    26   16   55   
1st     PAS Giannina                    26   10   1    2    29   14   9    2    2    26   13   60   
1st     PAS Giannina                    26   11   2    0    31   13   7    4    2    24   12   60   
3rd     PAS Giannina                    26   9    3    1    33   15   3    4    6    21   20   43   
1st     PAS Giannina                    26   11   1    1    36   11   10   1    2    29   11   65   
3rd     PAS Giannina                    26   8    2    3    24   9    7    2    4    21   14   49   
1st     PAS Giannina                    26   11   2    0    33   9    7    4    2    23   12   60   
2nd     PAS Giannina                    26   9    1    3    39   18   7    3    3    20   16   52   
1st     PAS Giannina                    26   7    3    3    39   20   9    3    1    24   11   54   
2nd     PAS Giannina                    26   9    2    2    33   18   8    4    1    25   11   57   
1st     PAS Giannina                    26   8    2    3    30   12   11   1    1    31   6    60   
1st     PAS Giannina                    26   9    3    1    27   9    9    3    1    26   11   60   
1st     PAS Giannina                    26   10   1    2    34   11   9    1    3    25   16   59   
1st     PAS Giannina                    26   10   2    1    37   10   9    3    1    25   9    62   
1st     PAS Giannina                    26   9    3    1    28   8    8    3    2    28   8    57   
1st     PAS Giannina                    26   9    4    0    32   12   7    2    4    24   17   54   
1st     PAS Giannina                    26   9    3    1    29   12   8    2    3    23   12   56   
1st     PAS Giannina                    26   11   1    1    34   10   7    4    2    26   15   59   
1st     PAS Giannina                    26   12   0    1    33   8    9    2    2    23   12   65   
1st     PAS Giannina                    26   11   1    1    31   13   12   1    0    34   4    71   
1st     PAS Giannina                    26   9    3    1    39   12   9    3    1    34   11   60   
1st     PAS Giannina                    26   10   2    1    34   11   7    3    3    22   16   56   
2nd     PAS Giannina                    26   11   2    0    38   9    8    3    2    28   10   62   
2nd     PAS Giannina                    26   8    3    2    33   17   8    2    3    22   11   53   
1st     PAS Giannina                    26   9    3    1    32   13   9    2    2    27   12   59   
1st     PAS Giannina                    26   10   2    1    26   10   6    5    2    22   15   55   
1st     PAS Giannina                    26   11   2    0    32   6    9    2    2    28   14   64   
1st     PAS Giannina                    26   12   1    0    39   14   7    2    4    23   13   60   
2nd     PAS Giannina                    26   8    3    2    29   14   6    5    2    22   12   50   
1st     PAS Giannina                    26   9    3    1    30   8    7    3    3    22   12   54   
1st     PAS Giannina                    26   11   2    0    33   15   10   2    1    27   6    67   
1st     PAS Giannina                    26   11   1    1    33   8    8    2    3    27   11   60   
1st     PAS Giannina                    26   10   3    0    26   7    6    5    2    27   15   56   
1st     PAS Giannina                    26   10   2    1    31   13   6    4    3    27   16   54   
1st     PAS Giannina                    26   11   2    0    37   11   6    5    2    21   13   58   
2nd     PAS Giannina                    26   10   2    1    31   12   7    2    4    26   18   55   
1st     PAS Giannina                    26   9    1    3    31   13   9    3    1    20   6    58   
1st     PAS Giannina                    26   9    1    3    32   14   11   2    0    24   8    63   
3rd     PAS Giannina                    26   9    2    2    32   14   6    4    3    20   15   51   
1st     PAS Giannina                    26   11   1    1    36   15   6    2    5    22   18   54   
1st     PAS Giannina                    26   12   0    1    30   11   7    0    6    21   17   57   
1st     PAS Giannina                    26   12   0    1    36   11   8    1    4    33   21   61   
1st     PAS Giannina                    26   12   1    0    37   6    7    2    4    22   19   60   
1st     PAS Giannina                    26   12   0    1    40   13   4    4    5    17   16   52   
1st     PAS Giannina                    26   10   1    2    37   12   9    2    2    29   16   60   
1st     PAS Giannina                    26   10   3    0    34   10   9    2    2    20   8    62   
2nd     PAS Giannina                    26   9    3    1    33   10   8    2    3    31   14   56   
1st     PAS Giannina                    26   13   0    0    45   11   8    3    2    22   13   66   
2nd     PAS Giannina                    26   7    5    1    28   10   10   1    2    24   14   57   
1st     PAS Giannina                    26   11   2    0    34   9    9    3    1    28   14   65   
1st     PAS Giannina                    26   10   3    0    35   11   12   0    1    29   6    69   
1st     PAS Giannina                    26   10   3    0    35   13   8    1    4    19   14   58   
1st     PAS Giannina                    26   9    4    0    31   16   9    2    2    24   11   60   
1st     PAS Giannina                    26   10   2    1    32   14   9    2    2    27   12   61   
1st     PAS Giannina                    26   9    4    0    29   15   8    2    3    29   16   57   
1st     PAS Giannina                    26   11   1    1    31   10   8    3    2    28   17   61   
1st     PAS Giannina                    26   12   0    1    33   11   10   2    1    26   12   68   
2nd     PAS Giannina                    26   8    4    1    32   17   11   0    2    26   14   61   
1st     PAS Giannina                    26   10   2    1    31   13   10   2    1    26   7    64   
1st     PAS Giannina                    26   12   1    0    40   9    6    2    5    21   19   57   
1st     PAS Giannina                    26   11   1    1    29   6    12   0    1    26   9    70   