2nd     PAS Giannina                    26   7    3    3    29   18   8    3    2    21   11   51   
1st     PAS Giannina                    26   11   1    1    34   12   7    2    4    31   22   57   
1st     PAS Giannina                    26   11   0    2    31   11   7    3    3    26   18   57   
1st     PAS Giannina                    26   9    3    1    32   16   10   3    0    34   16   63   
1st     PAS Giannina                    26   10   2    1    30   13   10   1    2    33   15   63   
1st     PAS Giannina                    26   12   1    0    37   14   7    1    5    19   16   59   
2nd     PAS Giannina                    26   8    2    3    29   14   8    3    2    27   21   53   
3rd     PAS Giannina                    26   6    5    2    20   13   5    2    6    20   21   40   
1st     PAS Giannina                    26   12   0    1    26   11   7    3    3    24   16   60   
1st     PAS Giannina                    26   9    2    2    27   11   8    5    0    32   20   58   
1st     PAS Giannina                    26   8    3    2    32   18   8    4    1    29   14   55   
2nd     PAS Giannina                    26   10   2    1    32   18   7    4    2    26   17   57   
2nd     PAS Giannina                    26   10   2    1    32   12   5    5    3    22   19   52   
2nd     PAS Giannina                    26   8    2    3    27   16   10   2    1    28   8    58   
3rd     PAS Giannina                    26   7    5    1    29   17   6    2    5    26   22   46   
1st     PAS Giannina                    26   10   1    2    31   13   6    6    1    19   11   55   
3rd     PAS Giannina                    26   9    2    2    30   13   4    3    6    17   18   44   
1st     PAS Giannina                    26   12   0    1    39   11   6    3    4    27   21   57   
2nd     PAS Giannina                    26   10   1    2    31   14   8    1    4    21   16   56   
1st     PAS Giannina                    26   9    3    1    29   11   9    0    4    27   16   57   
2nd     PAS Giannina                    26   7    5    1    25   14   7    4    2    25   14   51   
1st     PAS Giannina                    26   10   2    1    26   12   8    2    3    26   16   58   
1st     PAS Giannina                    26   9    3    1    32   17   10   2    1    31   12   62   
2nd     PAS Giannina                    26   7    3    3    24   12   7    1    5    24   19   46   
1st     PAS Giannina                    26   12   1    0    40   14   9    2    2    32   18   66   
1st     PAS Giannina                    26   8    4    1    25   11   8    4    1    23   14   56   
2nd     PAS Giannina                    26   10   2    1    33   15   5    5    3    27   19   52   
1st     PAS Giannina                    26   10   3    0    29   11   8    3    2    23   14   60   
2nd     PAS Giannina                    26   10   2    1    40   17   7    4    2    27   18   57   
2nd     PAS Giannina                    26   8    5    0    32   15   9    2    2    30   16   58   
1st     PAS Giannina                    26   9    2    2    34   16   8    3    2    35   25   56   
3rd     PAS Giannina                    26   6    4    3    27   23   6    3    4    23   16   43   
1st     PAS Giannina                    26   8    4    1    26   10   10   2    1    26   13   60   
1st     PAS Giannina                    26   10   2    1    35   15   10   3    0    34   13   65   
1st     PAS Giannina                    26   10   2    1    32   9    7    5    1    31   16   58   
1st     PAS Giannina                    26   11   0    2    34   17   7    2    4    27   22   56   
1st     PAS Giannina                    26   13   0    0    41   11   7    2    4    22   12   62   
2nd     PAS Giannina                    26   8    5    0    30   13   6    2    5    18   14   49   
1st     PAS Giannina                    26   11   2    0    29   9    7    4    2    21   15   60   
3rd     PAS Giannina                    26   8    2    3    29   21   4    5    4    22   22   43   
4th     PAS Giannina                    26   7    4    2    27   16   5    5    3    28   20   45   
1st     PAS Giannina                    26   10   1    2    33   11   6    3    4    21   14   52   
3rd     PAS Giannina                    26   7    3    3    26   16   6    2    5    20   17   44   
2nd     PAS Giannina                    26   9    1    3    30   15   8    2    3    25   16   54   
1st     PAS Giannina                    26   11   1    1    31   11   9    2    2    23   12   63   
3rd     PAS Giannina                    26   9    2    2    25   15   5    4    4    21   16   48   
2nd     PAS Giannina                    26   11   0    2    37   14   5    4    4    18   17   52   
1st     PAS Giannina                    26   12   0    1    35   8    7    3    3    22   13   60   
1st     PAS Giannina                    26   12   1    0    29   7    8    4    1    27   19   65   
1st     PAS Giannina                    26   11   1    1    34   12   6    2    5    22   15   54   
1st     PAS Giannina                    26   10   2    1    35   10   5    3    5    19   20   50   
2nd     PAS Giannina                    26   10   2    1    36   15   5    5    3    22   15   52   
4th     PAS Giannina                    26   7    3    3    27   14   6    1    6    23   19   43   
1st     PAS Giannina                    26   9    2    2    35   16   5    6    2    27   20   50   
2nd     PAS Giannina                    26   9    3    1    29   13   9    1    3    27   17   58   
2nd     PAS Giannina                    26   11   2    0    44   12   5    4    4    16   14   54   
1st     PAS Giannina                    26   8    4    1    32   13   10   2    1    30   12   60   
2nd     PAS Giannina                    26   9    2    2    26   13   6    3    4    23   17   50   
1st     PAS Giannina                    26   10   3    0    33   14   6    5    2    25   19   56   
1st     PAS Giannina                    26   11   1    1    28   9    7    2    4    28   18   57   
1st     PAS Giannina                    26   11   2    0    34   9    6    3    4    22   16   56   
1st     PAS Giannina                    26   10   2    1    24   8    11   2    0    28   11   67   
2nd     PAS Giannina                    26   10   3    0    30   11   6    2    5    18   15   53   
2nd     PAS Giannina                    26   11   1    1    27   12   4    5    4    22   22   51   
1st     PAS Giannina                    26   12   0    1    36   13   7    4    2    23   14   61   
1st     PAS Giannina                    26   12   0    1    34   12   5    4    4    19   14   55   
1st     PAS Giannina                    26   9    4    0    32   11   7    4    2    21   13   56   
3rd     PAS Giannina                    26   6    7    0    23   10   8    0    5    22   16   49   
1st     PAS Giannina                    26   11   1    1    32   12   6    3    4    18   17   55   
2nd     PAS Giannina                    26   10   2    1    36   16   4    4    5    17   20   48   
1st     PAS Giannina                    26   12   1    0    37   13   7    3    3    27   12   61   
1st     PAS Giannina                    26   7    3    3    24   14   9    2    2    36   18   53   
4th     PAS Giannina                    26   7    3    3    24   15   5    1    7    20   18   40   
2nd     PAS Giannina                    26   10   0    3    25   14   7    4    2    23   14   55   
1st     PAS Giannina                    26   12   1    0    32   7    8    1    4    25   16   62   
1st     PAS Giannina                    26   11   1    1    36   11   5    4    4    20   21   53   
1st     PAS Giannina                    26   12   1    0    35   13   10   3    0    34   10   70   
1st     PAS Giannina                    26   11   2    0    35   10   8    2    3    29   20   61   
1st     PAS Giannina                    26   11   1    1    30   10   8    2    3    26   13   60   
2nd     PAS Giannina                    26   12   0    1    32   10   6    5    2    26   16   59   
1st     PAS Giannina                    26   11   2    0    42   11   7    3    3    31   18   59   
1st     PAS Giannina                    26   11   0    2    34   14   7    3    3    23   11   57   
3rd     PAS Giannina                    26   8    3    2    34   17   4    3    6    22   25   42   
2nd     PAS Giannina                    26   10   2    1    34   12   7    3    3    25   16   56   
2nd     PAS Giannina                    26   11   1    1    35   12   5    4    4    20   18   53   
1st     PAS Giannina                    26   10   2    1    34   14   9    0    4    31   20   59   
1st     PAS Giannina                    26   8    5    0    28   15   5    5    3    22   20   49   
2nd     PAS Giannina                    26   11   2    0    36   11   7    2    4    22   18   58   
1st     PAS Giannina                    26   10   2    1    29   8    7    3    3    24   14   56   
2nd     PAS Giannina                    26   9    4    0    35   14   7    3    3    21   16   55   
3rd     PAS Giannina                    26   8    1    4    31   15   5    2    6    28   21   42   
1st     PAS Giannina                    26   10   2    1    27   11   6    1    6    16   20   51   
2nd     PAS Giannina                    26   11   1    1    31   11   5    3    5    23   19   52   
1st     PAS Giannina                    26   9    3    1    29   10   9    4    0    31   9    61   
1st     PAS Giannina                    26   11   1    1    32   11   7    3    3    22   12   58   
2nd     PAS Giannina                    26   11   0    2    36   15   7    2    4    27   18   56   
1st     PAS Giannina                    26   11   2    0    29   10   7    3    3    26   14   59   
1st     PAS Giannina                    26   11   2    0    33   8    5    3    5    20   15   53   
6th     PAS Giannina                    26   4    1    8    23   25   7    2    4    20   14   36   
1st     PAS Giannina                    26   8    5    0    26   11   6    4    3    32   24   51   