9th     PAS Giannina                    26   6    4    3    24   17   3    3    7    13   19   34
2nd     PAS Giannina                    26   8    3    2    23   14   6    1    6    19   17   46
4th     PAS Giannina                    26   7    5    1    23   16   4    5    4    18   20   43
2nd     PAS Giannina                    26   11   0    2    30   12   3    5    5    15   17   47
5th     PAS Giannina                    26   8    0    5    19   12   5    2    6    12   17   41
3rd     PAS Giannina                    26   10   1    2    28   9    3    4    6    13   17   44
2nd     PAS Giannina                    26   9    2    2    31   17   4    3    6    16   20   44
2nd     PAS Giannina                    26   10   2    1    23   8    6    4    3    17   15   54
2nd     PAS Giannina                    26   6    4    3    31   16   6    4    3    16   14   44
3rd     PAS Giannina                    26   10   1    2    30   17   4    2    7    17   22   45
3rd     PAS Giannina                    26   9    1    3    29   18   4    4    5    18   17   44
4th     PAS Giannina                    26   8    2    3    25   17   5    3    5    20   20   44
6th     PAS Giannina                    26   8    2    3    23   15   2    4    7    14   21   36
9th     PAS Giannina                    26   4    4    5    24   24   3    5    5    11   19   30
6th     PAS Giannina                    26   7    3    3    25   14   3    4    6    14   22   37
1st     PAS Giannina                    26   7    2    4    33   23   7    5    1    18   12   49
1st     PAS Giannina                    26   9    3    1    27   15   4    6    3    25   22   48
6th     PAS Giannina                    26   9    1    3    26   17   3    3    7    18   21   40
7th     PAS Giannina                    26   8    2    3    21   15   2    4    7    13   22   36
3rd     PAS Giannina                    26   9    2    2    33   15   6    3    4    21   20   50
5th     PAS Giannina                    26   8    2    3    26   15   4    2    7    13   22   40
6th     PAS Giannina                    26   7    1    5    27   19   5    1    7    18   22   38
1st     PAS Giannina                    26   10   2    1    25   9    3    4    6    16   19   45
4th     PAS Giannina                    26   6    4    3    22   16   5    1    7    13   22   38
7th     PAS Giannina                    26   7    1    5    26   23   3    4    6    17   21   35
4th     PAS Giannina                    26   8    3    2    22   13   4    2    7    13   17   41
5th     PAS Giannina                    26   8    4    1    23   11   3    6    4    13   18   43
4th     PAS Giannina                    26   7    3    3    28   22   4    3    6    21   24   39
7th     PAS Giannina                    26   9    1    3    26   12   1    2    10   12   25   33
11th    PAS Giannina                    26   7    1    5    17   17   1    5    7    14   22   30
11th    PAS Giannina                    26   7    0    6    26   25   2    4    7    12   21   31
1st     PAS Giannina                    26   8    2    3    25   16   8    3    2    22   11   53
5th     PAS Giannina                    26   9    2    2    19   11   3    1    9    10   22   39
8th     PAS Giannina                    26   5    6    2    17   13   4    4    5    16   21   37
3rd     PAS Giannina                    26   9    2    2    28   11   4    2    7    17   18   43
10th    PAS Giannina                    26   6    2    5    27   21   2    3    8    17   30   29
11th    PAS Giannina                    26   6    4    3    22   15   2    3    8    16   25   31
3rd     PAS Giannina                    26   8    5    0    26   11   3    5    5    17   19   43
2nd     PAS Giannina                    26   9    3    1    28   11   4    3    6    20   22   45
3rd     PAS Giannina                    26   10   2    1    34   16   3    4    6    13   22   45
4th     PAS Giannina                    26   7    4    2    26   17   4    5    4    17   17   42
1st     PAS Giannina                    26   11   1    1    28   16   7    4    2    25   20   59
4th     PAS Giannina                    26   9    2    2    22   11   3    2    8    11   21   40
4th     PAS Giannina                    26   8    2    3    23   10   4    6    3    21   21   44
6th     PAS Giannina                    26   7    5    1    27   16   2    4    7    10   16   36
10th    PAS Giannina                    26   5    3    5    17   16   4    2    7    18   25   32
5th     PAS Giannina                    26   9    2    2    36   20   2    4    7    13   21   39
1st     PAS Giannina                    26   10   2    1    33   17   5    4    4    20   19   51
4th     PAS Giannina                    26   6    5    2    28   21   5    2    6    16   14   40
9th     PAS Giannina                    26   8    2    3    26   15   0    4    9    8    22   30
1st     PAS Giannina                    26   8    3    2    24   10   4    5    4    15   12   44
5th     PAS Giannina                    26   9    2    2    26   18   1    3    9    13   25   35
3rd     PAS Giannina                    26   7    1    5    25   22   4    5    4    20   21   39
8th     PAS Giannina                    26   7    3    3    22   17   3    4    6    19   25   37
7th     PAS Giannina                    26   6    5    2    26   15   4    4    5    16   18   39
5th     PAS Giannina                    26   6    4    3    28   17   7    1    5    21   16   44
4th     PAS Giannina                    26   10   2    1    27   13   2    6    5    13   18   44
8th     PAS Giannina                    26   8    5    0    25   14   1    3    9    13   28   35
5th     PAS Giannina                    26   7    4    2    17   9    4    4    5    13   16   41
3rd     PAS Giannina                    26   7    4    2    27   16   5    3    5    15   17   43
3rd     PAS Giannina                    26   9    2    2    27   14   3    2    8    12   18   40
6th     PAS Giannina                    26   8    2    3    26   16   3    2    8    17   22   37
3rd     PAS Giannina                    26   8    4    1    26   14   4    2    7    13   20   42
3rd     PAS Giannina                    26   9    4    0    29   14   3    2    8    12   22   42
6th     PAS Giannina                    26   6    5    2    26   20   3    5    5    19   22   37
1st     PAS Giannina                    26   8    4    1    28   10   7    1    5    23   20   50
4th     PAS Giannina                    26   9    2    2    22   10   3    2    8    16   26   40
4th     PAS Giannina                    26   7    3    3    26   17   4    5    4    13   14   41
6th     PAS Giannina                    26   6    4    3    24   15   4    4    5    17   19   38
6th     PAS Giannina                    26   8    3    2    29   16   2    5    6    22   25   38
2nd     PAS Giannina                    26   9    1    3    31   16   6    3    4    14   16   49
5th     PAS Giannina                    26   8    3    2    25   14   4    1    8    14   18   40
6th     PAS Giannina                    26   8    3    2    21   11   2    2    9    13   23   35
5th     PAS Giannina                    26   8    4    1    26   15   4    3    6    13   16   43
5th     PAS Giannina                    26   11   0    2    30   13   2    2    9    10   24   41
2nd     PAS Giannina                    26   10   1    2    23   8    4    5    4    15   17   48
3rd     PAS Giannina                    26   6    5    2    22   15   4    6    3    15   16   41
3rd     PAS Giannina                    26   7    4    2    27   18   6    1    6    21   25   44
5th     PAS Giannina                    26   9    2    2    27   9    3    3    7    12   27   41
4th     PAS Giannina                    26   5    5    3    21   17   6    2    5    19   15   40
6th     PAS Giannina                    26   8    3    2    23   12   4    3    6    16   16   42
4th     PAS Giannina                    26   7    4    2    25   15   4    4    5    19   22   41
8th     PAS Giannina                    26   4    6    3    20   18   5    3    5    16   17   36
2nd     PAS Giannina                    26   9    3    1    29   12   4    4    5    16   19   46
10th    PAS Giannina                    26   5    4    4    20   17   3    3    7    20   24   31
4th     PAS Giannina                    26   7    3    3    27   16   6    2    5    20   22   44
5th     PAS Giannina                    26   8    3    2    37   21   3    4    6    16   19   40
4th     PAS Giannina                    26   7    3    3    23   17   4    5    4    20   21   41
1st     PAS Giannina                    26   9    1    3    31   18   5    4    4    14   15   47
2nd     PAS Giannina                    26   6    6    1    28   20   7    1    5    20   16   46
3rd     PAS Giannina                    26   10   1    2    25   15   4    2    7    19   23   45
2nd     PAS Giannina                    26   10   2    1    26   11   4    3    6    15   16   47
4th     PAS Giannina                    26   10   2    1    28   14   3    5    5    21   23   46
3rd     PAS Giannina                    26   9    3    1    28   11   4    2    7    14   16   44
2nd     PAS Giannina                    26   9    3    1    26   17   5    4    4    17   18   49
6th     PAS Giannina                    26   5    4    4    15   14   4    6    3    15   14   37
10th    PAS Giannina                    26   6    3    4    27   18   2    5    6    15   19   32
4th     PAS Giannina                    26   8    2    3    27   20   4    5    4    18   23   43
7th     PAS Giannina                    26   8    2    3    30   17   2    7    4    17   21   39
8th     PAS Giannina                    26   5    6    2    27   17   3    3    7    11   14   33