1st     PAS Giannina                    26   10   3    0    41   21   7    4    2    30   13   58   
1st     PAS Giannina                    26   10   3    0    38   17   10   2    1    32   14   65   
1st     PAS Giannina                    26   13   0    0    34   9    7    4    2    29   20   64   
1st     PAS Giannina                    26   9    3    1    38   14   8    3    2    21   15   57   
1st     PAS Giannina                    26   10   1    2    42   20   10   0    3    32   14   61   
1st     PAS Giannina                    26   10   3    0    31   10   7    4    2    35   21   58   
1st     PAS Giannina                    26   9    2    2    32   20   9    2    2    34   16   58   
2nd     PAS Giannina                    26   7    2    4    33   24   10   0    3    31   19   53   
1st     PAS Giannina                    26   11   1    1    37   17   10   1    2    30   17   65   
2nd     PAS Giannina                    26   7    2    4    37   20   11   0    2    32   9    56   
1st     PAS Giannina                    26   9    2    2    32   20   11   2    0    32   7    64   
1st     PAS Giannina                    26   8    3    2    36   16   11   0    2    36   16   60   
1st     PAS Giannina                    26   10   3    0    43   16   8    3    2    31   14   60   
1st     PAS Giannina                    26   9    2    2    32   14   9    2    2    32   11   58   
1st     PAS Giannina                    26   12   1    0    34   12   9    3    1    35   14   67   
1st     PAS Giannina                    26   8    4    1    31   16   11   1    1    30   15   62   
1st     PAS Giannina                    26   12   0    1    44   19   10   2    1    26   11   68   
1st     PAS Giannina                    26   12   1    0    36   10   9    2    2    31   17   66   
1st     PAS Giannina                    26   10   1    2    31   19   6    4    3    35   21   53   
1st     PAS Giannina                    26   11   2    0    35   12   10   2    1    35   13   67   
1st     PAS Giannina                    26   11   0    2    46   19   7    3    3    39   18   57   
2nd     PAS Giannina                    26   11   1    1    41   17   6    7    0    21   13   59   
1st     PAS Giannina                    26   12   1    0    43   9    9    2    2    38   16   66   
2nd     PAS Giannina                    26   11   2    0    39   11   10   1    2    32   8    66   
1st     PAS Giannina                    26   11   0    2    35   16   5    4    4    25   21   52   
2nd     PAS Giannina                    26   7    2    4    30   24   8    3    2    33   15   50   
1st     PAS Giannina                    26   10   1    2    31   11   8    4    1    31   16   59   
1st     PAS Giannina                    26   12   0    1    35   12   7    2    4    27   19   59   
2nd     PAS Giannina                    26   7    5    1    33   22   8    2    3    33   21   52   
1st     PAS Giannina                    26   11   1    1    40   13   7    2    4    18   14   57   
1st     PAS Giannina                    26   9    3    1    34   13   7    4    2    24   14   55   
1st     PAS Giannina                    26   10   2    1    42   17   11   2    0    39   11   67   
1st     PAS Giannina                    26   9    3    1    31   16   10   2    1    36   18   62   
1st     PAS Giannina                    26   13   0    0    35   11   8    2    3    28   14   65   
1st     PAS Giannina                    26   9    3    1    36   15   9    2    2    30   15   59   
1st     PAS Giannina                    26   10   2    1    43   19   8    1    4    28   20   57   
1st     PAS Giannina                    26   11   2    0    40   13   12   1    0    38   8    72   
1st     PAS Giannina                    26   12   1    0    38   12   8    1    4    26   16   62   
1st     PAS Giannina                    26   11   1    1    32   11   6    7    0    25   12   59   
1st     PAS Giannina                    26   9    4    0    41   21   7    4    2    29   20   56   
1st     PAS Giannina                    26   10   1    2    34   17   10   2    1    35   14   63   
1st     PAS Giannina                    26   10   2    1    43   21   9    3    1    36   16   62   
1st     PAS Giannina                    26   11   1    1    39   12   10   0    3    30   16   64   
1st     PAS Giannina                    26   12   0    1    37   12   7    5    1    31   15   62   
1st     PAS Giannina                    26   11   1    1    36   9    9    0    4    23   10   61   
1st     PAS Giannina                    26   12   0    1    38   15   11   2    0    35   11   71   
1st     PAS Giannina                    26   9    3    1    28   11   7    2    4    33   20   53   
1st     PAS Giannina                    26   9    4    0    29   9    11   1    1    34   15   65   
1st     PAS Giannina                    26   10   2    1    36   16   8    3    2    26   14   59   
1st     PAS Giannina                    26   13   0    0    37   14   10   3    0    35   16   72   
1st     PAS Giannina                    26   12   1    0    37   10   9    3    1    33   16   67   
1st     PAS Giannina                    26   12   1    0    44   19   9    4    0    36   16   68   
2nd     PAS Giannina                    26   10   1    2    42   23   5    5    3    28   17   51   
2nd     PAS Giannina                    26   11   0    2    39   20   9    2    2    32   12   62   
1st     PAS Giannina                    26   12   0    1    45   14   8    1    4    31   16   61   
1st     PAS Giannina                    26   12   1    0    45   13   9    3    1    26   11   67   
1st     PAS Giannina                    26   9    3    1    29   11   8    2    3    35   20   56   
1st     PAS Giannina                    26   9    1    3    37   20   11   1    1    37   16   62   
1st     PAS Giannina                    26   11   2    0    35   14   10   2    1    30   15   67   
1st     PAS Giannina                    26   13   0    0    42   13   7    4    2    30   14   64   
1st     PAS Giannina                    26   9    2    2    31   14   11   2    0    29   6    64   
3rd     PAS Giannina                    26   7    3    3    25   15   6    6    1    26   18   48   
1st     PAS Giannina                    26   12   0    1    42   19   9    2    2    34   23   65   
1st     PAS Giannina                    26   11   2    0    39   16   9    2    2    30   15   64   
1st     PAS Giannina                    26   11   1    1    44   13   13   0    0    33   11   73   
1st     PAS Giannina                    26   10   1    2    37   14   11   1    1    35   16   65   
1st     PAS Giannina                    26   13   0    0    41   15   10   1    2    32   18   70   
1st     PAS Giannina                    26   12   1    0    35   13   9    1    3    28   11   65   
1st     PAS Giannina                    26   11   2    0    39   15   9    1    3    32   19   63   
1st     PAS Giannina                    26   8    3    2    37   17   11   1    1    32   14   61   
1st     PAS Giannina                    26   12   1    0    44   15   8    4    1    29   16   65   
1st     PAS Giannina                    26   11   1    1    41   15   8    3    2    31   14   61   
1st     PAS Giannina                    26   11   2    0    44   11   9    3    1    27   11   65   
1st     PAS Giannina                    26   12   1    0    37   16   9    2    2    27   13   66   
1st     PAS Giannina                    26   11   2    0    40   11   9    3    1    28   14   65   
1st     PAS Giannina                    26   12   0    1    41   15   6    3    4    22   14   57   
1st     PAS Giannina                    26   10   2    1    38   11   10   1    2    30   22   63   
1st     PAS Giannina                    26   12   1    0    44   14   12   1    0    34   13   74   
1st     PAS Giannina                    26   11   2    0    37   18   10   2    1    33   11   67   
1st     PAS Giannina                    26   10   1    2    37   22   7    4    2    22   11   56   
1st     PAS Giannina                    26   12   0    1    43   12   7    2    4    24   18   59   
1st     PAS Giannina                    26   12   1    0    40   14   11   1    1    34   13   71   
1st     PAS Giannina                    26   10   2    1    34   17   11   1    1    27   9    66   
1st     PAS Giannina                    26   11   1    1    41   15   9    4    0    33   16   65   
1st     PAS Giannina                    26   13   0    0    38   14   10   2    1    33   14   71   
1st     PAS Giannina                    26   9    4    0    40   14   9    1    3    32   19   59   
2nd     PAS Giannina                    26   11   1    1    48   21   4    5    4    27   22   51   
1st     PAS Giannina                    26   11   1    1    30   9    5    4    4    22   17   53   
2nd     PAS Giannina                    26   10   3    0    35   11   7    3    3    27   18   57   
2nd     PAS Giannina                    26   9    2    2    42   18   6    5    2    33   18   52   
1st     PAS Giannina                    26   6    6    1    28   18   10   3    0    30   11   57   
1st     PAS Giannina                    26   11   2    0    43   19   5    5    3    21   20   55   
1st     PAS Giannina                    26   10   1    2    40   20   9    3    1    34   16   61   
1st     PAS Giannina                    26   10   2    1    35   9    8    3    2    32   21   59   
1st     PAS Giannina                    26   12   1    0    43   15   10   1    2    30   10   68   
1st     PAS Giannina                    26   11   2    0    38   18   9    3    1    36   19   65   
1st     PAS Giannina                    26   9    3    1    37   14   8    3    2    37   18   57   
1st     PAS Giannina                    26   11   1    1    43   18   10   2    1    38   11   66   
1st     PAS Giannina                    26   11   2    0    35   11   11   2    0    40   13   70   
1st     PAS Giannina                    26   11   1    1    41   23   6    3    4    29   24   55   