1st     PAS Giannina                    26   9    3    1    25   7    8    4    1    30   14   58   
2nd     PAS Giannina                    26   5    8    0    29   18   7    3    3    23   13   47   
2nd     PAS Giannina                    26   11   2    0    33   12   6    4    3    21   14   57   
1st     PAS Giannina                    26   10   2    1    26   5    7    4    2    25   14   57   
1st     PAS Giannina                    26   9    4    0    34   14   10   1    2    23   8    62   
1st     PAS Giannina                    26   13   0    0    31   7    6    5    2    26   16   62   
1st     PAS Giannina                    26   9    3    1    27   10   10   2    1    26   9    62   
1st     PAS Giannina                    26   12   1    0    34   11   9    1    3    25   15   65   
1st     PAS Giannina                    26   11   2    0    30   12   7    2    4    23   16   58   
1st     PAS Giannina                    26   11   1    1    32   11   8    2    3    20   12   60   
1st     PAS Giannina                    26   13   0    0    35   7    8    1    4    19   13   64   
1st     PAS Giannina                    26   13   0    0    34   3    5    3    5    15   17   57   
1st     PAS Giannina                    26   13   0    0    34   6    8    2    3    22   12   65   
1st     PAS Giannina                    26   12   0    1    31   14   10   0    3    26   11   66   
1st     PAS Giannina                    26   11   2    0    34   10   8    3    2    25   12   62   
1st     PAS Giannina                    26   11   1    1    33   5    9    3    1    27   12   64   
2nd     PAS Giannina                    26   9    1    3    28   13   6    4    3    18   14   50   
1st     PAS Giannina                    26   9    3    1    27   8    8    2    3    26   15   56   
1st     PAS Giannina                    26   11   2    0    30   8    9    4    0    27   11   66   
2nd     PAS Giannina                    26   9    2    2    29   11   5    6    2    14   9    50   
1st     PAS Giannina                    26   10   3    0    31   9    9    2    2    25   13   62   
2nd     PAS Giannina                    26   10   1    2    24   8    7    2    4    20   12   54   
3rd     PAS Giannina                    26   11   1    1    24   7    2    7    4    10   14   47   
2nd     PAS Giannina                    26   9    3    1    29   13   8    3    2    26   12   57   
1st     PAS Giannina                    26   11   2    0    31   8    7    3    3    17   11   59   
1st     PAS Giannina                    26   10   3    0    30   5    6    4    3    24   13   55   
1st     PAS Giannina                    26   11   1    1    25   5    7    2    4    17   13   57   
1st     PAS Giannina                    26   8    2    3    23   10   8    3    2    22   11   53   
1st     PAS Giannina                    26   10   2    1    26   5    5    5    3    22   16   52   
2nd     PAS Giannina                    26   9    2    2    26   6    6    3    4    21   17   50   
1st     PAS Giannina                    26   11   1    1    35   9    8    2    3    12   6    60   
2nd     PAS Giannina                    26   10   2    1    24   9    6    4    3    23   16   54   
1st     PAS Giannina                    26   11   1    1    32   12   7    3    3    21   9    58   
1st     PAS Giannina                    26   11   1    1    31   7    8    3    2    20   9    61   
1st     PAS Giannina                    26   10   1    2    29   10   6    2    5    15   11   51   
1st     PAS Giannina                    26   8    3    2    28   11   8    1    4    23   14   52   
3rd     PAS Giannina                    26   10   2    1    28   9    5    4    4    19   14   51   
1st     PAS Giannina                    26   7    3    3    23   13   9    2    2    22   12   53   
1st     PAS Giannina                    26   9    3    1    24   10   7    4    2    15   8    55   
2nd     PAS Giannina                    26   8    4    1    21   8    8    3    2    18   8    55   
1st     PAS Giannina                    26   9    3    1    19   9    10   2    1    16   3    62   
1st     PAS Giannina                    26   11   1    1    28   11   6    2    5    27   14   54   
2nd     PAS Giannina                    26   10   2    1    29   13   7    3    3    25   13   56   
1st     PAS Giannina                    26   9    4    0    24   7    9    0    4    34   17   58   
1st     PAS Giannina                    26   10   3    0    28   11   11   2    0    20   4    68   
2nd     PAS Giannina                    26   9    1    3    27   12   9    2    2    27   15   57   
1st     PAS Giannina                    26   8    5    0    25   13   7    5    1    31   17   55   
1st     PAS Giannina                    26   11   2    0    28   7    8    3    2    24   11   62   
1st     PAS Giannina                    26   9    3    1    23   9    8    2    3    18   13   56   
5th     PAS Giannina                    26   7    5    1    30   12   5    2    6    19   16   43   
2nd     PAS Giannina                    26   11   1    1    29   6    7    2    4    20   10   57   
2nd     PAS Giannina                    26   7    4    2    24   12   7    4    2    24   9    50   
1st     PAS Giannina                    26   8    4    1    22   11   11   1    1    28   9    62   
1st     PAS Giannina                    26   11   2    0    28   10   9    1    3    25   8    63   
1st     PAS Giannina                    26   9    3    1    28   10   11   2    0    28   8    65   
2nd     PAS Giannina                    26   10   2    1    29   11   5    2    6    23   17   49   
2nd     PAS Giannina                    26   9    4    0    26   13   7    5    1    25   11   57   
1st     PAS Giannina                    26   9    2    2    24   11   9    3    1    30   8    59   
1st     PAS Giannina                    26   12   1    0    33   10   6    5    2    21   12   60   
1st     PAS Giannina                    26   11   2    0    33   13   7    3    3    27   16   59   
1st     PAS Giannina                    26   10   2    1    30   11   8    4    1    22   11   60   
2nd     PAS Giannina                    26   10   1    2    30   17   3    6    4    20   19   46   
1st     PAS Giannina                    26   12   0    1    35   11   9    2    2    20   8    65   
2nd     PAS Giannina                    26   9    4    0    27   8    5    3    5    13   13   49   
1st     PAS Giannina                    26   11   2    0    26   7    8    2    3    25   16   61   
1st     PAS Giannina                    26   11   1    1    29   9    6    4    3    22   18   56   
2nd     PAS Giannina                    26   7    4    2    27   15   6    4    3    20   17   47   
1st     PAS Giannina                    26   10   2    1    30   16   7    3    3    25   14   56   
1st     PAS Giannina                    26   11   2    0    35   6    9    1    3    26   17   63   
1st     PAS Giannina                    26   9    2    2    28   7    7    4    2    21   12   54   
1st     PAS Giannina                    26   10   2    1    33   13   6    3    4    15   12   53   
1st     PAS Giannina                    26   10   3    0    30   13   9    1    3    25   12   61   
2nd     PAS Giannina                    26   10   2    1    29   14   7    4    2    24   14   57   
2nd     PAS Giannina                    26   9    2    2    20   4    4    4    5    16   15   45   
1st     PAS Giannina                    26   9    2    2    28   9    8    3    2    21   11   56   
1st     PAS Giannina                    26   10   3    0    32   12   10   2    1    25   10   65   
2nd     PAS Giannina                    26   10   2    1    28   6    6    4    3    18   15   54   
2nd     PAS Giannina                    26   10   3    0    29   10   7    5    1    28   16   59   
1st     PAS Giannina                    26   11   1    1    28   9    8    5    0    25   9    63   
1st     PAS Giannina                    26   13   0    0    30   9    9    2    2    23   12   68   
1st     PAS Giannina                    26   9    2    2    30   16   6    4    3    19   13   51   
1st     PAS Giannina                    26   12   0    1    36   8    8    4    1    19   7    64   
1st     PAS Giannina                    26   11   2    0    26   4    6    6    1    17   11   59   
1st     PAS Giannina                    26   12   1    0    31   10   8    3    2    23   11   64   
1st     PAS Giannina                    26   9    1    3    29   14   8    1    4    23   15   53   
3rd     PAS Giannina                    26   9    2    2    25   12   3    6    4    13   15   44   
1st     PAS Giannina                    26   11   1    1    29   9    8    4    1    20   9    62   
2nd     PAS Giannina                    26   8    4    1    27   17   8    1    4    26   13   53   
1st     PAS Giannina                    26   8    4    1    31   11   8    4    1    22   9    56   
1st     PAS Giannina                    26   12   1    0    31   8    7    3    3    21   11   61   
2nd     PAS Giannina                    26   10   2    1    30   9    3    7    3    21   19   48   
1st     PAS Giannina                    26   9    3    1    22   6    9    1    3    21   13   58   
1st     PAS Giannina                    26   10   2    1    28   11   7    5    1    21   12   58   
1st     PAS Giannina                    26   11   2    0    30   10   8    2    3    20   12   61   
1st     PAS Giannina                    26   9    3    1    31   14   6    3    4    21   17   51   
3rd     PAS Giannina                    26   7    4    2    17   9    5    5    3    19   13   45   
1st     PAS Giannina                    26   10   1    2    27   10   10   3    0    28   6    64   
3rd     PAS Giannina                    26   7    1    5    23   16   7    2    4    19   15   45   
1st     PAS Giannina                    26   10   2    1    36   17   9    4    0    24   7    63   
2nd     PAS Giannina                    26   10   3    0    25   6    9    2    2    24   8    62   