10th    PAS Giannina                    26   4    6    3    19   20   3    2    8    13   22   29   
13th    PAS Giannina                    26   7    2    4    25   18   0    3    10   10   25   26   
9th     PAS Giannina                    26   6    3    4    25   19   4    3    6    16   20   36   
7th     PAS Giannina                    26   4    6    3    15   14   4    4    5    16   21   34   
13th    PAS Giannina                    26   5    4    4    23   19   2    1    10   9    23   26   
10th    PAS Giannina                    26   5    4    4    22   24   4    2    7    15   23   33   
7th     PAS Giannina                    26   6    2    5    20   16   4    2    7    14   15   34   
11th    PAS Giannina                    26   7    1    5    26   17   3    2    8    14   21   33   
9th     PAS Giannina                    26   7    6    0    20   9    1    3    9    11   24   33   
6th     PAS Giannina                    26   8    4    1    26   14   2    4    7    14   26   38   
5th     PAS Giannina                    26   6    5    2    28   21   3    5    5    18   23   37   
5th     PAS Giannina                    26   7    4    2    24   13   3    3    7    14   22   37   
14th    PAS Giannina                    26   4    5    4    22   22   2    1    10   11   28   24   
8th     PAS Giannina                    26   5    6    2    24   17   3    2    8    12   22   32   
4th     PAS Giannina                    26   7    4    2    14   7    4    3    6    16   26   40   
4th     PAS Giannina                    26   7    5    1    23   10   3    2    8    12   19   37   
13th    PAS Giannina                    26   5    3    5    28   29   2    1    10   15   33   25   
11th    PAS Giannina                    26   4    8    1    20   15   2    3    8    13   25   29   
3rd     PAS Giannina                    26   9    3    1    32   13   3    2    8    14   27   41   
10th    PAS Giannina                    26   5    5    3    22   18   2    5    6    15   22   31   
9th     PAS Giannina                    26   5    4    4    18   18   5    2    6    15   20   36   
9th     PAS Giannina                    26   7    1    5    24   20   2    3    8    15   24   31   
5th     PAS Giannina                    26   6    5    2    16   9    5    1    7    23   19   39   
8th     PAS Giannina                    26   8    3    2    20   12   1    4    8    12   25   34   
6th     PAS Giannina                    26   8    2    3    23   17   5    2    6    18   21   43   
12th    PAS Giannina                    26   4    3    6    21   21   3    5    5    15   18   29   
10th    PAS Giannina                    26   4    6    3    22   22   2    6    5    18   24   30   
6th     PAS Giannina                    26   9    1    3    30   18   4    1    8    12   26   41   
11th    PAS Giannina                    26   5    4    4    19   20   2    3    8    17   27   28   
10th    PAS Giannina                    26   7    4    2    29   16   1    1    11   8    30   29   
5th     PAS Giannina                    26   8    1    4    24   18   4    4    5    20   22   41   
7th     PAS Giannina                    26   9    0    4    28   16   2    5    6    15   23   38   
8th     PAS Giannina                    26   6    6    1    21   14   3    0    10   10   22   33   
12th    PAS Giannina                    26   6    4    3    22   19   2    1    10   9    25   29   
13th    PAS Giannina                    26   3    4    6    23   28   1    3    9    11   22   19   
12th    PAS Giannina                    26   5    4    4    24   19   1    4    8    12   23   26   
11th    PAS Giannina                    26   6    2    5    18   15   1    4    8    8    17   27   
11th    PAS Giannina                    26   5    5    3    18   14   1    1    11   8    22   24   
11th    PAS Giannina                    26   5    5    3    21   20   2    3    8    15   26   29   
6th     PAS Giannina                    26   8    3    2    17   13   2    4    7    15   24   37   
12th    PAS Giannina                    26   5    2    6    18   17   1    5    7    10   20   25   
9th     PAS Giannina                    26   7    1    5    29   22   2    3    8    9    24   31   
9th     PAS Giannina                    26   8    4    1    25   14   1    3    9    9    22   34   
11th    PAS Giannina                    26   4    7    2    23   21   2    4    7    8    25   29   
5th     PAS Giannina                    26   7    3    3    26   17   2    6    5    18   22   36   
4th     PAS Giannina                    26   8    3    2    34   15   3    3    7    18   27   39   
6th     PAS Giannina                    26   9    0    4    28   15   4    0    9    12   22   39   
8th     PAS Giannina                    26   8    3    2    26   10   1    4    8    7    22   34   
10th    PAS Giannina                    26   6    6    1    25   15   0    5    8    14   29   29   
14th    PAS Giannina                    26   2    4    7    13   19   1    2    10   10   24   15   
12th    PAS Giannina                    26   6    2    5    23   21   1    2    10   12   27   25   
13th    PAS Giannina                    26   3    4    6    21   24   2    3    8    14   26   22   
8th     PAS Giannina                    26   8    2    3    28   19   2    3    8    12   20   35   
9th     PAS Giannina                    26   7    2    4    21   18   3    1    9    17   27   33   
13th    PAS Giannina                    26   7    3    3    21   17   0    2    11   7    24   26   
11th    PAS Giannina                    26   7    4    2    30   19   1    4    8    9    22   32   
11th    PAS Giannina                    26   5    5    3    19   17   2    5    6    18   26   31   
4th     PAS Giannina                    26   8    4    1    26   14   3    5    5    11   15   42   
10th    PAS Giannina                    26   7    3    3    20   11   1    2    10   11   21   29   
13th    PAS Giannina                    26   4    2    7    17   22   2    4    7    10   21   24   
11th    PAS Giannina                    26   5    4    4    19   16   3    4    6    12   19   32   
9th     PAS Giannina                    26   6    6    1    28   17   3    0    10   11   28   33   
11th    PAS Giannina                    26   5    3    5    18   20   3    5    5    17   22   32   
12th    PAS Giannina                    26   6    3    4    25   18   2    0    11   10   23   27   
6th     PAS Giannina                    26   8    3    2    28   18   3    3    7    13   23   39   
12th    PAS Giannina                    26   5    5    3    23   18   1    2    10   15   30   25   
13th    PAS Giannina                    26   6    1    6    22   23   1    2    10   13   28   24   
10th    PAS Giannina                    26   4    3    6    18   21   4    2    7    14   19   29   
9th     PAS Giannina                    26   5    2    6    19   18   3    5    5    17   21   31   
8th     PAS Giannina                    26   7    2    4    21   15   3    3    7    14   21   35   
10th    PAS Giannina                    26   7    5    1    26   17   1    2    10   11   27   31   
8th     PAS Giannina                    26   7    2    4    21   11   2    3    8    12   24   32   
13th    PAS Giannina                    26   6    2    5    23   23   2    2    9    16   26   28   
8th     PAS Giannina                    26   5    4    4    22   22   3    4    6    11   19   32   
5th     PAS Giannina                    26   9    3    1    26   16   3    3    7    17   31   42   
9th     PAS Giannina                    26   5    6    2    25   16   3    2    8    17   28   32   
13th    PAS Giannina                    26   4    4    5    17   16   2    2    9    9    27   24   
8th     PAS Giannina                    26   8    1    4    23   17   2    4    7    10   18   35   
9th     PAS Giannina                    26   6    2    5    17   20   4    3    6    8    13   35   
12th    PAS Giannina                    26   5    6    2    23   18   1    5    7    16   27   29   
13th    PAS Giannina                    26   4    6    3    22   21   1    3    9    16   34   24   
13th    PAS Giannina                    26   4    5    4    18   19   1    3    9    13   30   23   
9th     PAS Giannina                    26   7    1    5    23   17   2    5    6    15   22   33   
8th     PAS Giannina                    26   6    5    2    25   21   3    2    8    17   28   34   
7th     PAS Giannina                    26   7    2    4    25   18   4    3    6    22   23   38   
12th    PAS Giannina                    26   6    2    5    25   26   1    3    9    13   22   26   
5th     PAS Giannina                    26   7    5    1    23   13   3    1    9    13   21   36   
11th    PAS Giannina                    26   6    2    5    24   22   2    1    10   11   23   27   
13th    PAS Giannina                    26   3    5    5    16   20   2    0    11   10   24   20   
11th    PAS Giannina                    26   7    4    2    22   14   2    2    9    8    26   33   
6th     PAS Giannina                    26   7    4    2    30   21   5    1    7    16   27   41   
13th    PAS Giannina                    26   6    6    1    27   14   0    3    10   10   28   27   
14th    PAS Giannina                    26   3    5    5    18   18   0    4    9    9    23   18   
14th    PAS Giannina                    26   5    2    6    15   15   2    2    9    7    20   25   
6th     PAS Giannina                    26   7    3    3    26   16   5    1    7    18   27   40   
14th    PAS Giannina                    26   5    1    7    22   24   1    2    10   12   26   21   
3rd     PAS Giannina                    26   10   2    1    29   17   3    5    5    11   16   46   
12th    PAS Giannina                    26   5    3    5    23   23   1    6    6    15   27   27   
14th    PAS Giannina                    26   4    4    5    25   26   0    3    10   10   31   19   
14th    PAS Giannina                    26   4    4    5    18   16   0    4    9    7    23   20   