1st     PAS Giannina                    26   10   2    1    28   8    6    6    1    17   8    56   
1st     PAS Giannina                    26   9    3    1    31   13   7    2    4    23   17   53   
1st     PAS Giannina                    26   9    2    2    29   15   9    2    2    24   9    58   
1st     PAS Giannina                    26   11   2    0    41   10   7    4    2    31   20   60   
2nd     PAS Giannina                    26   10   3    0    41   12   6    2    5    18   18   53   
1st     PAS Giannina                    26   11   2    0    42   15   8    2    3    28   16   61   
1st     PAS Giannina                    26   10   2    1    30   15   10   3    0    23   9    65   
1st     PAS Giannina                    26   9    3    1    30   13   6    3    4    26   17   51   
1st     PAS Giannina                    26   12   0    1    33   12   7    1    5    26   17   58   
1st     PAS Giannina                    26   10   2    1    30   13   9    3    1    29   16   62   
1st     PAS Giannina                    26   11   1    1    38   10   8    3    2    27   13   61   
1st     PAS Giannina                    26   10   2    1    32   11   8    2    3    25   16   58   
1st     PAS Giannina                    26   12   1    0    35   10   9    3    1    21   6    67   
1st     PAS Giannina                    26   11   1    1    34   18   10   2    1    28   10   66   
1st     PAS Giannina                    26   10   2    1    37   16   8    3    2    25   12   59   
1st     PAS Giannina                    26   10   3    0    33   9    9    3    1    20   9    63   
1st     PAS Giannina                    26   9    4    0    36   15   10   2    1    28   10   63   
1st     PAS Giannina                    26   11   1    1    35   14   10   2    1    25   6    66   
1st     PAS Giannina                    26   11   1    1    34   10   8    2    3    30   18   60   
1st     PAS Giannina                    26   12   0    1    36   8    10   2    1    32   9    68   
2nd     PAS Giannina                    26   11   0    2    39   18   6    5    2    27   18   56   
1st     PAS Giannina                    26   11   2    0    36   11   9    1    3    31   15   63   
2nd     PAS Giannina                    26   10   2    1    29   11   3    5    5    21   21   46   
1st     PAS Giannina                    26   10   2    1    33   12   7    2    4    22   15   55   
2nd     PAS Giannina                    26   9    2    2    34   14   7    3    3    29   18   53   
2nd     PAS Giannina                    26   11   1    1    34   14   7    2    4    24   18   57   
1st     PAS Giannina                    26   10   2    1    33   11   7    2    4    18   13   55   
1st     PAS Giannina                    26   12   1    0    33   9    9    1    3    25   14   65   
1st     PAS Giannina                    26   7    5    1    32   15   8    3    2    24   14   53   
1st     PAS Giannina                    26   11   1    1    34   10   9    2    2    30   13   63   
1st     PAS Giannina                    26   10   1    2    37   14   8    2    3    25   16   57   
1st     PAS Giannina                    26   11   2    0    40   12   7    4    2    22   9    60   
1st     PAS Giannina                    26   12   1    0    31   6    12   1    0    26   8    74   
2nd     PAS Giannina                    26   11   2    0    36   8    5    3    5    17   14   53   
1st     PAS Giannina                    26   12   0    1    36   9    10   2    1    33   15   68   
1st     PAS Giannina                    26   12   1    0    34   6    7    3    3    24   20   61   
1st     PAS Giannina                    26   10   2    1    35   13   9    2    2    24   12   61   
2nd     PAS Giannina                    26   11   2    0    30   8    4    4    5    15   16   51   
2nd     PAS Giannina                    26   9    3    1    34   17   10   1    2    24   9    61   
1st     PAS Giannina                    26   9    3    1    34   14   10   1    2    29   18   61   
1st     PAS Giannina                    26   10   2    1    37   11   8    3    2    34   17   59   
1st     PAS Giannina                    26   9    2    2    32   11   7    3    3    27   14   53   
1st     PAS Giannina                    26   10   1    2    35   11   9    2    2    23   12   60   
1st     PAS Giannina                    26   8    2    3    20   9    10   3    0    31   10   59   
1st     PAS Giannina                    26   13   0    0    35   11   11   2    0    33   12   74   
1st     PAS Giannina                    26   12   1    0    34   11   6    3    4    27   19   58   
1st     PAS Giannina                    26   11   0    2    35   13   8    4    1    31   19   61   
1st     PAS Giannina                    26   12   1    0    36   6    6    4    3    15   8    59   
1st     PAS Giannina                    26   9    4    0    37   13   7    4    2    30   17   56   
1st     PAS Giannina                    26   12   1    0    37   11   5    5    3    27   19   57   
1st     PAS Giannina                    26   13   0    0    38   10   6    6    1    28   16   63   
2nd     PAS Giannina                    26   13   0    0    45   11   9    1    3    26   15   67   
2nd     PAS Giannina                    26   8    2    3    33   19   8    0    5    26   15   50   
1st     PAS Giannina                    26   11   2    0    40   14   10   2    1    26   4    67   
1st     PAS Giannina                    26   11   1    1    33   11   9    2    2    27   9    63   
2nd     PAS Giannina                    26   9    1    3    43   19   6    4    3    18   11   50   
1st     PAS Giannina                    26   9    4    0    34   17   9    3    1    27   16   61   
1st     PAS Giannina                    26   10   1    2    34   12   8    1    4    22   13   56   
1st     PAS Giannina                    26   9    1    3    39   17   8    4    1    25   16   56   
1st     PAS Giannina                    26   10   2    1    27   8    8    2    3    28   18   58   
2nd     PAS Giannina                    26   8    2    3    29   14   8    3    2    24   12   53   
1st     PAS Giannina                    26   9    3    1    39   19   10   2    1    28   9    62   
1st     PAS Giannina                    26   12   1    0    34   14   8    3    2    22   12   64   
1st     PAS Giannina                    26   11   1    1    35   12   9    2    2    27   12   63   
1st     PAS Giannina                    26   10   2    1    33   15   11   1    1    28   7    66   
1st     PAS Giannina                    26   10   3    0    36   10   6    3    4    19   15   54   
1st     PAS Giannina                    26   12   0    1    35   10   9    2    2    21   8    65   
1st     PAS Giannina                    26   10   2    1    26   8    8    3    2    22   13   59   
1st     PAS Giannina                    26   11   2    0    40   10   5    2    6    24   13   52   
1st     PAS Giannina                    26   13   0    0    33   8    8    1    4    23   13   64   
1st     PAS Giannina                    26   11   1    1    39   13   9    2    2    32   15   63   
1st     PAS Giannina                    26   12   0    1    34   8    8    2    3    28   12   62   
1st     PAS Giannina                    26   11   1    1    28   11   9    2    2    37   9    63   
1st     PAS Giannina                    26   12   1    0    33   9    11   0    2    33   9    70   
1st     PAS Giannina                    26   13   0    0    42   6    6    4    3    19   13   61   
2nd     PAS Giannina                    26   9    3    1    33   13   5    4    4    17   13   49   
1st     PAS Giannina                    26   9    2    2    32   12   9    3    1    30   15   59   
1st     PAS Giannina                    26   12   1    0    35   8    9    3    1    25   11   67   
2nd     PAS Giannina                    26   10   1    2    33   12   6    4    3    24   15   53   
2nd     PAS Giannina                    26   9    2    2    36   15   9    3    1    27   15   59   
2nd     PAS Giannina                    26   10   3    0    35   9    6    4    3    23   15   55   
2nd     PAS Giannina                    26   11   2    0    39   7    7    4    2    22   13   60   
1st     PAS Giannina                    26   9    3    1    32   14   9    2    2    26   17   59   
1st     PAS Giannina                    26   9    4    0    29   9    9    1    3    27   14   59   
1st     PAS Giannina                    26   12   1    0    44   13   9    1    3    32   14   65   
1st     PAS Giannina                    26   11   0    2    27   9    8    2    3    26   10   59   
2nd     PAS Giannina                    26   9    1    3    27   13   10   2    1    34   9    60   
1st     PAS Giannina                    26   11   1    1    37   15   9    2    2    31   15   63   
1st     PAS Giannina                    26   11   0    2    33   10   10   3    0    25   12   66   
1st     PAS Giannina                    26   11   1    1    35   9    7    2    4    26   17   57   
1st     PAS Giannina                    26   11   1    1    32   11   9    2    2    24   11   63   
1st     PAS Giannina                    26   12   1    0    32   6    7    0    6    20   21   58   
1st     PAS Giannina                    26   13   0    0    34   9    11   0    2    27   12   72   
1st     PAS Giannina                    26   11   2    0    43   13   9    2    2    31   15   64   
1st     PAS Giannina                    26   11   1    1    35   9    8    3    2    26   12   61   
1st     PAS Giannina                    26   12   1    0    35   6    9    3    1    28   9    67   
2nd     PAS Giannina                    26   10   2    1    37   11   6    5    2    20   9    55   
1st     PAS Giannina                    26   13   0    0    34   6    9    3    1    35   15   69   
1st     PAS Giannina                    26   13   0    0    40   12   9    3    1    31   13   69   
1st     PAS Giannina                    26   10   3    0    38   16   9    2    2    29   15   62   