1st     PAS Giannina                    26   11   0    2    31   14   7    2    4    29   18   56   
2nd     PAS Giannina                    26   11   1    1    37   14   6    5    2    30   18   57   
1st     PAS Giannina                    26   10   2    1    35   13   8    0    5    27   16   56   
1st     PAS Giannina                    26   9    2    2    34   16   7    5    1    32   19   55   
1st     PAS Giannina                    26   10   2    1    32   15   10   2    1    32   16   64   
1st     PAS Giannina                    26   13   0    0    38   10   8    4    1    35   21   67   
1st     PAS Giannina                    26   10   2    1    35   18   11   2    0    34   12   67   
2nd     PAS Giannina                    26   9    3    1    39   16   8    3    2    21   11   57   
1st     PAS Giannina                    26   10   1    2    39   17   9    3    1    34   16   61   
1st     PAS Giannina                    26   7    3    3    28   19   9    2    2    26   16   53   
1st     PAS Giannina                    26   11   1    1    39   16   9    0    4    30   21   61   
1st     PAS Giannina                    26   11   2    0    31   9    8    4    1    26   17   63   
1st     PAS Giannina                    26   8    4    1    30   12   10   2    1    34   13   60   
1st     PAS Giannina                    26   10   1    2    32   13   10   1    2    31   13   62   
1st     PAS Giannina                    26   12   1    0    33   8    10   2    1    37   10   69   
2nd     PAS Giannina                    26   12   1    0    41   15   5    3    5    20   18   55   
1st     PAS Giannina                    26   7    4    2    27   10   9    2    2    27   16   54   
1st     PAS Giannina                    26   8    3    2    30   14   9    2    2    29   12   56   
1st     PAS Giannina                    26   12   0    1    39   16   6    4    3    25   19   58   
1st     PAS Giannina                    26   12   1    0    38   14   8    4    1    23   7    65   
1st     PAS Giannina                    26   11   1    1    36   12   9    3    1    26   12   64   
1st     PAS Giannina                    26   12   1    0    33   12   9    2    2    30   11   66   
1st     PAS Giannina                    26   10   3    0    38   16   9    2    2    34   14   62   
1st     PAS Giannina                    26   12   0    1    42   11   9    3    1    35   18   66   
1st     PAS Giannina                    26   10   2    1    32   15   9    1    3    31   16   60   
1st     PAS Giannina                    26   9    3    1    31   11   6    4    3    27   17   52   
1st     PAS Giannina                    26   10   1    2    34   15   9    0    4    30   17   58   
1st     PAS Giannina                    26   11   0    2    48   15   7    4    2    37   23   58   
3rd     PAS Giannina                    26   11   1    1    38   17   6    6    1    27   13   58   
1st     PAS Giannina                    26   10   0    3    34   12   9    2    2    27   18   59   
2nd     PAS Giannina                    26   9    1    3    33   17   7    3    3    27   20   52   
1st     PAS Giannina                    26   10   2    1    36   14   7    2    4    24   18   55   
1st     PAS Giannina                    26   10   3    0    37   11   8    2    3    30   18   59   
1st     PAS Giannina                    26   12   0    1    29   12   11   2    0    28   10   71   
1st     PAS Giannina                    26   10   1    2    30   12   9    0    4    33   14   58   
1st     PAS Giannina                    26   11   2    0    40   12   13   0    0    39   11   74   
1st     PAS Giannina                    26   12   1    0    36   12   9    3    1    37   16   67   
1st     PAS Giannina                    26   8    3    2    29   19   10   2    1    32   12   59   
2nd     PAS Giannina                    26   9    3    1    37   18   6    2    5    20   17   50   
1st     PAS Giannina                    26   13   0    0    42   12   7    5    1    31   17   65   
2nd     PAS Giannina                    26   10   2    1    36   17   7    1    5    29   14   54   
1st     PAS Giannina                    26   6    5    2    26   14   11   0    2    29   10   56   
1st     PAS Giannina                    26   9    3    1    33   14   10   2    1    34   19   62   
1st     PAS Giannina                    26   10   3    0    35   18   9    1    3    24   13   61   
2nd     PAS Giannina                    26   9    1    3    30   17   9    1    3    27   13   56   
1st     PAS Giannina                    26   11   1    1    40   16   10   1    2    35   15   65   
1st     PAS Giannina                    26   11   1    1    36   19   9    3    1    26   14   64   
1st     PAS Giannina                    26   11   2    0    38   12   9    2    2    28   10   64   
1st     PAS Giannina                    26   11   2    0    34   9    8    3    2    26   18   62   
2nd     PAS Giannina                    26   8    3    2    29   12   7    3    3    28   16   51   
1st     PAS Giannina                    26   13   0    0    44   6    7    6    0    33   14   66   
1st     PAS Giannina                    26   13   0    0    37   12   9    1    3    24   9    67   
1st     PAS Giannina                    26   13   0    0    38   11   5    5    3    24   19   59   
1st     PAS Giannina                    26   12   1    0    39   12   12   0    1    34   10   73   
1st     PAS Giannina                    26   12   0    1    36   9    9    2    2    24   9    65   
1st     PAS Giannina                    26   12   1    0    34   7    11   0    2    30   10   70   
1st     PAS Giannina                    26   9    2    2    38   15   9    3    1    27   10   59   
2nd     PAS Giannina                    26   8    4    1    24   15   5    6    2    27   22   49   
1st     PAS Giannina                    26   11   2    0    41   17   7    4    2    27   16   60   
1st     PAS Giannina                    26   7    3    3    29   17   8    4    1    30   16   52   
1st     PAS Giannina                    26   12   0    1    32   10   8    5    0    31   12   65   
1st     PAS Giannina                    26   11   1    1    26   9    7    2    4    28   17   57   
1st     PAS Giannina                    26   11   1    1    33   9    11   2    0    29   6    69   
1st     PAS Giannina                    26   10   2    1    38   16   8    3    2    30   15   59   
1st     PAS Giannina                    26   10   0    3    29   14   10   2    1    32   13   62   
1st     PAS Giannina                    26   10   3    0    34   8    9    2    2    32   14   62   
1st     PAS Giannina                    26   12   1    0    39   14   11   2    0    33   10   72   
1st     PAS Giannina                    26   12   0    1    40   16   7    5    1    28   13   62   
1st     PAS Giannina                    26   11   2    0    32   10   6    4    3    29   22   57   
1st     PAS Giannina                    26   13   0    0    39   8    11   1    1    38   15   73   
1st     PAS Giannina                    26   7    4    2    30   17   9    1    3    33   18   53   
1st     PAS Giannina                    26   11   2    0    41   15   8    1    4    28   14   60   
1st     PAS Giannina                    26   11   1    1    41   20   8    4    1    24   12   62   
1st     PAS Giannina                    26   9    4    0    31   16   9    3    1    39   15   61   
1st     PAS Giannina                    26   11   2    0    41   15   7    4    2    28   17   60   
1st     PAS Giannina                    26   10   2    1    31   13   8    3    2    31   18   59   
1st     PAS Giannina                    26   11   1    1    33   14   7    3    3    25   14   58   
1st     PAS Giannina                    26   11   2    0    38   12   6    5    2    25   16   58   
1st     PAS Giannina                    26   9    2    2    41   16   8    4    1    26   13   57   
1st     PAS Giannina                    26   10   3    0    43   17   7    1    5    25   19   55   
1st     PAS Giannina                    26   12   1    0    46   13   9    3    1    26   8    67   
1st     PAS Giannina                    26   10   3    0    38   15   8    2    3    31   19   59   
1st     PAS Giannina                    26   11   2    0    35   11   9    1    3    34   20   63   
1st     PAS Giannina                    26   9    3    1    30   9    7    4    2    29   17   55   
1st     PAS Giannina                    26   10   2    1    32   9    7    4    2    31   17   57   
1st     PAS Giannina                    26   12   0    1    41   7    10   3    0    31   11   69   
1st     PAS Giannina                    26   10   2    1    37   17   9    2    2    33   15   61   
1st     PAS Giannina                    26   10   2    1    35   8    8    2    3    30   16   58   
1st     PAS Giannina                    26   10   2    1    36   15   9    3    1    36   21   62   
1st     PAS Giannina                    26   12   1    0    34   6    11   1    1    36   8    71   
1st     PAS Giannina                    26   12   1    0    33   8    8    5    0    30   13   66   
1st     PAS Giannina                    26   9    3    1    28   14   12   1    0    35   8    67   
1st     PAS Giannina                    26   10   1    2    38   16   8    3    2    27   18   58   
1st     PAS Giannina                    26   10   3    0    35   13   10   2    1    30   14   65   
1st     PAS Giannina                    26   9    4    0    27   16   10   0    3    37   16   61   
2nd     PAS Giannina                    26   10   0    3    35   15   8    2    3    22   13   56   
1st     PAS Giannina                    26   8    4    1    30   13   11   0    2    34   12   61   
1st     PAS Giannina                    26   11   2    0    32   9    7    4    2    30   23   60   
1st     PAS Giannina                    26   10   1    2    38   19   10   2    1    29   10   63   
1st     PAS Giannina                    26   12   1    0    27   5    10   2    1    33   14   69   