1st     PAS Giannina                    26   9    2    2    23   11   9    3    1    29   13   59   
1st     PAS Giannina                    26   12   1    0    35   12   8    4    1    22   8    65   
1st     PAS Giannina                    26   10   0    3    33   11   10   2    1    34   16   62   
2nd     PAS Giannina                    26   10   3    0    31   5    6    4    3    21   14   55   
3rd     PAS Giannina                    26   11   1    1    26   6    2    6    5    15   19   46   
1st     PAS Giannina                    26   10   3    0    30   8    8    1    4    24   16   58   
2nd     PAS Giannina                    26   10   1    2    25   8    7    5    1    22   8    57   
2nd     PAS Giannina                    26   10   0    3    30   8    9    1    3    24   12   58   
2nd     PAS Giannina                    26   8    3    2    31   11   6    4    3    21   11   49   
1st     PAS Giannina                    26   11   2    0    33   11   10   2    1    28   8    67   
1st     PAS Giannina                    26   11   1    1    29   8    6    6    1    21   14   58   
1st     PAS Giannina                    26   11   2    0    30   8    9    3    1    24   10   65   
1st     PAS Giannina                    26   10   2    1    33   5    7    4    2    25   8    57   
1st     PAS Giannina                    26   8    4    1    30   11   8    3    2    21   11   55   
2nd     PAS Giannina                    26   9    2    2    31   14   7    1    5    20   15   51   
1st     PAS Giannina                    26   8    3    2    25   15   6    5    2    18   12   50   
1st     PAS Giannina                    26   11   2    0    43   17   9    2    2    26   17   64   
1st     PAS Giannina                    26   9    4    0    34   11   8    3    2    22   12   58   
2nd     PAS Giannina                    26   10   0    3    28   12   8    2    3    20   15   56   
1st     PAS Giannina                    26   11   2    0    35   10   8    2    3    26   12   61   
1st     PAS Giannina                    26   10   1    2    34   10   8    5    0    31   10   60   
1st     PAS Giannina                    26   12   1    0    37   7    7    2    4    29   13   60   
1st     PAS Giannina                    26   10   1    2    27   11   7    6    0    23   9    58   
1st     PAS Giannina                    26   13   0    0    39   8    9    3    1    28   15   69   
2nd     PAS Giannina                    26   6    4    3    22   12   9    2    2    29   14   51   
1st     PAS Giannina                    26   11   2    0    26   7    7    3    3    25   18   59   
1st     PAS Giannina                    26   11   2    0    33   13   9    3    1    25   12   65   
1st     PAS Giannina                    26   13   0    0    36   11   8    1    4    22   12   64   
2nd     PAS Giannina                    26   10   3    0    33   7    7    3    3    24   14   57   
2nd     PAS Giannina                    26   10   1    2    31   10   8    3    2    22   16   58   
5th     PAS Giannina                    26   7    2    4    25   13   4    4    5    17   16   39   
2nd     PAS Giannina                    26   11   2    0    35   10   7    1    5    21   14   57   
1st     PAS Giannina                    26   11   2    0    28   6    7    3    3    25   17   59   
1st     PAS Giannina                    26   13   0    0    38   9    6    4    3    20   10   61   
1st     PAS Giannina                    26   8    2    3    32   14   8    2    3    21   9    52   
1st     PAS Giannina                    26   13   0    0    34   9    9    0    4    24   16   66   
1st     PAS Giannina                    26   13   0    0    37   12   9    3    1    19   8    69   
1st     PAS Giannina                    26   13   0    0    38   6    6    5    2    23   16   62   
1st     PAS Giannina                    26   12   1    0    29   10   6    4    3    21   15   59   
1st     PAS Giannina                    26   12   0    1    29   10   10   1    2    32   13   67   
2nd     PAS Giannina                    26   10   0    3    35   13   6    2    5    23   18   50   
1st     PAS Giannina                    26   9    4    0    33   13   10   1    2    26   9    62   
1st     PAS Giannina                    26   11   1    1    28   8    5    1    7    19   18   50   
1st     PAS Giannina                    26   12   1    0    34   6    6    4    3    23   16   59   
2nd     PAS Giannina                    26   11   1    1    30   9    6    3    4    26   21   55   
1st     PAS Giannina                    26   10   2    1    33   10   5    4    4    19   19   51   
1st     PAS Giannina                    26   11   0    2    29   11   9    4    0    22   7    64   
1st     PAS Giannina                    26   10   2    1    22   10   9    2    2    20   11   61   
1st     PAS Giannina                    26   9    3    1    31   15   7    2    4    24   10   53   
1st     PAS Giannina                    26   11   1    1    35   13   8    3    2    34   14   61   
1st     PAS Giannina                    26   11   2    0    34   7    8    3    2    27   12   62   
3rd     PAS Giannina                    26   10   1    2    28   9    6    3    4    17   13   52   
3rd     PAS Giannina                    26   9    3    1    30   10   5    5    3    25   20   50   
1st     PAS Giannina                    26   10   3    0    29   9    6    4    3    23   14   55   
1st     PAS Giannina                    26   12   1    0    33   8    9    1    3    23   14   65   
1st     PAS Giannina                    26   12   1    0    29   11   8    3    2    24   10   64   
1st     PAS Giannina                    26   12   1    0    36   11   8    4    1    23   10   65   
1st     PAS Giannina                    26   10   3    0    29   7    8    3    2    28   16   60   
1st     PAS Giannina                    26   11   1    1    34   13   11   1    1    31   12   68   
1st     PAS Giannina                    26   13   0    0    35   9    9    1    3    23   9    67   
1st     PAS Giannina                    26   10   1    2    27   9    12   1    0    31   9    68   
1st     PAS Giannina                    26   10   2    1    29   9    10   2    1    32   9    64   
1st     PAS Giannina                    26   8    3    2    33   15   6    4    3    21   15   49   
1st     PAS Giannina                    26   11   0    2    33   11   7    6    0    25   8    60   
1st     PAS Giannina                    26   8    4    1    30   10   8    5    0    29   13   57   
1st     PAS Giannina                    26   10   2    1    31   11   9    1    3    28   14   60   
1st     PAS Giannina                    26   11   1    1    38   13   6    2    5    22   16   54   
1st     PAS Giannina                    26   10   3    0    27   7    8    3    2    28   15   60   
2nd     PAS Giannina                    26   10   2    1    29   10   4    5    4    18   18   49   
3rd     PAS Giannina                    26   9    2    2    33   14   4    6    3    13   10   47   
2nd     PAS Giannina                    26   10   2    1    32   9    8    3    2    24   15   59   
1st     PAS Giannina                    26   7    3    3    31   20   9    1    3    26   11   52   
1st     PAS Giannina                    26   12   0    1    32   9    7    2    4    24   13   59   
1st     PAS Giannina                    26   12   0    1    29   11   8    4    1    22   10   64   
1st     PAS Giannina                    26   12   1    0    38   10   9    3    1    26   13   67   
1st     PAS Giannina                    26   12   1    0    30   6    8    3    2    18   13   64   
1st     PAS Giannina                    26   10   3    0    30   9    6    5    2    18   11   56   
1st     PAS Giannina                    26   11   1    1    30   10   8    4    1    23   9    62   
1st     PAS Giannina                    26   10   3    0    32   11   8    5    0    20   8    62   
1st     PAS Giannina                    26   11   2    0    40   12   11   1    1    31   12   69   
2nd     PAS Giannina                    26   9    3    1    29   16   5    6    2    16   11   51   
1st     PAS Giannina                    26   10   3    0    37   17   11   1    1    30   8    67   
1st     PAS Giannina                    26   8    3    2    23   9    8    1    4    23   15   52   
1st     PAS Giannina                    26   13   0    0    31   7    6    2    5    20   19   59   
2nd     PAS Giannina                    26   8    3    2    19   11   7    4    2    16   8    52   
1st     PAS Giannina                    26   10   2    1    30   11   7    3    3    21   14   56   
1st     PAS Giannina                    26   11   1    1    29   7    8    2    3    26   11   60   
1st     PAS Giannina                    26   10   2    1    27   13   7    4    2    20   11   57   
1st     PAS Giannina                    26   11   0    2    35   12   10   2    1    31   13   65   
1st     PAS Giannina                    26   10   2    1    26   12   6    1    6    19   19   51   
1st     PAS Giannina                    26   10   3    0    32   12   9    2    2    24   13   62   
1st     PAS Giannina                    26   10   2    1    27   8    10   1    2    33   11   63   
1st     PAS Giannina                    26   10   2    1    33   10   9    2    2    22   11   61   
1st     PAS Giannina                    26   9    3    1    34   17   8    4    1    24   11   58   
1st     PAS Giannina                    26   9    3    1    34   11   7    2    4    19   15   53   
1st     PAS Giannina                    26   9    2    2    38   20   8    3    2    23   13   56   
1st     PAS Giannina                    26   9    3    1    30   15   10   3    0    27   8    63   
1st     PAS Giannina                    26   13   0    0    33   3    10   3    0    34   12   72   
1st     PAS Giannina                    26   13   0    0    29   5    10   2    1    25   11   71   
1st     PAS Giannina                    26   11   2    0    31   10   9    3    1    24   10   65   