1st      PAS Giannina                    26   10   1    2    27   12   10   3    0    32   12   64
1st      PAS Giannina                    26   9    4    0    30   11   10   1    2    34   15   62
1st      PAS Giannina                    26   10   3    0    36   12   10   3    0    36   15   66
1st      PAS Giannina                    26   10   1    2    30   10   11   0    2    40   17   64
1st      PAS Giannina                    26   12   1    0    37   14   9    3    1    35   11   67
1st      PAS Giannina                    26   11   2    0    38   6    9    1    3    30   15   63
1st      PAS Giannina                    26   9    3    1    32   14   10   2    1    34   9    62
1st      PAS Giannina                    26   12   1    0    38   18   13   0    0    31   10   76
1st      PAS Giannina                    26   10   3    0    36   13   11   2    0    31   7    68
1st      PAS Giannina                    26   12   1    0    41   16   10   3    0    35   9    70
1st      PAS Giannina                    26   11   1    1    34   14   8    4    1    28   9    62
1st      PAS Giannina                    26   10   0    3    30   15   9    3    1    31   14   60
2nd     PAS Giannina                    26   8    4    1    30   17   6    6    1    23   13   52
1st      PAS Giannina                    26   11   2    0    36   10   11   0    2    34   13   68
1st      PAS Giannina                    26   11   2    0    33   9    11   1    1    24   11   69
2nd     PAS Giannina                    26   11   1    1    39   16   8    2    3    28   12   60
1st      PAS Giannina                    26   10   3    0    47   20   7    5    1    33   14   59
1st      PAS Giannina                    26   10   2    1    33   9    12   0    1    31   8    68
1st      PAS Giannina                    26   13   0    0    30   5    10   2    1    30   9    71
2nd     PAS Giannina                    26   10   1    2    31   17   8    2    3    29   14   57
1st      PAS Giannina                    26   11   0    2    37   10   10   2    1    30   14   65
1st      PAS Giannina                    26   11   1    1    30   13   9    1    3    25   12   62
1st      PAS Giannina                    26   11   2    0    36   10   12   0    1    37   10   71
1st      PAS Giannina                    26   8    4    1    29   15   10   3    0    36   13   61
1st      PAS Giannina                    26   10   2    1    39   17   8    4    1    30   15   60
1st      PAS Giannina                    26   10   2    1    40   14   6    5    2    31   20   55
1st      PAS Giannina                    26   10   3    0    32   8    9    3    1    23   12   63
1st      PAS Giannina                    26   11   2    0    39   12   10   1    2    41   13   66
1st      PAS Giannina                    26   9    3    1    38   17   10   1    2    25   8    61
1st      PAS Giannina                    26   11   2    0    38   13   11   1    1    37   13   69
1st      PAS Giannina                    26   12   1    0    33   11   9    1    3    29   14   65
1st      PAS Giannina                    26   13   0    0    38   9    11   0    2    28   14   72
1st      PAS Giannina                    26   10   3    0    33   17   10   2    1    37   12   65
1st      PAS Giannina                    26   12   1    0    36   11   8    4    1    29   13   65
1st      PAS Giannina                    26   12   1    0    32   7    9    3    1    33   10   67
1st      PAS Giannina                    26   11   1    1    38   12   10   0    3    35   16   64
1st      PAS Giannina                    26   11   2    0    35   13   7    5    1    28   12   61
1st      PAS Giannina                    26   12   1    0    31   5    11   2    0    30   10   72
1st      PAS Giannina                    26   9    4    0    34   15   6    6    1    22   13   55
1st      PAS Giannina                    26   11   2    0    30   6    8    1    4    36   19   60
1st      PAS Giannina                    26   12   0    1    39   10   7    2    4    31   19   59
1st      PAS Giannina                    26   11   0    2    36   16   9    3    1    36   10   63
1st      PAS Giannina                    26   11   1    1    26   6    11   1    1    34   7    68
1st      PAS Giannina                    26   9    1    3    30   14   9    2    2    26   7    57
1st      PAS Giannina                    26   10   2    1    35   7    9    3    1    24   10   62
1st      PAS Giannina                    26   11   1    1    32   9    12   1    0    36   8    71
1st      PAS Giannina                    26   10   3    0    34   9    12   1    0    38   8    70
1st      PAS Giannina                    26   11   1    1    43   11   8    4    1    24   11   62
1st      PAS Giannina                    26   10   2    1    36   13   9    2    2    30   9    61
2nd     PAS Giannina                    26   9    2    2    27   8    9    3    1    28   10   59
1st      PAS Giannina                    26   11   1    1    35   12   11   1    1    40   8    68
1st      PAS Giannina                    26   11   1    1    48   14   8    3    2    27   11   61
2nd     PAS Giannina                    26   8    3    2    32   12   7    4    2    28   16   52
1st      PAS Giannina                    26   9    3    1    36   15   10   2    1    36   15   62
1st      PAS Giannina                    26   9    1    3    35   14   11   1    1    35   12   62
1st      PAS Giannina                    26   8    2    3    33   17   10   2    1    30   13   58
1st      PAS Giannina                    26   12   1    0    42   13   10   2    1    33   11   69
1st      PAS Giannina                    26   10   2    1    28   8    9    1    3    31   14   60
1st      PAS Giannina                    26   11   2    0    34   8    9    2    2    31   13   64
1st      PAS Giannina                    26   10   2    1    35   11   7    3    3    33   15   56
1st      PAS Giannina                    26   11   2    0    36   6    10   3    0    35   14   68
1st      PAS Giannina                    26   13   0    0    30   9    8    2    3    33   17   65
1st      PAS Giannina                    26   11   2    0    39   13   10   1    2    31   9    66
1st      PAS Giannina                    26   13   0    0    33   5    10   2    1    38   9    71
1st      PAS Giannina                    26   13   0    0    47   14   8    3    2    24   13   66
1st      PAS Giannina                    26   12   0    1    42   9    8    2    3    30   14   62
1st      PAS Giannina                    26   10   2    1    40   18   9    3    1    29   12   62
1st      PAS Giannina                    26   11   0    2    34   13   10   1    2    37   16   64
1st      PAS Giannina                    26   11   1    1    39   8    7    3    3    28   16   58
1st      PAS Giannina                    26   12   0    1    33   6    10   2    1    29   14   68
1st      PAS Giannina                    26   11   2    0    35   6    8    2    3    29   9    61
1st      PAS Giannina                    26   11   2    0    33   8    10   3    0    38   12   68
1st      PAS Giannina                    26   11   1    1    32   10   10   1    2    37   11   65
1st      PAS Giannina                    26   7    5    1    33   13   7    4    2    26   16   51
1st      PAS Giannina                    26   10   3    0    39   12   11   1    1    35   9    67
1st      PAS Giannina                    26   11   1    1    43   11   10   1    2    32   10   65
2nd     PAS Giannina                    26   9    4    0    31   13   7    2    4    23   14   54
1st      PAS Giannina                    26   12   1    0    40   11   10   1    2    33   13   68
1st      PAS Giannina                    26   12   1    0    34   8    13   0    0    32   10   76
1st      PAS Giannina                    26   9    3    1    31   13   10   1    2    37   16   61
1st      PAS Giannina                    26   12   0    1    38   10   9    3    1    27   12   66
1st      PAS Giannina                    26   8    4    1    34   15   11   2    0    30   8    63
1st      PAS Giannina                    26   9    4    0    34   9    10   3    0    35   11   64
1st      PAS Giannina                    26   12   0    1    41   19   12   1    0    32   14   73
1st      PAS Giannina                    26   9    2    2    34   15   9    3    1    32   14   59
1st      PAS Giannina                    26   8    3    2    35   20   8    3    2    29   14   54
1st      PAS Giannina                    26   11   0    2    32   9    11   1    1    39   14   67
1st      PAS Giannina                    26   12   1    0    36   12   11   2    0    32   6    72
1st      PAS Giannina                    26   10   0    3    33   10   8    2    3    30   18   56
1st      PAS Giannina                    26   12   0    1    43   10   10   1    2    27   13   67
1st      PAS Giannina                    26   10   1    2    36   17   11   1    1    31   10   65
1st      PAS Giannina                    26   13   0    0    33   7    12   0    1    32   11   75
1st      PAS Giannina                    26   12   1    0    36   10   8    4    1    33   16   65
1st      PAS Giannina                    26   11   0    2    29   10   9    3    1    31   11   63
1st      PAS Giannina                    26   9    3    1    31   17   10   2    1    35   15   62
1st      PAS Giannina                    26   10   2    1    32   11   7    4    2    27   16   57
1st      PAS Giannina                    26   7    4    2    36   18   10   3    0    33   10   58
1st      PAS Giannina                    26   10   2    1    31   11   12   0    1    34   10   68
1st      PAS Giannina                    26   11   1    1    37   12   8    3    2    29   15   61
1st      PAS Giannina                    26   10   2    1    35   10   7    6    0    35   14   59