9th     PAS Giannina                    26   7    4    2    27   18   2    3    8    23   30   34
4th     PAS Giannina                    26   8    2    3    26   16   3    4    6    13   19   39
8th     PAS Giannina                    26   6    5    2    24   16   3    3    7    17   24   35
2nd     PAS Giannina                    26   8    2    3    29   18   6    1    6    14   17   45
2nd     PAS Giannina                    26   7    4    2    29   21   9    2    2    21   11   54
6th     PAS Giannina                    26   6    4    3    23   22   4    6    3    17   20   40
8th     PAS Giannina                    26   5    3    5    22   20   4    3    6    21   22   33
7th     PAS Giannina                    26   6    3    4    25   16   5    2    6    18   19   38
2nd     PAS Giannina                    26   7    2    4    22   20   7    0    6    22   15   44
4th     PAS Giannina                    26   7    1    5    24   20   7    1    5    21   21   44
9th     PAS Giannina                    26   5    2    6    20   23   5    2    6    12   16   34
3rd     PAS Giannina                    26   10   2    1    31   14   4    2    7    19   29   46
7th     PAS Giannina                    26   9    1    3    30   18   2    4    7    15   23   38
3rd     PAS Giannina                    26   10   3    0    27   10   3    4    6    20   26   46
8th     PAS Giannina                    26   7    2    4    20   15   1    7    5    10   14   33
5th     PAS Giannina                    26   9    0    4    24   18   3    4    6    21   25   40
1st      PAS Giannina                    26   9    2    2    30   14   5    4    4    19   20   48
2nd     PAS Giannina                    26   9    2    2    27   13   5    3    5    19   15   47
10th    PAS Giannina                    26   7    1    5    23   20   2    3    8    12   21   31
1st      PAS Giannina                    26   10   2    1    34   14   9    1    3    26   14   60
5th     PAS Giannina                    26   7    3    3    25   17   4    3    6    19   19   39
2nd     PAS Giannina                    26   9    2    2    27   12   3    5    5    15   19   43
3rd     PAS Giannina                    26   7    3    3    30   16   6    2    5    17   11   44
5th     PAS Giannina                    26   7    4    2    25   17   4    4    5    20   22   41
3rd     PAS Giannina                    26   8    0    5    24   14   6    2    5    21   21   44
9th     PAS Giannina                    26   7    2    4    25   17   3    2    8    14   20   34
2nd     PAS Giannina                    26   8    4    1    27   13   6    2    5    25   24   48
2nd     PAS Giannina                    26   8    5    0    28   14   6    3    4    17   16   50
6th     PAS Giannina                    26   8    4    1    33   16   3    3    7    14   18   40
2nd     PAS Giannina                    26   7    3    3    33   16   6    2    5    21   21   44
3rd     PAS Giannina                    26   7    1    5    26   21   6    3    4    17   14   43
1st      PAS Giannina                    26   8    4    1    31   20   5    3    5    20   18   46
4th     PAS Giannina                    26   6    4    3    23   19   5    4    4    15   15   41
13th     PAS Giannina                    26   4    6    3    21   21   1    2    10   11   29   23
4th     PAS Giannina                    26   8    3    2    28   17   4    3    6    20   22   42
7th     PAS Giannina                    26   6    2    5    22   15   4    4    5    18   16   36
9th     PAS Giannina                    26   6    5    2    30   18   3    1    9    17   21   33
4th     PAS Giannina                    26   8    3    2    32   18   3    5    5    19   21   41
5th     PAS Giannina                    26   7    1    5    28   23   5    3    5    21   21   40
11th    PAS Giannina                    26   6    3    4    19   15   2    4    7    13   22   31
2nd     PAS Giannina                    26   8    2    3    26   16   6    1    6    17   17   45
5th     PAS Giannina                    26   9    1    3    34   17   3    4    6    12   16   41
7th     PAS Giannina                    26   5    4    4    22   12   3    4    6    17   22   32
2nd     PAS Giannina                    26   8    2    3    31   20   6    5    2    28   17   49
3rd     PAS Giannina                    26   10   1    2    23   13   3    4    6    10   16   44
3rd     PAS Giannina                    26   9    3    1    31   19   5    2    6    19   20   47
5th     PAS Giannina                    26   9    2    2    34   18   3    4    6    14   17   42
2nd     PAS Giannina                    26   9    2    2    29   12   5    4    4    22   19   48
2nd     PAS Giannina                    26   9    0    4    26   20   6    3    4    16   17   48
2nd     PAS Giannina                    26   8    4    1    27   16   4    5    4    22   20   45
3rd     PAS Giannina                    26   8    2    3    29   14   4    3    6    16   20   41
2nd     PAS Giannina                    26   9    3    1    30   15   5    3    5    18   20   48
9th     PAS Giannina                    26   4    4    5    24   27   4    4    5    15   18   32
2nd     PAS Giannina                    26   10   3    0    31   13   3    4    6    14   22   46
2nd     PAS Giannina                    26   8    2    3    26   17   5    3    5    18   18   44
12th    PAS Giannina                    26   5    6    2    25   16   1    2    10   12   26   26
2nd     PAS Giannina                    26   9    1    3    33   20   4    3    6    17   18   43
3rd     PAS Giannina                    26   9    1    3    24   10   3    4    6    20   25   41
2nd     PAS Giannina                    26   10   1    2    32   18   4    5    4    23   20   48
8th     PAS Giannina                    26   6    4    3    22   15   4    2    7    17   22   36
10th    PAS Giannina                    26   6    4    3    24   15   2    5    6    13   20   33
4th     PAS Giannina                    26   9    3    1    29   17   4    2    7    21   20   44
6th     PAS Giannina                    26   8    2    3    26   19   3    4    6    16   21   39
7th     PAS Giannina                    26   7    1    5    28   21   4    3    6    17   24   37
2nd     PAS Giannina                    26   11   2    0    34   17   4    4    5    20   20   51
4th     PAS Giannina                    26   6    5    2    24   14   6    3    4    24   18   44
1st      PAS Giannina                    26   11   1    1    35   18   7    0    6    18   17   55
4th     PAS Giannina                    26   7    2    4    29   21   5    4    4    23   18   42
1st      PAS Giannina                    26   9    3    1    30   15   7    1    5    19   17   52
4th     PAS Giannina                    26   6    3    4    21   15   6    4    3    22   17   43
7th     PAS Giannina                    26   8    2    3    25   18   2    5    6    14   21   37
7th     PAS Giannina                    26   8    1    4    29   25   4    2    7    16   27   39
2nd     PAS Giannina                    26   10   0    3    34   17   5    2    6    14   20   47
10th    PAS Giannina                    26   5    4    4    17   12   2    2    9    11   23   27
2nd     PAS Giannina                    26   6    4    3    21   18   5    6    2    20   15   43
3rd     PAS Giannina                    26   8    3    2    26   12   4    5    4    16   16   44
9th     PAS Giannina                    26   8    0    5    27   20   2    4    7    15   23   34
5th     PAS Giannina                    26   8    0    5    22   15   4    4    5    17   18   40
3rd     PAS Giannina                    26   8    3    2    26   13   7    3    3    21   16   51
2nd     PAS Giannina                    26   11   2    0    32   12   5    2    6    21   24   52
2nd     PAS Giannina                    26   9    2    2    30   18   6    2    5    17   18   49
9th     PAS Giannina                    26   5    4    4    29   23   3    4    6    14   19   32
4th     PAS Giannina                    26   8    3    2    28   14   4    1    8    15   22   40
2nd     PAS Giannina                    26   9    1    3    29   15   7    2    4    23   15   51
5th     PAS Giannina                    26   7    2    4    25   18   4    5    4    17   18   40
10th    PAS Giannina                    26   7    2    4    22   16   3    3    7    11   19   35
3rd     PAS Giannina                    26   6    6    1    27   17   5    3    5    20   21   42
4th     PAS Giannina                    26   9    2    2    28   13   2    5    6    15   22   40
5th     PAS Giannina                    26   9    1    3    28   17   4    3    6    21   21   43
5th     PAS Giannina                    26   9    2    2    29   14   2    5    6    18   27   40
9th     PAS Giannina                    26   4    4    5    26   25   5    3    5    15   16   34
7th     PAS Giannina                    26   6    5    2    27   16   3    3    7    19   25   35
4th     PAS Giannina                    26   9    2    2    22   12   3    3    7    20   23   41
4th     PAS Giannina                    26   7    1    5    30   23   6    3    4    24   21   43
3rd     PAS Giannina                    26   6    4    3    25   16   7    3    3    22   15   46
8th     PAS Giannina                    26   8    1    4    23   16   2    3    8    17   22   34
7th     PAS Giannina                    26   7    3    3    27   18   3    4    6    19   23   37
1st      PAS Giannina                    26   9    3    1    30   15   6    4    3    26   16   52
8th     PAS Giannina                    26   5    4    4    28   23   5    0    8    20   28   34
6th     PAS Giannina                    26   8    2    3    31   19   4    2    7    17   18   40