1st     PAS Giannina                    26   9    1    3    35   14   8    2    3    22   9    54   
1st     PAS Giannina                    26   10   1    2    23   9    6    5    2    21   10   54   
5th     PAS Giannina                    26   9    1    3    25   13   3    4    6    17   20   41   
2nd     PAS Giannina                    26   10   3    0    36   14   5    4    4    20   19   52   
1st     PAS Giannina                    26   11   1    1    31   8    7    3    3    21   8    58   
1st     PAS Giannina                    26   13   0    0    33   6    7    6    0    26   13   66   
1st     PAS Giannina                    26   9    2    2    28   13   9    1    3    23   11   57   
6th     PAS Giannina                    26   8    3    2    21   14   4    2    7    16   17   41   
3rd     PAS Giannina                    26   10   2    1    37   14   4    3    6    18   22   47   
3rd     PAS Giannina                    26   8    2    3    26   13   5    3    5    20   14   44   
2nd     PAS Giannina                    26   8    3    2    24   11   7    2    4    25   12   50   
2nd     PAS Giannina                    26   11   0    2    30   10   5    7    1    25   15   55   
1st     PAS Giannina                    26   12   0    1    30   8    9    4    0    25   7    67   
2nd     PAS Giannina                    26   6    3    4    24   16   6    4    3    18   14   43   
1st     PAS Giannina                    26   10   3    0    31   10   6    4    3    26   18   55   
1st     PAS Giannina                    26   11   1    1    36   17   7    2    4    23   12   57   
1st     PAS Giannina                    26   9    3    1    30   10   10   1    2    26   13   61   
2nd     PAS Giannina                    26   9    4    0    34   10   5    3    5    20   17   49   
2nd     PAS Giannina                    26   9    3    1    31   13   5    3    5    14   13   48   
1st     PAS Giannina                    26   9    4    0    32   12   7    1    5    20   14   53   
1st     PAS Giannina                    26   12   0    1    36   10   6    5    2    19   12   59   
1st     PAS Giannina                    26   10   1    2    29   14   7    2    4    23   20   54   
4th     PAS Giannina                    26   8    4    1    24   9    3    7    3    17   18   44   
1st     PAS Giannina                    26   11   0    2    35   14   8    1    4    24   14   58   
1st     PAS Giannina                    26   11   2    0    26   6    7    4    2    25   15   60   
2nd     PAS Giannina                    26   9    3    1    31   8    6    3    4    19   17   51   
1st     PAS Giannina                    26   10   2    1    32   8    9    2    2    24   12   61   
3rd     PAS Giannina                    26   9    3    1    24   9    5    2    6    16   18   47   
2nd     PAS Giannina                    26   11   2    0    34   7    6    2    5    16   13   55   
1st     PAS Giannina                    26   10   3    0    37   16   7    3    3    18   11   57   
1st     PAS Giannina                    26   11   1    1    27   6    7    1    5    22   15   56   
1st     PAS Giannina                    26   9    4    0    26   7    9    1    3    25   13   59   
1st     PAS Giannina                    26   10   1    2    29   11   7    2    4    23   18   54   
2nd     PAS Giannina                    26   12   0    1    36   11   5    2    6    17   21   53   
1st     PAS Giannina                    26   8    4    1    29   14   7    2    4    22   20   51   
3rd     PAS Giannina                    26   7    2    4    24   14   6    3    4    19   15   44   
2nd     PAS Giannina                    26   10   3    0    31   13   3    5    5    19   17   47   
1st     PAS Giannina                    26   11   1    1    31   14   5    4    4    19   16   53   
1st     PAS Giannina                    26   10   2    1    24   11   8    4    1    16   9    60   
2nd     PAS Giannina                    26   10   1    2    34   12   4    5    4    13   12   48   
1st     PAS Giannina                    26   9    2    2    29   13   7    6    0    24   10   56   
2nd     PAS Giannina                    26   11   1    1    28   10   6    5    2    23   14   57   
3rd     PAS Giannina                    26   8    4    1    32   15   5    4    4    17   14   47   
1st     PAS Giannina                    26   9    3    1    32   17   5    6    2    20   12   51   
1st     PAS Giannina                    26   11   0    2    36   14   7    3    3    16   12   57   
2nd     PAS Giannina                    26   9    2    2    32   13   5    3    5    21   19   47   
3rd     PAS Giannina                    26   8    3    2    33   14   3    5    5    13   14   41   
8th     PAS Giannina                    26   8    3    2    26   13   2    2    9    9    19   35   
2nd     PAS Giannina                    26   9    3    1    30   11   4    6    3    16   13   48   
1st     PAS Giannina                    26   12   0    1    34   6    5    2    6    23   19   53   
1st     PAS Giannina                    26   11   2    0    33   11   5    5    3    22   15   55   
1st     PAS Giannina                    26   10   2    1    33   12   8    2    3    25   15   58   
1st     PAS Giannina                    26   9    4    0    35   14   10   3    0    27   13   64   
2nd     PAS Giannina                    26   7    4    2    28   15   5    5    3    18   18   45   
2nd     PAS Giannina                    26   11   1    1    34   6    6    3    4    22   18   55   
1st     PAS Giannina                    26   10   1    2    33   9    9    1    3    23   13   59   
2nd     PAS Giannina                    26   9    3    1    32   15   5    2    6    17   18   47   
1st     PAS Giannina                    26   11   1    1    34   9    5    4    4    26   18   53   
1st     PAS Giannina                    26   11   1    1    34   14   4    4    5    17   15   50   
2nd     PAS Giannina                    26   10   0    3    30   12   5    3    5    16   16   48   
4th     PAS Giannina                    26   6    0    7    21   22   8    1    4    25   19   43   
2nd     PAS Giannina                    26   10   2    1    33   13   7    3    3    26   15   56   
1st     PAS Giannina                    26   11   1    1    39   14   5    4    4    19   17   53   
3rd     PAS Giannina                    26   8    5    0    29   9    3    6    4    13   13   44   
4th     PAS Giannina                    26   8    2    3    26   18   6    1    6    21   17   45   
2nd     PAS Giannina                    26   5    3    5    23   17   7    3    3    22   14   42   
1st     PAS Giannina                    26   11   1    1    32   14   10   2    1    24   11   66   
1st     PAS Giannina                    26   9    3    1    28   11   5    5    3    20   13   50   
1st     PAS Giannina                    26   10   3    0    31   10   7    2    4    26   16   56   
1st     PAS Giannina                    26   11   1    1    36   14   8    3    2    21   10   61   
2nd     PAS Giannina                    26   11   0    2    23   8    7    3    3    23   11   57   
2nd     PAS Giannina                    26   10   1    2    35   14   7    2    4    24   14   54   
5th     PAS Giannina                    26   7    3    3    23   18   5    3    5    15   9    42   
4th     PAS Giannina                    26   9    4    0    31   8    4    3    6    18   21   46   
1st     PAS Giannina                    26   9    0    4    29   19   8    4    1    25   8    55   
2nd     PAS Giannina                    26   10   2    1    29   13   5    3    5    20   16   50   
2nd     PAS Giannina                    26   9    3    1    28   6    4    7    2    23   17   49   
1st     PAS Giannina                    26   13   0    0    33   4    7    3    3    23   15   63   
1st     PAS Giannina                    26   11   2    0    37   11   9    2    2    27   11   64   
2nd     PAS Giannina                    26   11   2    0    38   13   6    2    5    23   15   55   
1st     PAS Giannina                    26   8    4    1    23   13   8    3    2    21   10   55   
6th     PAS Giannina                    26   9    1    3    25   13   3    3    7    12   19   40   
2nd     PAS Giannina                    26   9    4    0    27   9    5    3    5    18   20   49   
1st     PAS Giannina                    26   11   0    2    26   8    9    3    1    32   17   63   
1st     PAS Giannina                    26   11   1    1    31   11   9    2    2    20   6    63   
3rd     PAS Giannina                    26   8    3    2    29   18   6    4    3    21   8    49   
1st     PAS Giannina                    26   11   2    0    33   7    7    3    3    19   15   59   
2nd     PAS Giannina                    26   9    4    0    28   10   7    3    3    23   13   55   
1st     PAS Giannina                    26   12   1    0    33   12   8    4    1    25   9    65   
1st     PAS Giannina                    26   10   3    0    28   11   8    3    2    22   8    60   
1st     PAS Giannina                    26   12   0    1    36   15   9    1    3    22   9    64   
1st     PAS Giannina                    26   11   1    1    34   18   12   1    0    27   5    71   
2nd     PAS Giannina                    26   9    2    2    29   14   7    4    2    25   13   54   
2nd     PAS Giannina                    26   10   2    1    32   14   7    2    4    24   19   55   
1st     PAS Giannina                    26   8    3    2    30   13   11   1    1    28   13   61   
1st     PAS Giannina                    26   11   1    1    34   9    9    2    2    34   21   63   
1st     PAS Giannina                    26   11   2    0    38   7    8    2    3    20   16   61   
2nd     PAS Giannina                    26   8    4    1    27   12   4    5    4    14   12   45   
3rd     PAS Giannina                    26   6    3    4    28   18   8    3    2    22   12   48   
2nd     PAS Giannina                    26   10   2    1    31   9    5    4    4    15   16   51   