1st      PAS Giannina                    26   11   2    0    34   9    8    3    2    25   15   62   
1st      PAS Giannina                    26   13   0    0    36   14   10   2    1    34   16   71
1st      PAS Giannina                    26   10   3    0    32   14   6    5    2    29   15   56   
2nd     PAS Giannina                    26   9    3    1    32   15   8    1    4    28   10   55   
5th     PAS Giannina                    26   6    3    4    29   19   5    3    5    28   21   39   
1st      PAS Giannina                    26   10   2    1    34   11   10   3    0    32   14   65   
1st      PAS Giannina                    26   12   1    0    35   12   8    3    2    28   9    64   
1st      PAS Giannina                    26   9    4    0    37   15   7    4    2    26   15   56   
1st      PAS Giannina                    26   11   1    1    41   11   10   3    0    33   10   67   
1st      PAS Giannina                    26   12   0    1    33   9    12   1    0    32   2    73   
1st      PAS Giannina                    26   11   1    1    34   10   7    2    4    29   16   57   
1st      PAS Giannina                    26   12   1    0    35   8    10   0    3    31   13   67   
1st      PAS Giannina                    26   12   0    1    37   10   10   3    0    29   13   69   
1st      PAS Giannina                    26   9    3    1    39   13   11   1    1    37   13   64   
1st      PAS Giannina                    26   12   0    1    34   11   13   0    0    41   12   75   
1st      PAS Giannina                    26   11   2    0    37   13   10   2    1    37   16   67   
1st      PAS Giannina                    26   11   0    2    33   8    11   1    1    33   7    67   
1st      PAS Giannina                    26   12   0    1    39   15   11   2    0    34   14   71   
1st      PAS Giannina                    26   11   2    0    30   6    11   1    1    33   9    69   
1st      PAS Giannina                    26   13   0    0    41   14   10   2    1    41   12   71   
1st      PAS Giannina                    26   10   3    0    30   9    8    5    0    36   19   62   
1st      PAS Giannina                    26   9    3    1    26   10   8    4    1    26   14   58   
1st      PAS Giannina                    26   10   2    1    33   15   10   1    2    30   12   63   
1st      PAS Giannina                    26   13   0    0    40   8    11   1    1    41   13   73   
1st      PAS Giannina                    26   8    5    0    32   18   9    2    2    33   14   58   
1st      PAS Giannina                    26   9    2    2    36   14   9    3    1    35   14   59   
1st      PAS Giannina                    26   10   3    0    40   12   6    4    3    32   18   55   
1st      PAS Giannina                    26   11   2    0    41   15   7    3    3    32   16   59   
1st      PAS Giannina                    26   10   2    1    34   14   9    3    1    30   14   62   
1st      PAS Giannina                    26   11   1    1    34   13   9    2    2    25   13   63   
1st      PAS Giannina                    26   12   1    0    39   13   9    2    2    37   16   66   
1st      PAS Giannina                    26   12   1    0    36   7    9    3    1    36   13   67   
1st      PAS Giannina                    26   11   2    0    39   12   11   1    1    32   10   69   
1st      PAS Giannina                    26   10   3    0    36   11   10   0    3    31   15   63   
1st      PAS Giannina                    26   13   0    0    42   17   7    3    3    36   14   63   
1st      PAS Giannina                    26   10   2    1    34   12   8    2    3    27   17   58   
1st      PAS Giannina                    26   11   0    2    34   16   10   2    1    27   11   65   
1st      PAS Giannina                    26   12   1    0    41   6    10   0    3    32   8    67   
1st      PAS Giannina                    26   11   2    0    36   12   11   1    1    36   13   69   
1st      PAS Giannina                    26   11   1    1    38   9    10   2    1    32   10   66   
1st      PAS Giannina                    26   13   0    0    33   10   9    2    2    25   13   68   
1st      PAS Giannina                    26   10   3    0    31   10   8    3    2    24   7    60   
1st      PAS Giannina                    26   13   0    0    45   10   9    3    1    30   9    69   
1st      PAS Giannina                    26   11   2    0    38   14   11   1    1    28   7    69   
1st      PAS Giannina                    26   12   1    0    38   10   7    2    4    28   18   60   
1st      PAS Giannina                    26   11   2    0    42   10   9    2    2    34   15   64   
1st      PAS Giannina                    26   11   2    0    44   17   8    4    1    31   11   63   
1st      PAS Giannina                    26   12   1    0    40   10   7    4    2    29   15   62   
1st      PAS Giannina                    26   10   2    1    31   11   11   1    1    42   17   66   
1st      PAS Giannina                    26   10   3    0    34   13   11   0    2    31   12   66   
1st      PAS Giannina                    26   12   0    1    33   7    7    5    1    28   11   62   
1st      PAS Giannina                    26   12   0    1    37   17   7    4    2    28   14   61   
1st      PAS Giannina                    26   11   1    1    33   13   8    5    0    31   11   63   
1st      PAS Giannina                    26   9    3    1    32   11   7    2    4    36   16   53   
1st      PAS Giannina                    26   11   2    0    35   7    10   1    2    37   14   66   
1st      PAS Giannina                    26   12   1    0    38   12   9    2    2    37   22   66   
2nd     PAS Giannina                    26   9    3    1    32   12   9    2    2    35   12   59   
1st      PAS Giannina                    26   8    5    0    29   13   11   0    2    32   15   62   
1st      PAS Giannina                    26   12   0    1    37   10   10   2    1    40   14   68   
2nd     PAS Giannina                    26   11   1    1    34   14   7    2    4    28   16   57   
1st      PAS Giannina                    26   10   3    0    36   11   9    1    3    33   14   61   
1st      PAS Giannina                    26   12   1    0    37   8    10   2    1    33   11   69   
1st      PAS Giannina                    26   11   1    1    38   7    10   1    2    29   9    65   
1st      PAS Giannina                    26   10   1    2    35   17   7    3    3    26   11   55   
2nd     PAS Giannina                    26   10   3    0    38   13   7    4    2    31   16   58   
1st      PAS Giannina                    26   12   0    1    37   16   7    5    1    32   15   62   
1st      PAS Giannina                    26   12   1    0    40   12   10   1    2    34   17   68   
1st      PAS Giannina                    26   12   0    1    34   13   10   2    1    35   9    68   
1st      PAS Giannina                    26   9    3    1    35   14   11   1    1    39   13   64   
1st      PAS Giannina                    26   11   2    0    36   12   10   3    0    39   11   68   
1st      PAS Giannina                    26   10   2    1    28   11   7    4    2    29   15   57   
1st      PAS Giannina                    26   11   1    1    31   5    10   1    2    34   11   65   
1st      PAS Giannina                    26   12   1    0    34   9    8    2    3    30   20   63   
1st      PAS Giannina                    26   13   0    0    34   5    6    5    2    31   16   62   
1st      PAS Giannina                    26   11   2    0    36   15   8    3    2    30   13   62   
1st      PAS Giannina                    26   11   2    0    30   12   11   1    1    34   12   69   
1st      PAS Giannina                    26   8    5    0    29   13   10   2    1    33   15   61   
1st      PAS Giannina                    26   11   2    0    28   9    8    1    4    22   11   60   
2nd     PAS Giannina                    26   11   2    0    33   10   10   0    3    31   16   65   
1st      PAS Giannina                    26   10   2    1    42   15   12   1    0    38   9    69   
1st      PAS Giannina                    26   8    4    1    26   10   8    3    2    33   18   55   
1st      PAS Giannina                    26   10   3    0    31   10   7    3    3    28   13   57   
1st      PAS Giannina                    26   11   0    2    29   11   9    2    2    35   20   62   
1st      PAS Giannina                    26   9    3    1    31   12   11   1    1    31   9    64   
1st      PAS Giannina                    26   7    4    2    30   20   8    4    1    28   13   53   
1st      PAS Giannina                    26   11   1    1    35   7    7    4    2    25   10   59   
1st      PAS Giannina                    26   11   1    1    38   16   7    4    2    31   16   59   
1st      PAS Giannina                    26   9    4    0    36   11   9    3    1    27   10   61   
1st      PAS Giannina                    26   11   0    2    30   15   8    3    2    31   12   60   
1st      PAS Giannina                    26   12   1    0    42   6    9    4    0    36   14   68   
2nd     PAS Giannina                    26   9    4    0    36   12   7    3    3    31   20   55   
1st      PAS Giannina                    26   11   0    2    37   16   11   1    1    28   12   67   
1st      PAS Giannina                    26   12   1    0    43   9    12   0    1    33   9    73   
1st      PAS Giannina                    26   13   0    0    43   11   9    3    1    34   9    69   
1st      PAS Giannina                    26   12   0    1    36   11   12   1    0    32   11   73   
1st      PAS Giannina                    26   11   1    1    37   18   11   1    1    34   9    68   
2nd     PAS Giannina                    26   8    5    0    36   16   6    3    4    33   21   50   
1st      PAS Giannina                    26   11   2    0    40   13   8    2    3    32   16   61   
1st      PAS Giannina                    26   12   1    0    34   11   10   1    2    30   16   68   
1st      PAS Giannina                    26   11   1    1    29   13   10   2    1    38   13   66   