3rd     PAS Giannina                    26   7    3    3    30   18   7    2    4    38   27   47   
4th     PAS Giannina                    26   8    2    3    27   17   3    5    5    23   27   40   
2nd     PAS Giannina                    26   9    2    2    37   17   8    0    5    29   26   53   
3rd     PAS Giannina                    26   10   2    1    37   15   4    4    5    28   31   48   
2nd     PAS Giannina                    26   12   0    1    35   13   4    2    7    32   32   50   
6th     PAS Giannina                    26   7    4    2    25   16   4    1    8    29   37   38   
3rd     PAS Giannina                    26   9    2    2    35   19   6    3    4    29   25   50   
1st     PAS Giannina                    26   9    2    2    38   18   4    4    5    26   25   45   
1st     PAS Giannina                    26   10   1    2    37   20   7    2    4    32   24   54   
3rd     PAS Giannina                    26   11   1    1    44   20   4    2    7    22   27   48   
1st     PAS Giannina                    26   7    4    2    33   19   7    1    5    26   20   47   
1st     PAS Giannina                    26   12   1    0    43   16   6    1    6    31   31   56   
5th     PAS Giannina                    26   10   0    3    41   19   3    4    6    21   29   43   
2nd     PAS Giannina                    26   8    4    1    34   14   5    4    4    28   28   47   
1st     PAS Giannina                    26   11   0    2    42   22   6    4    3    36   32   55   
1st     PAS Giannina                    26   8    2    3    28   16   7    2    4    28   25   49   
3rd     PAS Giannina                    26   9    2    2    37   23   4    5    4    34   32   46   
5th     PAS Giannina                    26   9    1    3    40   21   2    6    5    24   28   40   
4th     PAS Giannina                    26   7    3    3    34   22   5    2    6    24   33   41   
3rd     PAS Giannina                    26   10   1    2    32   18   4    3    6    21   26   46   
2nd     PAS Giannina                    26   11   0    2    33   12   2    4    7    22   31   43   
4th     PAS Giannina                    26   8    2    3    32   17   4    3    6    21   22   41   
5th     PAS Giannina                    26   8    2    3    29   22   4    4    5    31   28   42   
5th     PAS Giannina                    26   6    1    6    28   21   6    4    3    25   20   41   
3rd     PAS Giannina                    26   10   2    1    35   20   3    2    8    16   26   43   
2nd     PAS Giannina                    26   7    3    3    33   18   8    2    3    31   24   50   
2nd     PAS Giannina                    26   10   1    2    35   17   4    3    6    28   29   46   
2nd     PAS Giannina                    26   11   1    1    30   14   7    2    4    30   24   57   
3rd     PAS Giannina                    26   8    1    4    30   20   6    5    2    31   23   48   
4th     PAS Giannina                    26   8    3    2    28   16   3    5    5    29   32   41   
4th     PAS Giannina                    26   10   2    1    31   10   4    3    6    15   20   47   
3rd     PAS Giannina                    26   11   1    1    37   19   4    2    7    24   25   48   
3rd     PAS Giannina                    26   10   1    2    31   11   4    1    8    23   28   44   
2nd     PAS Giannina                    26   11   1    1    42   24   3    2    8    16   22   45   
9th     PAS Giannina                    26   8    2    3    35   23   2    0    11   21   36   32   
2nd     PAS Giannina                    26   11   0    2    31   13   5    4    4    30   28   52   
6th     PAS Giannina                    26   7    3    3    30   20   3    4    6    24   27   37   
2nd     PAS Giannina                    26   8    2    3    34   23   8    0    5    26   22   50   
2nd     PAS Giannina                    26   10   3    0    42   22   5    3    5    17   18   51   
2nd     PAS Giannina                    26   10   1    2    34   14   6    3    4    27   23   52   
2nd     PAS Giannina                    26   8    5    0    33   18   7    2    4    30   26   52   
2nd     PAS Giannina                    26   11   2    0    39   15   4    4    5    27   32   51   
3rd     PAS Giannina                    26   9    3    1    44   21   5    2    6    24   25   47   
9th     PAS Giannina                    26   7    2    4    25   17   2    4    7    14   22   33   
2nd     PAS Giannina                    26   9    2    2    31   14   7    3    3    26   21   53   
6th     PAS Giannina                    26   7    2    4    33   26   4    3    6    28   27   38   
3rd     PAS Giannina                    26   10   2    1    40   19   3    5    5    27   29   46   
2nd     PAS Giannina                    26   11   2    0    37   11   4    1    8    25   30   48   
5th     PAS Giannina                    26   10   2    1    35   15   3    2    8    25   31   43   
6th     PAS Giannina                    26   8    1    4    27   17   4    2    7    25   29   39   
1st     PAS Giannina                    26   11   2    0    41   22   5    1    7    27   28   51   
4th     PAS Giannina                    26   8    1    4    23   20   4    4    5    27   28   41   
4th     PAS Giannina                    26   8    4    1    34   20   4    3    6    22   28   43   
2nd     PAS Giannina                    26   9    3    1    36   21   6    2    5    27   26   50   
2nd     PAS Giannina                    26   11   0    2    25   12   5    3    5    18   14   51   
10th    PAS Giannina                    26   6    3    4    25   24   3    3    7    27   31   33   
3rd     PAS Giannina                    26   8    0    5    27   17   6    2    5    21   20   44   
3rd     PAS Giannina                    26   11   1    1    41   18   1    5    7    19   29   42   
7th     PAS Giannina                    26   8    3    2    29   18   2    4    7    20   30   37   
2nd     PAS Giannina                    26   9    4    0    34   10   5    2    6    26   26   48   
3rd     PAS Giannina                    26   8    2    3    31   16   5    2    6    23   27   43   
7th     PAS Giannina                    26   6    3    4    23   19   3    4    6    25   32   34   
1st     PAS Giannina                    26   7    5    1    27   16   8    1    4    30   19   51   
5th     PAS Giannina                    26   7    4    2    30   22   5    2    6    24   27   42   
2nd     PAS Giannina                    26   5    3    5    27   24   7    3    3    26   23   42   
1st     PAS Giannina                    26   9    3    1    33   16   6    2    5    28   24   50   
6th     PAS Giannina                    26   6    3    4    27   30   6    3    4    26   23   42   
2nd     PAS Giannina                    26   10   3    0    36   14   6    4    3    28   22   55   
7th     PAS Giannina                    26   7    2    4    30   20   2    5    6    22   29   34   
3rd     PAS Giannina                    26   8    2    3    31   19   5    3    5    25   23   44   
2nd     PAS Giannina                    26   10   2    1    31   12   5    5    3    27   21   52   
5th     PAS Giannina                    26   8    2    3    28   15   3    4    6    30   36   39   
2nd     PAS Giannina                    26   8    2    3    30   22   6    4    3    22   22   48   
8th     PAS Giannina                    26   9    1    3    34   18   1    3    9    11   28   34   
8th     PAS Giannina                    26   7    3    3    31   21   2    3    8    24   37   33   
2nd     PAS Giannina                    26   7    6    0    32   14   6    0    7    26   24   45   
7th     PAS Giannina                    26   10   0    3    32   15   2    1    10   20   39   37   
2nd     PAS Giannina                    26   8    3    2    27   18   7    3    3    27   22   51   
2nd     PAS Giannina                    26   9    3    1    28   13   6    4    3    29   25   52   
2nd     PAS Giannina                    26   8    4    1    35   22   5    6    2    28   21   49   
2nd     PAS Giannina                    26   7    3    3    21   17   6    5    2    31   23   47   
4th     PAS Giannina                    26   8    4    1    28   14   4    5    4    35   34   45   
6th     PAS Giannina                    26   8    1    4    31   23   5    1    7    22   23   41   
4th     PAS Giannina                    26   7    3    3    31   21   4    4    5    31   29   40   
6th     PAS Giannina                    26   8    2    3    25   15   2    4    7    11   21   36   
5th     PAS Giannina                    26   6    5    2    28   22   5    3    5    26   24   41   
8th     PAS Giannina                    26   4    3    6    22   23   5    4    4    28   24   34   
9th     PAS Giannina                    26   9    2    2    34   18   2    1    10   24   34   36   
1st     PAS Giannina                    26   9    3    1    32   16   5    3    5    31   30   48   
2nd     PAS Giannina                    26   8    2    3    34   19   5    2    6    24   22   43   
3rd     PAS Giannina                    26   5    7    1    26   20   6    3    4    22   15   43   
7th     PAS Giannina                    26   7    3    3    31   19   4    1    8    19   31   37   
2nd     PAS Giannina                    26   11   1    1    36   12   3    4    6    19   23   47   
2nd     PAS Giannina                    26   9    2    2    37   26   8    1    4    24   18   54   
5th     PAS Giannina                    26   8    5    0    35   18   3    3    7    20   27   41   
1st     PAS Giannina                    26   10   1    2    38   14   7    0    6    24   20   52   
4th     PAS Giannina                    26   8    4    1    31   13   4    2    7    19   22   42   
6th     PAS Giannina                    26   7    2    4    33   27   4    4    5    25   24   39   
6th     PAS Giannina                    26   8    4    1    32   18   2    3    8    15   31   37   
1st     PAS Giannina                    26   10   1    2    37   16   8    3    2    28   20   58   