1st     PAS Giannina                    26   13   0    0    36   7    10   2    1    31   15   71   
1st     PAS Giannina                    26   13   0    0    31   6    10   3    0    35   14   72   
1st     PAS Giannina                    26   10   2    1    26   6    10   2    1    32   10   64   
1st     PAS Giannina                    26   11   1    1    31   9    9    2    2    32   14   63   
1st     PAS Giannina                    26   11   1    1    36   15   11   2    0    31   7    69   
1st     PAS Giannina                    26   11   1    1    34   15   11   2    0    33   12   69   
1st     PAS Giannina                    26   11   1    1    31   10   12   1    0    38   10   71   
1st     PAS Giannina                    26   9    3    1    39   15   9    4    0    24   5    61   
1st     PAS Giannina                    26   12   1    0    44   10   8    4    1    32   18   65   
1st     PAS Giannina                    26   11   2    0    37   10   10   2    1    42   10   67   
1st     PAS Giannina                    26   8    5    0    30   12   11   2    0    35   12   64   
1st     PAS Giannina                    26   11   0    2    31   12   12   0    1    32   9    69   
1st     PAS Giannina                    26   10   2    1    37   12   8    1    4    33   14   57   
1st     PAS Giannina                    26   9    4    0    31   14   11   1    1    34   11   65   
1st     PAS Giannina                    26   10   1    2    41   19   9    2    2    34   14   60   
1st     PAS Giannina                    26   11   1    1    30   6    9    2    2    31   16   63   
1st     PAS Giannina                    26   12   1    0    40   10   12   1    0    35   9    74   
1st     PAS Giannina                    26   11   2    0    36   12   9    2    2    24   8    64   
1st     PAS Giannina                    26   13   0    0    36   9    11   2    0    40   9    74   
1st     PAS Giannina                    26   12   1    0    37   10   11   2    0    35   5    72   
1st     PAS Giannina                    26   13   0    0    42   11   9    2    2    28   13   68   
1st     PAS Giannina                    26   10   2    1    40   14   9    2    2    23   14   61   
1st     PAS Giannina                    26   10   1    2    43   18   9    3    1    37   17   61   
1st     PAS Giannina                    26   11   1    1    33   12   12   1    0    34   11   71   
1st     PAS Giannina                    26   10   3    0    38   20   12   0    1    30   7    69   
1st     PAS Giannina                    26   8    4    1    25   16   9    4    0    27   10   59   
2nd     PAS Giannina                    26   10   0    3    33   11   8    1    4    32   20   55   
1st     PAS Giannina                    26   12   1    0    41   12   11   2    0    31   8    72   
1st     PAS Giannina                    26   10   2    1    39   14   11   0    2    36   9    65   
1st     PAS Giannina                    26   13   0    0    34   8    10   1    2    32   12   70   
1st     PAS Giannina                    26   10   2    1    31   11   9    2    2    30   19   61   
1st     PAS Giannina                    26   12   1    0    35   10   8    3    2    30   16   64   
1st     PAS Giannina                    26   12   1    0    35   15   9    4    0    35   15   68   
1st     PAS Giannina                    26   13   0    0    38   14   10   2    1    29   10   71   
1st     PAS Giannina                    26   12   1    0    30   11   9    3    1    34   10   67   
1st     PAS Giannina                    26   10   3    0    38   11   9    3    1    34   12   63   
1st     PAS Giannina                    26   8    4    1    32   15   9    1    3    30   15   56   
1st     PAS Giannina                    26   11   2    0    36   15   8    4    1    34   15   63   
1st     PAS Giannina                    26   11   2    0    33   11   10   2    1    30   15   67   
1st     PAS Giannina                    26   11   1    1    38   11   10   2    1    33   6    66   
1st     PAS Giannina                    26   12   1    0    37   10   10   3    0    35   14   70   
1st     PAS Giannina                    26   11   1    1    33   10   8    1    4    32   17   59   
1st     PAS Giannina                    26   11   0    2    37   16   10   1    2    33   9    64   
1st     PAS Giannina                    26   12   0    1    36   13   8    4    1    28   9    64   
1st     PAS Giannina                    26   11   2    0    39   13   10   2    1    28   9    67   
1st     PAS Giannina                    26   10   1    2    32   12   6    5    2    25   17   54   
1st     PAS Giannina                    26   10   2    1    30   11   12   0    1    33   11   68   
1st     PAS Giannina                    26   9    3    1    30   13   9    2    2    34   17   59   
1st     PAS Giannina                    26   10   2    1    36   13   11   1    1    38   11   66   
1st     PAS Giannina                    26   12   0    1    41   13   11   1    1    38   10   70   
1st     PAS Giannina                    26   10   3    0    34   10   7    2    4    22   17   56   
1st     PAS Giannina                    26   11   1    1    40   11   10   2    1    28   14   66   
1st     PAS Giannina                    26   12   1    0    35   12   12   0    1    37   6    73   
1st     PAS Giannina                    26   13   0    0    41   15   11   1    1    24   8    73   
1st     PAS Giannina                    26   11   2    0    38   8    7    4    2    29   15   60   
1st     PAS Giannina                    26   11   1    1    36   11   10   1    2    32   8    65   
1st     PAS Giannina                    26   13   0    0    39   8    10   2    1    37   10   71   
1st     PAS Giannina                    26   12   1    0    37   12   8    4    1    36   18   65   
1st     PAS Giannina                    26   8    2    3    39   23   10   1    2    30   8    57   
1st     PAS Giannina                    26   12   1    0    42   15   9    3    1    34   12   67   
1st     PAS Giannina                    26   11   1    1    36   15   11   1    1    36   16   68   
1st     PAS Giannina                    26   11   1    1    37   13   8    3    2    28   13   61   
2nd     PAS Giannina                    26   10   2    1    30   10   6    5    2    29   14   55   
1st     PAS Giannina                    26   11   2    0    34   13   12   1    0    39   13   72   
1st     PAS Giannina                    26   12   0    1    35   6    9    3    1    27   9    66   
1st     PAS Giannina                    26   10   2    1    33   15   11   0    2    31   13   65   
1st     PAS Giannina                    26   11   2    0    34   13   10   2    1    27   6    67   
1st     PAS Giannina                    26   7    4    2    24   15   11   0    2    33   12   58   
1st     PAS Giannina                    26   12   1    0    31   9    8    2    3    23   12   63   
1st     PAS Giannina                    26   13   0    0    50   12   9    3    1    25   12   69   
1st     PAS Giannina                    26   9    4    0    36   14   11   1    1    31   12   65   
1st     PAS Giannina                    26   11   1    1    31   11   12   1    0    34   2    71   
1st     PAS Giannina                    26   12   1    0    36   14   9    4    0    29   10   68   
1st     PAS Giannina                    26   10   3    0    37   14   9    2    2    30   14   62   
1st     PAS Giannina                    26   11   0    2    35   14   10   3    0    41   11   66   
1st     PAS Giannina                    26   11   2    0    39   11   8    1    4    29   20   60   
1st     PAS Giannina                    26   10   3    0    32   9    9    3    1    29   9    63   
1st     PAS Giannina                    26   11   1    1    39   12   7    2    4    28   20   57   
2nd     PAS Giannina                    26   11   2    0    34   14   6    6    1    22   13   59   
1st     PAS Giannina                    26   9    2    2    27   12   11   1    1    33   10   63   
1st     PAS Giannina                    26   11   1    1    27   5    11   1    1    35   16   68   
1st     PAS Giannina                    26   9    4    0    36   17   9    1    3    26   11   59   
1st     PAS Giannina                    26   12   1    0    32   9    11   2    0    35   7    72   
2nd     PAS Giannina                    26   9    2    2    25   11   8    0    5    28   17   53   
1st     PAS Giannina                    26   10   1    2    33   19   10   2    1    32   12   63   
1st     PAS Giannina                    26   9    4    0    34   15   12   0    1    30   10   67   
1st     PAS Giannina                    26   11   0    2    36   13   8    4    1    30   14   61   
1st     PAS Giannina                    26   10   2    1    38   13   8    1    4    34   18   57   
1st     PAS Giannina                    26   11   2    0    44   13   10   2    1    27   10   67   
1st     PAS Giannina                    26   10   1    2    37   14   9    3    1    30   12   61   
2nd     PAS Giannina                    26   8    2    3    30   17   8    2    3    23   14   52   
1st     PAS Giannina                    26   10   1    2    35   18   9    2    2    25   7    60   
1st     PAS Giannina                    26   11   2    0    34   16   11   2    0    29   2    70   
1st     PAS Giannina                    26   9    3    1    29   11   12   1    0    40   9    67   
1st     PAS Giannina                    26   13   0    0    43   9    7    3    3    30   16   63   
1st     PAS Giannina                    26   11   2    0    40   13   11   1    1    34   10   69   
1st     PAS Giannina                    26   11   2    0    41   14   9    4    0    38   12   66   
1st     PAS Giannina                    26   11   0    2    40   12   8    2    3    30   14   59   
1st     PAS Giannina                    26   12   1    0    40   14   10   2    1    30   14   69   
1st     PAS Giannina                    26   10   2    1    32   8    10   2    1    31   13   64   