13th    PAS Giannina                    26   5    4    4    19   16   1    2    10   8    22   24   
13th    PAS Giannina                    26   5    3    5    20   15   0    3    10   5    21   21   
8th     PAS Giannina                    26   7    5    1    28   16   1    5    7    8    17   34   
9th     PAS Giannina                    26   6    6    1    23   15   1    6    6    8    17   33   
5th     PAS Giannina                    26   8    1    4    23   10   3    2    8    14   19   36   
10th    PAS Giannina                    26   4    6    3    21   19   3    5    5    8    14   32   
3rd     PAS Giannina                    26   7    6    0    25   15   5    5    3    15   12   47   
8th     PAS Giannina                    26   7    3    3    22   16   2    4    7    12   21   34   
12th    PAS Giannina                    26   3    6    4    19   20   4    2    7    10   16   29   
10th    PAS Giannina                    26   4    6    3    23   17   3    5    5    10   16   32   
9th     PAS Giannina                    26   4    7    2    14   13   4    3    6    12   14   34   
8th     PAS Giannina                    26   6    6    1    23   15   1    6    6    7    14   33   
13th    PAS Giannina                    26   4    4    5    14   18   2    3    8    8    15   25   
4th     PAS Giannina                    26   7    5    1    17   10   4    4    5    12   15   42   
4th     PAS Giannina                    26   7    4    2    25   14   2    8    3    16   18   39   
8th     PAS Giannina                    26   8    2    3    25   15   1    5    7    8    16   34   
13th    PAS Giannina                    26   4    5    4    18   18   2    4    7    7    19   27   
10th    PAS Giannina                    26   5    6    2    21   18   3    3    7    16   20   33   
6th     PAS Giannina                    26   7    2    4    19   15   6    2    5    16   15   43   
4th     PAS Giannina                    26   9    3    1    28   14   2    5    6    11   18   41   
4th     PAS Giannina                    26   7    2    4    15   11   4    3    6    9    12   38   
2nd     PAS Giannina                    26   6    6    1    21   13   5    3    5    12   12   42   
8th     PAS Giannina                    26   5    5    3    22   16   2    5    6    9    15   31   
9th     PAS Giannina                    26   5    4    4    19   19   4    3    6    13   19   34   
5th     PAS Giannina                    26   9    0    4    19   11   3    4    6    8    14   40   
7th     PAS Giannina                    26   9    3    1    19   8    2    2    9    9    18   38   
12th    PAS Giannina                    26   7    1    5    21   13   1    6    6    7    17   31   
6th     PAS Giannina                    26   9    1    3    28   13   3    3    7    11   19   40   
7th     PAS Giannina                    26   8    1    4    20   13   2    7    4    10   13   38   
7th     PAS Giannina                    26   5    6    2    21   15   5    2    6    16   19   38   
12th    PAS Giannina                    26   7    3    3    20   13   1    2    10   9    19   29   
8th     PAS Giannina                    26   6    4    3    19   15   3    3    7    12   19   34   
3rd     PAS Giannina                    26   9    0    4    18   10   4    3    6    12   16   42   
9th     PAS Giannina                    26   5    5    3    20   15   4    3    6    15   15   35   
4th     PAS Giannina                    26   8    3    2    22   14   3    3    7    7    13   39   
10th    PAS Giannina                    26   2    8    3    17   18   2    7    4    10   13   27   
6th     PAS Giannina                    26   7    3    3    25   15   4    1    8    17   23   37   
12th    PAS Giannina                    26   6    1    6    13   14   2    3    8    12   19   28   
7th     PAS Giannina                    26   9    2    2    25   13   1    5    7    9    19   37   
11th    PAS Giannina                    26   5    3    5    15   12   2    4    7    10   15   28   
5th     PAS Giannina                    26   6    2    5    18   15   4    7    2    10   10   39   
13th    PAS Giannina                    26   5    2    6    16   13   1    4    8    11   23   24   
11th    PAS Giannina                    26   4    4    5    13   14   2    7    4    10   14   29   
7th     PAS Giannina                    26   7    3    3    20   14   4    2    7    12   18   38   
3rd     PAS Giannina                    26   6    4    3    18   13   6    4    3    13   10   44   
11th    PAS Giannina                    26   5    3    5    17   15   3    2    8    10   22   29   
4th     PAS Giannina                    26   6    4    3    19   12   5    3    5    17   19   40   
6th     PAS Giannina                    26   6    4    3    24   21   4    3    6    9    13   37   
14th    PAS Giannina                    26   2    5    6    12   15   3    3    7    8    21   23   
12th    PAS Giannina                    26   6    4    3    19   15   0    5    8    9    25   27   
11th    PAS Giannina                    26   5    4    4    21   18   3    0    10   10   22   28   
6th     PAS Giannina                    26   7    5    1    14   6    2    5    6    7    20   37   
8th     PAS Giannina                    26   6    5    2    23   14   2    5    6    10   19   34   
5th     PAS Giannina                    26   10   0    3    30   15   2    5    6    11   18   41   
6th     PAS Giannina                    26   7    3    3    22   14   4    4    5    14   19   40   
10th    PAS Giannina                    26   5    5    3    20   14   3    2    8    11   20   31   
8th     PAS Giannina                    26   7    4    2    19   14   1    6    6    11   18   34   
7th     PAS Giannina                    26   7    3    3    18   12   2    6    5    8    15   36   
5th     PAS Giannina                    26   7    2    4    26   22   3    6    4    11   14   38   
8th     PAS Giannina                    26   7    3    3    23   12   3    1    9    10   22   34   
3rd     PAS Giannina                    26   7    3    3    23   16   4    5    4    17   15   41   
2nd     PAS Giannina                    26   9    2    2    22   7    4    4    5    13   16   45   
6th     PAS Giannina                    26   6    7    0    20   10   5    1    7    9    19   41   
3rd     PAS Giannina                    26   8    1    4    22   15   6    3    4    16   15   46   
1st     PAS Giannina                    26   12   1    0    28   8    3    5    5    15   20   51   
5th     PAS Giannina                    26   6    5    2    15   7    5    4    4    14   13   42   
8th     PAS Giannina                    26   6    4    3    18   10   2    4    7    7    14   32   
7th     PAS Giannina                    26   6    4    3    16   13   2    5    6    14   23   33   
9th     PAS Giannina                    26   6    4    3    17   12   2    5    6    10   18   33   
5th     PAS Giannina                    26   8    2    3    21   13   4    3    6    11   16   41   
3rd     PAS Giannina                    26   9    2    2    24   13   4    3    6    13   15   44   
7th     PAS Giannina                    26   6    3    4    17   12   4    1    8    14   21   34   
2nd     PAS Giannina                    26   9    3    1    22   11   7    4    2    15   8    55   
6th     PAS Giannina                    26   6    3    4    21   15   4    3    6    9    18   36   
11th    PAS Giannina                    26   6    3    4    17   15   3    4    6    10   17   34   
4th     PAS Giannina                    26   8    2    3    20   13   4    3    6    7    11   41   
13th    PAS Giannina                    26   4    3    6    17   26   2    2    9    11   20   23   
6th     PAS Giannina                    26   6    2    5    19   17   5    2    6    12   15   37   
8th     PAS Giannina                    26   6    5    2    21   13   2    4    7    11   17   33   
11th    PAS Giannina                    26   4    5    4    11   19   2    7    4    9    11   30   
13th    PAS Giannina                    26   3    4    6    12   17   2    3    8    7    15   22   
4th     PAS Giannina                    26   6    4    3    17   11   5    1    7    9    13   38   
6th     PAS Giannina                    26   8    1    4    21   14   3    3    7    10   20   37   
10th    PAS Giannina                    26   7    4    2    26   15   2    2    9    11   19   33   
5th     PAS Giannina                    26   7    4    2    25   17   3    4    6    9    15   38   
7th     PAS Giannina                    26   7    2    4    18   9    4    3    6    8    15   38   
10th    PAS Giannina                    26   8    1    4    26   18   1    2    10   7    21   30   
8th     PAS Giannina                    26   7    2    4    22   14   1    6    6    6    18   32   
3rd     PAS Giannina                    26   6    1    6    19   19   7    1    5    15   13   41   
3rd     PAS Giannina                    26   8    4    1    23   11   3    6    4    9    13   43   
4th     PAS Giannina                    26   6    4    3    26   18   5    7    1    14   7    44   
5th     PAS Giannina                    26   5    4    4    19   19   5    4    4    12   10   38   
8th     PAS Giannina                    26   6    3    4    19   16   3    5    5    16   20   35   
7th     PAS Giannina                    26   6    3    4    24   14   3    2    8    7    15   32   
6th     PAS Giannina                    26   6    5    2    21   14   3    5    5    9    16   37   
3rd     PAS Giannina                    26   7    4    2    20   14   4    3    6    11   13   40   
14th    PAS Giannina                    26   5    5    3    24   18   2    3    8    7    17   29   
3rd     PAS Giannina                    26   8    3    2    22   15   4    4    5    14   15   43   
2nd     PAS Giannina                    26   12   1    0    29   9    4    2    7    13   16   51   
12th    PAS Giannina                    26   5    3    5    14   14   2    5    6    6    15   29   