1st     PAS Giannina                    26   11   2    0    35   11   11   1    1    30   9    69   
1st     PAS Giannina                    26   13   0    0    32   10   9    2    2    25   14   68   
1st     PAS Giannina                    26   11   0    2    34   11   7    4    2    22   12   58   
1st     PAS Giannina                    26   10   2    1    36   15   8    4    1    25   13   60   
1st     PAS Giannina                    26   7    4    2    29   14   10   2    1    28   9    57   
1st     PAS Giannina                    26   9    1    3    27   19   5    6    2    23   16   49   
1st     PAS Giannina                    26   12   0    1    33   11   7    3    3    25   17   60   
1st     PAS Giannina                    26   10   3    0    34   16   9    4    0    25   10   64   
1st     PAS Giannina                    26   9    3    1    35   13   5    8    0    20   11   53   
2nd     PAS Giannina                    26   9    3    1    31   11   6    2    5    21   18   50   
1st     PAS Giannina                    26   9    3    1    34   17   8    2    3    25   12   56   
3rd     PAS Giannina                    26   10   1    2    30   14   5    3    5    20   18   49   
1st     PAS Giannina                    26   12   0    1    41   11   8    3    2    28   12   63   
2nd     PAS Giannina                    26   11   0    2    30   15   5    5    3    23   19   53   
1st     PAS Giannina                    26   11   2    0    32   5    6    4    3    20   12   57   
2nd     PAS Giannina                    26   9    4    0    32   10   6    4    3    23   15   53   
2nd     PAS Giannina                    26   10   0    3    28   13   6    4    3    21   14   52   
1st     PAS Giannina                    26   13   0    0    35   11   8    2    3    27   12   65   
1st     PAS Giannina                    26   11   2    0    35   14   7    4    2    25   15   60   
1st     PAS Giannina                    26   10   2    1    29   13   7    3    3    25   17   56   
1st     PAS Giannina                    26   10   3    0    31   10   11   1    1    25   10   67   
2nd     PAS Giannina                    26   11   1    1    35   10   8    1    4    25   13   59   
1st     PAS Giannina                    26   11   2    0    37   11   7    4    2    22   11   60   
1st     PAS Giannina                    26   11   1    1    30   15   9    2    2    29   13   63   
1st     PAS Giannina                    26   12   1    0    30   7    9    1    3    23   13   65   
2nd     PAS Giannina                    26   8    4    1    28   13   9    3    1    28   13   58   
1st     PAS Giannina                    26   10   3    0    38   15   10   1    2    35   16   64   
3rd     PAS Giannina                    26   7    4    2    28   17   7    1    5    26   17   47   
1st     PAS Giannina                    26   11   1    1    34   10   11   2    0    24   7    69   
2nd     PAS Giannina                    26   10   3    0    22   7    6    2    5    16   16   53   
1st     PAS Giannina                    26   9    2    2    30   16   8    2    3    26   14   55   
2nd     PAS Giannina                    26   9    1    3    24   8    8    3    2    25   17   55   
1st     PAS Giannina                    26   12   0    1    34   10   7    2    4    20   12   59   
1st     PAS Giannina                    26   10   0    3    33   20   8    3    2    25   17   57   
1st     PAS Giannina                    26   12   1    0    30   6    10   2    1    26   8    69   
1st     PAS Giannina                    26   13   0    0    30   6    7    6    0    21   11   66   
1st     PAS Giannina                    26   10   1    2    33   13   8    2    3    27   17   57   
2nd     PAS Giannina                    26   8    3    2    27   15   7    1    5    24   19   49   
1st     PAS Giannina                    26   10   2    1    34   13   8    2    3    26   14   58   
1st     PAS Giannina                    26   11   1    1    31   10   7    4    2    21   12   59   
1st     PAS Giannina                    26   11   2    0    33   12   7    4    2    26   12   60   
2nd     PAS Giannina                    26   12   1    0    36   9    6    2    5    26   16   57   
2nd     PAS Giannina                    26   10   2    1    28   11   7    1    5    22   14   54   
1st     PAS Giannina                    26   10   0    3    29   13   6    2    5    19   16   50   
1st     PAS Giannina                    26   11   1    1    36   17   10   1    2    24   10   65   
2nd     PAS Giannina                    26   7    5    1    30   18   9    3    1    25   9    56   
2nd     PAS Giannina                    26   11   2    0    30   8    4    4    5    13   12   51   
1st     PAS Giannina                    26   11   1    1    30   5    6    4    3    19   11   56   
1st     PAS Giannina                    26   10   2    1    35   11   7    4    2    23   9    57   
1st     PAS Giannina                    26   10   3    0    37   16   8    3    2    22   9    60   
1st     PAS Giannina                    26   9    4    0    24   11   8    2    3    25   12   57   
1st     PAS Giannina                    26   9    3    1    30   12   5    6    2    14   10   51   
1st     PAS Giannina                    26   12   0    1    36   10   8    3    2    23   13   63   
1st     PAS Giannina                    26   11   1    1    34   16   6    5    2    19   11   57   
2nd     PAS Giannina                    26   9    4    0    33   13   6    4    3    19   13   53   
1st     PAS Giannina                    26   11   2    0    33   13   5    5    3    18   13   55   
1st     PAS Giannina                    26   11   2    0    36   7    8    2    3    22   10   61   
1st     PAS Giannina                    26   11   0    2    36   10   9    3    1    29   19   63   
1st     PAS Giannina                    26   13   0    0    29   7    10   1    2    28   9    70   
1st     PAS Giannina                    26   9    2    2    29   15   10   3    0    25   9    62   
1st     PAS Giannina                    26   11   2    0    40   11   8    3    2    22   12   62   
1st     PAS Giannina                    26   10   3    0    31   7    11   0    2    29   12   66   
1st     PAS Giannina                    26   9    3    1    31   13   9    1    3    21   11   58   
1st     PAS Giannina                    26   11   1    1    27   10   8    3    2    26   16   61   
1st     PAS Giannina                    26   11   1    1    33   7    7    4    2    20   12   59   
1st     PAS Giannina                    26   12   1    0    34   6    6    4    3    14   10   59   
1st     PAS Giannina                    26   9    4    0    37   15   10   3    0    24   12   64   
1st     PAS Giannina                    26   10   3    0    27   9    9    2    2    21   7    62   
2nd     PAS Giannina                    26   9    4    0    27   11   6    4    3    25   17   53   
2nd     PAS Giannina                    26   10   3    0    34   9    4    3    6    19   24   48   
1st     PAS Giannina                    26   10   2    1    29   6    10   3    0    29   11   65   
1st     PAS Giannina                    26   10   2    1    35   11   8    2    3    16   9    58   
1st     PAS Giannina                    26   11   1    1    37   13   5    6    2    19   13   55   
1st     PAS Giannina                    26   9    4    0    29   9    7    3    3    20   13   55   
2nd     PAS Giannina                    26   10   2    1    36   12   8    1    4    25   19   57   
1st     PAS Giannina                    26   7    1    5    31   19   7    5    1    25   10   48   
3rd     PAS Giannina                    26   10   3    0    31   12   4    4    5    21   15   49   
1st     PAS Giannina                    26   10   3    0    32   9    7    6    0    30   17   60   
2nd     PAS Giannina                    26   10   1    2    33   16   7    4    2    28   18   56   
2nd     PAS Giannina                    26   10   3    0    33   6    6    3    4    26   18   54   
1st     PAS Giannina                    26   11   2    0    40   12   11   0    2    27   8    68   
1st     PAS Giannina                    26   11   2    0    28   8    7    4    2    28   15   60   
1st     PAS Giannina                    26   12   0    1    34   12   6    2    5    25   16   56   
1st     PAS Giannina                    26   11   1    1    43   12   7    5    1    26   11   60   
1st     PAS Giannina                    26   9    2    2    28   13   9    0    4    28   14   56   
1st     PAS Giannina                    26   11   2    0    34   8    7    3    3    21   14   59   
1st     PAS Giannina                    26   12   0    1    41   14   8    2    3    22   14   62   
2nd     PAS Giannina                    26   11   2    0    35   10   4    5    4    17   20   52   
1st     PAS Giannina                    26   10   2    1    32   12   11   1    1    36   14   66   
2nd     PAS Giannina                    26   12   1    0    44   13   8    2    3    25   11   63   
1st     PAS Giannina                    26   9    3    1    29   10   9    3    1    23   8    60   
1st     PAS Giannina                    26   12   0    1    32   12   8    4    1    28   15   64   
2nd     PAS Giannina                    26   11   2    0    29   4    5    4    4    20   17   54   
1st     PAS Giannina                    26   9    2    2    29   15   8    2    3    22   16   55   
2nd     PAS Giannina                    26   8    3    2    25   11   8    2    3    20   7    53   
7th     PAS Giannina                    26   7    3    3    31   18   2    5    6    13   19   35   
2nd     PAS Giannina                    26   8    3    2    25   12   7    3    3    22   14   51   
1st     PAS Giannina                    26   9    2    2    36   11   8    4    1    25   10   57   
1st     PAS Giannina                    26   11   1    1    35   14   8    2    3    31   13   60   
1st     PAS Giannina                    26   10   3    0    34   12   8    3    2    29   16   60   