1st     PAS Giannina                    26   12   1    0    34   10   11   2    0    31   10   72   
1st     PAS Giannina                    26   10   3    0    31   15   7    4    2    22   16   58   
2nd     PAS Giannina                    26   11   0    2    35   14   8    3    2    22   14   60   
1st     PAS Giannina                    26   11   1    1    36   10   8    4    1    34   17   62   
1st     PAS Giannina                    26   12   0    1    44   11   7    2    4    28   18   59   
1st     PAS Giannina                    26   12   0    1    34   14   9    1    3    20   15   64   
2nd     PAS Giannina                    26   12   0    1    25   7    7    3    3    32   16   60   
1st     PAS Giannina                    26   11   1    1    34   11   7    2    4    21   12   57   
1st     PAS Giannina                    26   9    4    0    28   9    9    1    3    33   23   59   
1st     PAS Giannina                    26   8    4    1    27   11   8    1    4    27   14   53   
1st     PAS Giannina                    26   9    2    2    32   14   9    0    4    28   14   56   
3rd     PAS Giannina                    26   9    2    2    28   9    4    3    6    21   20   44   
1st     PAS Giannina                    26   11   0    2    33   13   8    5    0    27   11   62   
1st     PAS Giannina                    26   12   1    0    31   10   10   2    1    33   16   69   
1st     PAS Giannina                    26   11   2    0    39   9    8    1    4    27   20   60   
2nd     PAS Giannina                    26   10   1    2    35   8    4    7    2    22   20   50   
2nd     PAS Giannina                    26   7    4    2    29   16   7    2    4    23   18   48   
2nd     PAS Giannina                    26   9    3    1    29   11   5    5    3    19   11   50   
1st     PAS Giannina                    26   9    4    0    37   13   10   1    2    29   20   62   
2nd     PAS Giannina                    26   11   2    0    33   9    5    6    2    30   17   56   
1st     PAS Giannina                    26   12   1    0    34   8    6    2    5    21   15   57   
1st     PAS Giannina                    26   12   0    1    32   10   5    2    6    14   16   53   
2nd     PAS Giannina                    26   6    4    3    24   12   8    4    1    27   13   50   
1st     PAS Giannina                    26   10   2    1    30   16   6    3    4    22   13   53   
2nd     PAS Giannina                    26   8    2    3    26   15   8    2    3    33   14   52   
1st     PAS Giannina                    26   9    4    0    33   11   8    2    3    27   16   57   
1st     PAS Giannina                    26   11   1    1    35   10   10   3    0    33   13   67   
1st     PAS Giannina                    26   11   2    0    39   9    9    3    1    31   14   65   
3rd     PAS Giannina                    26   9    1    3    31   16   4    8    1    21   16   48   
1st     PAS Giannina                    26   9    4    0    32   12   9    3    1    31   14   61   
1st     PAS Giannina                    26   12   0    1    38   13   7    4    2    28   15   61   
2nd     PAS Giannina                    26   10   2    1    35   8    5    4    4    25   23   51   
1st     PAS Giannina                    26   9    2    2    28   12   9    3    1    23   7    59   
2nd     PAS Giannina                    26   10   2    1    33   16   6    4    3    24   14   54   
1st     PAS Giannina                    26   12   0    1    34   5    6    4    3    25   13   58   
1st     PAS Giannina                    26   12   1    0    33   11   5    5    3    17   13   57   
1st     PAS Giannina                    26   9    2    2    31   13   8    4    1    21   10   57   
2nd     PAS Giannina                    26   10   2    1    34   10   8    3    2    22   12   59   
2nd     PAS Giannina                    26   11   2    0    30   10   7    2    4    18   12   58   
1st     PAS Giannina                    26   8    3    2    31   14   9    0    4    29   15   54   
2nd     PAS Giannina                    26   7    5    1    28   17   8    2    3    25   12   52   
1st     PAS Giannina                    26   11   1    1    35   15   8    5    0    29   13   63   
1st     PAS Giannina                    26   9    2    2    35   14   9    4    0    34   13   60   
1st     PAS Giannina                    26   10   1    2    32   11   8    2    3    21   12   57   
2nd     PAS Giannina                    26   9    3    1    30   12   7    2    4    22   16   53   
1st     PAS Giannina                    26   8    4    1    26   12   8    2    3    22   15   54   
1st     PAS Giannina                    26   12   1    0    32   4    4    0    9    22   24   49   
1st     PAS Giannina                    26   11   1    1    38   11   7    2    4    26   12   57   
1st     PAS Giannina                    26   10   3    0    33   9    5    0    8    20   18   48   
1st     PAS Giannina                    26   9    1    3    32   13   8    3    2    22   14   55   
1st     PAS Giannina                    26   12   1    0    39   11   6    3    4    20   14   58   
1st     PAS Giannina                    26   12   0    1    35   9    8    2    3    30   17   62   
3rd     PAS Giannina                    26   9    1    3    27   12   4    4    5    23   19   44   
1st     PAS Giannina                    26   12   0    1    35   11   5    3    5    18   14   54   
1st     PAS Giannina                    26   9    4    0    31   9    7    4    2    21   13   56   
1st     PAS Giannina                    26   11   0    2    29   8    9    2    2    30   15   62   
2nd     PAS Giannina                    26   11   1    1    33   13   3    5    5    15   23   48   
2nd     PAS Giannina                    26   10   0    3    30   11   4    5    4    15   17   47   
1st     PAS Giannina                    26   12   0    1    35   13   7    4    2    22   13   61   
1st     PAS Giannina                    26   10   2    1    33   12   7    4    2    24   15   57   
1st     PAS Giannina                    26   11   1    1    31   9    9    2    2    23   8    63   
1st     PAS Giannina                    26   9    2    2    34   16   6    4    3    26   15   51   
1st     PAS Giannina                    26   10   1    2    25   10   6    5    2    25   18   54   
1st     PAS Giannina                    26   12   0    1    35   12   9    3    1    24   11   66   
1st     PAS Giannina                    26   9    1    3    26   12   6    5    2    25   12   51   
1st     PAS Giannina                    26   11   0    2    38   12   9    2    2    31   17   62   
1st     PAS Giannina                    26   12   1    0    33   12   9    2    2    34   18   66   
2nd     PAS Giannina                    26   11   1    1    37   9    7    2    4    24   14   57   
1st     PAS Giannina                    26   10   2    1    34   10   8    2    3    21   11   58   
2nd     PAS Giannina                    26   7    5    1    29   14   8    1    4    21   12   51   
1st     PAS Giannina                    26   12   1    0    36   8    9    3    1    27   12   67   
1st     PAS Giannina                    26   12   1    0    32   9    8    0    5    24   19   61   
1st     PAS Giannina                    26   9    3    1    35   17   7    2    4    20   13   53   
2nd     PAS Giannina                    26   10   3    0    35   14   7    1    5    29   16   55   
1st     PAS Giannina                    26   9    4    0    32   8    9    2    2    31   12   60   
1st     PAS Giannina                    26   11   1    1    37   14   7    4    2    23   13   59   
1st     PAS Giannina                    26   13   0    0    34   4    7    1    5    23   19   61   
1st     PAS Giannina                    26   11   2    0    36   7    11   2    0    33   14   70   
1st     PAS Giannina                    26   10   3    0    27   10   9    3    1    35   15   63   
1st     PAS Giannina                    26   7    6    0    27   13   11   1    1    30   10   61   
1st     PAS Giannina                    26   8    5    0    28   12   8    5    0    34   17   58   
1st     PAS Giannina                    26   13   0    0    30   6    6    3    4    26   18   60   
1st     PAS Giannina                    26   12   0    1    37   10   9    1    3    24   13   64   
1st     PAS Giannina                    26   10   2    1    29   8    6    1    6    21   19   51   
1st     PAS Giannina                    26   12   0    1    37   8    8    3    2    23   10   63   
1st     PAS Giannina                    26   9    4    0    33   12   9    1    3    31   14   59   
1st     PAS Giannina                    26   11   2    0    39   14   8    3    2    21   12   62   
1st     PAS Giannina                    26   11   1    1    37   13   9    2    2    25   13   63   
2nd     PAS Giannina                    26   10   2    1    29   10   8    4    1    32   14   60   
2nd     PAS Giannina                    26   9    3    1    30   14   6    3    4    21   15   51   
1st     PAS Giannina                    26   12   1    0    29   8    6    3    4    25   21   58   
2nd     PAS Giannina                    26   9    3    1    27   8    7    3    3    15   11   54   
1st     PAS Giannina                    26   9    1    3    28   14   9    3    1    36   16   58   
1st     PAS Giannina                    26   8    3    2    27   12   8    2    3    25   12   53   
1st     PAS Giannina                    26   12   1    0    34   6    7    4    2    25   15   62   
1st     PAS Giannina                    26   12   0    1    36   12   8    0    5    36   21   60   
2nd     PAS Giannina                    26   10   2    1    25   7    5    1    7    18   16   48   
1st     PAS Giannina                    26   11   1    1    38   9    9    2    2    26   11   63   
2nd     PAS Giannina                    26   7    6    0    31   13   5    3    5    27   22   45   
1st     PAS Giannina                    26   13   0    0    38   12   7    4    2    20   12   64   