1st     PAS Giannina                    26   12   1    0    34   13   11   0    2    44   16   70   
1st     PAS Giannina                    26   11   2    0    47   16   9    1    3    29   14   63   
1st     PAS Giannina                    26   12   1    0    48   14   10   3    0    37   13   70   
1st     PAS Giannina                    26   13   0    0    40   9    10   1    2    38   11   70   
1st     PAS Giannina                    26   11   2    0    44   14   10   0    3    43   12   65   
1st     PAS Giannina                    26   11   2    0    40   15   11   0    2    44   12   68   
1st     PAS Giannina                    26   12   0    1    41   13   12   1    0    42   16   73   
1st     PAS Giannina                    26   11   2    0    42   12   11   1    1    39   15   69   
1st     PAS Giannina                    26   9    4    0    41   17   11   2    0    47   17   66   
1st     PAS Giannina                    26   11   1    1    40   13   11   1    1    40   14   68   
1st     PAS Giannina                    26   10   2    1    33   15   8    4    1    40   17   60   
1st     PAS Giannina                    26   13   0    0    49   11   8    2    3    34   13   65   
1st     PAS Giannina                    26   10   2    1    40   15   10   1    2    34   12   63   
1st     PAS Giannina                    26   12   1    0    41   7    11   1    1    38   12   71   
1st     PAS Giannina                    26   11   1    1    41   10   11   2    0    42   11   69   
1st     PAS Giannina                    26   11   2    0    43   15   13   0    0    45   7    74   
1st     PAS Giannina                    26   11   2    0    40   15   13   0    0    38   11   74   
1st     PAS Giannina                    26   12   0    1    44   15   8    2    3    26   16   62   
1st     PAS Giannina                    26   13   0    0    35   13   13   0    0    48   14   78   
1st     PAS Giannina                    26   13   0    0    42   11   11   0    2    36   16   72   
1st     PAS Giannina                    26   12   1    0    42   13   11   0    2    41   9    70   
1st     PAS Giannina                    26   12   1    0    46   15   12   0    1    45   14   73   
1st     PAS Giannina                    26   10   2    1    39   18   11   2    0    45   13   67   
1st     PAS Giannina                    26   12   0    1    50   17   11   0    2    46   14   69   
1st     PAS Giannina                    26   11   2    0    45   13   12   1    0    41   13   72   
1st     PAS Giannina                    26   11   2    0    40   14   11   0    2    38   13   68   
1st     PAS Giannina                    26   11   2    0    39   15   12   0    1    36   9    71   
1st     PAS Giannina                    26   11   1    1    38   16   10   3    0    36   14   67   
1st     PAS Giannina                    26   13   0    0    44   10   11   2    0    38   11   74   
1st     PAS Giannina                    26   12   1    0    53   16   10   1    2    44   18   68   
1st     PAS Giannina                    26   11   2    0    31   10   13   0    0    44   8    74   
1st     PAS Giannina                    26   11   2    0    45   13   11   1    1    37   11   69   
1st     PAS Giannina                    26   12   1    0    42   11   10   2    1    44   14   69   
1st     PAS Giannina                    26   12   0    1    43   13   11   2    0    38   12   71   
1st     PAS Giannina                    26   11   1    1    42   18   10   3    0    35   14   67   
1st     PAS Giannina                    26   10   2    1    42   9    11   1    1    43   16   66   
1st     PAS Giannina                    26   12   1    0    49   14   12   1    0    46   19   74   
1st     PAS Giannina                    26   12   0    1    37   12   11   1    1    41   11   70   
1st     PAS Giannina                    26   12   0    1    37   12   10   3    0    35   9    69   
1st     PAS Giannina                    26   11   2    0    43   13   11   1    1    37   14   69   
1st     PAS Giannina                    26   12   0    1    40   12   11   2    0    44   13   71   
1st     PAS Giannina                    26   12   0    1    37   11   11   0    2    42   21   69   
1st     PAS Giannina                    26   10   3    0    39   18   10   2    1    41   11   65   
1st     PAS Giannina                    26   10   1    2    42   18   11   1    1    44   12   65   
1st     PAS Giannina                    26   9    2    2    43   17   10   2    1    40   13   61   
1st     PAS Giannina                    26   12   1    0    45   7    9    2    2    38   16   66   
1st     PAS Giannina                    26   11   1    1    43   9    13   0    0    47   8    73   
1st     PAS Giannina                    26   13   0    0    46   10   10   2    1    42   14   71   
1st     PAS Giannina                    26   12   0    1    45   10   9    3    1    30   11   66   
1st     PAS Giannina                    26   13   0    0    50   15   12   0    1    37   15   75   
1st     PAS Giannina                    26   12   0    1    44   14   11   1    1    48   18   70   
1st     PAS Giannina                    26   10   2    1    41   13   11   1    1    41   17   66   
1st     PAS Giannina                    26   12   0    1    39   10   12   1    0    46   12   73   
1st     PAS Giannina                    26   11   2    0    43   16   11   1    1    43   11   69   
1st     PAS Giannina                    26   10   2    1    37   16   10   2    1    37   10   64   
1st     PAS Giannina                    26   12   0    1    35   7    11   1    1    39   12   70   
1st     PAS Giannina                    26   11   2    0    36   13   11   2    0    36   10   70   
1st     PAS Giannina                    26   12   0    1    44   16   10   3    0    35   13   69   
1st     PAS Giannina                    26   11   1    1    46   21   10   2    1    45   14   66   
1st     PAS Giannina                    26   11   2    0    45   16   10   1    2    38   13   66   
1st     PAS Giannina                    26   13   0    0    45   19   12   1    0    44   15   76   
1st     PAS Giannina                    26   12   0    1    50   11   11   2    0    43   12   71   
1st     PAS Giannina                    26   12   1    0    43   12   12   0    1    47   13   73   
1st     PAS Giannina                    26   12   1    0    39   10   10   3    0    41   14   70   
1st     PAS Giannina                    26   12   1    0    38   12   11   1    1    39   11   71   
1st     PAS Giannina                    26   11   1    1    42   15   11   1    1    50   19   68   
1st     PAS Giannina                    26   9    4    0    41   18   11   1    1    44   16   65   
1st     PAS Giannina                    26   12   1    0    44   9    11   1    1    41   13   71   
1st     PAS Giannina                    26   12   0    1    42   12   10   3    0    37   9    69   
1st     PAS Giannina                    26   12   0    1    39   11   8    4    1    36   17   64   
1st     PAS Giannina                    26   11   0    2    36   15   12   1    0    41   11   70   
1st     PAS Giannina                    26   10   2    1    41   17   11   2    0    45   15   67   
1st     PAS Giannina                    26   12   0    1    47   11   13   0    0    46   11   75   
1st     PAS Giannina                    26   11   2    0    43   17   9    4    0    35   12   66   
1st     PAS Giannina                    26   11   1    1    39   15   11   0    2    41   21   67   
1st     PAS Giannina                    26   11   0    2    37   13   9    1    3    40   18   61   
1st     PAS Giannina                    26   10   2    1    41   17   10   1    2    42   13   63   
1st     PAS Giannina                    26   10   2    1    36   10   13   0    0    43   9    71   
1st     PAS Giannina                    26   12   1    0    41   16   11   0    2    48   15   70   
1st     PAS Giannina                    26   13   0    0    46   15   11   1    1    40   13   73   
1st     PAS Giannina                    26   13   0    0    53   15   11   0    2    38   17   72   
1st     PAS Giannina                    26   11   2    0    53   23   9    3    1    39   11   65   
1st     PAS Giannina                    26   12   1    0    44   13   12   1    0    52   13   74   
1st     PAS Giannina                    26   10   3    0    43   16   7    5    1    35   17   59   
1st     PAS Giannina                    26   13   0    0    45   9    11   2    0    41   12   74   
1st     PAS Giannina                    26   10   1    2    35   11   9    2    2    38   14   60   
1st     PAS Giannina                    26   12   1    0    45   13   11   2    0    40   13   72   
1st     PAS Giannina                    26   11   2    0    35   14   12   1    0    38   11   72   
1st     PAS Giannina                    26   11   1    1    34   9    12   1    0    49   20   71   
1st     PAS Giannina                    26   13   0    0    46   10   11   2    0    45   15   74   
1st     PAS Giannina                    26   11   1    1    42   13   10   1    2    47   17   65   
1st     PAS Giannina                    26   11   2    0    36   13   9    2    2    44   16   64   
1st     PAS Giannina                    26   12   1    0    47   12   12   1    0    42   12   74   
1st     PAS Giannina                    26   13   0    0    46   14   12   1    0    39   11   76   
1st     PAS Giannina                    26   11   1    1    40   12   9    3    1    35   14   64   
1st     PAS Giannina                    26   12   1    0    46   12   12   0    1    44   20   73   
1st     PAS Giannina                    26   12   0    1    42   15   11   2    0    41   12   71   
1st     PAS Giannina                    26   12   1    0    44   15   10   3    0    40   11   70   
1st     PAS Giannina                    26   10   2    1    36   13   11   1    1    40   13   66   
1st     PAS Giannina                    26   12   1    0    44   13   10   0    3    38   16   67   