1st     PAS Giannina                    26   10   1    2    24   7    6    7    0    24   13   56   
2nd     PAS Giannina                    26   10   1    2    32   14   8    2    3    25   17   57   
2nd     PAS Giannina                    26   7    3    3    25   13   9    2    2    23   10   53   
1st     PAS Giannina                    26   12   1    0    28   11   6    5    2    24   14   60   
2nd     PAS Giannina                    26   8    2    3    20   9    6    4    3    19   16   48   
2nd     PAS Giannina                    26   10   2    1    24   7    6    4    3    17   10   54   
1st     PAS Giannina                    26   11   2    0    27   11   8    1    4    18   15   60   
2nd     PAS Giannina                    26   7    3    3    30   16   7    4    2    20   13   49   
1st     PAS Giannina                    26   10   2    1    29   11   5    3    5    20   14   50   
1st     PAS Giannina                    26   11   1    1    29   15   8    2    3    18   12   60   
2nd     PAS Giannina                    26   7    4    2    23   13   9    2    2    27   13   54   
2nd     PAS Giannina                    26   9    2    2    21   8    5    4    4    26   19   48   
2nd     PAS Giannina                    26   11   0    2    31   9    6    6    1    21   12   57   
1st     PAS Giannina                    26   11   2    0    31   9    8    0    5    14   14   59   
1st     PAS Giannina                    26   11   2    0    30   7    6    3    4    25   12   56   
3rd     PAS Giannina                    26   7    4    2    25   13   4    4    5    18   16   41   
2nd     PAS Giannina                    26   10   1    2    31   14   5    6    2    23   16   52   
3rd     PAS Giannina                    26   7    2    4    22   14   7    3    3    17   14   47   
9th     PAS Giannina                    26   7    2    4    26   16   2    4    7    14   23   33   
2nd     PAS Giannina                    26   11   1    1    32   7    5    5    3    16   13   54   
5th     PAS Giannina                    26   10   2    1    31   11   1    3    9    6    20   38   
1st     PAS Giannina                    26   10   1    2    36   18   9    1    3    17   8    59   
2nd     PAS Giannina                    26   10   2    1    30   12   6    3    4    20   18   53   
1st     PAS Giannina                    26   10   1    2    31   11   8    2    3    21   14   57   
2nd     PAS Giannina                    26   9    4    0    32   11   7    1    5    18   12   53   
3rd     PAS Giannina                    26   8    3    2    22   13   5    5    3    21   16   47   
2nd     PAS Giannina                    26   8    5    0    25   4    8    0    5    25   19   53   
1st     PAS Giannina                    26   10   3    0    32   11   7    3    3    21   15   57   
1st     PAS Giannina                    26   8    3    2    19   8    9    1    3    30   17   55   
3rd     PAS Giannina                    26   8    3    2    20   13   6    4    3    22   14   49   
2nd     PAS Giannina                    26   7    5    1    25   15   7    2    4    25   21   49   
1st     PAS Giannina                    26   9    3    1    24   9    6    3    4    18   16   51   
2nd     PAS Giannina                    26   7    3    3    30   18   5    5    3    18   12   44   
2nd     PAS Giannina                    26   11   1    1    31   11   7    4    2    23   12   59   
2nd     PAS Giannina                    26   12   1    0    25   10   4    4    5    17   18   53   
3rd     PAS Giannina                    26   7    3    3    24   13   6    5    2    19   14   47   
2nd     PAS Giannina                    26   11   1    1    36   12   6    4    3    17   12   56   
2nd     PAS Giannina                    26   6    5    2    25   18   4    8    1    19   15   43   
1st     PAS Giannina                    26   12   1    0    31   9    6    3    4    25   19   58   
1st     PAS Giannina                    26   10   3    0    33   15   8    2    3    24   18   59   
2nd     PAS Giannina                    26   9    1    3    29   14   4    5    4    17   18   45   
3rd     PAS Giannina                    26   8    5    0    24   12   4    2    7    17   23   43   
3rd     PAS Giannina                    26   9    4    0    27   13   6    2    5    15   15   51   
1st     PAS Giannina                    26   9    2    2    31   15   7    3    3    26   14   53   
2nd     PAS Giannina                    26   11   2    0    33   10   5    2    6    15   19   52   
1st     PAS Giannina                    26   9    4    0    35   13   7    2    4    23   17   54   
2nd     PAS Giannina                    26   8    4    1    24   7    6    2    5    14   12   48   
1st     PAS Giannina                    26   10   1    2    23   8    11   0    2    34   14   64   
2nd     PAS Giannina                    26   8    3    2    20   11   6    4    3    26   14   49   
1st     PAS Giannina                    26   9    3    1    24   10   5    3    5    15   11   48   
1st     PAS Giannina                    26   11   1    1    27   6    8    2    3    17   10   60   
1st     PAS Giannina                    26   9    3    1    29   11   6    3    4    21   15   51   
1st     PAS Giannina                    26   10   3    0    25   6    8    3    2    26   15   60   
1st     PAS Giannina                    26   8    4    1    31   11   9    1    3    21   9    56   
1st     PAS Giannina                    26   9    2    2    25   12   10   0    3    27   13   59   
1st     PAS Giannina                    26   10   2    1    29   13   8    2    3    21   18   58   
1st     PAS Giannina                    26   10   1    2    28   12   7    2    4    25   16   54   
2nd     PAS Giannina                    26   12   0    1    37   12   7    3    3    25   17   60   
3rd     PAS Giannina                    26   8    4    1    28   16   5    3    5    21   19   46   
2nd     PAS Giannina                    26   9    1    3    27   13   4    2    7    15   17   42   
1st     PAS Giannina                    26   11   1    1    25   10   7    2    4    26   19   57   
1st     PAS Giannina                    26   10   1    2    22   7    4    5    4    17   16   48   
3rd     PAS Giannina                    26   10   1    2    28   11   4    3    6    18   21   46   
4th     PAS Giannina                    26   9    2    2    29   14   2    6    5    15   20   41   
1st     PAS Giannina                    26   10   2    1    30   13   5    4    4    23   22   51   
1st     PAS Giannina                    26   8    3    2    31   14   7    4    2    25   16   52   
2nd     PAS Giannina                    26   10   2    1    26   7    4    5    4    20   18   49   
2nd     PAS Giannina                    26   10   1    2    29   10   5    5    3    17   14   51   
3rd     PAS Giannina                    26   8    3    2    30   16   3    6    4    17   19   42   
2nd     PAS Giannina                    26   8    3    2    24   9    6    3    4    27   19   48   
1st     PAS Giannina                    26   9    2    2    29   14   11   1    1    31   11   63   
2nd     PAS Giannina                    26   13   0    0    36   10   6    3    4    22   13   60   
1st     PAS Giannina                    26   9    2    2    25   10   8    1    4    23   14   54   
1st     PAS Giannina                    26   11   1    1    34   17   6    3    4    17   13   55   
3rd     PAS Giannina                    26   8    2    3    27   14   5    5    3    15   11   46   
3rd     PAS Giannina                    26   7    3    3    26   14   5    5    3    23   17   44   
2nd     PAS Giannina                    26   7    5    1    29   19   6    4    3    21   15   48   
2nd     PAS Giannina                    26   7    3    3    25   16   10   1    2    21   9    55   
1st     PAS Giannina                    26   12   1    0    30   8    6    5    2    21   14   60   
3rd     PAS Giannina                    26   10   3    0    26   13   3    3    7    18   18   45   
1st     PAS Giannina                    26   9    2    2    36   15   7    6    0    26   14   56   
3rd     PAS Giannina                    26   6    5    2    20   12   5    4    4    17   13   42   
2nd     PAS Giannina                    26   11   2    0    35   13   7    2    4    22   16   58   
4th     PAS Giannina                    26   8    4    1    26   11   4    4    5    22   24   44   
1st     PAS Giannina                    26   6    5    2    22   13   10   1    2    23   7    54   
1st     PAS Giannina                    26   9    3    1    31   15   6    5    2    18   11   53   
2nd     PAS Giannina                    26   11   2    0    36   13   5    2    6    23   21   52   
5th     PAS Giannina                    26   8    4    1    27   14   5    3    5    22   23   46   
2nd     PAS Giannina                    26   9    2    2    24   7    5    5    3    18   14   49   
7th     PAS Giannina                    26   8    2    3    31   12   3    4    6    14   18   39   
2nd     PAS Giannina                    26   10   2    1    28   10   6    1    6    16   16   51   
2nd     PAS Giannina                    26   9    3    1    31   11   6    5    2    22   16   53   
1st     PAS Giannina                    26   10   2    1    29   11   9    2    2    26   18   61   
2nd     PAS Giannina                    26   8    5    0    27   11   5    3    5    19   16   47   
1st     PAS Giannina                    26   9    3    1    25   15   5    5    3    17   12   50   
7th     PAS Giannina                    26   8    1    4    22   15   3    3    7    17   25   37   
3rd     PAS Giannina                    26   8    1    4    28   13   8    1    4    23   16   50   
1st     PAS Giannina                    26   9    2    2    27   12   7    4    2    21   11   54   
2nd     PAS Giannina                    26   10   2    1    31   12   5    5    3    23   20   52   
2nd     PAS Giannina                    26   10   1    2    31   11   6    2    5    20   16   51   