1st     PAS Giannina                    26   12   0    1    39   14   9    2    2    32   15   65   
1st     PAS Giannina                    26   13   0    0    41   11   12   1    0    42   11   76   
1st     PAS Giannina                    26   12   1    0    40   11   9    3    1    30   19   67   
1st     PAS Giannina                    26   11   1    1    36   14   10   3    0    33   12   67   
1st     PAS Giannina                    26   8    3    2    35   19   10   1    2    34   13   58   
1st     PAS Giannina                    26   11   1    1    31   13   7    2    4    22   19   57   
1st     PAS Giannina                    26   12   0    1    40   10   9    3    1    25   11   66   
1st     PAS Giannina                    26   11   0    2    35   11   9    2    2    30   14   62   
1st     PAS Giannina                    26   13   0    0    37   12   11   1    1    31   11   73   
1st     PAS Giannina                    26   12   1    0    36   10   10   0    3    26   11   67   
1st     PAS Giannina                    26   12   1    0    34   13   8    1    4    26   14   62   
1st     PAS Giannina                    26   11   1    1    41   10   7    4    2    32   18   59   
1st     PAS Giannina                    26   10   2    1    33   15   12   0    1    34   10   68   
1st     PAS Giannina                    26   12   1    0    39   8    11   1    1    34   10   71   
1st     PAS Giannina                    26   12   1    0    36   10   9    3    1    38   22   67   
1st     PAS Giannina                    26   8    5    0    33   12   10   2    1    39   17   61   
1st     PAS Giannina                    26   11   2    0    36   12   11   1    1    32   14   69   
1st     PAS Giannina                    26   13   0    0    49   13   10   0    3    36   15   69   
2nd     PAS Giannina                    26   10   1    2    32   14   7    4    2    32   20   56   
1st     PAS Giannina                    26   10   2    1    36   13   8    4    1    29   10   60   
2nd     PAS Giannina                    26   9    2    2    28   15   8    5    0    28   12   58   
1st     PAS Giannina                    26   10   2    1    32   15   10   1    2    22   8    63   
1st     PAS Giannina                    26   12   1    0    47   14   10   2    1    32   9    69   
1st     PAS Giannina                    26   10   2    1    34   9    10   2    1    34   12   64   
1st     PAS Giannina                    26   11   2    0    46   13   8    3    2    30   15   62   
1st     PAS Giannina                    26   12   1    0    42   10   8    2    3    32   15   63   
1st     PAS Giannina                    26   11   1    1    47   14   11   2    0    40   18   69   
1st     PAS Giannina                    26   12   0    1    36   11   10   2    1    37   13   68   
1st     PAS Giannina                    26   8    4    1    40   20   10   2    1    26   10   60   
1st     PAS Giannina                    26   10   1    2    31   13   11   2    0    39   9    66   
1st     PAS Giannina                    26   11   2    0    34   9    10   3    0    27   6    68   
1st     PAS Giannina                    26   13   0    0    46   13   10   3    0    34   9    72   
1st     PAS Giannina                    26   12   0    1    40   15   9    3    1    31   12   66   
1st     PAS Giannina                    26   11   2    0    40   15   7    2    4    36   17   58   
1st     PAS Giannina                    26   9    2    2    33   14   10   2    1    31   9    61   
1st     PAS Giannina                    26   13   0    0    40   12   11   2    0    33   7    74   
1st     PAS Giannina                    26   10   2    1    33   16   13   0    0    39   9    71   
1st     PAS Giannina                    26   10   3    0    37   15   8    4    1    27   13   61   
1st     PAS Giannina                    26   12   1    0    40   9    8    1    4    25   15   62   
1st     PAS Giannina                    26   12   1    0    30   11   10   3    0    35   10   70   
1st     PAS Giannina                    26   11   1    1    39   11   8    3    2    31   14   61   
1st     PAS Giannina                    26   10   1    2    35   12   11   2    0    39   12   66   
1st     PAS Giannina                    26   12   1    0    40   14   10   3    0    36   11   70   
2nd     PAS Giannina                    26   9    3    1    33   17   9    2    2    34   15   59   
1st     PAS Giannina                    26   12   1    0    40   11   9    2    2    35   11   66   
2nd     PAS Giannina                    26   11   1    1    36   11   7    1    5    28   22   56   
2nd     PAS Giannina                    26   7    5    1    33   20   7    5    1    27   16   52   
1st     PAS Giannina                    26   10   2    1    34   13   10   3    0    36   14   65   
1st     PAS Giannina                    26   12   1    0    38   10   10   2    1    29   15   69   
1st     PAS Giannina                    26   11   1    1    35   18   10   1    2    33   13   65   
1st     PAS Giannina                    26   11   0    2    36   12   12   1    0    29   6    70   
1st     PAS Giannina                    26   12   1    0    38   15   9    3    1    39   14   67   
1st     PAS Giannina                    26   12   1    0    42   18   8    3    2    26   13   64   
1st     PAS Giannina                    26   12   0    1    40   11   9    2    2    34   16   65   
1st     PAS Giannina                    26   10   1    2    35   15   10   0    3    26   12   61   
1st     PAS Giannina                    26   11   2    0    36   13   10   2    1    38   16   67   
1st     PAS Giannina                    26   12   1    0    33   8    10   0    3    39   20   67   
1st     PAS Giannina                    26   12   0    1    41   20   13   0    0    39   12   75   
1st     PAS Giannina                    26   11   2    0    35   11   10   2    1    33   13   67   
1st     PAS Giannina                    26   12   0    1    40   9    8    2    3    33   17   62   
1st     PAS Giannina                    26   12   1    0    38   10   10   2    1    32   12   69   
1st     PAS Giannina                    26   11   0    2    41   18   9    3    1    31   14   63   
1st     PAS Giannina                    26   12   1    0    40   13   10   2    1    41   12   69   
1st     PAS Giannina                    26   11   1    1    32   10   12   1    0    40   15   71   
1st     PAS Giannina                    26   11   2    0    37   12   8    3    2    31   13   62   
1st     PAS Giannina                    26   11   1    1    35   11   9    3    1    27   10   64   
1st     PAS Giannina                    26   13   0    0    40   11   10   1    2    38   12   70   
1st     PAS Giannina                    26   13   0    0    44   8    11   1    1    34   14   73   
1st     PAS Giannina                    26   11   1    1    39   15   8    4    1    29   14   62   
1st     PAS Giannina                    26   11   1    1    36   14   11   0    2    37   13   67   
1st     PAS Giannina                    26   12   0    1    40   11   9    2    2    33   15   65   
1st     PAS Giannina                    26   10   2    1    40   19   9    3    1    36   12   62   
1st     PAS Giannina                    26   9    3    1    34   15   8    3    2    30   17   57   
1st     PAS Giannina                    26   11   2    0    44   13   10   2    1    40   12   67   
1st     PAS Giannina                    26   10   2    1    34   11   9    3    1    35   17   62   
1st     PAS Giannina                    26   12   1    0    42   17   12   1    0    36   9    74   
1st     PAS Giannina                    26   12   1    0    38   12   12   0    1    30   8    73   
1st     PAS Giannina                    26   13   0    0    43   5    9    2    2    29   12   68   
1st     PAS Giannina                    26   10   1    2    34   12   8    2    3    30   18   57   
1st     PAS Giannina                    26   11   2    0    37   14   8    3    2    41   13   62   
1st     PAS Giannina                    26   11   2    0    40   11   10   1    2    33   14   66   
1st     PAS Giannina                    26   11   1    1    41   10   10   1    2    35   12   65   
1st     PAS Giannina                    26   11   1    1    34   13   10   3    0    36   9    67   
1st     PAS Giannina                    26   9    3    1    33   14   10   0    3    35   17   60   
1st     PAS Giannina                    26   11   1    1    42   13   10   2    1    32   13   66   
1st     PAS Giannina                    26   10   2    1    39   13   13   0    0    41   11   71   
2nd     PAS Giannina                    26   9    4    0    35   10   9    4    0    33   15   62   
1st     PAS Giannina                    26   11   2    0    32   11   10   1    2    30   14   66   
1st     PAS Giannina                    26   9    2    2    32   14   8    4    1    32   13   57   
1st     PAS Giannina                    26   11   1    1    37   8    11   1    1    36   10   68   
1st     PAS Giannina                    26   12   0    1    41   13   11   1    1    34   11   70   
1st     PAS Giannina                    26   11   1    1    35   11   10   2    1    39   7    66   
1st     PAS Giannina                    26   12   1    0    41   13   10   2    1    30   12   69   
1st     PAS Giannina                    26   11   1    1    36   12   10   1    2    28   11   65   
1st     PAS Giannina                    26   12   1    0    42   15   11   2    0    31   13   72   
1st     PAS Giannina                    26   12   0    1    42   12   10   1    2    32   7    67   
1st     PAS Giannina                    26   10   2    1    40   18   9    2    2    35   16   61   
2nd     PAS Giannina                    26   12   0    1    34   12   7    2    4    25   14   59   
1st     PAS Giannina                    26   11   2    0    34   11   9    2    2    35   14   64   
1st     PAS Giannina                    26   10   1    2    37   13   11   1    1    41   13   65   