1st     PAS Giannina                    26   12   1    0    42   12   8    3    2    26   11   64   
1st     PAS Giannina                    26   12   0    1    38   13   9    3    1    29   11   66   
1st     PAS Giannina                    26   11   2    0    38   10   10   1    2    25   9    66   
1st     PAS Giannina                    26   13   0    0    37   7    6    4    3    25   17   61   
1st     PAS Giannina                    26   12   0    1    26   8    10   1    2    35   10   67   
3rd     PAS Giannina                    26   8    2    3    25   14   6    3    4    22   14   47   
2nd     PAS Giannina                    26   11   1    1    26   4    8    1    4    22   15   59   
1st     PAS Giannina                    26   12   1    0    41   12   8    4    1    29   16   65   
1st     PAS Giannina                    26   11   1    1    33   12   6    4    3    20   13   56   
1st     PAS Giannina                    26   10   2    1    33   10   10   2    1    29   13   64   
1st     PAS Giannina                    26   10   0    3    31   13   10   3    0    26   6    63   
2nd     PAS Giannina                    26   9    3    1    29   10   8    2    3    24   12   56   
1st     PAS Giannina                    26   13   0    0    31   11   6    5    2    18   11   62   
1st     PAS Giannina                    26   10   2    1    35   16   9    3    1    28   10   62   
1st     PAS Giannina                    26   11   1    1    26   11   11   2    0    26   8    69   
1st     PAS Giannina                    26   10   1    2    35   18   8    3    2    22   7    58   
1st     PAS Giannina                    26   10   2    1    32   10   7    5    1    21   9    58   
2nd     PAS Giannina                    26   11   2    0    35   12   7    2    4    23   16   58   
3rd     PAS Giannina                    26   10   1    2    29   10   5    5    3    24   16   51   
1st     PAS Giannina                    26   13   0    0    35   7    9    3    1    31   11   69   
1st     PAS Giannina                    26   10   2    1    33   9    9    4    0    28   12   63   
1st     PAS Giannina                    26   9    4    0    26   9    9    1    3    26   16   59   
1st     PAS Giannina                    26   12   1    0    25   5    8    2    3    23   14   63   
1st     PAS Giannina                    26   8    3    2    28   13   7    4    2    22   11   52   
2nd     PAS Giannina                    26   11   1    1    31   7    8    5    0    27   10   63   
3rd     PAS Giannina                    26   8    4    1    24   9    6    5    2    19   13   51   
1st     PAS Giannina                    26   12   1    0    33   8    7    4    2    21   10   62   
3rd     PAS Giannina                    26   9    3    1    24   10   5    5    3    20   16   50   
2nd     PAS Giannina                    26   8    3    2    32   13   9    3    1    24   11   57   
2nd     PAS Giannina                    26   9    3    1    29   10   6    4    3    19   16   52   
1st     PAS Giannina                    26   10   1    2    24   9    4    6    3    20   14   49   
1st     PAS Giannina                    26   10   1    2    32   13   11   0    2    28   6    64   
2nd     PAS Giannina                    26   12   1    0    35   7    8    1    4    24   17   62   
1st     PAS Giannina                    26   10   2    1    27   9    10   2    1    20   6    64   
2nd     PAS Giannina                    26   11   2    0    32   10   4    3    6    18   16   50   
1st     PAS Giannina                    26   10   2    1    36   13   6    4    3    19   12   54   
1st     PAS Giannina                    26   13   0    0    40   13   8    3    2    18   8    66   
1st     PAS Giannina                    26   11   1    1    32   14   7    2    4    20   16   57   
2nd     PAS Giannina                    26   7    4    2    23   10   7    1    5    21   16   47   
1st     PAS Giannina                    26   11   1    1    26   5    7    4    2    17   9    59   
1st     PAS Giannina                    26   10   2    1    33   12   7    3    3    20   10   56   
1st     PAS Giannina                    26   10   2    1    33   14   10   3    0    23   7    65   
1st     PAS Giannina                    26   12   0    1    33   6    7    3    3    25   14   60   
1st     PAS Giannina                    26   11   1    1    34   8    9    2    2    24   9    63   
1st     PAS Giannina                    26   10   2    1    33   9    8    2    3    30   14   58   
1st     PAS Giannina                    26   12   1    0    36   11   8    1    4    22   13   62   
1st     PAS Giannina                    26   10   2    1    31   14   8    2    3    19   10   58   
1st     PAS Giannina                    26   10   1    2    37   15   4    8    1    25   16   51   
2nd     PAS Giannina                    26   10   1    2    25   12   4    5    4    22   17   48   
1st     PAS Giannina                    26   12   0    1    36   10   7    5    1    29   13   62   
1st     PAS Giannina                    26   11   2    0    31   12   8    4    1    25   13   63   
1st     PAS Giannina                    26   11   2    0    34   10   6    4    3    25   14   57   
1st     PAS Giannina                    26   8    3    2    27   15   10   1    2    24   10   58   
1st     PAS Giannina                    26   11   2    0    29   8    6    4    3    25   14   57   
1st     PAS Giannina                    26   7    3    3    25   12   9    4    0    26   8    55   
1st     PAS Giannina                    26   10   1    2    22   9    10   1    2    24   5    62   
2nd     PAS Giannina                    26   12   0    1    34   8    5    2    6    22   18   53   
2nd     PAS Giannina                    26   11   2    0    35   12   6    4    3    22   19   57   
2nd     PAS Giannina                    26   11   1    1    30   6    6    1    6    20   13   53   
1st     PAS Giannina                    26   11   1    1    35   12   8    2    3    22   13   60   
1st     PAS Giannina                    26   11   1    1    28   12   8    2    3    21   13   60   
2nd     PAS Giannina                    26   10   2    1    28   6    8    1    4    24   17   57   
1st     PAS Giannina                    26   10   3    0    28   7    8    3    2    22   12   60   
1st     PAS Giannina                    26   10   2    1    32   6    9    3    1    26   12   62   
1st     PAS Giannina                    26   10   3    0    27   10   7    5    1    26   10   59   
2nd     PAS Giannina                    26   9    3    1    25   8    5    7    1    18   11   52   
2nd     PAS Giannina                    26   9    2    2    28   12   5    3    5    13   13   47   
3rd     PAS Giannina                    26   8    4    1    27   12   6    5    2    23   14   51   
2nd     PAS Giannina                    26   11   2    0    31   12   7    0    6    16   15   56   
1st     PAS Giannina                    26   9    2    2    32   15   10   1    2    28   12   60   
1st     PAS Giannina                    26   8    3    2    26   11   8    3    2    21   12   54   
3rd     PAS Giannina                    26   9    1    3    28   13   6    3    4    17   16   49   
1st     PAS Giannina                    26   12   1    0    35   9    9    2    2    19   11   66   
1st     PAS Giannina                    26   13   0    0    31   5    7    4    2    25   15   64   
1st     PAS Giannina                    26   11   2    0    26   8    8    5    0    27   12   64   
2nd     PAS Giannina                    26   9    2    2    28   13   8    3    2    23   13   56   
1st     PAS Giannina                    26   12   1    0    33   12   7    3    3    16   11   61   
1st     PAS Giannina                    26   12   0    1    35   8    10   1    2    24   13   67   
1st     PAS Giannina                    26   11   2    0    30   13   9    2    2    25   10   64   
1st     PAS Giannina                    26   9    4    0    26   9    8    3    2    16   7    58   
1st     PAS Giannina                    26   10   3    0    28   11   7    2    4    24   19   56   
2nd     PAS Giannina                    26   11   2    0    32   9    5    4    4    21   15   54   
1st     PAS Giannina                    26   10   3    0    31   11   9    4    0    25   8    64   
1st     PAS Giannina                    26   10   2    1    35   12   5    1    7    24   22   48   
1st     PAS Giannina                    26   9    2    2    21   5    5    2    6    17   15   46   
1st     PAS Giannina                    26   11   2    0    28   7    8    4    1    21   7    63   
1st     PAS Giannina                    26   8    3    2    24   11   7    3    3    22   14   51   
1st     PAS Giannina                    26   10   2    1    33   11   10   2    1    29   7    64   
1st     PAS Giannina                    26   12   0    1    31   10   6    4    3    22   17   58   
1st     PAS Giannina                    26   11   2    0    30   9    7    2    4    24   13   58   
1st     PAS Giannina                    26   11   2    0    33   9    8    3    2    23   14   62   
1st     PAS Giannina                    26   10   3    0    32   12   10   2    1    26   11   65   
1st     PAS Giannina                    26   13   0    0    33   7    10   2    1    27   11   71   
1st     PAS Giannina                    26   10   2    1    26   12   9    2    2    23   14   61   
2nd     PAS Giannina                    26   9    2    2    26   14   8    2    3    21   11   55   
2nd     PAS Giannina                    26   10   0    3    33   11   8    1    4    16   11   55   
1st     PAS Giannina                    26   11   0    2    29   10   9    1    3    30   12   61   
2nd     PAS Giannina                    26   11   1    1    29   7    8    2    3    27   12   60   
2nd     PAS Giannina                    26   9    4    0    35   10   6    6    1    19   8    55   
1st     PAS Giannina                    26   10   2    1    29   9    7    4    2    21   9    57   