1st     PAS Giannina                    26   10   1    2    34   20   5    4    4    19   8    50   
1st     PAS Giannina                    26   12   0    1    38   11   5    5    3    20   15   56   
2nd     PAS Giannina                    26   7    5    1    31   14   6    3    4    30   20   47   
2nd     PAS Giannina                    26   7    6    0    33   18   10   1    2    32   14   58   
1st     PAS Giannina                    26   10   3    0    32   12   7    4    2    23   13   58   
1st     PAS Giannina                    26   9    4    0    35   20   6    3    4    24   20   52   
2nd     PAS Giannina                    26   8    4    1    35   15   7    4    2    23   13   53   
2nd     PAS Giannina                    26   8    3    2    30   17   9    1    3    29   15   55   
2nd     PAS Giannina                    26   10   2    1    34   11   6    3    4    28   18   53   
1st     PAS Giannina                    26   12   1    0    36   14   6    2    5    31   21   57   
1st     PAS Giannina                    26   11   1    1    28   10   3    9    1    22   20   52   
2nd     PAS Giannina                    26   9    1    3    31   16   10   1    2    32   14   59   
1st     PAS Giannina                    26   11   2    0    33   11   7    2    4    22   12   58   
2nd     PAS Giannina                    26   10   1    2    29   12   6    4    3    26   17   53   
1st     PAS Giannina                    26   8    3    2    26   18   7    3    3    23   13   51   
1st     PAS Giannina                    26   10   3    0    37   9    7    3    3    23   17   57   
3rd     PAS Giannina                    26   8    3    2    28   20   4    5    4    25   19   44   
2nd     PAS Giannina                    26   9    2    2    36   18   8    2    3    27   16   55   
1st     PAS Giannina                    26   11   1    1    28   8    8    2    3    21   10   60   
2nd     PAS Giannina                    26   12   1    0    42   14   2    5    6    21   18   48   
2nd     PAS Giannina                    26   9    1    3    34   19   6    6    1    25   14   52   
2nd     PAS Giannina                    26   9    3    1    23   11   5    4    4    20   14   49   
1st     PAS Giannina                    26   10   2    1    27   13   10   0    3    29   13   62   
1st     PAS Giannina                    26   9    3    1    30   16   8    3    2    29   13   57   
2nd     PAS Giannina                    26   7    6    0    28   14   7    2    4    26   21   50   
2nd     PAS Giannina                    26   11   1    1    32   7    3    5    5    21   22   48   
1st     PAS Giannina                    26   10   2    1    30   12   6    2    5    24   16   52   
1st     PAS Giannina                    26   10   2    1    29   13   7    1    5    19   9    54   
1st     PAS Giannina                    26   10   3    0    35   11   10   2    1    24   13   65   
3rd     PAS Giannina                    26   6    3    4    25   19   8    3    2    24   11   48   
1st     PAS Giannina                    26   9    4    0    33   16   8    3    2    28   11   58   
3rd     PAS Giannina                    26   6    5    2    26   14   5    6    2    20   11   44   
2nd     PAS Giannina                    26   9    3    1    33   14   6    1    6    19   18   49   
1st     PAS Giannina                    26   12   0    1    35   12   10   0    3    19   9    66   
1st     PAS Giannina                    26   11   2    0    37   12   9    3    1    30   14   65   
1st     PAS Giannina                    26   11   0    2    38   16   5    4    4    17   16   52   
1st     PAS Giannina                    26   9    4    0    32   18   8    3    2    30   12   58   
2nd     PAS Giannina                    26   9    2    2    37   19   6    3    4    25   15   50   
1st     PAS Giannina                    26   11   2    0    35   11   8    3    2    27   17   62   
2nd     PAS Giannina                    26   9    3    1    31   15   6    6    1    23   14   54   
2nd     PAS Giannina                    26   11   1    1    27   7    9    2    2    33   10   63   
1st     PAS Giannina                    26   7    5    1    33   16   7    5    1    32   12   52   
2nd     PAS Giannina                    26   11   2    0    34   8    4    4    5    20   20   51   
2nd     PAS Giannina                    26   9    3    1    32   17   7    3    3    24   14   54   
1st     PAS Giannina                    26   9    2    2    35   16   8    1    4    23   22   54   
2nd     PAS Giannina                    26   8    3    2    30   14   6    3    4    25   12   48   
3rd     PAS Giannina                    26   6    4    3    25   19   6    4    3    24   16   44   
1st     PAS Giannina                    26   8    3    2    34   16   9    2    2    25   11   56   
2nd     PAS Giannina                    26   8    5    0    35   13   5    2    6    23   20   46   
1st     PAS Giannina                    26   9    4    0    32   12   8    1    4    19   13   56   
1st     PAS Giannina                    26   10   1    2    31   12   8    4    1    27   14   59   
2nd     PAS Giannina                    26   11   0    2    30   13   7    5    1    24   13   59   
5th     PAS Giannina                    26   8    4    1    30   14   4    4    5    19   14   44   
1st     PAS Giannina                    26   8    5    0    30   15   7    3    3    21   15   53   
2nd     PAS Giannina                    26   10   1    2    28   15   5    3    5    23   19   49   
2nd     PAS Giannina                    26   10   0    3    32   14   5    4    4    21   19   49   
4th     PAS Giannina                    26   7    2    4    23   18   4    5    4    19   20   40   
1st     PAS Giannina                    26   9    2    2    29   14   8    1    4    26   16   54   
2nd     PAS Giannina                    26   9    1    3    27   14   6    6    1    26   16   52   
1st     PAS Giannina                    26   8    3    2    30   18   7    2    4    27   12   50   
1st     PAS Giannina                    26   10   2    1    31   14   5    5    3    22   21   52   
2nd     PAS Giannina                    26   9    2    2    27   12   8    2    3    21   12   55   
1st     PAS Giannina                    26   9    4    0    30   12   6    4    3    27   17   53   
1st     PAS Giannina                    26   10   2    1    27   7    8    2    3    24   18   58   
1st     PAS Giannina                    26   12   1    0    35   16   8    5    0    26   12   66   
1st     PAS Giannina                    26   9    3    1    34   14   5    5    3    24   20   50   
1st     PAS Giannina                    26   11   1    1    28   9    10   2    1    34   12   66   
2nd     PAS Giannina                    26   9    2    2    25   11   8    4    1    39   16   57   
1st     PAS Giannina                    26   12   0    1    33   9    9    0    4    24   14   63   
1st     PAS Giannina                    26   10   2    1    28   9    7    5    1    29   16   58   
1st     PAS Giannina                    26   10   2    1    28   11   10   2    1    28   10   64   
1st     PAS Giannina                    26   9    2    2    27   11   10   2    1    30   15   61   
1st     PAS Giannina                    26   7    3    3    27   15   7    3    3    28   13   48   
2nd     PAS Giannina                    26   10   2    1    40   11   6    2    5    30   22   52   
2nd     PAS Giannina                    26   8    3    2    29   14   5    5    3    25   23   47   
2nd     PAS Giannina                    26   9    4    0    31   10   6    5    2    25   14   54   
2nd     PAS Giannina                    26   8    2    3    33   17   6    3    4    20   17   47   
2nd     PAS Giannina                    26   9    2    2    26   9    7    3    3    23   15   53   
1st     PAS Giannina                    26   11   1    1    35   11   9    2    2    33   15   63   
2nd     PAS Giannina                    26   8    2    3    29   18   6    2    5    24   18   46   
1st     PAS Giannina                    26   8    3    2    31   16   9    2    2    31   13   56   
1st     PAS Giannina                    26   10   1    2    31   11   9    3    1    27   10   61   
2nd     PAS Giannina                    26   8    4    1    31   12   9    1    3    21   11   56   
2nd     PAS Giannina                    26   10   2    1    38   17   5    4    4    27   24   51   
3rd     PAS Giannina                    26   10   2    1    27   9    6    5    2    23   15   55   
2nd     PAS Giannina                    26   9    3    1    28   14   6    5    2    24   11   53   
1st     PAS Giannina                    26   10   1    2    33   12   7    4    2    25   19   56   
2nd     PAS Giannina                    26   10   2    1    37   12   6    3    4    27   13   53   
2nd     PAS Giannina                    26   10   1    2    39   23   6    2    5    23   21   51   
1st     PAS Giannina                    26   11   2    0    41   15   6    3    4    24   18   56   
2nd     PAS Giannina                    26   10   3    0    30   9    5    4    4    20   16   52   
1st     PAS Giannina                    26   13   0    0    38   11   7    2    4    22   17   62   
3rd     PAS Giannina                    26   9    3    1    29   15   6    3    4    23   20   51   
1st     PAS Giannina                    26   8    2    3    31   17   8    2    3    23   15   52   
1st     PAS Giannina                    26   9    2    2    33   9    9    3    1    27   12   59   
2nd     PAS Giannina                    26   9    3    1    28   9    7    3    3    30   22   54   
1st     PAS Giannina                    26   10   2    1    35   13   8    4    1    31   13   60   
2nd     PAS Giannina                    26   9    2    2    35   15   6    6    1    26   18   53   
2nd     PAS Giannina                    26   8    4    1    31   16   7    2    4    27   16   51   
1st     PAS Giannina                    26   11   2    0    35   11   9    3    1    32   17   65   