1st     PAS Giannina                    26   12   1    0    35   11   9    3    1    38   11   67   
2nd     PAS Giannina                    26   11   1    1    41   10   7    3    3    28   13   58   
1st     PAS Giannina                    26   12   1    0    41   11   9    2    2    29   17   66   
1st     PAS Giannina                    26   12   1    0    32   7    11   2    0    38   11   72   
1st     PAS Giannina                    26   10   2    1    33   13   7    2    4    23   13   55   
1st     PAS Giannina                    26   12   0    1    38   12   9    2    2    33   15   65   
1st     PAS Giannina                    26   13   0    0    30   7    10   3    0    34   11   72   
1st     PAS Giannina                    26   12   1    0    42   13   10   2    1    43   24   69   
1st     PAS Giannina                    26   10   3    0    32   10   9    4    0    36   15   64   
1st     PAS Giannina                    26   11   1    1    32   11   8    2    3    22   12   60   
1st     PAS Giannina                    26   10   2    1    32   13   10   2    1    26   8    64   
1st     PAS Giannina                    26   13   0    0    36   8    9    4    0    31   10   70   
1st     PAS Giannina                    26   10   3    0    42   16   9    2    2    32   15   62   
1st     PAS Giannina                    26   11   1    1    38   13   10   1    2    28   14   65   
1st     PAS Giannina                    26   11   1    1    40   10   9    1    3    31   15   62   
1st     PAS Giannina                    26   11   2    0    36   8    9    3    1    31   13   65   
1st     PAS Giannina                    26   11   1    1    37   15   10   3    0    23   10   67   
1st     PAS Giannina                    26   11   1    1    35   11   8    2    3    28   14   60   
1st     PAS Giannina                    26   12   1    0    36   10   9    1    3    27   10   65   
1st     PAS Giannina                    26   11   2    0    37   10   11   1    1    34   8    69   
1st     PAS Giannina                    26   11   1    1    34   14   10   1    2    34   15   65   
1st     PAS Giannina                    26   11   1    1    36   16   11   1    1    38   7    68   
1st     PAS Giannina                    26   12   1    0    37   12   10   2    1    36   13   69   
1st     PAS Giannina                    26   12   1    0    39   14   9    0    4    33   17   64   
1st     PAS Giannina                    26   11   1    1    33   10   7    4    2    28   15   59   
1st     PAS Giannina                    26   11   1    1    38   13   10   1    2    34   10   65   
1st     PAS Giannina                    26   11   1    1    32   11   9    4    0    39   15   65   
1st     PAS Giannina                    26   12   1    0    41   12   9    4    0    38   15   68   
1st     PAS Giannina                    26   8    5    0    39   18   10   1    2    28   15   60   
1st     PAS Giannina                    26   11   2    0    38   12   8    3    2    26   12   62   
1st     PAS Giannina                    26   11   1    1    34   9    9    2    2    28   18   63   
1st     PAS Giannina                    26   10   3    0    34   14   10   2    1    35   12   65   
1st     PAS Giannina                    26   11   0    2    35   12   10   3    0    34   8    66   
1st     PAS Giannina                    26   10   2    1    35   10   8    3    2    33   19   59   
1st     PAS Giannina                    26   12   1    0    35   5    10   1    2    31   12   68   
1st     PAS Giannina                    26   12   1    0    36   8    9    2    2    35   19   66   
1st     PAS Giannina                    26   11   1    1    38   16   11   0    2    36   15   67   
1st     PAS Giannina                    26   12   1    0    33   6    12   0    1    34   7    73   
1st     PAS Giannina                    26   13   0    0    41   5    7    2    4    33   20   62   
1st     PAS Giannina                    26   9    4    0    27   11   9    4    0    34   11   62   
1st     PAS Giannina                    26   11   1    1    36   15   7    3    3    32   20   58   
1st     PAS Giannina                    26   11   1    1    31   15   9    2    2    36   17   63   
1st     PAS Giannina                    26   10   2    1    34   13   10   2    1    33   12   64   
1st     PAS Giannina                    26   10   2    1    34   11   9    3    1    27   11   62   
1st     PAS Giannina                    26   11   2    0    38   9    7    4    2    24   12   60   
1st     PAS Giannina                    26   11   2    0    32   12   13   0    0    42   8    74   
1st     PAS Giannina                    26   11   2    0    37   10   10   3    0    31   10   68   
1st     PAS Giannina                    26   9    2    2    34   16   9    3    1    34   17   59   
1st     PAS Giannina                    26   12   1    0    35   11   11   1    1    29   10   71   
2nd     PAS Giannina                    26   11   1    1    30   11   9    2    2    35   14   63   
1st     PAS Giannina                    26   10   1    2    34   18   10   2    1    29   13   63   
1st     PAS Giannina                    26   9    2    2    34   16   10   1    2    29   12   60   
1st     PAS Giannina                    26   11   1    1    33   12   11   0    2    35   10   67   
1st     PAS Giannina                    26   12   0    1    37   11   11   1    1    34   13   70   
1st     PAS Giannina                    26   9    3    1    32   14   7    5    1    33   19   56   
1st     PAS Giannina                    26   10   1    2    29   9    10   3    0    30   12   64   
2nd     PAS Giannina                    26   9    3    1    38   19   8    3    2    31   16   57   
1st     PAS Giannina                    26   12   1    0    39   8    9    3    1    32   13   67   
1st     PAS Giannina                    26   11   2    0    36   15   10   3    0    33   8    68   
1st     PAS Giannina                    26   13   0    0    35   6    9    4    0    27   9    70   
1st     PAS Giannina                    26   10   2    1    36   18   11   1    1    34   15   66   
1st     PAS Giannina                    26   12   1    0    35   10   9    4    0    32   13   68   
1st     PAS Giannina                    26   13   0    0    30   8    11   2    0    31   9    74   
1st     PAS Giannina                    26   12   1    0    41   13   8    3    2    30   20   64   
1st     PAS Giannina                    26   11   2    0    30   9    9    3    1    30   12   65   
2nd     PAS Giannina                    26   10   1    2    36   12   9    3    1    33   13   61   
1st     PAS Giannina                    26   10   1    2    32   16   9    3    1    32   12   61   
1st     PAS Giannina                    26   9    0    4    30   14   8    4    1    34   14   55   
1st     PAS Giannina                    26   13   0    0    36   10   9    2    2    33   15   68   
1st     PAS Giannina                    26   12   1    0    34   11   9    3    1    32   17   67   
1st     PAS Giannina                    26   11   2    0    35   13   10   3    0    36   18   68   
1st     PAS Giannina                    26   13   0    0    35   6    10   0    3    36   13   69   
1st     PAS Giannina                    26   10   3    0    35   10   8    5    0    34   18   62   
1st     PAS Giannina                    26   12   0    1    35   6    12   0    1    37   13   72   
1st     PAS Giannina                    26   12   1    0    34   12   8    5    0    30   11   66   
1st     PAS Giannina                    26   11   1    1    35   14   10   1    2    31   14   65   
1st     PAS Giannina                    26   9    4    0    39   16   9    2    2    31   15   60   
1st     PAS Giannina                    26   10   1    2    34   13   8    3    2    29   12   58   
1st     PAS Giannina                    26   9    2    2    37   15   9    3    1    30   11   59   
1st     PAS Giannina                    26   10   2    1    32   11   9    1    3    35   20   60   
1st     PAS Giannina                    26   9    4    0    30   14   11   2    0    37   9    66   
1st     PAS Giannina                    26   13   0    0    40   11   11   2    0    34   9    74   
1st     PAS Giannina                    26   11   2    0    33   12   7    4    2    23   11   60   
1st     PAS Giannina                    26   13   0    0    39   7    10   3    0    39   11   72   
1st     PAS Giannina                    26   12   1    0    36   12   10   2    1    28   13   69   
1st     PAS Giannina                    26   12   1    0    33   6    7    2    4    24   17   60   
1st     PAS Giannina                    26   9    2    2    29   15   8    3    2    27   10   56   
1st     PAS Giannina                    26   10   3    0    32   8    9    2    2    28   11   62   
1st     PAS Giannina                    26   13   0    0    41   8    12   0    1    35   12   75   
2nd     PAS Giannina                    26   10   1    2    29   10   9    2    2    28   16   60   
1st     PAS Giannina                    26   11   2    0    38   10   9    3    1    26   15   65   
1st     PAS Giannina                    26   10   2    1    41   20   10   2    1    35   14   64   
1st     PAS Giannina                    26   11   2    0    38   14   9    2    2    29   13   64   
2nd     PAS Giannina                    26   9    1    3    31   16   7    4    2    27   17   53   
1st     PAS Giannina                    26   10   2    1    33   7    11   1    1    35   10   66   
1st     PAS Giannina                    26   11   1    1    43   12   9    2    2    29   10   63   
1st     PAS Giannina                    26   11   1    1    35   12   9    2    2    23   8    63   
1st     PAS Giannina                    26   10   2    1    38   13   10   1    2    39   19   63   
1st     PAS Giannina                    26   12   1    0    37   9    9    1    3    27   8    65   
1st     PAS Giannina                    26   12   1    0    33   10   13   0    0    41   10   76   