10th    PAS Giannina                    26   6    5    2    23   12   3    2    8    13   23   34   
2nd     PAS Giannina                    26   8    3    2    27   12   5    1    7    14   18   43   
2nd     PAS Giannina                    26   10   1    2    29   15   5    2    6    17   15   48   
2nd     PAS Giannina                    26   9    4    0    26   11   6    2    5    24   15   51   
2nd     PAS Giannina                    26   8    4    1    22   10   8    4    1    22   9    56   
8th     PAS Giannina                    26   4    7    2    17   12   5    3    5    17   15   37   
2nd     PAS Giannina                    26   7    4    2    19   10   9    3    1    25   11   55   
1st     PAS Giannina                    26   10   2    1    24   10   7    1    5    19   15   54   
1st     PAS Giannina                    26   11   1    1    30   9    5    4    4    21   16   53   
2nd     PAS Giannina                    26   9    3    1    20   9    4    4    5    15   17   46   
2nd     PAS Giannina                    26   8    2    3    24   17   6    5    2    20   10   49   
1st     PAS Giannina                    26   9    2    2    27   11   8    1    4    20   11   54   
1st     PAS Giannina                    26   8    4    1    18   8    9    0    4    21   13   55   
2nd     PAS Giannina                    26   8    3    2    31   13   6    3    4    18   17   48   
4th     PAS Giannina                    26   8    4    1    26   12   4    3    6    13   14   43   
1st     PAS Giannina                    26   10   1    2    31   17   6    3    4    17   14   52   
1st     PAS Giannina                    26   9    3    1    26   8    7    1    5    20   14   52   
1st     PAS Giannina                    26   8    4    1    22   10   8    2    3    24   11   54   
6th     PAS Giannina                    26   7    3    3    22   12   4    3    6    13   18   39   
6th     PAS Giannina                    26   6    5    2    17   10   4    3    6    17   19   38   
4th     PAS Giannina                    26   7    6    0    28   13   4    2    7    14   20   41   
5th     PAS Giannina                    26   6    6    1    24   13   5    3    5    19   15   42   
2nd     PAS Giannina                    26   8    5    0    23   11   6    3    4    17   16   50   
1st     PAS Giannina                    26   6    4    3    22   16   8    5    0    24   11   51   
2nd     PAS Giannina                    26   10   1    2    25   9    4    5    4    13   15   48   
1st     PAS Giannina                    26   10   2    1    28   11   7    3    3    19   12   56   
1st     PAS Giannina                    26   8    1    4    26   17   9    1    3    19   13   53   
5th     PAS Giannina                    26   3    7    3    16   15   5    4    4    20   17   35   
1st     PAS Giannina                    26   11   1    1    33   15   9    3    1    18   9    64   
3rd     PAS Giannina                    26   7    3    3    18   9    5    2    6    16   15   41   
3rd     PAS Giannina                    26   10   2    1    30   12   4    3    6    14   13   47   
1st     PAS Giannina                    26   12   1    0    25   8    6    2    5    19   14   57   
2nd     PAS Giannina                    26   9    3    1    24   9    4    3    6    13   14   45   
1st     PAS Giannina                    26   11   0    2    31   12   9    2    2    22   12   62   
2nd     PAS Giannina                    26   8    4    1    29   14   7    1    5    13   11   50   
4th     PAS Giannina                    26   9    3    1    18   6    2    4    7    12   17   40   
3rd     PAS Giannina                    26   8    1    4    24   14   6    3    4    19   14   46   
5th     PAS Giannina                    26   7    2    4    18   10   3    4    6    12   14   36   
3rd     PAS Giannina                    26   6    4    3    26   14   6    1    6    17   16   41   
1st     PAS Giannina                    26   11   2    0    31   10   7    4    2    19   13   60   
5th     PAS Giannina                    26   7    4    2    19   11   4    2    7    14   19   39   
1st     PAS Giannina                    26   8    4    1    22   10   7    4    2    28   19   53   
1st     PAS Giannina                    26   10   2    1    24   8    8    2    3    23   12   58   
1st     PAS Giannina                    26   10   2    1    31   15   5    4    4    19   18   51   
4th     PAS Giannina                    26   6    4    3    24   17   6    4    3    20   14   44   
1st     PAS Giannina                    26   11   2    0    29   9    4    8    1    19   12   55   
2nd     PAS Giannina                    26   6    2    5    17   14   8    2    3    23   14   46   
2nd     PAS Giannina                    26   10   2    1    28   8    5    3    5    17   14   50   
2nd     PAS Giannina                    26   6    4    3    14   9    10   2    1    33   8    54   
2nd     PAS Giannina                    26   10   1    2    30   14   6    5    2    26   12   54   
1st     PAS Giannina                    26   10   1    2    26   9    5    5    3    14   10   51   
1st     PAS Giannina                    26   8    3    2    25   16   9    1    3    22   8    55   
1st     PAS Giannina                    26   9    3    1    26   10   8    1    4    25   13   55   
2nd     PAS Giannina                    26   10   2    1    26   11   6    2    5    20   20   52   
2nd     PAS Giannina                    26   9    4    0    23   6    5    3    5    16   13   49   
4th     PAS Giannina                    26   7    2    4    19   13   6    1    6    19   19   42   
2nd     PAS Giannina                    26   11   2    0    34   10   3    3    7    17   22   47   
3rd     PAS Giannina                    26   10   1    2    28   14   3    6    4    17   16   46   
2nd     PAS Giannina                    26   9    2    2    26   13   5    7    1    19   9    51   
2nd     PAS Giannina                    26   9    3    1    32   10   6    3    4    23   15   51   
1st     PAS Giannina                    26   10   1    2    22   7    7    2    4    23   19   54   
1st     PAS Giannina                    26   11   2    0    29   8    6    3    4    18   15   56   
4th     PAS Giannina                    26   9    3    1    27   11   3    2    8    12   24   41   
1st     PAS Giannina                    26   10   2    1    26   5    8    3    2    23   12   59   
2nd     PAS Giannina                    26   9    1    3    27   15   5    4    4    15   11   47   
2nd     PAS Giannina                    26   8    4    1    29   12   6    4    3    25   16   50   
6th     PAS Giannina                    26   6    3    4    19   11   5    3    5    15   13   39   
2nd     PAS Giannina                    26   9    3    1    27   13   4    4    5    17   12   46   
4th     PAS Giannina                    26   7    2    4    21   10   5    4    4    21   18   42   
4th     PAS Giannina                    26   9    3    1    29   11   4    4    5    14   15   46   
1st     PAS Giannina                    26   9    4    0    23   10   4    7    2    21   18   50   
7th     PAS Giannina                    26   8    3    2    22   10   3    3    7    15   19   39   
1st     PAS Giannina                    26   12   0    1    35   14   7    2    4    19   15   59   
1st     PAS Giannina                    26   7    3    3    22   15   6    5    2    19   14   47   
2nd     PAS Giannina                    26   9    4    0    29   13   6    3    4    22   19   52   
1st     PAS Giannina                    26   11   1    1    25   8    6    4    3    17   10   56   
3rd     PAS Giannina                    26   10   0    3    26   12   5    4    4    18   14   49   
2nd     PAS Giannina                    26   9    4    0    27   6    6    3    4    22   15   52   
3rd     PAS Giannina                    26   8    3    2    17   7    5    3    5    22   19   45   
3rd     PAS Giannina                    26   9    4    0    29   8    3    4    6    11   18   44   
1st     PAS Giannina                    26   9    3    1    25   11   7    6    0    20   12   57   
1st     PAS Giannina                    26   11   1    1    29   12   3    7    3    16   14   50   
4th     PAS Giannina                    26   6    3    4    13   8    6    1    6    12   13   40   
1st     PAS Giannina                    26   10   3    0    30   12   8    3    2    27   16   60   
3rd     PAS Giannina                    26   8    3    2    25   16   3    4    6    17   21   40   
1st     PAS Giannina                    26   10   2    1    23   10   6    4    3    19   8    54   
2nd     PAS Giannina                    26   8    3    2    32   17   4    5    4    18   18   44   
2nd     PAS Giannina                    26   8    2    3    24   13   6    4    3    22   18   48   
3rd     PAS Giannina                    26   12   0    1    30   10   2    5    6    14   22   47   
2nd     PAS Giannina                    26   9    4    0    23   9    5    3    5    15   12   49   
2nd     PAS Giannina                    26   11   0    2    29   12   3    3    7    12   20   45   
2nd     PAS Giannina                    26   7    3    3    22   13   4    6    3    19   15   42   
2nd     PAS Giannina                    26   7    3    3    28   17   9    1    3    19   7    52   
2nd     PAS Giannina                    26   9    2    2    27   14   6    4    3    20   14   51   
4th     PAS Giannina                    26   9    2    2    30   14   2    5    6    13   16   40   
1st     PAS Giannina                    26   11   1    1    29   10   7    2    4    22   18   57   
3rd     PAS Giannina                    26   10   2    1    25   9    2    5    6    12   17   43   
3rd     PAS Giannina                    26   9    1    3    28   15   4    4    5    15   16   44   
2nd     PAS Giannina                    26   8    3    2    22   11   6    3    4    23   13   48   
2nd     PAS Giannina                    26   10   2    1    30   10   7    3    3    18   13   56   