1st     PAS Giannina                    26   10   3    0    37   13   10   1    2    28   14   64   
1st     PAS Giannina                    26   11   2    0    37   11   11   1    1    37   4    69   
1st     PAS Giannina                    26   9    3    1    26   10   9    2    2    22   13   59   
1st     PAS Giannina                    26   12   1    0    37   8    11   2    0    30   10   72   
1st     PAS Giannina                    26   11   0    2    34   15   9    1    3    30   15   61   
1st     PAS Giannina                    26   13   0    0    31   9    8    3    2    20   8    66   
1st     PAS Giannina                    26   9    2    2    34   10   9    3    1    30   13   59   
1st     PAS Giannina                    26   11   1    1    42   16   9    3    1    29   10   64   
1st     PAS Giannina                    26   8    2    3    29   18   9    3    1    31   13   56   
1st     PAS Giannina                    26   11   2    0    34   9    7    3    3    19   13   59   
1st     PAS Giannina                    26   11   1    1    31   9    8    3    2    25   13   61   
1st     PAS Giannina                    26   11   0    2    42   14   10   1    2    30   10   64   
2nd     PAS Giannina                    26   10   1    2    31   14   9    2    2    29   14   60   
1st     PAS Giannina                    26   13   0    0    32   6    8    2    3    23   16   65   
1st     PAS Giannina                    26   9    2    2    28   12   11   1    1    31   12   63   
1st     PAS Giannina                    26   12   0    1    34   10   10   2    1    30   9    68   
1st     PAS Giannina                    26   9    4    0    29   11   10   3    0    27   8    64   
1st     PAS Giannina                    26   11   2    0    36   12   9    2    2    30   10   64   
1st     PAS Giannina                    26   10   3    0    31   11   10   2    1    29   7    65   
1st     PAS Giannina                    26   11   1    1    40   12   8    3    2    27   11   61   
1st     PAS Giannina                    26   10   3    0    30   12   7    4    2    23   12   58   
1st     PAS Giannina                    26   11   2    0    37   11   10   1    2    27   9    66   
1st     PAS Giannina                    26   12   1    0    31   4    8    4    1    25   10   65   
2nd     PAS Giannina                    26   12   1    0    36   13   7    2    4    23   15   60   
1st     PAS Giannina                    26   9    3    1    33   14   11   1    1    36   15   64   
1st     PAS Giannina                    26   11   2    0    35   9    10   1    2    30   10   66   
1st     PAS Giannina                    26   7    5    1    25   12   8    3    2    22   15   53   
1st     PAS Giannina                    26   11   2    0    29   7    9    3    1    32   8    65   
1st     PAS Giannina                    26   13   0    0    35   8    6    5    2    24   10   62   
1st     PAS Giannina                    26   11   1    1    31   10   10   1    2    26   11   65   
1st     PAS Giannina                    26   11   1    1    38   15   9    4    0    23   10   65   
2nd     PAS Giannina                    26   9    3    1    28   7    7    3    3    15   7    54   
1st     PAS Giannina                    26   13   0    0    35   9    10   2    1    30   13   71   
1st     PAS Giannina                    26   10   3    0    32   6    10   1    2    29   7    64   
1st     PAS Giannina                    26   11   2    0    33   8    12   0    1    34   6    71   
4th     PAS Giannina                    26   9    3    1    26   4    3    5    5    19   17   44   
1st     PAS Giannina                    26   10   1    2    33   14   11   0    2    28   11   64   
1st     PAS Giannina                    26   12   1    0    36   5    8    4    1    32   17   65   
1st     PAS Giannina                    26   10   3    0    25   9    9    4    0    25   7    64   
1st     PAS Giannina                    26   10   3    0    38   13   8    4    1    25   7    61   
1st     PAS Giannina                    26   11   2    0    32   9    7    5    1    30   14   61   
1st     PAS Giannina                    26   10   2    1    33   9    11   2    0    35   14   67   
1st     PAS Giannina                    26   10   2    1    36   12   7    1    5    26   18   54   
1st     PAS Giannina                    26   11   0    2    38   7    9    4    0    32   8    64   
1st     PAS Giannina                    26   10   2    1    37   8    9    3    1    29   11   62   
1st     PAS Giannina                    26   11   2    0    38   8    9    2    2    22   8    64   
1st     PAS Giannina                    26   12   0    1    34   8    9    2    2    28   15   65   
1st     PAS Giannina                    26   10   2    1    30   7    9    3    1    28   10   62   
1st     PAS Giannina                    26   11   2    0    36   10   10   1    2    26   7    66   
1st     PAS Giannina                    26   11   2    0    33   10   8    4    1    26   13   63   
2nd     PAS Giannina                    26   9    2    2    30   12   5    6    2    26   20   50   
1st     PAS Giannina                    26   10   1    2    29   9    10   2    1    25   8    63   
1st     PAS Giannina                    26   11   1    1    36   8    9    4    0    33   9    65   
2nd     PAS Giannina                    26   11   1    1    32   12   7    4    2    29   11   59   
1st     PAS Giannina                    26   11   1    1    35   14   10   1    2    26   10   65   
1st     PAS Giannina                    26   10   3    0    31   10   7    4    2    27   11   58   
1st     PAS Giannina                    26   13   0    0    33   3    9    2    2    34   20   68   
1st     PAS Giannina                    26   10   2    1    27   11   6    7    0    25   12   57   
1st     PAS Giannina                    26   9    2    2    28   13   8    3    2    23   14   56   
1st     PAS Giannina                    26   12   1    0    36   8    9    3    1    29   13   67   
1st     PAS Giannina                    26   13   0    0    34   6    9    3    1    31   12   69   
1st     PAS Giannina                    26   11   1    1    34   9    9    3    1    28   13   64   
1st     PAS Giannina                    26   9    4    0    27   8    8    4    1    29   14   59   
1st     PAS Giannina                    26   11   1    1    34   9    10   3    0    29   7    67   
1st     PAS Giannina                    26   11   1    1    36   12   9    2    2    32   11   63   
2nd     PAS Giannina                    26   7    6    0    31   15   7    5    1    19   10   53   
1st     PAS Giannina                    26   10   3    0    29   8    7    4    2    21   12   58   
1st     PAS Giannina                    26   12   1    0    32   8    9    3    1    34   13   67   
2nd     PAS Giannina                    26   10   3    0    30   15   7    2    4    27   14   56   
2nd     PAS Giannina                    26   8    4    1    24   10   8    1    4    29   14   53   
1st     PAS Giannina                    26   9    4    0    30   8    10   1    2    32   11   62   
1st     PAS Giannina                    26   10   3    0    34   10   8    3    2    24   13   60   
1st     PAS Giannina                    26   11   0    2    33   12   8    4    1    26   14   61   
1st     PAS Giannina                    26   13   0    0    34   5    9    2    2    28   13   68   
1st     PAS Giannina                    26   11   2    0    40   8    11   0    2    29   9    68   
2nd     PAS Giannina                    26   8    5    0    28   13   9    2    2    27   13   58   
1st     PAS Giannina                    26   11   2    0    34   4    9    2    2    25   11   64   
1st     PAS Giannina                    26   11   1    1    35   13   5    6    2    25   16   55   
1st     PAS Giannina                    26   10   1    2    35   15   9    2    2    23   9    60   
1st     PAS Giannina                    26   11   1    1    31   7    8    4    1    35   17   62   
1st     PAS Giannina                    26   11   1    1    32   13   9    3    1    27   9    64   
1st     PAS Giannina                    26   11   2    0    37   14   9    2    2    24   9    64   
1st     PAS Giannina                    26   11   2    0    26   6    8    4    1    25   10   63   
1st     PAS Giannina                    26   13   0    0    43   9    8    2    3    27   14   65   
1st     PAS Giannina                    26   9    3    1    32   9    9    2    2    26   10   59   
1st     PAS Giannina                    26   11   1    1    26   10   6    6    1    26   15   58   
1st     PAS Giannina                    26   10   2    1    30   7    9    2    2    27   12   61   
1st     PAS Giannina                    26   10   2    1    24   8    9    2    2    22   8    61   
1st     PAS Giannina                    26   11   2    0    38   8    10   2    1    34   14   67   
1st     PAS Giannina                    26   10   2    1    31   8    8    3    2    23   11   59   
1st     PAS Giannina                    26   11   2    0    32   10   7    5    1    27   14   61   
1st     PAS Giannina                    26   11   1    1    29   9    11   2    0    31   11   69   
1st     PAS Giannina                    26   10   1    2    32   18   9    2    2    31   16   60   
1st     PAS Giannina                    26   11   2    0    38   10   8    4    1    25   11   63   
1st     PAS Giannina                    26   12   1    0    33   10   10   2    1    37   12   69   
2nd     PAS Giannina                    26   8    4    1    30   16   6    4    3    22   13   50   
1st     PAS Giannina                    26   12   0    1    32   10   10   3    0    27   5    69   
1st     PAS Giannina                    26   11   2    0    34   8    11   0    2    29   12   68   
1st     PAS Giannina                    26   13   0    0    35   11   7    2    4    26   15   62   
1st     PAS Giannina                    26   11   1    1    33   15   9    2    2    28   12   63   