1st     PAS Giannina                    26   12   1    0    42   10   9    1    3    31   18   65   
1st     PAS Giannina                    26   13   0    0    43   9    10   1    2    34   17   70   
1st     PAS Giannina                    26   9    4    0    34   10   8    1    4    29   19   56   
1st     PAS Giannina                    26   13   0    0    40   12   9    3    1    35   13   69   
1st     PAS Giannina                    26   11   0    2    36   11   11   0    2    39   12   66   
1st     PAS Giannina                    26   13   0    0    42   13   11   1    1    37   16   73   
1st     PAS Giannina                    26   10   3    0    42   12   9    2    2    29   14   62   
1st     PAS Giannina                    26   11   2    0    46   11   9    1    3    31   18   63   
1st     PAS Giannina                    26   11   2    0    39   13   10   1    2    36   20   66   
1st     PAS Giannina                    26   10   3    0    44   13   7    4    2    28   17   58   
1st     PAS Giannina                    26   10   2    1    35   15   9    3    1    32   16   62   
1st     PAS Giannina                    26   12   0    1    43   15   9    3    1    33   18   66   
1st     PAS Giannina                    26   12   0    1    41   16   9    2    2    37   20   65   
1st     PAS Giannina                    26   11   1    1    43   11   10   1    2    34   11   65   
1st     PAS Giannina                    26   12   0    1    46   19   10   0    3    38   13   66   
1st     PAS Giannina                    26   10   2    1    36   16   10   1    2    33   11   63   
1st     PAS Giannina                    26   12   0    1    43   14   10   1    2    35   15   67   
1st     PAS Giannina                    26   12   1    0    39   4    10   2    1    28   12   69   
1st     PAS Giannina                    26   11   1    1    44   16   10   1    2    32   10   65   
1st     PAS Giannina                    26   10   0    3    46   20   9    2    2    39   16   59   
1st     PAS Giannina                    26   11   2    0    34   13   8    5    0    40   16   64   
1st     PAS Giannina                    26   11   2    0    38   12   9    2    2    27   12   64   
1st     PAS Giannina                    26   10   2    1    39   13   10   2    1    36   15   64   
1st     PAS Giannina                    26   11   2    0    43   16   11   0    2    37   7    68   
1st     PAS Giannina                    26   11   2    0    41   9    9    3    1    29   13   65   
1st     PAS Giannina                    26   9    4    0    41   16   10   3    0    35   13   64   
1st     PAS Giannina                    26   12   1    0    46   11   10   1    2    41   20   68   
1st     PAS Giannina                    26   12   0    1    40   13   10   2    1    35   15   68   
1st     PAS Giannina                    26   11   0    2    39   19   9    1    3    30   16   61   
2nd     PAS Giannina                    26   10   1    2    38   14   5    5    3    27   12   51   
1st     PAS Giannina                    26   11   2    0    46   11   7    3    3    31   20   59   
1st     PAS Giannina                    26   11   1    1    45   16   11   0    2    38   13   67   
1st     PAS Giannina                    26   13   0    0    49   13   10   3    0    40   14   72   
1st     PAS Giannina                    26   11   2    0    38   17   10   2    1    37   13   67   
1st     PAS Giannina                    26   10   2    1    42   17   9    1    3    38   17   60   
1st     PAS Giannina                    26   11   0    2    42   14   7    6    0    27   13   60   
1st     PAS Giannina                    26   10   3    0    36   16   8    3    2    34   20   60   
1st     PAS Giannina                    26   11   1    1    39   19   9    4    0    34   16   65   
1st     PAS Giannina                    26   10   1    2    38   18   10   3    0    29   5    64   
1st     PAS Giannina                    26   10   1    2    33   10   11   2    0    36   13   66   
1st     PAS Giannina                    26   12   0    1    42   13   11   2    0    47   18   71   
1st     PAS Giannina                    26   11   1    1    47   9    12   1    0    45   7    71   
1st     PAS Giannina                    26   8    5    0    34   17   8    2    3    31   14   55   
1st     PAS Giannina                    26   12   1    0    37   9    9    2    2    35   12   66   
1st     PAS Giannina                    26   13   0    0    44   12   9    3    1    39   20   69   
1st     PAS Giannina                    26   13   0    0    47   13   8    2    3    30   15   65   
1st     PAS Giannina                    26   12   1    0    48   15   10   1    2    37   18   68   
1st     PAS Giannina                    26   13   0    0    42   15   9    3    1    29   12   69   
1st     PAS Giannina                    26   12   0    1    39   11   7    4    2    25   15   61   
1st     PAS Giannina                    26   11   2    0    44   13   6    3    4    24   18   56   
1st     PAS Giannina                    26   10   3    0    49   16   10   2    1    32   13   65   
1st     PAS Giannina                    26   11   2    0    38   13   9    1    3    37   18   63   
1st     PAS Giannina                    26   11   2    0    38   11   11   0    2    32   14   68   
1st     PAS Giannina                    26   11   1    1    35   10   10   2    1    39   10   66   
1st     PAS Giannina                    26   12   0    1    45   14   11   0    2    36   11   69   
1st     PAS Giannina                    26   12   1    0    48   14   8    4    1    31   19   65   
1st     PAS Giannina                    26   13   0    0    45   14   10   1    2    31   18   70   
1st     PAS Giannina                    26   13   0    0    38   9    10   3    0    34   13   72   
1st     PAS Giannina                    26   12   1    0    43   10   10   2    1    31   12   69   
2nd     PAS Giannina                    26   9    3    1    29   10   7    2    4    22   16   53   
1st     PAS Giannina                    26   12   1    0    47   15   7    2    4    30   18   60   
1st     PAS Giannina                    26   12   1    0    39   13   9    2    2    36   15   66   
1st     PAS Giannina                    26   12   1    0    41   9    8    4    1    37   20   65   
1st     PAS Giannina                    26   13   0    0    46   7    7    3    3    31   19   63   
1st     PAS Giannina                    26   11   2    0    47   14   9    2    2    37   15   64   
1st     PAS Giannina                    26   9    3    1    41   13   10   0    3    36   12   60   
1st     PAS Giannina                    26   10   1    2    33   18   7    1    5    20   12   53   
1st     PAS Giannina                    26   9    2    2    39   20   7    4    2    25   14   54   
1st     PAS Giannina                    26   10   2    1    42   20   8    4    1    35   21   60   
1st     PAS Giannina                    26   12   1    0    42   9    9    1    3    31   18   65   
1st     PAS Giannina                    26   12   1    0    46   12   9    1    3    33   14   65   
1st     PAS Giannina                    26   11   1    1    41   15   9    3    1    36   15   64   
1st     PAS Giannina                    26   13   0    0    42   17   6    4    3    26   16   61   
1st     PAS Giannina                    26   11   0    2    45   11   8    2    3    30   16   59   
1st     PAS Giannina                    26   12   1    0    40   11   9    2    2    36   16   66   
1st     PAS Giannina                    26   12   0    1    40   13   10   1    2    35   18   67   
1st     PAS Giannina                    26   10   2    1    46   15   12   1    0    36   11   69   
1st     PAS Giannina                    26   9    4    0    35   12   8    3    2    34   14   58   
1st     PAS Giannina                    26   9    3    1    37   11   11   2    0    40   13   65   
1st     PAS Giannina                    26   11   0    2    40   12   11   1    1    38   12   67   
1st     PAS Giannina                    26   13   0    0    40   15   6    3    4    28   24   60   
1st     PAS Giannina                    26   11   2    0    38   14   10   2    1    33   16   67   
1st     PAS Giannina                    26   13   0    0    40   11   11   1    1    30   14   73   
1st     PAS Giannina                    26   12   1    0    44   12   9    3    1    34   12   67   
1st     PAS Giannina                    26   12   1    0    51   13   9    2    2    32   15   66   
1st     PAS Giannina                    26   12   1    0    45   12   9    3    1    34   20   67   
1st     PAS Giannina                    26   11   2    0    43   15   12   1    0    35   11   72   
1st     PAS Giannina                    26   11   1    1    41   17   10   3    0    35   13   67   
1st     PAS Giannina                    26   12   1    0    51   15   7    3    3    22   11   61   
1st     PAS Giannina                    26   12   1    0    41   12   12   1    0    37   8    74   
1st     PAS Giannina                    26   10   1    2    41   17   9    0    4    28   19   58   
1st     PAS Giannina                    26   11   2    0    38   14   9    2    2    36   18   64   
1st     PAS Giannina                    26   12   1    0    36   11   9    0    4    28   14   64   
1st     PAS Giannina                    26   12   1    0    45   17   9    3    1    26   12   67   
1st     PAS Giannina                    26   11   1    1    38   13   9    3    1    32   13   64   
1st     PAS Giannina                    26   13   0    0    38   9    13   0    0    41   8    78   
1st     PAS Giannina                    26   12   1    0    47   18   11   2    0    40   11   72   
1st     PAS Giannina                    26   12   1    0    37   8    9    3    1    30   11   67   
1st     PAS Giannina                    26   12   1    0    45   10   10   0    3    35   20   67   
1st     PAS Giannina                    26   12   0    1    46   16   10   3    0    34   13   69   