2nd     PAS Giannina                    26   9    3    1    21   9    10   1    2    31   13   61   
1st     PAS Giannina                    26   10   1    2    34   18   8    4    1    29   15   59   
1st     PAS Giannina                    26   11   1    1    29   8    10   2    1    33   13   66   
1st     PAS Giannina                    26   9    2    2    28   15   11   1    1    36   14   63   
2nd     PAS Giannina                    26   7    3    3    23   16   5    6    2    22   17   45   
1st     PAS Giannina                    26   12   1    0    35   8    11   1    1    33   9    71   
1st     PAS Giannina                    26   10   1    2    29   9    7    2    4    27   8    54   
1st     PAS Giannina                    26   10   3    0    26   9    8    3    2    29   13   60   
1st     PAS Giannina                    26   12   1    0    36   13   7    4    2    33   16   62   
1st     PAS Giannina                    26   9    2    2    25   8    11   1    1    38   15   63   
1st     PAS Giannina                    26   11   2    0    35   12   9    3    1    31   15   65   
1st     PAS Giannina                    26   13   0    0    35   8    7    3    3    22   9    63   
1st     PAS Giannina                    26   13   0    0    34   6    8    3    2    22   9    66   
1st     PAS Giannina                    26   8    3    2    25   14   8    0    5    32   18   51   
1st     PAS Giannina                    26   9    3    1    30   15   8    3    2    35   14   57   
1st     PAS Giannina                    26   11   0    2    36   15   7    3    3    23   13   57   
1st     PAS Giannina                    26   10   2    1    31   11   8    3    2    28   10   59   
1st     PAS Giannina                    26   12   1    0    36   5    7    3    3    26   11   61   
1st     PAS Giannina                    26   9    3    1    34   9    7    2    4    25   14   53   
1st     PAS Giannina                    26   8    3    2    25   16   10   2    1    25   10   59   
2nd     PAS Giannina                    26   8    3    2    28   16   7    5    1    23   14   53   
1st     PAS Giannina                    26   11   2    0    29   12   9    2    2    25   10   64   
2nd     PAS Giannina                    26   9    3    1    23   14   8    1    4    30   17   55   
2nd     PAS Giannina                    26   7    3    3    25   14   8    1    4    25   14   49   
1st     PAS Giannina                    26   11   1    1    29   9    10   3    0    29   6    67   
1st     PAS Giannina                    26   12   1    0    34   5    9    3    1    35   13   67   
4th     PAS Giannina                    26   7    2    4    18   12   5    4    4    15   16   42   
1st     PAS Giannina                    26   10   3    0    28   9    11   1    1    29   11   67   
1st     PAS Giannina                    26   9    3    1    25   11   12   1    0    30   7    67   
1st     PAS Giannina                    26   11   1    1    29   9    11   0    2    38   16   67   
2nd     PAS Giannina                    26   10   0    3    37   19   8    1    4    26   16   55   
1st     PAS Giannina                    26   10   3    0    30   12   9    3    1    30   13   63   
2nd     PAS Giannina                    26   10   1    2    31   9    6    2    5    28   18   51   
1st     PAS Giannina                    26   12   0    1    30   10   6    2    5    22   21   56   
1st     PAS Giannina                    26   12   1    0    37   10   9    1    3    25   12   65   
2nd     PAS Giannina                    26   7    5    1    31   16   7    5    1    21   8    52   
2nd     PAS Giannina                    26   11   1    1    36   10   5    6    2    27   17   55   
1st     PAS Giannina                    26   10   1    2    35   9    9    2    2    38   16   60   
1st     PAS Giannina                    26   9    3    1    36   15   11   1    1    25   8    64   
1st     PAS Giannina                    26   8    3    2    33   18   9    4    0    32   11   58   
1st     PAS Giannina                    26   10   2    1    33   13   11   1    1    37   12   66   
2nd     PAS Giannina                    26   9    4    0    35   14   8    1    4    24   13   56   
1st     PAS Giannina                    26   10   1    2    34   15   7    2    4    34   19   54   
2nd     PAS Giannina                    26   10   1    2    27   9    8    1    4    31   17   56   
2nd     PAS Giannina                    26   9    2    2    29   17   6    2    5    19   16   49   
1st     PAS Giannina                    26   10   3    0    30   8    8    1    4    20   12   58   
2nd     PAS Giannina                    26   8    0    5    25   13   8    2    3    36   17   50   
1st     PAS Giannina                    26   12   0    1    39   13   9    3    1    29   13   66   
2nd     PAS Giannina                    26   9    1    3    31   11   7    3    3    22   13   52   
1st     PAS Giannina                    26   11   1    1    28   11   9    4    0    25   7    65   
1st     PAS Giannina                    26   7    6    0    26   13   9    4    0    31   12   58   
1st     PAS Giannina                    26   8    3    2    31   13   10   1    2    28   8    58   
1st     PAS Giannina                    26   10   2    1    32   12   8    4    1    28   8    60   
1st     PAS Giannina                    26   7    4    2    22   13   9    3    1    25   9    55   
2nd     PAS Giannina                    26   10   2    1    29   8    8    2    3    22   16   58   
2nd     PAS Giannina                    26   10   1    2    35   12   6    5    2    23   18   54   
1st     PAS Giannina                    26   11   1    1    29   8    10   2    1    38   17   66   
1st     PAS Giannina                    26   12   0    1    37   10   10   3    0    35   10   69   
1st     PAS Giannina                    26   10   2    1    29   15   10   3    0    32   10   65   
1st     PAS Giannina                    26   11   1    1    29   12   6    4    3    26   16   56   
2nd     PAS Giannina                    26   7    5    1    28   16   8    3    2    22   11   53   
1st     PAS Giannina                    26   11   2    0    31   7    11   1    1    32   12   69   
1st     PAS Giannina                    26   9    2    2    35   15   9    1    3    23   13   57   
1st     PAS Giannina                    26   12   0    1    36   8    9    3    1    25   11   66   
1st     PAS Giannina                    26   10   0    3    26   15   9    2    2    36   19   59   
1st     PAS Giannina                    26   9    1    3    31   15   10   2    1    30   10   60   
1st     PAS Giannina                    26   10   2    1    31   15   9    2    2    29   14   61   
1st     PAS Giannina                    26   9    4    0    25   10   7    3    3    20   12   55   
1st     PAS Giannina                    26   11   0    2    36   15   7    4    2    23   9    58   
1st     PAS Giannina                    26   11   0    2    33   12   10   1    2    29   9    64   
1st     PAS Giannina                    26   9    3    1    32   8    10   2    1    33   14   62   
2nd     PAS Giannina                    26   10   1    2    25   8    8    4    1    25   9    59   
1st     PAS Giannina                    26   9    4    0    31   14   8    2    3    27   16   57   
1st     PAS Giannina                    26   11   2    0    33   9    8    4    1    31   15   63   
1st     PAS Giannina                    26   11   2    0    31   11   8    3    2    29   15   62   
1st     PAS Giannina                    26   8    4    1    28   12   10   1    2    32   16   59   
2nd     PAS Giannina                    26   9    2    2    21   7    6    3    4    24   18   50   
1st     PAS Giannina                    26   10   2    1    29   10   9    3    1    31   15   62   
1st     PAS Giannina                    26   11   1    1    37   12   9    2    2    32   14   63   
1st     PAS Giannina                    26   11   1    1    28   11   10   1    2    30   11   65   
1st     PAS Giannina                    26   10   3    0    31   12   8    3    2    33   17   60   
1st     PAS Giannina                    26   12   1    0    34   11   9    3    1    42   18   67   
1st     PAS Giannina                    26   9    2    2    27   16   8    3    2    33   15   56   
1st     PAS Giannina                    26   10   2    1    30   13   11   1    1    27   8    66   
1st     PAS Giannina                    26   9    2    2    27   8    8    2    3    28   8    55   
1st     PAS Giannina                    26   9    3    1    25   12   11   1    1    33   12   64   
1st     PAS Giannina                    26   11   0    2    27   10   6    4    3    29   21   55   
2nd     PAS Giannina                    26   9    2    2    27   17   6    4    3    28   16   51   
1st     PAS Giannina                    26   11   2    0    33   15   9    4    0    32   10   66   
1st     PAS Giannina                    26   12   1    0    41   13   8    2    3    30   16   63   
1st     PAS Giannina                    26   11   1    1    35   14   8    5    0    23   6    63   
1st     PAS Giannina                    26   12   1    0    40   9    8    3    2    30   17   64   
1st     PAS Giannina                    26   9    3    1    31   12   9    3    1    24   9    60   
2nd     PAS Giannina                    26   8    4    1    28   13   7    2    4    29   14   51   
1st     PAS Giannina                    26   12   0    1    26   10   7    3    3    29   20   60   
3rd     PAS Giannina                    26   7    4    2    26   12   5    3    5    20   18   43   
1st     PAS Giannina                    26   10   3    0    32   10   7    3    3    32   15   57   
2nd     PAS Giannina                    26   9    2    2    27   11   5    5    3    26   24   49   
1st     PAS Giannina                    26   12   1    0    30   9    9    0    4    33   17   64   
1st     PAS Giannina                    26   9    3    1    27   15   11   0    2    28   11   63   