1st     PAS Giannina                    26   11   1    1    33   11   10   1    2    21   10   65   
2nd     PAS Giannina                    26   8    2    3    28   18   5    3    5    18   16   44   
1st     PAS Giannina                    26   10   3    0    29   10   9    2    2    27   14   62   
1st     PAS Giannina                    26   11   0    2    32   12   6    4    3    21   18   55   
1st     PAS Giannina                    26   9    0    4    32   13   8    2    3    33   18   53   
1st     PAS Giannina                    26   11   2    0    42   11   11   1    1    30   11   69   
1st     PAS Giannina                    26   11   1    1    31   14   9    4    0    31   13   65   
1st     PAS Giannina                    26   7    3    3    30   14   8    2    3    26   14   50   
1st     PAS Giannina                    26   11   1    1    34   14   10   1    2    33   13   65   
1st     PAS Giannina                    26   11   1    1    35   8    9    1    3    31   18   62   
1st     PAS Giannina                    26   10   1    2    32   15   9    3    1    34   15   61   
2nd     PAS Giannina                    26   8    4    1    33   15   8    2    3    28   17   54   
2nd     PAS Giannina                    26   9    3    1    25   8    9    2    2    30   17   59   
1st     PAS Giannina                    26   12   0    1    37   4    6    4    3    25   15   58   
1st     PAS Giannina                    26   11   1    1    41   15   7    4    2    29   17   59   
1st     PAS Giannina                    26   12   1    0    29   4    5    3    5    21   18   55   
1st     PAS Giannina                    26   10   1    2    33   13   9    4    0    31   9    62   
1st     PAS Giannina                    26   11   1    1    38   11   9    2    2    29   17   63   
2nd     PAS Giannina                    26   9    2    2    33   16   7    3    3    22   12   53   
2nd     PAS Giannina                    26   10   2    1    34   14   5    4    4    22   17   51   
1st     PAS Giannina                    26   11   2    0    31   9    6    6    1    22   16   59   
1st     PAS Giannina                    26   10   3    0    33   13   7    2    4    25   17   56   
1st     PAS Giannina                    26   8    4    1    35   19   9    3    1    31   12   58   
1st     PAS Giannina                    26   10   2    1    31   11   8    2    3    28   16   58   
3rd     PAS Giannina                    26   9    1    3    32   14   8    1    4    23   14   53   
1st     PAS Giannina                    26   10   3    0    31   8    8    2    3    27   17   59   
1st     PAS Giannina                    26   10   1    2    32   9    8    3    2    26   14   58   
1st     PAS Giannina                    26   9    3    1    30   12   8    2    3    18   9    56   
1st     PAS Giannina                    26   8    4    1    28   15   8    4    1    28   17   56   
2nd     PAS Giannina                    26   10   3    0    33   10   6    5    2    24   16   56   
1st     PAS Giannina                    26   10   0    3    32   13   11   2    0    28   9    65   
2nd     PAS Giannina                    26   9    2    2    35   12   5    3    5    27   21   47   
1st     PAS Giannina                    26   9    4    0    38   15   8    2    3    25   15   57   
1st     PAS Giannina                    26   9    4    0    27   14   9    3    1    27   10   61   
2nd     PAS Giannina                    26   11   1    1    35   10   7    2    4    26   13   57   
1st     PAS Giannina                    26   9    3    1    32   14   6    2    5    19   17   50   
1st     PAS Giannina                    26   10   1    2    36   16   8    3    2    26   14   58   
4th     PAS Giannina                    26   9    1    3    36   19   5    4    4    23   24   47   
3rd     PAS Giannina                    26   10   2    1    30   12   5    2    6    18   19   49   
3rd     PAS Giannina                    26   11   1    1    33   13   4    2    7    23   24   48   
1st     PAS Giannina                    26   10   3    0    39   15   8    2    3    30   16   59   
1st     PAS Giannina                    26   9    1    3    33   14   10   2    1    26   9    60   
1st     PAS Giannina                    26   10   1    2    34   16   8    3    2    28   18   58   
1st     PAS Giannina                    26   11   0    2    38   13   7    2    4    23   14   56   
1st     PAS Giannina                    26   8    2    3    27   17   9    2    2    25   10   55   
1st     PAS Giannina                    26   11   0    2    30   9    8    1    4    24   10   58   
1st     PAS Giannina                    26   8    4    1    29   15   9    2    2    33   16   57   
1st     PAS Giannina                    26   11   1    1    31   10   7    5    1    24   15   60   
2nd     PAS Giannina                    26   12   0    1    35   15   5    6    2    24   17   57   
1st     PAS Giannina                    26   9    3    1    30   18   7    4    2    24   13   55   
1st     PAS Giannina                    26   12   0    1    36   15   10   1    2    27   9    67   
4th     PAS Giannina                    26   6    3    4    28   22   7    1    5    23   13   43   
2nd     PAS Giannina                    26   8    2    3    24   14   8    3    2    24   16   53   
3rd     PAS Giannina                    26   7    0    6    27   21   7    3    3    24   14   45   
1st     PAS Giannina                    26   9    1    3    33   16   6    3    4    27   18   49   
1st     PAS Giannina                    26   9    2    2    29   15   6    4    3    19   10   51   
2nd     PAS Giannina                    26   7    4    2    29   19   6    5    2    23   15   48   
1st     PAS Giannina                    26   11   2    0    31   11   10   3    0    34   11   68   
2nd     PAS Giannina                    26   9    4    0    32   13   3    6    4    25   24   46   
1st     PAS Giannina                    26   10   3    0    30   11   7    3    3    23   13   57   
2nd     PAS Giannina                    26   11   1    1    33   9    6    4    3    25   19   56   
1st     PAS Giannina                    26   10   0    3    30   12   9    2    2    26   10   59   
1st     PAS Giannina                    26   11   2    0    33   8    7    1    5    30   26   57   
1st     PAS Giannina                    26   12   1    0    39   8    6    4    3    32   22   59   
2nd     PAS Giannina                    26   10   3    0    27   13   5    4    4    22   18   52   
5th     PAS Giannina                    26   9    1    3    30   20   5    1    7    21   24   44   
1st     PAS Giannina                    26   13   0    0    38   15   8    2    3    18   12   65   
1st     PAS Giannina                    26   9    3    1    28   8    8    4    1    24   12   58   
1st     PAS Giannina                    26   9    4    0    32   12   8    3    2    21   9    58   
2nd     PAS Giannina                    26   8    4    1    28   13   6    2    5    19   19   48   
1st     PAS Giannina                    26   10   0    3    27   15   6    5    2    28   13   53   
2nd     PAS Giannina                    26   8    3    2    28   15   6    4    3    23   16   49   
2nd     PAS Giannina                    26   10   2    1    32   11   8    2    3    29   19   58   
1st     PAS Giannina                    26   10   2    1    35   11   10   2    1    26   9    64   
1st     PAS Giannina                    26   11   1    1    33   8    8    3    2    21   14   61   
1st     PAS Giannina                    26   9    3    1    27   12   9    1    3    31   15   58   
1st     PAS Giannina                    26   12   0    1    31   8    8    2    3    28   18   62   
2nd     PAS Giannina                    26   9    2    2    26   12   6    5    2    26   14   52   
2nd     PAS Giannina                    26   9    1    3    35   14   7    3    3    31   19   52   
1st     PAS Giannina                    26   12   1    0    43   13   9    2    2    30   10   66   
1st     PAS Giannina                    26   10   3    0    33   15   8    2    3    27   13   59   
1st     PAS Giannina                    26   12   0    1    32   7    7    4    2    29   17   61   
2nd     PAS Giannina                    26   8    1    4    25   14   9    2    2    25   13   54   
2nd     PAS Giannina                    26   8    3    2    28   16   7    3    3    25   15   51   
1st     PAS Giannina                    26   11   2    0    41   13   9    1    3    23   11   63   
1st     PAS Giannina                    26   8    4    1    32   15   8    2    3    28   13   54   
2nd     PAS Giannina                    26   9    1    3    32   16   6    4    3    21   12   50   
1st     PAS Giannina                    26   9    2    2    29   11   6    3    4    28   19   50   
2nd     PAS Giannina                    26   8    3    2    29   10   7    3    3    27   19   51   
1st     PAS Giannina                    26   11   1    1    38   11   7    2    4    23   19   57   
1st     PAS Giannina                    26   13   0    0    37   11   6    0    7    22   19   57   
1st     PAS Giannina                    26   12   1    0    38   7    7    3    3    25   11   61   
1st     PAS Giannina                    26   9    2    2    22   10   7    6    0    25   14   56   
1st     PAS Giannina                    26   10   2    1    26   9    10   1    2    27   15   63   
4th     PAS Giannina                    26   10   0    3    31   20   4    6    3    18   16   48   
1st     PAS Giannina                    26   6    5    2    29   20   9    1    3    26   11   51   
1st     PAS Giannina                    26   9    3    1    27   11   5    2    6    15   17   47   
6th     PAS Giannina                    26   9    2    2    35   16   3    2    8    15   24   40   
1st     PAS Giannina                    26   11   2    0    36   14   8    3    2    24   13   62   
2nd     PAS Giannina                    26   11   2    0    37   10   4    4    5    26   23   51   