13th    PAS Giannina                    26   6    1    6    19   19   0    3    10   17   34   22   
14th    PAS Giannina                    26   5    3    5    18   22   1    2    10   8    28   23   
13th    PAS Giannina                    26   5    2    6    17   19   1    2    10   14   31   22   
14th    PAS Giannina                    26   5    3    5    23   21   0    2    11   7    31   20   
12th    PAS Giannina                    26   7    3    3    23   17   1    3    9    11   27   30   
7th     PAS Giannina                    26   5    6    2    23   16   4    1    8    13   26   34   
11th    PAS Giannina                    26   6    2    5    16   20   1    3    9    10   31   26   
4th     PAS Giannina                    26   7    4    2    25   18   4    2    7    12   25   39   
3rd     PAS Giannina                    26   10   2    1    29   14   3    1    9    12   26   42   
9th     PAS Giannina                    26   7    3    3    18   11   2    2    9    10   24   32   
12th    PAS Giannina                    26   5    3    5    16   19   3    3    7    12   22   30   
12th    PAS Giannina                    26   4    2    7    16   17   2    4    7    15   23   24   
10th    PAS Giannina                    26   8    2    3    18   14   1    2    10   9    24   31   
14th    PAS Giannina                    26   4    4    5    17   15   2    2    9    13   25   24   
9th     PAS Giannina                    26   6    1    6    20   23   4    1    8    13   21   32   
14th    PAS Giannina                    26   4    3    6    18   27   0    4    9    17   32   19   
9th     PAS Giannina                    26   7    4    2    30   23   2    4    7    14   24   35   
14th    PAS Giannina                    26   4    6    3    20   19   2    2    9    12   27   26   
10th    PAS Giannina                    26   7    3    3    23   13   0    6    7    13   25   30   
14th    PAS Giannina                    26   4    4    5    17   19   0    3    10   8    30   19   
14th    PAS Giannina                    26   3    6    4    27   29   0    1    12   14   33   16   
14th    PAS Giannina                    26   5    2    6    16   19   1    1    11   10   26   21   
10th    PAS Giannina                    26   6    4    3    20   15   1    5    7    10   23   30   
11th    PAS Giannina                    26   5    5    3    25   20   2    4    7    13   22   30   
14th    PAS Giannina                    26   6    1    6    23   21   1    2    10   11   28   24   
13th    PAS Giannina                    26   6    1    6    22   22   2    1    10   16   35   26   
13th    PAS Giannina                    26   3    8    2    19   19   1    4    8    12   24   24   
13th    PAS Giannina                    26   4    3    6    16   20   0    5    8    12   26   20   
14th    PAS Giannina                    26   3    2    8    19   25   2    0    11   18   28   17   
13th    PAS Giannina                    26   3    3    7    19   26   1    5    7    13   28   20   
10th    PAS Giannina                    26   7    2    4    23   20   2    3    8    9    22   32   
8th     PAS Giannina                    26   8    0    5    26   19   3    2    8    12   20   35   
8th     PAS Giannina                    26   6    3    4    24   19   3    2    8    16   29   32   
14th    PAS Giannina                    26   4    2    7    20   19   1    5    7    14   23   22   
9th     PAS Giannina                    26   6    5    2    25   14   3    3    7    15   25   35   
13th    PAS Giannina                    26   6    4    3    22   13   2    1    10   13   33   29   
6th     PAS Giannina                    26   8    2    3    24   20   2    5    6    10   18   37   
10th    PAS Giannina                    26   5    3    5    13   17   2    3    8    12   28   27   
10th    PAS Giannina                    26   5    3    5    26   24   3    0    10   14   21   27   
14th    PAS Giannina                    26   1    3    9    8    20   1    2    10   13   26   11   
9th     PAS Giannina                    26   6    3    4    26   23   1    5    7    8    25   29   
13th    PAS Giannina                    26   4    3    6    20   22   2    3    8    12   26   24   
13th    PAS Giannina                    26   7    2    4    24   20   1    3    9    12   28   29   
13th    PAS Giannina                    26   4    2    7    21   23   1    4    8    14   30   21   
7th     PAS Giannina                    26   8    2    3    22   14   3    1    9    17   26   36   
14th    PAS Giannina                    26   5    4    4    23   23   1    0    12   10   33   22   
12th    PAS Giannina                    26   6    3    4    21   17   1    2    10   16   31   26   
7th     PAS Giannina                    26   8    2    3    23   13   1    6    6    7    16   35   
9th     PAS Giannina                    26   8    0    5    20   18   2    2    9    15   27   32   
10th    PAS Giannina                    26   5    2    6    18   21   2    3    8    12   25   26   
8th     PAS Giannina                    26   7    4    2    24   18   3    4    6    17   23   38   
11th    PAS Giannina                    26   5    3    5    23   18   1    5    7    12   24   26   
9th     PAS Giannina                    26   7    3    3    21   14   1    3    9    10   25   30   
9th     PAS Giannina                    26   4    2    7    18   23   4    3    6    19   19   29   
13th    PAS Giannina                    26   3    4    6    20   24   3    4    6    16   27   26   
14th    PAS Giannina                    26   3    2    8    15   27   1    4    8    13   22   18   
4th     PAS Giannina                    26   7    4    2    22   14   3    4    6    10   21   38   
4th     PAS Giannina                    26   7    3    3    21   14   5    0    8    15   22   39   
8th     PAS Giannina                    26   7    1    5    21   17   4    3    6    19   22   37   
11th    PAS Giannina                    26   7    2    4    20   19   1    3    9    10   28   29   
14th    PAS Giannina                    26   4    2    7    21   23   1    0    12   5    33   17   
12th    PAS Giannina                    26   6    3    4    22   15   1    3    9    15   32   27   
14th    PAS Giannina                    26   6    2    5    26   23   1    3    9    5    22   26   
10th    PAS Giannina                    26   7    1    5    24   20   2    5    6    14   22   33   
7th     PAS Giannina                    26   7    2    4    27   20   3    2    8    14   22   34   
6th     PAS Giannina                    26   8    2    3    27   16   3    4    6    13   22   39   
14th    PAS Giannina                    26   4    2    7    23   26   1    1    11   9    31   18   
14th    PAS Giannina                    26   2    3    8    12   22   1    3    9    7    27   15   
8th     PAS Giannina                    26   7    2    4    19   16   3    4    6    14   20   36   
9th     PAS Giannina                    26   8    1    4    17   11   3    1    9    18   29   35   
6th     PAS Giannina                    26   9    2    2    29   18   2    3    8    10   22   38   
14th    PAS Giannina                    26   6    4    3    20   15   1    3    9    16   30   28   
7th     PAS Giannina                    26   8    1    4    26   18   3    1    9    16   26   35   
12th    PAS Giannina                    26   4    5    4    19   18   3    1    9    11   24   27   
13th    PAS Giannina                    26   4    2    7    21   24   3    2    8    8    21   25   
14th    PAS Giannina                    26   4    4    5    17   21   3    2    8    12   24   27   
9th     PAS Giannina                    26   6    3    4    21   14   3    2    8    15   25   32   
12th    PAS Giannina                    26   6    0    7    23   26   1    4    8    10   26   25   
14th    PAS Giannina                    26   5    2    6    24   25   0    3    10   11   29   20   
14th    PAS Giannina                    26   3    1    9    14   26   1    2    10   10   28   15   
11th    PAS Giannina                    26   8    2    3    23   20   0    6    7    6    22   32   
9th     PAS Giannina                    26   7    2    4    29   22   2    3    8    14   22   32   
9th     PAS Giannina                    26   7    5    1    20   11   3    1    9    12   24   36   
11th    PAS Giannina                    26   7    2    4    28   22   1    4    8    11   22   30   
12th    PAS Giannina                    26   5    2    6    17   21   2    3    8    13   24   26   
10th    PAS Giannina                    26   7    2    4    21   16   2    3    8    14   24   32   
12th    PAS Giannina                    26   4    2    7    16   25   2    3    8    13   26   23   
12th    PAS Giannina                    26   5    6    2    19   17   1    1    11   7    28   25   
14th    PAS Giannina                    26   5    4    4    20   17   2    1    10   16   28   26   
10th    PAS Giannina                    26   5    4    4    25   23   3    2    8    19   21   30   
5th     PAS Giannina                    26   8    1    4    30   21   4    2    7    10   14   39   
12th    PAS Giannina                    26   4    5    4    26   26   2    1    10   13   33   24   
12th    PAS Giannina                    26   4    2    7    19   22   4    2    7    14   21   28   
14th    PAS Giannina                    26   4    2    7    15   21   2    2    9    12   29   22   
10th    PAS Giannina                    26   4    6    3    19   18   3    2    8    15   25   29   
14th    PAS Giannina                    26   2    2    9    16   28   1    5    7    7    20   16   
6th     PAS Giannina                    26   8    1    4    25   18   4    3    6    18   23   40   
7th     PAS Giannina                    26   7    1    5    28   19   3    2    8    12   19   33   
4th     PAS Giannina                    26   10   3    0    29   11   3    2    8    14   22   44   
10th    PAS Giannina                    26   9    1    3    23   13   0    3    10   5    25   31   