9th     PAS Giannina                    26   6    4    3    20   11   3    3    7    10   16   34
7th     PAS Giannina                    26   9    1    3    19   10   3    2    8    15   23   39
1st     PAS Giannina                    26   10   3    0    38   14   6    2    5    15   10   53
3rd     PAS Giannina                    26   10   1    2    31   13   7    4    2    18   6    56
3rd     PAS Giannina                    26   7    5    1    26   13   4    2    7    12   17   40
6th     PAS Giannina                    26   6    5    2    20   12   4    4    5    13   15   39
4th     PAS Giannina                    26   5    3    5    19   21   4    8    1    16   13   38
2nd     PAS Giannina                    26   10   1    2    28   10   5    4    4    18   16   50
2nd     PAS Giannina                    26   10   1    2    26   14   3    3    7    16   24   43
1st     PAS Giannina                    26   8    4    1    29   18   8    4    1    23   12   56
4th     PAS Giannina                    26   8    3    2    17   9    4    3    6    13   17   42
4th     PAS Giannina                    26   9    3    1    20   8    4    3    6    16   17   45
4th     PAS Giannina                    26   9    2    2    19   8    3    2    8    9    17   40
5th     PAS Giannina                    26   7    3    3    21   13   3    6    4    11   15   39
1st     PAS Giannina                    26   10   2    1    26   9    8    3    2    23   12   59
4th     PAS Giannina                    26   9    3    1    23   10   4    1    8    14   13   43
1st     PAS Giannina                    26   9    1    3    23   15   7    4    2    21   14   53
2nd     PAS Giannina                    26   10   3    0    29   7    4    5    4    15   15   50
5th     PAS Giannina                    26   8    2    3    21   12   4    2    7    17   17   40
2nd     PAS Giannina                    26   10   1    2    29   14   4    4    5    18   15   47
2nd     PAS Giannina                    26   8    3    2    17   10   6    1    6    20   14   46
3rd     PAS Giannina                    26   7    2    4    17   11   6    3    4    20   17   44
2nd     PAS Giannina                    26   12   0    1    41   13   1    9    3    13   15   48
7th     PAS Giannina                    26   8    3    2    22   12   2    4    7    10   18   37
11th    PAS Giannina                    26   6    2    5    16   13   2    4    7    8    21   30
2nd     PAS Giannina                    26   8    4    1    24   14   5    6    2    17   12   49
11th    PAS Giannina                    26   6    3    4    20   17   1    5    7    11   19   29
3rd     PAS Giannina                    26   6    3    4    23   17   6    5    2    18   12   44
3rd     PAS Giannina                    26   9    3    1    26   11   4    4    5    16   16   46
3rd     PAS Giannina                    26   7    2    4    19   11   5    6    2    17   14   44
1st     PAS Giannina                    26   10   1    2    21   9    5    2    6    14   17   48
4th     PAS Giannina                    26   8    4    1    21   9    6    0    7    11   13   46
4th     PAS Giannina                    26   7    4    2    19   11   3    4    6    11   17   38
4th     PAS Giannina                    26   10   0    3    27   8    4    3    6    15   16   45
5th     PAS Giannina                    26   9    1    3    27   14   2    4    7    14   19   38
2nd     PAS Giannina                    26   7    4    2    18   8    7    1    5    18   11   47
3rd     PAS Giannina                    26   9    3    1    27   7    6    4    3    15   14   52
4th     PAS Giannina                    26   7    3    3    20   10   5    2    6    17   23   41
1st     PAS Giannina                    26   10   2    1    31   13   5    3    5    17   17   50
2nd     PAS Giannina                    26   7    4    2    21   12   6    4    3    17   8    47
5th     PAS Giannina                    26   6    3    4    21   17   6    4    3    18   11   43
8th     PAS Giannina                    26   5    3    5    19   17   3    3    7    20   23   30
6th     PAS Giannina                    26   6    4    3    19   13   5    2    6    20   18   39
2nd     PAS Giannina                    26   9    2    2    29   13   3    4    6    16   21   42
3rd     PAS Giannina                    26   8    3    2    20   13   5    4    4    19   15   46
2nd     PAS Giannina                    26   10   3    0    26   6    5    4    4    16   14   52
1st     PAS Giannina                    26   11   1    1    35   16   7    3    3    23   12   58
2nd     PAS Giannina                    26   7    4    2    14   6    7    2    4    17   14   48
3rd     PAS Giannina                    26   7    6    0    20   10   5    4    4    18   19   46
2nd     PAS Giannina                    26   8    5    0    26   9    6    2    5    16   15   49
9th     PAS Giannina                    26   5    3    5    18   14   3    5    5    15   23   32
5th     PAS Giannina                    26   9    0    4    18   11   3    3    7    11   18   39
2nd     PAS Giannina                    26   9    2    2    23   11   4    6    3    18   17   47
3rd     PAS Giannina                    26   8    5    0    21   9    5    4    4    21   21   48
8th     PAS Giannina                    26   7    3    3    27   18   3    1    9    12   25   34
3rd     PAS Giannina                    26   9    2    2    27   15   4    5    4    25   21   46
7th     PAS Giannina                    26   6    5    2    18   11   3    5    5    12   19   37
3rd     PAS Giannina                    26   8    3    2    29   15   4    4    5    14   16   43
2nd     PAS Giannina                    26   10   3    0    28   9    5    8    0    15   9    56
1st     PAS Giannina                    26   10   3    0    26   10   7    4    2    17   9    58
3rd     PAS Giannina                    26   8    3    2    24   11   5    3    5    17   15   45
7th     PAS Giannina                    26   7    3    3    27   12   2    5    6    11   17   35
2nd     PAS Giannina                    26   8    3    2    24   13   5    3    5    16   16   45
2nd     PAS Giannina                    26   12   1    0    30   5    5    4    4    15   14   56
3rd     PAS Giannina                    26   7    4    2    22   14   5    6    2    17   11   46
2nd     PAS Giannina                    26   11   1    1    21   5    3    5    5    13   13   48
3rd     PAS Giannina                    26   7    3    3    32   20   6    3    4    15   15   45
6th     PAS Giannina                    26   8    3    2    22   16   4    2    7    16   18   41
4th     PAS Giannina                    26   6    6    1    17   6    4    4    5    18   19   40
2nd     PAS Giannina                    26   12   0    1    34   9    5    3    5    14   14   54
4th     PAS Giannina                    26   9    1    3    27   14   3    5    5    13   21   42
5th     PAS Giannina                    26   6    4    3    22   10   5    1    7    19   19   38
3rd     PAS Giannina                    26   5    4    4    23   16   7    4    2    20   8    44
1st     PAS Giannina                    26   12   1    0    26   6    5    2    6    19   19   54
1st     PAS Giannina                    26   6    7    0    22   14   6    6    1    19   11   49
1st     PAS Giannina                    26   9    4    0    29   11   6    0    7    16   14   49
4th     PAS Giannina                    26   9    2    2    20   10   3    3    7    11   20   41
1st     PAS Giannina                    26   11   1    1    24   7    4    5    4    16   17   51
6th     PAS Giannina                    26   7    1    5    20   14   4    2    7    11   14   36
1st     PAS Giannina                    26   10   3    0    27   9    7    0    6    20   16   54
8th     PAS Giannina                    26   5    6    2    21   13   3    3    7    13   18   33
9th     PAS Giannina                    26   5    3    5    19   18   5    1    7    13   15   34
1st     PAS Giannina                    26   11   0    2    25   9    6    2    5    18   13   53
6th     PAS Giannina                    26   6    5    2    22   14   4    4    5    15   16   39
6th     PAS Giannina                    26   9    2    2    24   11   1    7    5    7    13   39
3rd     PAS Giannina                    26   11   0    2    22   8    3    5    5    11   14   47
2nd     PAS Giannina                    26   10   1    2    31   15   6    2    5    15   17   51
9th     PAS Giannina                    26   7    2    4    19   16   2    1    10   6    19   30
3rd     PAS Giannina                    26   10   1    2    30   9    3    5    5    14   19   45
1st     PAS Giannina                    26   10   3    0    25   10   6    2    5    15   13   53
2nd     PAS Giannina                    26   10   3    0    29   7    4    3    6    16   20   48
2nd     PAS Giannina                    26   9    3    1    25   9    3    6    4    11   14   45
2nd     PAS Giannina                    26   8    2    3    25   14   5    5    3    20   18   46
1st     PAS Giannina                    26   9    2    2    26   18   6    2    5    16   18   49
2nd     PAS Giannina                    26   10   2    1    31   13   8    2    3    20   13   58
5th     PAS Giannina                    26   7    4    2    21   11   5    1    7    12   19   41
6th     PAS Giannina                    26   6    5    2    22   14   4    4    5    17   16   39
3rd     PAS Giannina                    26   8    1    4    28   20   4    6    3    15   13   43
3rd     PAS Giannina                    26   8    3    2    25   13   5    5    3    17   15   47
3rd     PAS Giannina                    26   7    5    1    24   14   6    2    5    12   13   46