1st      PAS Giannina                    26   9    3    1    24   12   8    4    1    27   13   58
2nd     PAS Giannina                    26   9    3    1    31   14   5    3    5    20   15   48
1st      PAS Giannina                    26   10   3    0    32   11   8    2    3    21   11   59
4th     PAS Giannina                    26   6    6    1    27   17   5    7    1    23   14   46
1st      PAS Giannina                    26   11   2    0    36   16   6    4    3    27   20   57
1st      PAS Giannina                    26   10   2    1    36   16   9    4    0    29   12   63
1st      PAS Giannina                    26   11   2    0    36   11   7    4    2    19   14   60
1st      PAS Giannina                    26   9    3    1    32   10   8    2    3    21   10   56
1st      PAS Giannina                    26   9    2    2    33   19   9    3    1    27   13   59
3rd     PAS Giannina                    26   7    3    3    26   11   5    5    3    23   14   44
2nd     PAS Giannina                    26   9    3    1    25   14   8    4    1    27   14   58
1st      PAS Giannina                    26   11   2    0    41   17   4    6    3    22   20   53
1st      PAS Giannina                    26   12   0    1    32   11   6    3    4    22   14   57
1st      PAS Giannina                    26   9    2    2    33   16   7    3    3    21   12   53
2nd     PAS Giannina                    26   11   0    2    30   14   5    5    3    21   15   53
1st      PAS Giannina                    26   11   0    2    27   12   5    4    4    24   22   52
1st      PAS Giannina                    26   10   3    0    29   8    9    3    1    30   15   63
1st      PAS Giannina                    26   12   1    0    35   11   7    4    2    23   18   62
1st      PAS Giannina                    26   11   2    0    31   11   11   0    2    28   14   68
1st      PAS Giannina                    26   9    3    1    40   14   9    2    2    33   17   59
1st      PAS Giannina                    26   13   0    0    37   12   10   2    1    32   11   71
1st      PAS Giannina                    26   9    1    3    30   18   10   1    2    33   11   59
1st      PAS Giannina                    26   11   1    1    34   10   9    2    2    29   19   63
3rd     PAS Giannina                    26   9    4    0    35   12   5    5    3    20   13   51
1st      PAS Giannina                    26   10   2    1    32   13   7    1    5    22   20   54
2nd     PAS Giannina                    26   12   0    1    42   8    6    3    4    19   14   57
1st      PAS Giannina                    26   10   2    1    36   9    7    4    2    22   13   57
1st      PAS Giannina                    26   11   2    0    29   12   8    3    2    23   13   62
1st      PAS Giannina                    26   10   2    1    34   12   9    1    3    28   16   60
1st      PAS Giannina                    26   12   1    0    35   11   9    2    2    25   9    66
1st      PAS Giannina                    26   12   1    0    32   8    11   0    2    32   11   70
3rd     PAS Giannina                    26   9    2    2    29   9    5    4    4    17   15   48
1st      PAS Giannina                    26   11   2    0    39   17   6    4    3    23   19   57
1st      PAS Giannina                    26   9    3    1    27   14   9    3    1    27   14   60
1st      PAS Giannina                    26   13   0    0    39   11   8    5    0    26   7    68
2nd     PAS Giannina                    26   8    5    0    29   14   6    5    2    23   13   52
1st      PAS Giannina                    26   11   2    0    37   11   5    5    3    23   17   55
2nd     PAS Giannina                    26   8    5    0    30   11   6    4    3    29   19   51
1st      PAS Giannina                    26   12   0    1    29   6    7    1    5    23   15   58
1st      PAS Giannina                    26   9    1    3    33   11   8    2    3    24   13   54
1st      PAS Giannina                    26   10   2    1    34   11   6    4    3    20   12   54
2nd     PAS Giannina                    26   11   1    1    37   14   7    6    0    25   12   61
1st      PAS Giannina                    26   12   0    1    37   12   7    0    6    19   12   57
1st      PAS Giannina                    26   11   1    1    33   12   6    4    3    18   11   56
2nd     PAS Giannina                    26   8    4    1    32   12   7    3    3    24   13   52
2nd     PAS Giannina                    26   10   2    1    34   17   6    2    5    20   16   52
1st      PAS Giannina                    26   9    3    1    32   16   8    2    3    26   18   56
1st      PAS Giannina                    26   11   1    1    33   10   8    1    4    25   11   59
1st      PAS Giannina                    26   13   0    0    42   11   6    6    1    24   14   63
1st      PAS Giannina                    26   12   0    1    39   11   7    4    2    26   19   61
2nd     PAS Giannina                    26   11   2    0    36   15   5    4    4    22   15   54
2nd     PAS Giannina                    26   10   2    1    35   12   4    6    3    28   22   50
1st      PAS Giannina                    26   13   0    0    36   8    9    1    3    28   13   67
1st      PAS Giannina                    26   9    3    1    30   10   9    1    3    26   12   58
1st      PAS Giannina                    26   8    4    1    27   12   6    4    3    21   13   50
1st      PAS Giannina                    26   12   0    1    40   16   8    2    3    23   12   62
1st      PAS Giannina                    26   11   2    0    33   9    5    3    5    21   19   53
1st      PAS Giannina                    26   9    2    2    30   17   9    2    2    17   9    58
1st      PAS Giannina                    26   10   3    0    36   18   8    2    3    27   11   59
1st      PAS Giannina                    26   10   1    2    29   14   8    2    3    25   16   57
2nd     PAS Giannina                    26   12   1    0    40   17   4    4    5    20   14   53
2nd     PAS Giannina                    26   9    2    2    40   19   9    0    4    26   13   56
4th     PAS Giannina                    26   8    5    0    32   15   3    5    5    14   20   43
1st      PAS Giannina                    26   11   0    2    30   10   9    2    2    27   8    62
1st      PAS Giannina                    26   9    3    1    29   13   8    3    2    26   14   57
1st      PAS Giannina                    26   11   1    1    30   7    7    3    3    25   13   58
1st      PAS Giannina                    26   10   3    0    31   12   9    2    2    26   13   62
1st      PAS Giannina                    26   10   3    0    30   11   10   2    1    28   17   65
1st      PAS Giannina                    26   10   2    1    42   12   8    1    4    26   13   57
1st      PAS Giannina                    26   9    1    3    29   13   7    5    1    30   17   54
1st      PAS Giannina                    26   10   3    0    32   14   7    2    4    24   20   56
1st      PAS Giannina                    26   11   1    1    34   9    6    4    3    23   15   56
2nd     PAS Giannina                    26   11   1    1    35   12   5    5    3    27   20   54
1st      PAS Giannina                    26   10   2    1    33   10   6    3    4    23   15   53
2nd     PAS Giannina                    26   12   0    1    40   14   5    5    3    22   15   56
1st      PAS Giannina                    26   10   3    0    39   16   11   1    1    40   16   67
1st      PAS Giannina                    26   12   0    1    32   12   8    4    1    29   16   64
1st      PAS Giannina                    26   12   0    1    35   9    7    1    5    24   18   58
2nd     PAS Giannina                    26   9    4    0    31   14   7    1    5    24   16   53
1st      PAS Giannina                    26   10   1    2    32   12   7    5    1    28   13   57
1st      PAS Giannina                    26   11   1    1    34   14   11   1    1    29   15   68
1st      PAS Giannina                    26   12   1    0    31   6    8    5    0    26   13   66
2nd     PAS Giannina                    26   12   1    0    31   9    5    4    4    17   18   56
1st      PAS Giannina                    26   12   1    0    35   8    9    4    0    24   12   68
2nd     PAS Giannina                    26   7    4    2    37   20   8    2    3    23   14   51
1st      PAS Giannina                    26   8    4    1    30   16   6    4    3    20   15   50
1st      PAS Giannina                    26   10   0    3    31   13   7    2    4    23   16   53
1st      PAS Giannina                    26   13   0    0    41   12   8    3    2    24   12   66
1st      PAS Giannina                    26   11   2    0    33   9    10   2    1    30   11   67
1st      PAS Giannina                    26   11   1    1    33   11   9    2    2    30   13   63
1st      PAS Giannina                    26   9    4    0    37   12   10   2    1    27   7    63
1st      PAS Giannina                    26   12   1    0    38   14   9    3    1    27   10   67
3rd     PAS Giannina                    26   9    3    1    35   16   6    2    5    20   17   50
2nd     PAS Giannina                    26   9    3    1    32   11   5    4    4    19   13   49
1st      PAS Giannina                    26   11   0    2    35   11   6    2    5    20   21   53
1st      PAS Giannina                    26   12   1    0    38   9    7    2    4    29   19   60
1st      PAS Giannina                    26   8    4    1    32   15   7    4    2    26   16   53
1st      PAS Giannina                    26   12   0    1    37   17   10   2    1    29   10   68
1st      PAS Giannina                    26   10   3    0    24   6    9    1    3    28   16   61
1st      PAS Giannina                    26   13   0    0    34   5    10   1    2    24   8    70