2nd     PAS Giannina                    26   8    3    2    29   19   7    2    4    21   14   50   
3rd     PAS Giannina                    26   10   2    1    28   15   4    3    6    10   13   47   
2nd     PAS Giannina                    26   10   2    1    30   12   5    2    6    18   19   49   
2nd     PAS Giannina                    26   10   1    2    31   16   4    6    3    19   10   49   
2nd     PAS Giannina                    26   11   1    1    34   15   5    1    7    16   17   50   
1st     PAS Giannina                    26   9    3    1    23   12   7    4    2    18   13   55   
2nd     PAS Giannina                    26   9    2    2    28   12   5    2    6    18   19   46   
2nd     PAS Giannina                    26   9    4    0    30   15   4    4    5    10   14   47   
3rd     PAS Giannina                    26   6    6    1    25   11   4    5    4    12   15   41   
1st     PAS Giannina                    26   11   2    0    29   10   6    2    5    15   14   55   
2nd     PAS Giannina                    26   8    3    2    24   13   6    4    3    19   18   49   
2nd     PAS Giannina                    26   12   1    0    37   10   5    5    3    14   10   57   
2nd     PAS Giannina                    26   9    1    3    35   14   5    4    4    18   13   47   
1st     PAS Giannina                    26   10   2    1    24   10   6    5    2    16   9    55   
2nd     PAS Giannina                    26   9    2    2    30   16   4    4    5    16   17   45   
2nd     PAS Giannina                    26   9    2    2    23   9    7    2    4    16   10   52   
1st     PAS Giannina                    26   12   1    0    28   12   6    2    5    13   15   57   
2nd     PAS Giannina                    26   9    3    1    28   12   4    2    7    16   20   44   
2nd     PAS Giannina                    26   10   1    2    32   8    3    6    4    18   17   46   
2nd     PAS Giannina                    26   9    4    0    25   8    7    2    4    16   13   54   
2nd     PAS Giannina                    26   9    2    2    24   7    5    4    4    18   16   48   
1st     PAS Giannina                    26   8    3    2    23   12   8    3    2    26   14   54   
3rd     PAS Giannina                    26   7    4    2    34   18   8    1    4    18   12   50   
3rd     PAS Giannina                    26   7    3    3    25   15   7    4    2    20   13   49   
1st     PAS Giannina                    26   9    3    1    24   11   9    2    2    21   12   59   
3rd     PAS Giannina                    26   7    5    1    20   8    4    4    5    10   14   42   
2nd     PAS Giannina                    26   9    3    1    25   9    6    4    3    18   13   52   
2nd     PAS Giannina                    26   10   1    2    28   16   5    5    3    22   14   51   
1st     PAS Giannina                    26   11   0    2    31   7    6    4    3    18   13   55   
1st     PAS Giannina                    26   11   0    2    30   15   8    1    4    17   14   58   
2nd     PAS Giannina                    26   7    2    4    24   14   6    4    3    18   16   45   
1st     PAS Giannina                    26   9    4    0    26   9    11   0    2    18   4    64   
1st     PAS Giannina                    26   10   3    0    32   11   11   0    2    19   5    66   
4th     PAS Giannina                    26   8    3    2    24   11   4    3    6    17   12   42   
2nd     PAS Giannina                    26   10   1    2    31   13   6    4    3    17   14   53   
1st     PAS Giannina                    26   9    4    0    26   8    11   1    1    29   6    65   
1st     PAS Giannina                    26   11   1    1    32   7    7    1    5    21   14   56   
8th     PAS Giannina                    26   8    2    3    20   10   1    5    7    11   16   34   
1st     PAS Giannina                    26   10   3    0    35   13   5    3    5    14   13   51   
3rd     PAS Giannina                    26   8    2    3    23   13   5    6    2    14   12   47   
9th     PAS Giannina                    26   6    2    5    18   14   4    3    6    13   12   35   
1st     PAS Giannina                    26   9    2    2    34   13   8    4    1    24   11   57   
2nd     PAS Giannina                    26   10   2    1    27   9    8    1    4    20   10   57   
2nd     PAS Giannina                    26   8    4    1    23   10   5    3    5    16   18   46   
1st     PAS Giannina                    26   8    4    1    20   10   6    5    2    19   14   51   
2nd     PAS Giannina                    26   7    5    1    20   8    6    4    3    15   12   48   
2nd     PAS Giannina                    26   9    4    0    21   7    4    4    5    12   16   47   
1st     PAS Giannina                    26   11   1    1    28   12   7    1    5    17   15   56   
2nd     PAS Giannina                    26   9    1    3    24   10   7    3    3    16   10   52   
2nd     PAS Giannina                    26   10   3    0    19   2    9    2    2    22   11   62   
1st     PAS Giannina                    26   9    3    1    20   8    5    6    2    19   14   51   
2nd     PAS Giannina                    26   8    5    0    27   10   7    1    5    22   17   51   
2nd     PAS Giannina                    26   9    4    0    28   10   6    2    5    17   14   51   
2nd     PAS Giannina                    26   11   1    1    22   9    6    3    4    15   15   55   
1st     PAS Giannina                    26   10   3    0    29   6    6    4    3    17   9    55   
3rd     PAS Giannina                    26   6    6    1    21   7    5    5    3    21   20   44   
3rd     PAS Giannina                    26   7    4    2    24   13   5    7    1    20   12   47   
2nd     PAS Giannina                    26   7    3    3    28   15   4    7    2    20   17   43   
2nd     PAS Giannina                    26   9    3    1    31   16   5    4    4    18   15   49   
2nd     PAS Giannina                    26   10   2    1    26   11   5    2    6    11   11   49   
1st     PAS Giannina                    26   8    3    2    24   15   6    4    3    19   15   49   
1st     PAS Giannina                    26   11   1    1    28   10   5    5    3    23   14   54   
1st     PAS Giannina                    26   9    3    1    25   12   7    5    1    23   13   56   
3rd     PAS Giannina                    26   11   1    1    32   10   4    6    3    18   22   52   
1st     PAS Giannina                    26   10   1    2    28   13   5    4    4    13   14   50   
1st     PAS Giannina                    26   10   2    1    27   13   6    5    2    17   12   55   
1st     PAS Giannina                    26   7    4    2    23   13   10   2    1    23   9    57   
1st     PAS Giannina                    26   9    3    1    31   12   5    3    5    16   14   48   
1st     PAS Giannina                    26   10   2    1    29   11   6    4    3    18   13   54   
4th     PAS Giannina                    26   8    1    4    30   14   5    1    7    13   18   41   
1st     PAS Giannina                    26   12   1    0    34   11   9    4    0    24   11   68   
2nd     PAS Giannina                    26   10   1    2    26   9    7    4    2    16   7    56   
2nd     PAS Giannina                    26   11   0    2    28   10   4    5    4    16   11   50   
2nd     PAS Giannina                    26   10   1    2    27   10   4    3    6    10   14   46   
1st     PAS Giannina                    26   10   2    1    27   10   5    5    3    24   19   52   
1st     PAS Giannina                    26   11   2    0    35   14   9    2    2    26   14   64   
3rd     PAS Giannina                    26   10   2    1    28   11   4    6    3    19   15   50   
1st     PAS Giannina                    26   12   1    0    32   4    6    5    2    19   12   60   
2nd     PAS Giannina                    26   9    1    3    31   16   5    5    3    15   11   48   
1st     PAS Giannina                    26   9    4    0    25   11   7    2    4    21   12   54   
2nd     PAS Giannina                    26   9    4    0    28   6    4    6    3    17   15   49   
1st     PAS Giannina                    26   8    3    2    27   15   7    4    2    23   15   52   
1st     PAS Giannina                    26   7    5    1    15   5    8    2    3    21   10   52   
2nd     PAS Giannina                    26   7    4    2    25   14   6    3    4    14   11   46   
2nd     PAS Giannina                    26   10   2    1    29   13   4    5    4    14   15   49   
2nd     PAS Giannina                    26   9    3    1    28   8    5    4    4    18   14   49   
1st     PAS Giannina                    26   10   2    1    31   12   6    4    3    20   14   54   
5th     PAS Giannina                    26   8    4    1    34   14   3    2    8    13   17   39   
2nd     PAS Giannina                    26   10   2    1    29   10   6    4    3    14   10   54   
2nd     PAS Giannina                    26   9    3    1    25   10   5    4    4    21   17   49   
3rd     PAS Giannina                    26   8    2    3    29   15   4    6    3    13   13   44   
6th     PAS Giannina                    26   7    4    2    22   11   3    3    7    9    15   37   
2nd     PAS Giannina                    26   9    2    2    22   8    7    3    3    14   11   53   
2nd     PAS Giannina                    26   9    0    4    30   19   6    4    3    19   12   49   
1st     PAS Giannina                    26   11   0    2    29   10   7    5    1    24   13   59   
6th     PAS Giannina                    26   5    5    3    17   13   5    5    3    16   13   40   
1st     PAS Giannina                    26   11   2    0    36   8    9    2    2    23   12   64   
1st     PAS Giannina                    26   11   1    1    30   11   8    3    2    21   12   61   
1st     PAS Giannina                    26   9    2    2    27   12   3    8    2    10   9    46   
5th     PAS Giannina                    26   7    4    2    25   14   3    6    4    16   13   40   