3rd     PAS Giannina                    26   9    0    4    26   14   5    5    3    18   11   47   
3rd     PAS Giannina                    26   9    1    3    27   13   5    2    6    15   17   45   
5th     PAS Giannina                    26   7    3    3    21   14   5    3    5    15   17   42   
5th     PAS Giannina                    26   10   1    2    32   12   2    7    4    15   19   44   
6th     PAS Giannina                    26   7    3    3    22   14   3    3    7    10   20   36   
3rd     PAS Giannina                    26   10   3    0    25   8    3    3    7    12   21   45   
2nd     PAS Giannina                    26   11   0    2    30   14   6    2    5    17   20   53   
2nd     PAS Giannina                    26   9    3    1    31   17   3    6    4    11   11   45   
7th     PAS Giannina                    26   7    5    1    21   12   3    1    9    11   19   36   
2nd     PAS Giannina                    26   10   3    0    28   14   7    3    3    19   12   57   
4th     PAS Giannina                    26   10   2    1    24   9    4    1    8    16   20   45   
2nd     PAS Giannina                    26   10   2    1    25   11   1    4    8    11   22   39   
7th     PAS Giannina                    26   7    5    1    27   13   3    5    5    12   19   40   
1st     PAS Giannina                    26   11   1    1    22   6    6    3    4    19   12   55   
12th    PAS Giannina                    26   6    3    4    21   16   1    4    8    10   21   28   
9th     PAS Giannina                    26   7    5    1    26   14   0    5    8    9    23   31   
7th     PAS Giannina                    26   6    4    3    22   12   3    6    4    18   21   37   
3rd     PAS Giannina                    26   11   2    0    29   12   2    4    7    12   21   45   
3rd     PAS Giannina                    26   9    2    2    26   9    3    2    8    7    16   40   
4th     PAS Giannina                    26   8    3    2    23   16   4    3    6    11   14   42   
3rd     PAS Giannina                    26   9    3    1    26   13   5    2    6    11   10   47   
4th     PAS Giannina                    26   9    2    2    25   9    3    3    7    21   23   41   
4th     PAS Giannina                    26   7    5    1    23   10   4    2    7    15   22   40   
4th     PAS Giannina                    26   9    0    4    24   13   4    3    6    11   14   42   
5th     PAS Giannina                    26   10   1    2    32   12   3    4    6    10   20   44   
1st     PAS Giannina                    26   9    2    2    25   11   6    1    6    12   14   48   
2nd     PAS Giannina                    26   10   2    1    30   13   4    4    5    12   14   48   
7th     PAS Giannina                    26   8    3    2    32   14   2    2    9    5    18   35   
4th     PAS Giannina                    26   10   2    1    26   12   2    2    9    6    14   40   
7th     PAS Giannina                    26   8    2    3    18   12   3    1    9    10   20   36   
4th     PAS Giannina                    26   8    3    2    25   12   2    5    6    12   17   38   
4th     PAS Giannina                    26   8    2    3    22   13   3    4    6    10   16   39   
1st     PAS Giannina                    26   10   2    1    28   14   7    2    4    18   12   55   
2nd     PAS Giannina                    26   9    3    1    28   11   4    4    5    11   11   46   
2nd     PAS Giannina                    26   9    2    2    24   12   5    5    3    17   16   49   
3rd     PAS Giannina                    26   8    4    1    27   12   3    5    5    9    14   42   
6th     PAS Giannina                    26   8    2    3    23   13   3    3    7    13   20   38   
2nd     PAS Giannina                    26   10   1    2    24   9    5    4    4    14   18   50   
6th     PAS Giannina                    26   6    6    1    23   15   3    4    6    14   18   37   
2nd     PAS Giannina                    26   10   2    1    29   17   3    5    5    14   18   46   
5th     PAS Giannina                    26   8    5    0    23   7    2    5    6    12   21   40   
8th     PAS Giannina                    26   9    4    0    23   8    1    4    8    7    19   38    
10th    PAS Giannina                    26   5    3    5    17   17   2    5    6    10   15   29   
6th     PAS Giannina                    26   6    5    2    19   10   3    3    7    11   17   35   
4th     PAS Giannina                    26   8    4    1    28   13   4    3    6    19   18   43   
3rd     PAS Giannina                    26   9    3    1    28   8    3    6    4    17   19   45   
3rd     PAS Giannina                    26   7    4    2    21   10   5    7    1    23   14   47   
2nd     PAS Giannina                    26   6    5    2    18   11   3    9    1    13   8    41   
1st     PAS Giannina                    26   12   1    0    30   12   6    4    3    21   16   59   
2nd     PAS Giannina                    26   9    3    1    26   11   7    1    5    16   17   52   
8th     PAS Giannina                    26   7    2    4    22   18   3    4    6    11   15   36   
2nd     PAS Giannina                    26   12   1    0    25   9    4    3    6    20   24   52   
9th     PAS Giannina                    26   5    6    2    19   14   2    7    4    13   16   34   
4th     PAS Giannina                    26   8    4    1    29   16   3    5    5    11   16   42   
2nd     PAS Giannina                    26   10   2    1    27   9    4    6    3    13   12   50   
3rd     PAS Giannina                    26   10   1    2    21   12   7    1    5    19   15   53   
1st     PAS Giannina                    26   11   0    2    25   12   3    5    5    10   13   47   
3rd     PAS Giannina                    26   10   0    3    26   15   4    2    7    9    19   44   
9th     PAS Giannina                    26   8    2    3    25   15   2    2    9    11   24   34   
3rd     PAS Giannina                    26   8    1    4    23   17   6    2    5    19   17   45   
4th     PAS Giannina                    26   8    3    2    25   15   4    3    6    16   18   42   
5th     PAS Giannina                    26   8    4    1    24   11   3    3    7    8    13   40   
2nd     PAS Giannina                    26   10   1    2    27   16   4    3    6    14   15   46   
5th     PAS Giannina                    26   8    4    1    24   13   1    6    6    9    17   37   
2nd     PAS Giannina                    26   12   1    0    26   6    4    4    5    13   15   53   
6th     PAS Giannina                    26   8    0    5    16   16   4    4    5    16   21   40   
4th     PAS Giannina                    26   6    4    3    20   15   5    2    6    13   17   39   
3rd     PAS Giannina                    26   9    2    2    27   16   6    4    3    14   12   51   
2nd     PAS Giannina                    26   11   2    0    30   12   3    5    5    13   16   49   
5th     PAS Giannina                    26   9    3    1    26   13   2    5    6    13   20   41   
1st     PAS Giannina                    26   10   1    2    34   14   6    5    2    12   9    54   
10th    PAS Giannina                    26   7    5    1    28   14   1    5    7    11   20   34   
1st     PAS Giannina                    26   10   3    0    24   8    4    6    3    18   18   51   
1st     PAS Giannina                    26   7    4    2    22   10   5    4    4    17   14   44   
4th     PAS Giannina                    26   8    4    1    21   9    4    1    8    14   17   41   
2nd     PAS Giannina                    26   11   1    1    34   9    5    2    6    19   21   51   
3rd     PAS Giannina                    26   7    5    1    29   18   4    5    4    15   18   43   
5th     PAS Giannina                    26   6    4    3    19   13   4    3    6    12   14   37   
7th     PAS Giannina                    26   7    2    4    20   20   3    4    6    12   17   36   
9th     PAS Giannina                    26   8    0    5    27   15   3    2    8    9    19   35   
2nd     PAS Giannina                    26   9    2    2    29   13   4    4    5    16   17   45   
1st     PAS Giannina                    26   9    2    2    22   11   4    6    3    13   12   47   
6th     PAS Giannina                    26   7    3    3    23   14   2    5    6    6    11   35   
4th     PAS Giannina                    26   10   3    0    22   7    3    4    6    14   20   46   
7th     PAS Giannina                    26   7    4    2    18   8    2    6    5    9    14   37   
6th     PAS Giannina                    26   7    3    3    28   20   4    3    6    13   17   39   
2nd     PAS Giannina                    26   10   2    1    25   9    3    5    5    13   15   46   
12th    PAS Giannina                    26   2    8    3    20   19   2    5    6    12   18   25   
2nd     PAS Giannina                    26   8    4    1    24   9    5    1    7    13   18   44   
1st     PAS Giannina                    26   10   3    0    29   14   5    2    6    13   14   50   
5th     PAS Giannina                    26   9    1    3    28   13   3    3    7    16   22   40   
4th     PAS Giannina                    26   9    2    2    22   11   3    4    6    9    14   42   
8th     PAS Giannina                    26   9    1    3    28   14   2    3    8    8    14   37   
6th     PAS Giannina                    26   6    4    3    23   12   3    4    6    13   19   35   
4th     PAS Giannina                    26   9    2    2    29   16   3    5    5    12   11   43   
2nd     PAS Giannina                    26   7    6    0    27   13   7    2    4    18   10   50   
6th     PAS Giannina                    26   6    3    4    17   11   3    6    4    13   15   36   
2nd     PAS Giannina                    26   10   2    1    27   6    5    5    3    21   20   52   
4th     PAS Giannina                    26   9    2    2    25   10   3    3    7    10   19   41   
4th     PAS Giannina                    26   9    1    3    24   15   1    7    5    13   19   38   