1st     PAS Giannina                    26   12   1    0    36   6    6    5    2    22   13   60   
2nd     PAS Giannina                    26   9    2    2    31   14   6    5    2    20   13   52   
2nd     PAS Giannina                    26   10   3    0    28   8    2    6    5    21   25   45   
1st     PAS Giannina                    26   12   0    1    29   10   6    4    3    19   14   58   
4th     PAS Giannina                    26   5    2    6    21   22   7    4    2    24   9    42   
1st     PAS Giannina                    26   10   2    1    37   14   9    4    0    22   10   63   
1st     PAS Giannina                    26   13   0    0    33   12   7    5    1    23   13   65   
1st     PAS Giannina                    26   11   0    2    36   13   7    4    2    24   13   58   
2nd     PAS Giannina                    26   7    6    0    23   12   8    3    2    22   13   54   
1st     PAS Giannina                    26   10   2    1    32   12   7    3    3    28   13   56   
1st     PAS Giannina                    26   10   2    1    27   11   6    4    3    18   14   54   
1st     PAS Giannina                    26   8    5    0    26   8    9    3    1    30   9    59   
2nd     PAS Giannina                    26   6    5    2    27   17   9    0    4    22   9    50   
1st     PAS Giannina                    26   9    3    1    30   11   7    3    3    29   19   54   
1st     PAS Giannina                    26   11   0    2    40   9    5    2    6    16   18   50   
1st     PAS Giannina                    26   12   1    0    35   15   9    2    2    26   11   66   
2nd     PAS Giannina                    26   8    3    2    28   11   7    4    2    34   16   52   
1st     PAS Giannina                    26   11   1    1    32   9    7    4    2    23   12   59   
1st     PAS Giannina                    26   10   3    0    30   12   9    3    1    29   12   63   
1st     PAS Giannina                    26   11   2    0    34   12   11   1    1    29   7    69   
1st     PAS Giannina                    26   10   3    0    33   10   9    2    2    27   9    62   
1st     PAS Giannina                    26   9    3    1    27   14   7    5    1    25   18   56   
2nd     PAS Giannina                    26   7    4    2    28   16   7    2    4    19   13   48   
1st     PAS Giannina                    26   12   1    0    37   11   6    5    2    24   15   60   
1st     PAS Giannina                    26   9    2    2    30   12   8    2    3    21   8    55   
1st     PAS Giannina                    26   9    2    2    32   16   10   2    1    24   8    61   
2nd     PAS Giannina                    26   9    3    1    29   8    9    1    3    22   10   58   
2nd     PAS Giannina                    26   10   2    1    30   14   4    5    4    19   18   49   
1st     PAS Giannina                    26   8    3    2    20   9    9    4    0    28   9    58   
2nd     PAS Giannina                    26   9    3    1    30   14   5    7    1    22   17   52   
1st     PAS Giannina                    26   10   2    1    36   17   5    3    5    20   23   50   
2nd     PAS Giannina                    26   9    1    3    32   15   6    3    4    23   20   49   
2nd     PAS Giannina                    26   12   1    0    29   7    4    5    4    21   20   54   
1st     PAS Giannina                    26   12   0    1    29   9    8    3    2    26   18   63   
1st     PAS Giannina                    26   10   2    1    34   10   7    5    1    24   14   58   
1st     PAS Giannina                    26   10   2    1    38   17   10   1    2    28   15   63   
1st     PAS Giannina                    26   9    2    2    27   11   8    4    1    20   11   57   
2nd     PAS Giannina                    26   10   1    2    29   10   4    5    4    21   18   48   
2nd     PAS Giannina                    26   8    5    0    23   7    7    2    4    24   16   52   
1st     PAS Giannina                    26   6    6    1    24   14   7    4    2    26   14   49   
1st     PAS Giannina                    26   8    1    4    26   15   8    2    3    31   19   51   
2nd     PAS Giannina                    26   10   3    0    33   11   8    1    4    21   14   58   
1st     PAS Giannina                    26   11   1    1    34   12   8    4    1    29   12   62   
1st     PAS Giannina                    26   9    1    3    30   16   8    4    1    21   10   56   
1st     PAS Giannina                    26   10   2    1    35   12   7    3    3    25   21   56   
1st     PAS Giannina                    26   10   2    1    33   13   10   1    2    25   13   63   
2nd     PAS Giannina                    26   10   1    2    30   8    5    4    4    16   10   50   
1st     PAS Giannina                    26   9    4    0    30   8    8    3    2    24   13   58   
2nd     PAS Giannina                    26   10   2    1    29   8    5    5    3    19   13   52   
1st     PAS Giannina                    26   10   1    2    33   13   9    3    1    24   15   61   
1st     PAS Giannina                    26   12   1    0    35   8    6    4    3    21   16   59   
2nd     PAS Giannina                    26   9    3    1    29   7    8    1    4    20   15   55   
1st     PAS Giannina                    26   10   1    2    17   10   8    3    2    23   10   58   
2nd     PAS Giannina                    26   9    2    2    28   14   5    2    6    17   18   46   
1st     PAS Giannina                    26   10   2    1    34   12   6    1    6    19   15   51   
1st     PAS Giannina                    26   10   2    1    31   6    5    4    4    17   13   51   
1st     PAS Giannina                    26   11   1    1    33   11   5    3    5    20   13   52   
1st     PAS Giannina                    26   11   1    1    26   9    8    2    3    23   10   60   
1st     PAS Giannina                    26   11   2    0    33   7    6    4    3    23   15   57   
2nd     PAS Giannina                    26   12   1    0    39   8    5    4    4    24   18   56   
1st     PAS Giannina                    26   12   0    1    34   12   11   1    1    29   11   70   
1st     PAS Giannina                    26   11   2    0    37   11   9    3    1    29   10   65   
1st     PAS Giannina                    26   12   0    1    43   14   6    4    3    24   19   58   
2nd     PAS Giannina                    26   11   1    1    36   13   8    2    3    27   19   60   
1st     PAS Giannina                    26   10   3    0    31   8    9    3    1    30   13   63   
1st     PAS Giannina                    26   11   1    1    29   9    6    4    3    26   14   56   
1st     PAS Giannina                    26   10   2    1    31   11   7    1    5    22   15   54   
1st     PAS Giannina                    26   11   2    0    29   7    8    3    2    22   7    62   
1st     PAS Giannina                    26   12   1    0    38   12   9    3    1    24   10   67   
1st     PAS Giannina                    26   11   1    1    30   19   8    2    3    22   10   60   
1st     PAS Giannina                    26   10   1    2    34   13   7    5    1    27   14   57   
1st     PAS Giannina                    26   10   0    3    35   11   8    1    4    21   10   55   
2nd     PAS Giannina                    26   10   2    1    29   15   7    2    4    27   17   55   
1st     PAS Giannina                    26   11   2    0    28   5    8    1    4    25   12   60   
2nd     PAS Giannina                    26   10   1    2    28   9    5    4    4    20   17   50   
1st     PAS Giannina                    26   10   3    0    29   12   8    1    4    18   11   58   
1st     PAS Giannina                    26   13   0    0    34   9    9    3    1    24   13   69   
1st     PAS Giannina                    26   10   1    2    27   8    9    2    2    26   11   60   
1st     PAS Giannina                    26   9    1    3    28   14   6    6    1    21   12   52   
1st     PAS Giannina                    26   11   1    1    36   12   7    2    4    23   19   57   
1st     PAS Giannina                    26   11   0    2    35   9    6    3    4    21   13   54   
1st     PAS Giannina                    26   10   2    1    33   10   7    4    2    19   11   57   
1st     PAS Giannina                    26   13   0    0    40   7    7    2    4    27   14   62   
2nd     PAS Giannina                    26   8    3    2    24   7    6    5    2    18   15   50   
3rd     PAS Giannina                    26   12   1    0    31   7    3    7    3    18   15   53   
1st     PAS Giannina                    26   11   1    1    30   11   9    1    3    33   16   62   
1st     PAS Giannina                    26   9    2    2    28   10   7    4    2    27   11   54   
2nd     PAS Giannina                    26   11   2    0    33   12   5    4    4    25   27   54   
3rd     PAS Giannina                    26   10   2    1    30   11   4    3    6    18   21   47   
2nd     PAS Giannina                    26   9    3    1    31   17   6    4    3    21   18   52   
1st     PAS Giannina                    26   10   1    2    23   11   11   1    1    32   12   65   
2nd     PAS Giannina                    26   10   2    1    30   11   3    5    5    18   19   46   
2nd     PAS Giannina                    26   10   2    1    39   16   7    2    4    26   14   55   
2nd     PAS Giannina                    26   10   2    1    32   10   7    1    5    27   20   54   
1st     PAS Giannina                    26   12   1    0    31   8    5    4    4    27   23   56   
1st     PAS Giannina                    26   12   0    1    34   13   5    5    3    17   14   56   
1st     PAS Giannina                    26   9    4    0    28   9    10   1    2    25   10   62   
1st     PAS Giannina                    26   9    3    1    27   11   7    4    2    23   13   55   
1st     PAS Giannina                    26   11   2    0    32   10   7    3    3    24   11   59   
1st     PAS Giannina                    26   10   2    1    37   15   11   0    2    31   13   65   