1st     PAS Giannina                    26   11   1    1    43   17   10   2    1    34   13   66
1st     PAS Giannina                    26   12   1    0    38   12   7    6    0    32   19   64
1st     PAS Giannina                    26   13   0    0    43   9    11   0    2    33   10   72
1st     PAS Giannina                    26   12   1    0    37   9    9    3    1    40   19   67
1st     PAS Giannina                    26   13   0    0    45   11   9    2    2    39   19   68
1st     PAS Giannina                    26   11   1    1    45   15   10   2    1    36   14   66
1st     PAS Giannina                    26   13   0    0    41   8    10   0    3    34   17   69
1st     PAS Giannina                    26   12   0    1    34   10   7    3    3    27   20   60
1st     PAS Giannina                    26   9    4    0    36   17   13   0    0    45   14   70
1st     PAS Giannina                    26   12   1    0    40   12   12   1    0    31   7    74
1st     PAS Giannina                    26   11   2    0    44   12   8    2    3    29   18   61
1st     PAS Giannina                    26   12   0    1    47   13   10   2    1    43   11   68
1st     PAS Giannina                    26   12   1    0    37   12   11   0    2    40   17   70
1st     PAS Giannina                    26   12   1    0    35   12   9    0    4    35   17   64
1st     PAS Giannina                    26   10   3    0    36   12   10   2    1    37   17   65
1st     PAS Giannina                    26   12   1    0    46   12   8    3    2    30   15   64
1st     PAS Giannina                    26   11   2    0    42   10   11   1    1    40   9    69
1st     PAS Giannina                    26   10   2    1    41   15   10   2    1    32   10   64
1st     PAS Giannina                    26   12   1    0    39   11   11   1    1    36   9    71
1st     PAS Giannina                    26   13   0    0    35   12   10   2    1    37   19   71
1st     PAS Giannina                    26   11   0    2    42   11   9    3    1    36   16   63
1st     PAS Giannina                    26   13   0    0    42   11   10   2    1    29   11   71
1st     PAS Giannina                    26   12   1    0    45   16   12   1    0    38   7    74
1st     PAS Giannina                    26   9    3    1    36   16   10   2    1    34   10   62
1st     PAS Giannina                    26   12   1    0    40   10   9    2    2    36   19   66
1st     PAS Giannina                    26   11   2    0    44   16   7    3    3    23   15   59
1st     PAS Giannina                    26   13   0    0    44   10   9    2    2    32   15   68
1st     PAS Giannina                    26   12   0    1    38   8    9    3    1    36   16   66
1st     PAS Giannina                    26   12   1    0    37   9    7    1    5    26   14   59
2nd     PAS Giannina                    26   11   0    2    33   9    7    3    3    33   21   57
1st     PAS Giannina                    26   12   1    0    40   8    11   1    1    37   15   71
1st     PAS Giannina                    26   11   1    1    40   14   9    1    3    33   17   62
1st     PAS Giannina                    26   13   0    0    45   11   10   1    2    36   13   70
1st     PAS Giannina                    26   11   2    0    41   15   11   1    1    34   19   69
1st     PAS Giannina                    26   12   1    0    39   10   9    1    3    29   16   65
1st     PAS Giannina                    26   12   0    1    44   13   10   2    1    33   14   68
1st     PAS Giannina                    26   11   1    1    36   13   9    1    3    32   12   62
1st     PAS Giannina                    26   11   2    0    30   13   10   3    0    36   8    68
1st     PAS Giannina                    26   10   3    0    37   14   10   2    1    32   12   65
1st     PAS Giannina                    26   12   1    0    36   7    10   2    1    31   9    69
1st     PAS Giannina                    26   12   0    1    39   11   10   1    2    36   21   67
1st     PAS Giannina                    26   12   0    1    43   9    5    5    3    25   17   56
1st     PAS Giannina                    26   10   2    1    40   11   11   0    2    31   9    65
1st     PAS Giannina                    26   11   1    1    32   9    12   0    1    38   14   70
1st     PAS Giannina                    26   13   0    0    47   9    9    3    1    34   9    69
1st     PAS Giannina                    26   11   2    0    40   14   9    3    1    38   20   65
1st     PAS Giannina                    26   10   3    0    29   10   9    4    0    35   13   64
1st     PAS Giannina                    26   10   3    0    33   12   12   1    0    42   13   70
1st     PAS Giannina                    26   12   1    0    38   9    10   3    0    37   9    70
1st     PAS Giannina                    26   11   1    1    44   17   11   0    2    42   12   67
1st     PAS Giannina                    26   11   1    1    37   11   11   2    0    32   10   69
2nd     PAS Giannina                    26   13   0    0    40   9    5    4    4    30   24   58
1st     PAS Giannina                    26   11   1    1    43   14   11   2    0    31   10   69
1st     PAS Giannina                    26   13   0    0    47   16   9    1    3    35   15   67
1st     PAS Giannina                    26   12   0    1    39   12   9    1    3    28   14   64
1st     PAS Giannina                    26   10   3    0    33   10   12   1    0    34   9    70
1st     PAS Giannina                    26   12   0    1    46   12   9    0    4    23   14   63
1st     PAS Giannina                    26   10   1    2    40   15   9    4    0    34   17   62
1st     PAS Giannina                    26   12   0    1    47   16   11   2    0    30   9    71
1st     PAS Giannina                    26   10   2    1    33   14   10   2    1    33   9    64
1st     PAS Giannina                    26   10   3    0    41   11   9    3    1    27   14   63
1st     PAS Giannina                    26   13   0    0    35   11   11   2    0    39   14   74
1st     PAS Giannina                    26   10   2    1    35   12   13   0    0    42   9    71
1st     PAS Giannina                    26   12   0    1    39   9    8    3    2    33   18   63
1st     PAS Giannina                    26   11   2    0    45   14   13   0    0    36   12   74
1st     PAS Giannina                    26   11   1    1    37   8    12   1    0    44   11   71
1st     PAS Giannina                    26   13   0    0    45   10   8    4    1    33   15   67
1st     PAS Giannina                    26   12   0    1    41   8    9    2    2    33   13   65
1st     PAS Giannina                    26   10   3    0    40   17   9    1    3    32   14   61
1st     PAS Giannina                    26   12   1    0    38   8    11   0    2    35   13   70
1st     PAS Giannina                    26   12   1    0    41   13   10   2    1    37   19   69
1st     PAS Giannina                    26   12   1    0    41   11   10   1    2    35   18   68
1st     PAS Giannina                    26   10   1    2    41   17   10   2    1    30   12   63
2nd     PAS Giannina                    26   10   3    0    45   18   6    2    5    35   24   53
1st     PAS Giannina                    26   11   1    1    37   12   10   2    1    31   14   66
1st     PAS Giannina                    26   11   2    0    30   9    11   1    1    31   9    69
1st     PAS Giannina                    26   9    3    1    34   10   12   1    0    39   12   67
1st     PAS Giannina                    26   10   2    1    29   13   9    3    1    37   22   62
1st     PAS Giannina                    26   13   0    0    36   10   12   1    0    33   9    76
1st     PAS Giannina                    26   10   2    1    32   12   12   1    0    37   10   69
1st     PAS Giannina                    26   13   0    0    42   10   9    2    2    30   18   68
1st     PAS Giannina                    26   11   2    0    33   11   10   3    0    32   8    68
1st     PAS Giannina                    26   13   0    0    46   11   10   2    1    36   19   71
1st     PAS Giannina                    26   9    3    1    33   13   9    3    1    26   10   60
1st     PAS Giannina                    26   12   0    1    32   11   12   1    0    36   9    73
1st     PAS Giannina                    26   12   1    0    43   10   9    1    3    26   14   65
1st     PAS Giannina                    26   12   1    0    41   12   10   2    1    35   8    69
1st     PAS Giannina                    26   12   1    0    39   12   9    1    3    38   17   65
1st     PAS Giannina                    26   13   0    0    43   6    12   0    1    38   16   75
1st     PAS Giannina                    26   12   1    0    51   12   9    2    2    34   14   66
1st     PAS Giannina                    26   8    5    0    35   17   12   0    1    34   13   65
1st     PAS Giannina                    26   12   0    1    39   14   11   1    1    39   13   70
1st     PAS Giannina                    26   10   3    0    40   13   7    3    3    30   18   57
1st     PAS Giannina                    26   13   0    0    37   8    9    1    3    36   12   67
1st     PAS Giannina                    26   11   2    0    41   15   11   2    0    33   8    70
1st     PAS Giannina                    26   13   0    0    51   11   11   0    2    40   11   72
1st     PAS Giannina                    26   10   3    0    35   13   12   1    0    38   10   70
1st     PAS Giannina                    26   12   1    0    42   14   9    3    1    33   13   67
1st     PAS Giannina                    26   12   1    0    46   10   9    2    2    33   9    66
1st     PAS Giannina                    26   12   0    1    34   10   9    1    3    29   15   64