13th    PAS Giannina                    26   4    1    8    19   23   2    3    8    13   22   22
10th    PAS Giannina                    26   5    4    4    20   19   3    3    7    15   30   31
13th    PAS Giannina                    26   5    3    5    28   25   1    2    10   11   30   23
9th     PAS Giannina                    26   7    2    4    23   18   2    3    8    17   28   32
10th    PAS Giannina                    26   6    3    4    26   19   2    4    7    17   31   31
14th    PAS Giannina                    26   3    1    9    14   26   2    1    10   12   28   17
12th    PAS Giannina                    26   5    2    6    13   18   2    4    7    14   22   27
14th    PAS Giannina                    26   4    2    7    22   24   0    0    13   10   35   14
13th    PAS Giannina                    26   6    2    5    28   26   0    2    11   9    32   22
13th    PAS Giannina                    26   4    1    8    16   24   1    0    12   13   37   16
14th    PAS Giannina                    26   4    1    8    19   24   0    3    10   12   29   16
8th     PAS Giannina                    26   5    6    2    24   17   2    4    7    14   26   31
13th    PAS Giannina                    26   4    5    4    14   15   3    1    9    12   29   27
14th    PAS Giannina                    26   6    1    6    23   22   0    3    10   11   27   22
14th    PAS Giannina                    26   5    3    5    20   23   0    1    12   7    30   19
14th    PAS Giannina                    26   1    3    9    15   35   0    2    11   8    28   8
13th    PAS Giannina                    26   5    3    5    26   28   3    2    8    13   23   29
11th    PAS Giannina                    26   4    5    4    17   16   3    1    9    14   30   27
14th    PAS Giannina                    26   4    6    3    27   23   0    0    13   10   35   18
14th    PAS Giannina                    26   4    4    5    21   21   0    5    8    11   30   21
13th    PAS Giannina                    26   4    2    7    24   28   3    0    10   18   30   23
14th    PAS Giannina                    26   3    4    6    19   25   2    2    9    11   29   21
13th    PAS Giannina                    26   4    4    5    19   22   0    3    10   11   28   19
12th    PAS Giannina                    26   7    0    6    22   21   2    3    8    15   31   30
14th    PAS Giannina                    26   4    4    5    21   23   1    1    11   11   32   20
13th    PAS Giannina                    26   5    2    6    18   20   0    2    11   12   31   19
11th    PAS Giannina                    26   7    2    4    21   17   2    1    10   11   29   30
7th     PAS Giannina                    26   7    2    4    23   16   4    0    9    23   33   35
14th    PAS Giannina                    26   7    1    5    20   19   0    0    13   15   34   22
13th    PAS Giannina                    26   6    4    3    20   16   0    2    11   6    28   24
14th    PAS Giannina                    26   4    2    7    14   18   2    3    8    12   25   23
12th    PAS Giannina                    26   5    3    5    18   18   0    1    12   12   31   19
8th     PAS Giannina                    26   7    3    3    23   19   3    4    6    16   24   37
12th    PAS Giannina                    26   7    3    3    22   21   0    3    10   14   31   27
14th    PAS Giannina                    26   3    2    8    15   22   0    1    12   10   31   12
13th    PAS Giannina                    26   5    3    5    27   26   1    3    9    16   36   24
13th    PAS Giannina                    26   6    2    5    29   22   1    1    11   11   32   24
14th    PAS Giannina                    26   3    6    4    18   21   1    2    10   14   33   20
14th    PAS Giannina                    26   3    2    8    16   30   0    2    11   6    32   13
13th    PAS Giannina                    26   4    2    7    14   23   1    2    10   9    26   19
14th    PAS Giannina                    26   3    5    5    19   25   1    2    10   8    24   19
11th    PAS Giannina                    26   7    1    5    25   19   2    1    10   15   36   29
14th    PAS Giannina                    26   0    4    9    16   28   2    4    7    13   22   14
12th    PAS Giannina                    26   5    1    7    18   19   2    3    8    19   29   25
6th     PAS Giannina                    26   8    1    4    27   20   3    2    8    16   24   36
13th    PAS Giannina                    26   5    2    6    24   24   0    3    10   14   36   20
12th    PAS Giannina                    26   8    0    5    18   17   1    1    11   10   33   28
13th    PAS Giannina                    26   5    6    2    25   19   1    2    10   14   30   26
13th    PAS Giannina                    26   6    1    6    22   24   2    1    10   10   26   26
14th    PAS Giannina                    26   2    6    5    19   24   1    2    10   9    26   17
11th    PAS Giannina                    26   5    3    5    19   19   2    2    9    12   28   26
14th    PAS Giannina                    26   3    3    7    20   27   0    3    10   9    26   15
13th    PAS Giannina                    26   4    2    7    17   18   3    0    10   16   29   23
14th    PAS Giannina                    26   3    2    8    18   23   1    2    10   12   31   16
14th    PAS Giannina                    26   2    5    6    23   27   1    2    10   10   29   16
13th    PAS Giannina                    26   5    2    6    19   20   2    2    9    17   30   25
14th    PAS Giannina                    26   4    6    3    20   20   1    4    8    16   31   25
13th    PAS Giannina                    26   5    3    5    23   26   1    5    7    16   28   26
9th     PAS Giannina                    26   7    2    4    23   16   2    5    6    14   28   34
14th    PAS Giannina                    26   2    3    8    16   29   1    3    9    10   29   15
14th    PAS Giannina                    26   3    5    5    20   22   0    5    8    12   29   19
14th    PAS Giannina                    26   4    4    5    20   22   2    0    11   13   36   22
13th    PAS Giannina                    26   5    2    6    21   26   0    3    10   5    29   20
13th    PAS Giannina                    26   4    6    3    17   16   1    2    10   11   30   23
8th     PAS Giannina                    26   8    2    3    23   19   1    5    7    11   22   34
14th    PAS Giannina                    26   0    5    8    13   27   3    0    10   15   28   14
14th    PAS Giannina                    26   4    1    8    18   27   2    2    9    15   25   21
10th    PAS Giannina                    26   5    3    5    26   26   3    2    8    13   27   29
14th    PAS Giannina                    26   7    1    5    24   25   0    3    10   7    28   25
14th    PAS Giannina                    26   5    0    8    19   29   0    2    11   15   37   17
11th    PAS Giannina                    26   7    4    2    22   15   0    3    10   11   32   28
13th    PAS Giannina                    26   3    4    6    19   24   2    1    10   13   31   20
14th    PAS Giannina                    26   4    4    5    19   20   1    1    11   10   31   20
14th    PAS Giannina                    26   4    1    8    14   25   1    2    10   6    28   18
13th    PAS Giannina                    26   3    2    8    21   26   3    4    6    15   21   24
13th    PAS Giannina                    26   6    4    3    24   16   1    1    11   11   29   26
13th    PAS Giannina                    26   3    4    6    23   23   2    1    10   12   33   20
9th     PAS Giannina                    26   6    5    2    20   13   2    4    7    20   30   33
14th    PAS Giannina                    26   2    6    5    22   26   0    4    9    9    29   16
14th    PAS Giannina                    26   3    3    7    18   26   1    3    9    13   27   18
14th    PAS Giannina                    26   2    3    8    17   25   0    0    13   12   33   9
13th    PAS Giannina                    26   6    1    6    19   21   2    2    9    9    31   27
10th    PAS Giannina                    26   6    2    5    25   22   3    1    9    15   26   30
13th    PAS Giannina                    26   6    2    5    22   25   1    3    9    14   31   26
8th     PAS Giannina                    26   8    2    3    35   25   2    2    9    17   30   34
9th     PAS Giannina                    26   6    2    5    24   23   3    1    9    16   27   30
13th    PAS Giannina                    26   3    8    2    18   17   0    2    11   10   34   19
12th    PAS Giannina                    26   4    6    3    23   20   1    3    9    6    25   24
14th    PAS Giannina                    26   3    4    6    19   25   1    3    9    7    26   19
14th    PAS Giannina                    26   1    2    10   13   28   1    3    9    14   31   11
14th    PAS Giannina                    26   3    4    6    18   25   1    0    12   10   31   16
14th    PAS Giannina                    26   2    4    7    20   29   0    2    11   11   27   12
11th    PAS Giannina                    26   7    3    3    30   21   0    4    9    19   34   28
13th    PAS Giannina                    26   5    3    5    26   27   1    3    9    6    17   24
13th    PAS Giannina                    26   4    4    5    19   24   2    1    10   12   29   23
14th    PAS Giannina                    26   3    3    7    19   28   0    4    9    10   30   16
14th    PAS Giannina                    26   3    4    6    22   27   0    6    7    11   27   19
11th    PAS Giannina                    26   6    3    4    19   20   1    3    9    14   29   27
13th    PAS Giannina                    26   4    4    5    18   18   3    1    9    13   26   26
10th    PAS Giannina                    26   6    0    7    22   27   4    1    8    13   22   31