14th    PAS Giannina                    26   3    3    7    9    13   2    1    10   11   34   19   
13th    PAS Giannina                    26   5    4    4    20   18   0    3    10   12   28   22   
8th     PAS Giannina                    26   6    5    2    17   12   2    2    9    12   27   31   
12th    PAS Giannina                    26   3    4    6    16   20   3    3    7    10   22   25   
10th    PAS Giannina                    26   8    2    3    21   14   2    0    11   11   29   32   
13th    PAS Giannina                    26   5    6    2    29   20   1    3    9    6    20   27   
11th    PAS Giannina                    26   7    1    5    22   19   2    5    6    7    18   33   
8th     PAS Giannina                    26   7    1    5    21   17   2    4    7    10   20   32   
8th     PAS Giannina                    26   8    1    4    21   14   2    3    8    13   22   34   
12th    PAS Giannina                    26   4    4    5    21   20   3    2    8    12   27   27   
13th    PAS Giannina                    26   4    6    3    17   13   2    2    9    10   25   26   
14th    PAS Giannina                    26   2    6    5    16   22   0    2    11   6    26   14   
9th     PAS Giannina                    26   5    5    3    17   12   2    6    5    9    19   32   
12th    PAS Giannina                    26   6    2    5    23   21   2    3    8    11   24   29   
8th     PAS Giannina                    26   8    2    3    24   15   2    1    10   13   28   33   
6th     PAS Giannina                    26   7    4    2    21   13   2    4    7    15   25   35   
13th    PAS Giannina                    26   4    4    5    16   17   2    4    7    15   23   26   
11th    PAS Giannina                    26   6    2    5    21   17   1    2    10   8    23   25   
11th    PAS Giannina                    26   4    3    6    13   17   3    3    7    12   15   27   
14th    PAS Giannina                    26   1    7    5    6    14   1    2    10   11   27   15   
9th     PAS Giannina                    26   8    2    3    22   13   2    2    9    12   26   34   
5th     PAS Giannina                    26   7    3    3    27   21   4    4    5    13   16   40   
9th     PAS Giannina                    26   7    1    5    20   19   2    5    6    12   19   33   
12th    PAS Giannina                    26   4    3    6    11   14   0    5    8    11   25   20   
8th     PAS Giannina                    26   7    4    2    21   12   1    4    8    14   25   32   
13th    PAS Giannina                    26   7    3    3    19   13   1    3    9    7    19   30   
14th    PAS Giannina                    26   4    2    7    18   21   0    5    8    7    22   19   
11th    PAS Giannina                    26   4    5    4    16   16   3    2    8    17   33   28   
11th    PAS Giannina                    26   3    2    8    12   22   5    2    6    15   19   28   
8th     PAS Giannina                    26   6    4    3    15   11   3    0    10   11   21   31   
10th    PAS Giannina                    26   5    6    2    16   13   2    3    8    13   22   30   
7th     PAS Giannina                    26   8    4    1    26   13   2    3    8    10   24   37   
10th    PAS Giannina                    26   7    1    5    20   17   3    1    9    6    20   32   
13th    PAS Giannina                    26   5    0    8    22   24   3    2    8    15   19   26   
9th     PAS Giannina                    26   6    2    5    17   15   4    2    7    14   19   34   
12th    PAS Giannina                    26   8    4    1    19   9    0    3    10   9    30   31   
10th    PAS Giannina                    26   8    2    3    20   14   1    2    10   10   23   31   
14th    PAS Giannina                    26   3    1    9    13   21   3    5    5    11   17   24   
9th     PAS Giannina                    26   7    1    5    23   18   3    3    7    14   24   34   
14th    PAS Giannina                    26   3    5    5    16   19   2    2    9    10   20   22   
5th     PAS Giannina                    26   10   2    1    28   11   1    2    10   7    23   37   
11th    PAS Giannina                    26   4    5    4    27   26   1    5    7    14   23   25   
10th    PAS Giannina                    26   4    4    5    17   16   4    4    5    14   16   32   
9th     PAS Giannina                    26   7    4    2    21   14   3    1    9    8    18   35   
12th    PAS Giannina                    26   7    2    4    15   14   1    1    11   10   33   27   
14th    PAS Giannina                    26   4    3    6    20   20   1    3    9    9    30   21   
10th    PAS Giannina                    26   6    4    3    25   18   2    1    10   11   27   29   
11th    PAS Giannina                    26   7    2    4    23   14   2    3    8    14   26   32   
8th     PAS Giannina                    26   8    3    2    23   14   1    3    9    10   22   33   
8th     PAS Giannina                    26   6    4    3    23   14   3    5    5    12   25   36   
10th    PAS Giannina                    26   7    3    3    22   18   2    1    10   11   30   31   
12th    PAS Giannina                    26   3    5    5    13   16   4    2    7    11   28   28   
9th     PAS Giannina                    26   8    4    1    25   16   0    5    8    9    25   33   
10th    PAS Giannina                    26   5    4    4    14   12   3    3    7    12   20   31   
9th     PAS Giannina                    26   6    3    4    14   9    3    3    7    16   21   33   
11th    PAS Giannina                    26   4    7    2    18   15   2    3    8    8    17   28   
14th    PAS Giannina                    26   3    4    6    18   21   0    2    11   6    29   15   
13th    PAS Giannina                    26   4    3    6    18   20   2    5    6    13   19   26   
9th     PAS Giannina                    26   6    4    3    21   12   3    3    7    13   18   34   
9th     PAS Giannina                    26   5    4    4    19   19   4    2    7    14   23   33   
13th    PAS Giannina                    26   5    3    5    21   17   1    2    10   5    26   23   
14th    PAS Giannina                    26   4    2    7    15   20   0    3    10   5    26   17   
5th     PAS Giannina                    26   7    4    2    20   13   2    7    4    9    17   38   
14th    PAS Giannina                    26   2    7    4    19   19   3    4    6    14   21   26   
13th    PAS Giannina                    26   4    3    6    16   17   1    4    8    11   20   22   
11th    PAS Giannina                    26   5    5    3    18   17   1    4    8    9    23   27   
12th    PAS Giannina                    26   6    1    6    13   11   2    2    9    13   21   27   
14th    PAS Giannina                    26   3    4    6    16   16   2    2    9    10   25   21   
12th    PAS Giannina                    26   4    3    6    18   17   2    4    7    12   23   25   
14th    PAS Giannina                    26   4    2    7    11   18   1    2    10   7    25   19   
13th    PAS Giannina                    26   4    3    6    21   32   4    1    8    8    19   28   
13th    PAS Giannina                    26   5    4    4    16   10   0    4    9    9    21   23   
10th    PAS Giannina                    26   7    2    4    21   16   3    3    7    13   22   35   
13th    PAS Giannina                    26   5    4    4    15   12   0    2    11   4    24   21   
6th     PAS Giannina                    26   8    2    3    20   12   1    6    6    10   15   35   
14th    PAS Giannina                    26   2    4    7    13   22   2    5    6    13   23   21   
11th    PAS Giannina                    26   4    5    4    21   17   2    6    5    8    17   29   
12th    PAS Giannina                    26   4    5    4    19   17   3    2    8    13   25   28   
10th    PAS Giannina                    26   4    6    3    18   17   2    7    4    18   21   31   
14th    PAS Giannina                    26   4    4    5    18   21   1    3    9    13   27   22   
13th    PAS Giannina                    26   3    5    5    15   13   3    3    7    10   23   26   
14th    PAS Giannina                    26   4    2    7    16   18   0    4    9    11   28   18   
13th    PAS Giannina                    26   4    4    5    17   16   2    3    8    11   22   25   
13th    PAS Giannina                    26   4    6    3    21   19   0    2    11   8    29   20   
11th    PAS Giannina                    26   6    1    6    18   17   1    3    9    10   21   25   
7th     PAS Giannina                    26   7    2    4    19   12   3    1    9    13   29   33   
12th    PAS Giannina                    26   4    4    5    9    11   2    4    7    12   25   26   
12th    PAS Giannina                    26   5    3    5    15   15   2    6    5    16   23   30   
14th    PAS Giannina                    26   1    7    5    12   16   0    4    9    11   22   14   
10th    PAS Giannina                    26   8    2    3    17   15   2    4    7    8    15   36   
8th     PAS Giannina                    26   6    5    2    20   15   3    4    6    15   21   36   
9th     PAS Giannina                    26   5    6    2    25   15   1    5    7    12   23   29   
11th    PAS Giannina                    26   6    2    5    23   18   2    3    8    7    23   29   
12th    PAS Giannina                    26   6    4    3    22   16   0    5    8    9    20   27   
8th     PAS Giannina                    26   6    3    4    21   14   3    4    6    11   14   34   
6th     PAS Giannina                    26   6    3    4    13   11   6    2    5    14   14   41   
10th    PAS Giannina                    26   7    2    4    21   20   2    3    8    14   20   32   
11th    PAS Giannina                    26   5    5    3    16   17   3    1    9    13   23   30   
14th    PAS Giannina                    26   4    3    6    12   15   1    4    8    8    21   22   
10th    PAS Giannina                    26   5    4    4    16   17   0    8    5    13   25   27   