2nd     PAS Giannina                    26   10   3    0    28   9    4    3    6    12   14   48   
1st     PAS Giannina                    26   7    5    1    25   16   5    5    3    22   14   46   
2nd     PAS Giannina                    26   12   1    0    30   10   4    2    7    17   25   51   
1st     PAS Giannina                    26   9    4    0    28   7    8    0    5    17   11   55   
7th     PAS Giannina                    26   7    3    3    26   13   3    3    7    16   24   36   
2nd     PAS Giannina                    26   10   3    0    31   12   6    4    3    21   15   55   
4th     PAS Giannina                    26   6    5    2    28   17   5    3    5    18   11   41   
2nd     PAS Giannina                    26   9    3    1    27   11   7    0    6    16   19   51   
1st     PAS Giannina                    26   10   3    0    35   14   7    3    3    30   20   57   
2nd     PAS Giannina                    26   7    4    2    23   12   9    1    3    19   14   53   
2nd     PAS Giannina                    26   9    2    2    25   13   8    1    4    26   21   54   
2nd     PAS Giannina                    26   8    3    2    26   12   6    5    2    20   12   50   
1st     PAS Giannina                    26   11   2    0    34   12   7    4    2    26   19   60   
2nd     PAS Giannina                    26   8    3    2    21   9    5    3    5    20   18   45   
2nd     PAS Giannina                    26   6    5    2    26   14   9    4    0    20   7    54   
4th     PAS Giannina                    26   7    3    3    25   17   5    4    4    17   13   43   
1st     PAS Giannina                    26   12   0    1    28   9    8    2    3    17   12   62   
1st     PAS Giannina                    26   10   2    1    33   15   4    6    3    16   13   50   
7th     PAS Giannina                    26   7    4    2    28   15   2    6    5    12   16   37   
3rd     PAS Giannina                    26   9    2    2    34   17   4    6    3    12   15   47   
2nd     PAS Giannina                    26   8    4    1    29   16   5    4    4    15   14   47   
3rd     PAS Giannina                    26   8    4    1    30   15   4    4    5    17   16   44   
3rd     PAS Giannina                    26   6    4    3    29   19   5    4    4    21   12   41   
2nd     PAS Giannina                    26   10   2    1    32   15   5    4    4    18   16   51   
1st     PAS Giannina                    26   9    1    3    32   13   8    2    3    18   8    54   
2nd     PAS Giannina                    26   8    3    2    27   17   6    3    4    13   10   48   
2nd     PAS Giannina                    26   9    3    1    21   10   5    2    6    16   22   47   
1st     PAS Giannina                    26   9    4    0    29   9    9    1    3    29   12   59   
1st     PAS Giannina                    26   10   3    0    27   11   7    4    2    18   10   58   
3rd     PAS Giannina                    26   7    2    4    27   17   6    4    3    24   16   45   
1st     PAS Giannina                    26   10   1    2    26   13   8    2    3    24   17   57   
3rd     PAS Giannina                    26   8    3    2    34   22   6    2    5    15   15   47   
1st     PAS Giannina                    26   8    1    4    24   17   9    1    3    23   12   53   
1st     PAS Giannina                    26   7    5    1    25   12   8    2    3    26   15   52   
4th     PAS Giannina                    26   7    3    3    25   20   4    5    4    20   15   41   
1st     PAS Giannina                    26   10   3    0    29   6    6    5    2    20   14   56   
1st     PAS Giannina                    26   11   1    1    21   8    6    4    3    14   12   56   
1st     PAS Giannina                    26   7    3    3    24   15   9    3    1    22   10   54   
1st     PAS Giannina                    26   9    4    0    26   11   5    3    5    13   12   49   
1st     PAS Giannina                    26   10   2    1    36   14   8    3    2    18   7    59   
3rd     PAS Giannina                    26   5    5    3    24   17   6    4    3    13   14   42   
1st     PAS Giannina                    26   8    5    0    23   13   5    2    6    11   12   46   
2nd     PAS Giannina                    26   7    3    3    26   16   6    4    3    18   12   46   
1st     PAS Giannina                    26   8    5    0    31   12   8    2    3    30   15   55   
2nd     PAS Giannina                    26   9    1    3    29   13   8    1    4    21   13   53   
5th     PAS Giannina                    26   7    3    3    23   12   3    7    3    16   17   40   
10th    PAS Giannina                    26   6    0    7    20   18   4    3    6    15   22   33   
3rd     PAS Giannina                    26   11   1    1    34   14   2    4    7    9    17   44   
2nd     PAS Giannina                    26   6    4    3    26   20   7    3    3    22   17   46   
4th     PAS Giannina                    26   9    2    2    33   17   3    5    5    14   14   43   
1st     PAS Giannina                    26   11   0    2    22   8    4    7    2    21   19   52   
1st     PAS Giannina                    26   12   1    0    40   5    7    2    4    23   12   60   
4th     PAS Giannina                    26   9    1    3    22   8    3    5    5    15   18   42   
5th     PAS Giannina                    26   7    2    4    20   15   5    3    5    14   14   41   
3rd     PAS Giannina                    26   8    3    2    22   9    6    2    5    20   19   47   
1st     PAS Giannina                    26   10   1    2    30   16   9    4    0    28   10   62   
1st     PAS Giannina                    26   10   3    0    35   10   9    2    2    25   5    62   
1st     PAS Giannina                    26   10   2    1    31   19   5    3    5    9    10   50   
1st     PAS Giannina                    26   9    1    3    31   17   9    3    1    25   10   58   
2nd     PAS Giannina                    26   10   2    1    23   11   4    3    6    16   17   47   
1st     PAS Giannina                    26   11   1    1    33   12   7    5    1    26   18   60   
1st     PAS Giannina                    26   10   2    1    34   17   9    4    0    27   12   63   
1st     PAS Giannina                    26   12   1    0    33   11   10   1    2    22   11   68   
6th     PAS Giannina                    26   7    3    3    23   14   5    2    6    15   21   41   
2nd     PAS Giannina                    26   10   0    3    28   14   8    3    2    23   14   57   
1st     PAS Giannina                    26   6    5    2    24   14   9    4    0    21   6    54   
1st     PAS Giannina                    26   10   3    0    34   15   8    1    4    17   9    58   
1st     PAS Giannina                    26   10   2    1    29   11   5    4    4    19   18   51   
2nd     PAS Giannina                    26   9    3    1    28   13   7    5    1    23   12   56   
2nd     PAS Giannina                    26   5    6    2    19   11   8    3    2    18   10   48   
2nd     PAS Giannina                    26   10   2    1    31   15   4    5    4    16   15   49   
2nd     PAS Giannina                    26   6    6    1    25   15   6    5    2    20   12   47   
2nd     PAS Giannina                    26   11   1    1    32   12   5    3    5    15   15   52   
2nd     PAS Giannina                    26   10   1    2    34   18   5    6    2    20   14   52   
4th     PAS Giannina                    26   9    4    0    30   13   2    5    6    15   19   42   
4th     PAS Giannina                    26   9    1    3    30   18   5    3    5    11   18   46   
2nd     PAS Giannina                    26   10   0    3    33   14   5    4    4    19   16   49   
1st     PAS Giannina                    26   9    3    1    32   13   5    4    4    22   17   49   
2nd     PAS Giannina                    26   8    4    1    27   13   6    4    3    24   14   50   
5th     PAS Giannina                    26   7    3    3    24   17   6    1    6    24   20   43   
1st     PAS Giannina                    26   8    4    1    31   14   7    4    2    23   13   53   
1st     PAS Giannina                    26   11   2    0    34   9    9    3    1    26   9    65   
3rd     PAS Giannina                    26   11   1    1    31   13   7    2    4    24   16   57   
2nd     PAS Giannina                    26   8    0    5    26   23   8    4    1    19   10   52   
2nd     PAS Giannina                    26   9    3    1    26   11   7    2    4    22   15   53   
3rd     PAS Giannina                    26   8    3    2    24   9    3    7    3    17   17   43   
1st     PAS Giannina                    26   9    2    2    29   16   9    3    1    21   9    59   
1st     PAS Giannina                    26   8    3    2    32   14   8    3    2    28   18   54   
2nd     PAS Giannina                    26   9    0    4    25   13   7    1    5    20   17   49   
3rd     PAS Giannina                    26   8    3    2    23   10   6    4    3    18   9    49   
1st     PAS Giannina                    26   9    3    1    25   14   7    5    1    28   13   56   
4th     PAS Giannina                    26   9    2    2    21   12   4    5    4    14   12   46   
1st     PAS Giannina                    26   10   2    1    21   5    6    3    4    21   15   53   
1st     PAS Giannina                    26   10   2    1    32   11   7    4    2    24   15   57   
1st     PAS Giannina                    26   9    3    1    30   13   8    2    3    17   11   56   
1st     PAS Giannina                    26   8    3    2    22   9    6    6    1    23   11   51   
3rd     PAS Giannina                    26   7    4    2    22   14   7    3    3    18   14   49   
1st     PAS Giannina                    26   8    4    1    17   10   8    4    1    26   13   56   
2nd     PAS Giannina                    26   11   1    1    24   8    3    5    5    15   20   48   
2nd     PAS Giannina                    26   7    4    2    24   14   6    5    2    19   13   48   