2nd     PAS Giannina                    26   10   1    2    33   16   5    5    3    31   26   51   
2nd     PAS Giannina                    26   9    3    1    35   19   7    4    2    27   15   55   
2nd     PAS Giannina                    26   8    2    3    29   16   5    6    2    20   14   47   
3rd     PAS Giannina                    26   8    1    4    26   17   4    3    6    19   24   40   
1st     PAS Giannina                    26   9    2    2    26   15   6    5    2    23   18   52   
5th     PAS Giannina                    26   9    2    2    29   15   4    2    7    22   21   43   
1st     PAS Giannina                    26   11   0    2    38   16   5    3    5    17   19   51   
3rd     PAS Giannina                    26   8    1    4    29   22   5    3    5    22   17   43   
4th     PAS Giannina                    26   8    2    3    31   17   4    2    7    19   26   40   
1st     PAS Giannina                    26   10   1    2    33   15   6    4    3    22   15   53   
3rd     PAS Giannina                    26   6    3    4    29   25   4    6    3    18   13   39   
5th     PAS Giannina                    26   6    3    4    31   22   6    2    5    19   16   41   
3rd     PAS Giannina                    26   10   3    0    40   22   4    3    6    18   19   48   
2nd     PAS Giannina                    26   11   0    2    36   14   4    5    4    20   20   50   
3rd     PAS Giannina                    26   7    5    1    26   15   7    2    4    19   15   49   
4th     PAS Giannina                    26   10   2    1    41   19   2    4    7    23   32   42   
2nd     PAS Giannina                    26   7    5    1    21   10   6    3    4    22   14   47   
3rd     PAS Giannina                    26   8    4    1    32   15   7    1    5    28   23   50   
2nd     PAS Giannina                    26   5    3    5    26   21   9    2    2    25   18   47   
5th     PAS Giannina                    26   8    4    1    27   13   4    2    7    22   24   42   
5th     PAS Giannina                    26   9    1    3    38   22   3    2    8    18   26   39   
1st     PAS Giannina                    26   10   2    1    34   12   7    2    4    20   15   55   
3rd     PAS Giannina                    26   7    3    3    26   18   5    4    4    24   21   43   
9th     PAS Giannina                    26   6    2    5    21   16   3    2    8    13   21   31   
3rd     PAS Giannina                    26   7    1    5    24   19   4    4    5    23   22   38   
2nd     PAS Giannina                    26   9    2    2    31   14   7    4    2    29   13   54   
2nd     PAS Giannina                    26   8    0    5    28   17   6    4    3    21   13   46   
3rd     PAS Giannina                    26   9    2    2    29   10   6    1    6    23   19   48   
2nd     PAS Giannina                    26   7    2    4    29   21   8    2    3    26   18   49   
1st     PAS Giannina                    26   11   0    2    32   12   7    1    5    24   20   55   
4th     PAS Giannina                    26   8    2    3    29   17   5    3    5    10   11   44   
2nd     PAS Giannina                    26   9    1    3    27   16   4    3    6    18   18   43   
2nd     PAS Giannina                    26   10   2    1    30   15   8    3    2    25   13   59   
2nd     PAS Giannina                    26   8    3    2    30   20   5    3    5    22   29   45   
1st     PAS Giannina                    26   8    3    2    34   16   7    3    3    27   20   51   
4th     PAS Giannina                    26   8    3    2    32   19   4    5    4    12   15   44   
5th     PAS Giannina                    26   9    2    2    28   17   4    1    8    20   27   42   
2nd     PAS Giannina                    26   11   1    1    34   11   6    5    2    24   19   57   
4th     PAS Giannina                    26   8    2    3    27   12   5    2    6    14   17   43   
4th     PAS Giannina                    26   7    3    3    30   26   4    4    5    18   19   40   
9th     PAS Giannina                    26   5    4    4    27   20   3    5    5    16   19   33   
3rd     PAS Giannina                    26   10   3    0    27   14   4    4    5    23   21   49   
3rd     PAS Giannina                    26   10   2    1    38   16   5    1    7    17   19   48   
2nd     PAS Giannina                    26   10   3    0    31   14   3    2    8    18   30   44   
6th     PAS Giannina                    26   6    5    2    25   17   4    4    5    19   23   39   
1st     PAS Giannina                    26   11   0    2    39   15   6    2    5    19   19   53   
3rd     PAS Giannina                    26   9    2    2    28   14   4    3    6    20   28   44   
4th     PAS Giannina                    26   7    4    2    27   18   3    5    5    12   20   39   
2nd     PAS Giannina                    26   7    4    2    27   16   7    4    2    23   12   50   
4th     PAS Giannina                    26   9    1    3    37   23   4    3    6    17   19   43   
1st     PAS Giannina                    26   9    2    2    31   20   6    4    3    20   18   51   
4th     PAS Giannina                    26   10   1    2    32   15   2    6    5    17   19   43   
1st     PAS Giannina                    26   10   1    2    25   15   8    1    4    25   19   56   
10th    PAS Giannina                    26   8    2    3    24   18   1    3    9    19   32   32   
5th     PAS Giannina                    26   10   0    3    29   17   2    4    7    15   21   40   
5th     PAS Giannina                    26   7    3    3    26   19   5    3    5    22   14   42   
5th     PAS Giannina                    26   8    2    3    28   18   4    3    6    22   25   41   
1st     PAS Giannina                    26   9    3    1    28   10   6    0    7    16   13   48   
8th     PAS Giannina                    26   9    2    2    37   22   0    3    10   9    28   32   
5th     PAS Giannina                    26   5    5    3    26   22   5    4    4    21   20   39   
3rd     PAS Giannina                    26   9    2    2    29   18   2    5    6    14   20   40   
7th     PAS Giannina                    26   8    2    3    32   21   3    3    7    17   25   38   
5th     PAS Giannina                    26   9    3    1    36   18   2    4    7    17   26   40   
2nd     PAS Giannina                    26   9    1    3    32   19   6    1    6    24   26   47   
7th     PAS Giannina                    26   6    3    4    32   23   5    1    7    18   24   37   
5th     PAS Giannina                    26   5    5    3    20   12   5    3    5    24   24   38   
5th     PAS Giannina                    26   6    3    4    29   16   5    1    7    23   24   37   
4th     PAS Giannina                    26   8    4    1    32   18   3    4    6    19   26   41   
4th     PAS Giannina                    26   7    3    3    29   18   4    4    5    21   21   40   
5th     PAS Giannina                    26   8    3    2    28   15   4    4    5    19   25   43   
3rd     PAS Giannina                    26   8    2    3    34   17   5    5    3    23   20   46   
8th     PAS Giannina                    26   8    1    4    30   22   3    2    8    17   22   36   
1st     PAS Giannina                    26   11   0    2    34   12   5    3    5    18   18   51   
2nd     PAS Giannina                    26   8    3    2    28   12   5    8    0    22   13   50   
8th     PAS Giannina                    26   6    2    5    26   25   4    2    7    16   21   34   
5th     PAS Giannina                    26   5    4    4    18   17   4    6    3    18   18   37   
2nd     PAS Giannina                    26   9    1    3    36   21   4    4    5    18   19   44   
1st     PAS Giannina                    26   11   0    2    33   20   6    2    5    22   18   53   
2nd     PAS Giannina                    26   8    3    2    30   18   8    2    3    27   18   53   
4th     PAS Giannina                    26   10   2    1    29   15   3    5    5    17   21   46   
3rd     PAS Giannina                    26   9    4    0    33   13   3    3    7    22   30   43   
2nd     PAS Giannina                    26   8    2    3    31   14   6    2    5    22   16   46   
4th     PAS Giannina                    26   6    4    3    25   23   7    0    6    23   17   43   
2nd     PAS Giannina                    26   11   1    1    34   14   3    3    7    10   22   46   
2nd     PAS Giannina                    26   9    2    2    31   18   9    2    2    26   15   58   
1st     PAS Giannina                    26   10   1    2    30   17   7    3    3    22   18   55   
3rd     PAS Giannina                    26   8    3    2    24   15   6    2    5    19   15   47   
3rd     PAS Giannina                    26   10   2    1    34   20   5    2    6    25   23   49   
2nd     PAS Giannina                    26   8    2    3    29   20   8    1    4    23   13   51   
3rd     PAS Giannina                    26   9    3    1    37   19   3    4    6    26   24   43   
4th     PAS Giannina                    26   9    1    3    34   18   5    3    5    20   26   46   
4th     PAS Giannina                    26   7    3    3    27   11   5    4    4    15   16   43   
2nd     PAS Giannina                    26   11   1    1    29   14   5    5    3    22   22   54   
1st     PAS Giannina                    26   10   1    2    29   13   8    1    4    22   19   56   
2nd     PAS Giannina                    26   9    2    2    30   13   6    2    5    24   20   49   
6th     PAS Giannina                    26   6    3    4    27   20   5    2    6    21   25   38   
2nd     PAS Giannina                    26   9    4    0    32   16   5    4    4    24   17   50   
1st     PAS Giannina                    26   11   1    1    40   11   6    7    0    22   13   59   
5th     PAS Giannina                    26   6    4    3    24   13   5    2    6    21   27   39   
3rd     PAS Giannina                    26   8    4    1    26   15   3    6    4    26   26   43   