1st     PAS Giannina                    26   12   1    0    35   11   8    2    3    24   11   63   
2nd     PAS Giannina                    26   10   3    0    33   13   4    5    4    15   15   50   
1st     PAS Giannina                    26   10   2    1    28   15   7    4    2    18   6    57   
2nd     PAS Giannina                    26   11   1    1    31   11   4    5    4    19   12   51   
2nd     PAS Giannina                    26   10   0    3    27   13   8    3    2    22   13   57   
3rd     PAS Giannina                    26   9    1    3    28   13   5    3    5    13   15   46   
2nd     PAS Giannina                    26   9    2    2    21   8    3    8    2    21   17   46   
1st     PAS Giannina                    26   10   2    1    35   13   8    2    3    18   11   58   
1st     PAS Giannina                    26   11   2    0    37   10   6    3    4    17   12   56   
3rd     PAS Giannina                    26   8    4    1    30   11   4    7    2    20   17   47   
1st     PAS Giannina                    26   10   3    0    26   8    8    3    2    21   11   60   
3rd     PAS Giannina                    26   8    4    1    19   9    6    4    3    20   13   50   
1st     PAS Giannina                    26   11   1    1    36   10   7    3    3    19   13   58   
1st     PAS Giannina                    26   12   0    1    26   5    8    2    3    20   13   62   
1st     PAS Giannina                    26   9    3    1    26   10   7    4    2    19   7    55   
2nd     PAS Giannina                    26   8    2    3    28   12   7    3    3    22   15   50   
1st     PAS Giannina                    26   10   1    2    28   11   9    2    2    24   11   60   
1st     PAS Giannina                    26   10   2    1    29   10   9    1    3    27   14   60   
1st     PAS Giannina                    26   11   2    0    35   11   11   0    2    31   9    68   
1st     PAS Giannina                    26   10   1    2    25   8    8    2    3    23   10   57   
1st     PAS Giannina                    26   12   1    0    32   8    8    4    1    25   14   65   
1st     PAS Giannina                    26   11   2    0    33   9    5    4    4    20   12   54   
2nd     PAS Giannina                    26   11   0    2    32   13   7    4    2    18   9    58   
2nd     PAS Giannina                    26   10   3    0    27   7    6    3    4    15   13   54   
2nd     PAS Giannina                    26   12   0    1    33   6    6    3    4    17   10   57   
1st     PAS Giannina                    26   12   1    0    33   7    8    4    1    25   14   65   
1st     PAS Giannina                    26   11   1    1    35   8    7    3    3    19   9    58   
1st     PAS Giannina                    26   12   1    0    30   8    7    2    4    19   14   60   
1st     PAS Giannina                    26   10   3    0    28   8    10   2    1    31   13   65   
2nd     PAS Giannina                    26   11   1    1    34   12   6    1    6    17   14   53   
1st     PAS Giannina                    26   11   1    1    31   5    10   2    1    25   11   66   
2nd     PAS Giannina                    26   11   2    0    38   7    3    5    5    20   19   49   
1st     PAS Giannina                    26   11   2    0    32   6    6    6    1    30   16   59   
2nd     PAS Giannina                    26   11   0    2    30   8    6    2    5    18   16   53   
1st     PAS Giannina                    26   12   0    1    28   11   6    5    2    24   17   59   
1st     PAS Giannina                    26   11   1    1    29   10   8    2    3    22   16   60   
2nd     PAS Giannina                    26   8    4    1    27   13   4    5    4    12   14   45   
4th     PAS Giannina                    26   8    4    1    27   7    4    5    4    13   12   45   
1st     PAS Giannina                    26   10   1    2    24   9    9    3    1    25   10   61   
1st     PAS Giannina                    26   11   2    0    30   11   8    1    4    18   12   60   
1st     PAS Giannina                    26   9    3    1    20   4    7    4    2    24   11   55   
1st     PAS Giannina                    26   10   3    0    34   11   8    3    2    21   10   60   
3rd     PAS Giannina                    26   8    4    1    28   11   5    3    5    20   16   46   
1st     PAS Giannina                    26   9    2    2    20   8    8    3    2    30   14   56   
2nd     PAS Giannina                    26   10   1    2    23   6    8    1    4    20   19   56   
1st     PAS Giannina                    26   10   2    1    29   13   7    4    2    21   10   57   
1st     PAS Giannina                    26   10   3    0    33   13   9    4    0    26   10   64   
1st     PAS Giannina                    26   12   1    0    37   7    8    2    3    28   12   63   
1st     PAS Giannina                    26   12   1    0    36   7    9    1    3    22   10   65   
2nd     PAS Giannina                    26   9    3    1    28   12   8    0    5    20   9    54   
2nd     PAS Giannina                    26   9    4    0    27   9    6    5    2    19   13   54   
2nd     PAS Giannina                    26   12   0    1    32   10   6    3    4    22   18   57   
1st     PAS Giannina                    26   11   1    1    34   14   7    6    0    16   4    61   
2nd     PAS Giannina                    26   9    1    3    33   13   8    3    2    22   6    55   
2nd     PAS Giannina                    26   10   2    1    34   16   4    4    5    22   20   48   
2nd     PAS Giannina                    26   10   1    2    30   12   6    1    6    16   16   50   
1st     PAS Giannina                    26   12   0    1    42   10   4    5    4    19   16   53   
1st     PAS Giannina                    26   10   2    1    26   8    6    3    4    18   12   53   
2nd     PAS Giannina                    26   10   3    0    29   7    6    5    2    18   11   56   
2nd     PAS Giannina                    26   10   2    1    30   11   7    2    4    23   16   55   
1st     PAS Giannina                    26   10   3    0    29   8    7    4    2    24   13   58   
1st     PAS Giannina                    26   11   1    1    32   14   7    5    1    21   12   60   
1st     PAS Giannina                    26   9    0    4    25   12   7    5    1    21   11   53   
1st     PAS Giannina                    26   9    2    2    34   13   8    3    2    22   12   56   
1st     PAS Giannina                    26   11   2    0    32   13   9    1    3    31   15   63   
1st     PAS Giannina                    26   10   3    0    28   11   8    3    2    20   6    60   
2nd     PAS Giannina                    26   7    4    2    30   13   6    6    1    21   9    49   
1st     PAS Giannina                    26   12   1    0    37   9    8    3    2    22   11   64   
1st     PAS Giannina                    26   10   2    1    32   12   8    3    2    22   14   59   
1st     PAS Giannina                    26   10   2    1    27   9    9    1    3    20   11   60   
2nd     PAS Giannina                    26   8    3    2    23   13   9    3    1    23   8    57   
1st     PAS Giannina                    26   12   1    0    32   6    7    3    3    22   15   61   
1st     PAS Giannina                    26   9    3    1    30   12   9    1    3    24   12   58   
2nd     PAS Giannina                    26   9    1    3    32   16   4    6    3    22   15   46   
1st     PAS Giannina                    26   11   2    0    29   8    9    1    3    28   13   63   
3rd     PAS Giannina                    26   7    4    2    27   16   5    3    5    18   14   43   
1st     PAS Giannina                    26   11   2    0    32   8    5    7    1    18   13   57   
2nd     PAS Giannina                    26   10   1    2    29   9    3    5    5    17   21   45   
1st     PAS Giannina                    26   13   0    0    32   10   4    7    2    19   15   58   
1st     PAS Giannina                    26   8    1    4    28   16   8    4    1    20   7    53   
1st     PAS Giannina                    26   9    2    2    28   10   5    4    4    19   20   48   
2nd     PAS Giannina                    26   11   1    1    30   10   4    6    3    20   19   52   
1st     PAS Giannina                    26   9    3    1    26   12   9    2    2    20   7    59   
1st     PAS Giannina                    26   11   0    2    28   5    8    5    0    27   10   62   
1st     PAS Giannina                    26   9    4    0    34   15   9    1    3    24   14   59   
1st     PAS Giannina                    26   10   2    1    35   10   9    3    1    20   9    62   
1st     PAS Giannina                    26   12   1    0    39   12   8    3    2    28   11   64   
1st     PAS Giannina                    26   11   1    1    34   7    8    2    3    21   10   60   
1st     PAS Giannina                    26   12   0    1    35   9    9    1    3    23   12   64   
1st     PAS Giannina                    26   12   1    0    31   5    6    5    2    18   11   60   
1st     PAS Giannina                    26   9    4    0    29   10   7    2    4    15   10   54   
1st     PAS Giannina                    26   9    0    4    31   16   6    6    1    15   7    51   
2nd     PAS Giannina                    26   9    3    1    32   12   6    1    6    22   18   49   
1st     PAS Giannina                    26   10   1    2    31   8    8    2    3    21   17   57   
1st     PAS Giannina                    26   12   1    0    38   9    10   1    2    25   11   68   
2nd     PAS Giannina                    26   6    3    4    26   22   7    6    0    22   10   48   
1st     PAS Giannina                    26   10   3    0    28   7    6    5    2    20   10   56   
1st     PAS Giannina                    26   10   2    1    36   15   7    2    4    22   10   55   
2nd     PAS Giannina                    26   9    2    2    30   12   6    4    3    20   11   51   
1st     PAS Giannina                    26   11   2    0    30   9    9    2    2    25   12   64   