1st     PAS Giannina                    26   10   2    1    35   7    8    3    2    22   10   59   
1st     PAS Giannina                    26   12   1    0    36   9    12   0    1    37   16   73   
1st     PAS Giannina                    26   13   0    0    32   9    7    4    2    23   16   64   
1st     PAS Giannina                    26   11   1    1    28   10   12   1    0    33   6    71   
1st     PAS Giannina                    26   10   3    0    31   7    8    3    2    23   10   60   
1st     PAS Giannina                    26   10   2    1    33   12   8    5    0    25   12   61   
1st     PAS Giannina                    26   12   0    1    28   6    10   3    0    29   10   69   
1st     PAS Giannina                    26   9    4    0    41   16   8    2    3    29   10   57   
1st     PAS Giannina                    26   11   2    0    37   12   6    3    4    26   22   56   
1st     PAS Giannina                    26   10   2    1    31   6    11   2    0    26   9    67   
1st     PAS Giannina                    26   12   1    0    32   4    8    3    2    24   9    64   
1st     PAS Giannina                    26   11   1    1    24   11   10   1    2    24   12   65   
1st     PAS Giannina                    26   12   0    1    38   8    7    1    5    27   24   58   
1st     PAS Giannina                    26   8    4    1    26   8    9    2    2    27   13   57   
1st     PAS Giannina                    26   11   1    1    33   7    8    3    2    28   15   61   
2nd     PAS Giannina                    26   9    4    0    25   8    8    5    0    26   10   60   
1st     PAS Giannina                    26   12   1    0    37   12   6    5    2    21   12   60   
1st     PAS Giannina                    26   12   1    0    34   10   11   2    0    29   10   72   
1st     PAS Giannina                    26   12   1    0    33   10   10   3    0    34   14   70   
1st     PAS Giannina                    26   9    3    1    33   10   11   1    1    30   7    64   
1st     PAS Giannina                    26   10   3    0    27   7    8    4    1    25   10   61   
1st     PAS Giannina                    26   11   2    0    33   11   8    4    1    33   12   63   
1st     PAS Giannina                    26   12   0    1    29   3    10   0    3    28   14   66   
1st     PAS Giannina                    26   13   0    0    35   10   8    1    4    25   18   64   
1st     PAS Giannina                    26   11   2    0    37   7    11   0    2    29   11   68   
2nd     PAS Giannina                    26   10   2    1    32   10   7    1    5    19   18   54   
1st     PAS Giannina                    26   12   0    1    34   8    10   2    1    37   10   68   
1st     PAS Giannina                    26   10   2    1    30   8    8    3    2    27   16   59   
1st     PAS Giannina                    26   10   2    1    24   8    7    4    2    17   6    57   
1st     PAS Giannina                    26   10   1    2    32   14   10   0    3    40   22   61   
1st     PAS Giannina                    26   8    4    1    20   9    8    3    2    25   17   55   
1st     PAS Giannina                    26   9    2    2    28   10   8    5    0    22   9    58   
2nd     PAS Giannina                    26   9    2    2    28   13   8    1    4    26   16   54   
1st     PAS Giannina                    26   10   2    1    33   8    7    5    1    21   13   58   
1st     PAS Giannina                    26   12   1    0    42   10   9    3    1    31   13   67   
1st     PAS Giannina                    26   11   1    1    34   11   10   3    0    26   8    67   
2nd     PAS Giannina                    26   11   1    1    38   8    6    6    1    18   12   58   
1st     PAS Giannina                    26   13   0    0    28   3    8    2    3    23   13   65   
1st     PAS Giannina                    26   10   2    1    30   12   10   2    1    24   7    64   
2nd     PAS Giannina                    26   10   2    1    27   7    7    2    4    19   10   55   
1st     PAS Giannina                    26   11   1    1    30   12   10   1    2    37   14   65   
1st     PAS Giannina                    26   11   2    0    29   5    7    3    3    23   13   59   
1st     PAS Giannina                    26   11   0    2    33   11   9    2    2    23   11   62   
1st     PAS Giannina                    26   12   0    1    36   6    10   2    1    28   10   68   
1st     PAS Giannina                    26   10   2    1    33   10   7    2    4    16   10   55   
4th     PAS Giannina                    26   5    5    3    24   17   8    1    4    22   10   45   
1st     PAS Giannina                    26   11   1    1    30   12   8    5    0    28   11   63   
1st     PAS Giannina                    26   9    4    0    31   13   8    3    2    28   15   58   
2nd     PAS Giannina                    26   10   2    1    31   12   8    3    2    27   17   59   
2nd     PAS Giannina                    26   9    3    1    29   11   10   1    2    28   10   61   
1st     PAS Giannina                    26   10   1    2    30   12   9    2    2    30   14   60   
2nd     PAS Giannina                    26   9    3    1    30   12   8    2    3    31   18   56   
1st     PAS Giannina                    26   12   1    0    32   11   9    3    1    31   15   67   
1st     PAS Giannina                    26   12   1    0    29   6    8    4    1    24   14   65   
1st     PAS Giannina                    26   11   0    2    31   8    7    4    2    31   17   58   
1st     PAS Giannina                    26   11   2    0    33   6    7    2    4    26   18   58   
1st     PAS Giannina                    26   10   2    1    31   9    7    4    2    26   13   57   
1st     PAS Giannina                    26   8    3    2    33   14   10   2    1    32   10   59   
1st     PAS Giannina                    26   12   1    0    35   11   9    1    3    27   10   65   
2nd     PAS Giannina                    26   10   2    1    27   10   4    4    5    17   15   48   
1st     PAS Giannina                    26   9    2    2    29   11   11   1    1    29   11   63   
1st     PAS Giannina                    26   10   1    2    24   10   9    3    1    29   11   61   
1st     PAS Giannina                    26   12   1    0    28   5    9    2    2    31   11   66   
2nd     PAS Giannina                    26   11   1    1    41   14   8    2    3    27   8    60   
1st     PAS Giannina                    26   10   3    0    33   9    10   2    1    29   15   65   
1st     PAS Giannina                    26   10   3    0    37   12   9    1    3    26   12   61   
1st     PAS Giannina                    26   11   2    0    37   9    6    4    3    14   7    57   
1st     PAS Giannina                    26   13   0    0    29   6    6    6    1    21   12   63   
1st     PAS Giannina                    26   7    4    2    26   17   7    1    5    23   15   47   
1st     PAS Giannina                    26   11   2    0    35   13   5    2    6    23   23   52   
1st     PAS Giannina                    26   10   3    0    32   11   8    4    1    24   12   61   
1st     PAS Giannina                    26   10   2    1    29   6    7    4    2    29   15   57   
1st     PAS Giannina                    26   11   0    2    34   9    9    2    2    29   10   62   
1st     PAS Giannina                    26   12   1    0    32   7    9    2    2    22   11   66   
1st     PAS Giannina                    26   9    2    2    29   12   10   0    3    31   8    59   
1st     PAS Giannina                    26   11   1    1    31   9    10   2    1    30   11   66   
1st     PAS Giannina                    26   10   1    2    30   14   11   1    1    26   6    65   
1st     PAS Giannina                    26   6    1    6    23   18   10   1    2    27   8    50   
2nd     PAS Giannina                    26   7    1    5    23   15   8    5    0    22   10   51   
2nd     PAS Giannina                    26   9    2    2    24   9    6    6    1    23   16   53   
1st     PAS Giannina                    26   10   1    2    30   12   8    1    4    25   14   56   
1st     PAS Giannina                    26   12   0    1    39   9    8    5    0    25   14   65   
1st     PAS Giannina                    26   11   2    0    32   12   9    0    4    18   12   62   
1st     PAS Giannina                    26   10   2    1    29   10   5    3    5    16   15   50   
1st     PAS Giannina                    26   11   1    1    32   9    10   2    1    33   11   66   
1st     PAS Giannina                    26   9    2    2    36   14   10   2    1    28   13   61   
1st     PAS Giannina                    26   6    7    0    18   10   10   2    1    26   10   57   
1st     PAS Giannina                    26   11   2    0    33   12   10   1    2    27   13   66   
1st     PAS Giannina                    26   10   2    1    28   5    10   3    0    28   8    65   
2nd     PAS Giannina                    26   9    4    0    21   6    9    2    2    25   10   60   
1st     PAS Giannina                    26   10   1    2    34   12   11   2    0    27   7    66   
1st     PAS Giannina                    26   11   2    0    35   8    10   2    1    29   12   67   
1st     PAS Giannina                    26   10   3    0    28   6    9    2    2    23   13   62   
2nd     PAS Giannina                    26   10   3    0    33   10   6    4    3    28   14   55   
1st     PAS Giannina                    26   10   2    1    34   10   7    4    2    22   14   57   
1st     PAS Giannina                    26   10   2    1    32   11   10   1    2    27   14   63   
3rd     PAS Giannina                    26   9    2    2    37   12   7    4    2    22   10   54   
1st     PAS Giannina                    26   10   2    1    28   7    8    5    0    26   9    61   
1st     PAS Giannina                    26   10   3    0    38   13   9    1    3    30   11   61   
2nd     PAS Giannina                    26   9    2    2    31   13   9    1    3    29   14   57   