1st     PAS Giannina                    26   8    2    3    27   12   8    3    2    28   14   53   
1st     PAS Giannina                    26   12   1    0    35   9    7    6    0    21   9    64   
1st     PAS Giannina                    26   11   1    1    28   9    11   2    0    32   9    69   
1st     PAS Giannina                    26   12   1    0    37   5    9    1    3    25   19   65   
1st     PAS Giannina                    26   11   2    0    26   7    11   2    0    34   8    70   
1st     PAS Giannina                    26   12   1    0    37   8    11   1    1    29   14   71   
1st     PAS Giannina                    26   11   1    1    34   10   8    2    3    25   17   60   
1st     PAS Giannina                    26   12   1    0    33   6    8    3    2    25   15   64   
1st     PAS Giannina                    26   13   0    0    36   7    10   1    2    30   10   70   
1st     PAS Giannina                    26   13   0    0    27   5    11   2    0    32   11   74   
1st     PAS Giannina                    26   11   2    0    28   4    7    4    2    28   10   60   
1st     PAS Giannina                    26   13   0    0    39   14   10   1    2    30   12   70   
1st     PAS Giannina                    26   8    4    1    30   9    9    2    2    28   15   57   
1st     PAS Giannina                    26   11   1    1    38   11   7    5    1    20   7    60   
1st     PAS Giannina                    26   12   0    1    36   10   9    2    2    23   11   65   
1st     PAS Giannina                    26   10   2    1    32   16   10   1    2    30   11   63   
1st     PAS Giannina                    26   7    4    2    25   18   11   2    0    33   9    60   
1st     PAS Giannina                    26   10   2    1    30   9    9    4    0    30   9    63   
1st     PAS Giannina                    26   13   0    0    36   5    8    2    3    23   14   65   
1st     PAS Giannina                    26   10   1    2    35   17   11   1    1    31   15   65   
3rd     PAS Giannina                    26   9    2    2    27   13   6    3    4    26   15   50   
1st     PAS Giannina                    26   12   1    0    40   8    7    6    0    22   9    64   
1st     PAS Giannina                    26   13   0    0    31   6    12   1    0    34   8    76   
2nd     PAS Giannina                    26   12   0    1    35   10   8    2    3    20   13   62   
1st     PAS Giannina                    26   11   2    0    29   9    9    3    1    33   14   65   
1st     PAS Giannina                    26   11   2    0    34   10   9    3    1    34   14   65   
1st     PAS Giannina                    26   11   2    0    33   12   10   1    2    31   16   66   
1st     PAS Giannina                    26   12   1    0    33   6    7    4    2    31   14   62   
1st     PAS Giannina                    26   10   1    2    29   11   11   1    1    31   12   65   
1st     PAS Giannina                    26   10   2    1    33   12   7    2    4    29   21   55   
1st     PAS Giannina                    26   10   3    0    34   9    8    1    4    20   11   58   
1st     PAS Giannina                    26   10   2    1    29   9    9    2    2    25   10   61   
1st     PAS Giannina                    26   13   0    0    35   7    11   2    0    39   9    74   
1st     PAS Giannina                    26   11   0    2    31   11   11   0    2    32   12   66   
2nd     PAS Giannina                    26   10   1    2    34   9    7    3    3    21   13   55   
1st     PAS Giannina                    26   11   1    1    32   10   10   2    1    33   14   66   
1st     PAS Giannina                    26   10   3    0    29   10   9    1    3    31   15   61   
1st     PAS Giannina                    26   11   2    0    28   9    9    3    1    33   10   65   
1st     PAS Giannina                    26   10   3    0    34   16   6    6    1    27   18   57   
1st     PAS Giannina                    26   10   2    1    36   13   10   1    2    32   16   63   
2nd     PAS Giannina                    26   9    3    1    20   10   8    3    2    23   13   57   
1st     PAS Giannina                    26   11   2    0    30   7    8    3    2    29   17   62   
1st     PAS Giannina                    26   12   1    0    34   7    10   2    1    29   12   69   
1st     PAS Giannina                    26   10   3    0    31   14   7    3    3    24   11   57   
1st     PAS Giannina                    26   11   0    2    33   10   12   0    1    27   8    69   
1st     PAS Giannina                    26   12   1    0    35   11   9    3    1    36   18   67   
1st     PAS Giannina                    26   12   1    0    38   11   6    4    3    29   18   59   
1st     PAS Giannina                    26   13   0    0    36   11   7    2    4    24   17   62   
1st     PAS Giannina                    26   13   0    0    39   8    10   2    1    33   13   71   
3rd     PAS Giannina                    26   11   1    1    26   5    4    5    4    24   17   51   
1st     PAS Giannina                    26   11   1    1    35   7    8    2    3    24   15   60   
1st     PAS Giannina                    26   12   1    0    30   8    8    3    2    29   20   64   
1st     PAS Giannina                    26   9    2    2    33   13   7    3    3    22   16   53   
1st     PAS Giannina                    26   11   2    0    32   9    8    4    1    31   15   63   
1st     PAS Giannina                    26   10   3    0    29   7    10   2    1    33   15   65   
1st     PAS Giannina                    26   10   3    0    32   13   9    2    2    23   10   62   
1st     PAS Giannina                    26   13   0    0    38   8    9    2    2    30   18   68   
1st     PAS Giannina                    26   12   1    0    34   9    9    1    3    23   14   65   
1st     PAS Giannina                    26   12   1    0    30   6    10   2    1    39   13   69   
2nd     PAS Giannina                    26   12   0    1    29   6    4    3    6    22   22   51   
1st     PAS Giannina                    26   13   0    0    38   7    9    2    2    33   13   68   
1st     PAS Giannina                    26   8    4    1    27   8    9    2    2    33   12   57   
1st     PAS Giannina                    26   11   2    0    32   9    11   2    0    37   9    70   
1st     PAS Giannina                    26   9    3    1    24   9    10   3    0    30   6    63   
1st     PAS Giannina                    26   11   2    0    37   16   8    2    3    22   13   61   
1st     PAS Giannina                    26   10   2    1    31   11   12   1    0    40   11   69   
1st     PAS Giannina                    26   10   1    2    30   9    8    3    2    23   10   58   
1st     PAS Giannina                    26   12   1    0    33   13   8    5    0    28   10   66   
1st     PAS Giannina                    26   12   0    1    35   10   8    4    1    27   9    64   
1st     PAS Giannina                    26   12   1    0    41   9    8    2    3    29   18   63   
1st     PAS Giannina                    26   12   1    0    37   14   11   1    1    27   10   71   
1st     PAS Giannina                    26   12   0    1    36   11   10   1    2    30   9    67   
1st     PAS Giannina                    26   13   0    0    42   10   8    4    1    23   15   67   
1st     PAS Giannina                    26   10   2    1    34   12   7    5    1    28   18   58   
1st     PAS Giannina                    26   11   2    0    31   9    10   1    2    32   11   66   
1st     PAS Giannina                    26   9    3    1    37   10   12   1    0    32   6    67   
1st     PAS Giannina                    26   12   1    0    29   7    11   1    1    29   7    71   
1st     PAS Giannina                    26   12   1    0    42   7    7    3    3    28   15   61   
1st     PAS Giannina                    26   12   1    0    36   11   9    2    2    27   10   66   
1st     PAS Giannina                    26   13   0    0    30   5    10   1    2    32   12   70   
1st     PAS Giannina                    26   12   0    1    34   10   9    1    3    28   12   64   
1st     PAS Giannina                    26   11   2    0    37   14   10   2    1    25   8    67   
1st     PAS Giannina                    26   11   2    0    40   11   10   3    0    26   5    68   
1st     PAS Giannina                    26   11   2    0    30   13   9    1    3    26   12   63   
1st     PAS Giannina                    26   11   2    0    34   10   8    3    2    31   16   62   
1st     PAS Giannina                    26   11   1    1    34   10   8    3    2    28   12   61   
1st     PAS Giannina                    26   12   1    0    36   5    9    1    3    24   10   65   
1st     PAS Giannina                    26   12   0    1    31   12   8    4    1    27   10   64   
2nd     PAS Giannina                    26   10   1    2    31   11   5    5    3    27   20   51   
1st     PAS Giannina                    26   11   2    0    36   18   10   2    1    36   15   67   
1st     PAS Giannina                    26   11   2    0    29   7    11   1    1    30   6    69   
1st     PAS Giannina                    26   13   0    0    38   5    9    3    1    25   10   69   
1st     PAS Giannina                    26   13   0    0    44   9    8    1    4    21   15   64   
2nd     PAS Giannina                    26   10   3    0    33   10   5    5    3    21   16   53   
1st     PAS Giannina                    26   12   0    1    44   8    5    5    3    17   11   56   
1st     PAS Giannina                    26   11   1    1    31   7    9    0    4    27   16   61   
1st     PAS Giannina                    26   11   0    2    35   9    9    2    2    24   8    62   
1st     PAS Giannina                    26   13   0    0    35   3    7    3    3    25   17   63   
1st     PAS Giannina                    26   12   1    0    31   9    6    5    2    22   15   60   
1st     PAS Giannina                    26   12   1    0    36   11   10   3    0    30   10   70   