3rd     PAS Giannina                    26   10   2    1    32   15   3    6    4    20   22   47   
1st     PAS Giannina                    26   10   1    2    35   16   8    3    2    29   14   58   
1st     PAS Giannina                    26   12   0    1    37   13   5    5    3    25   17   56   
1st     PAS Giannina                    26   10   3    0    32   15   6    3    4    22   19   54   
8th     PAS Giannina                    26   6    5    2    29   18   4    3    6    19   25   38   
3rd     PAS Giannina                    26   8    3    2    24   9    5    4    4    19   16   46   
2nd     PAS Giannina                    26   9    4    0    33   11   5    3    5    21   21   49   
1st     PAS Giannina                    26   10   1    2    40   16   8    3    2    24   14   58   
2nd     PAS Giannina                    26   8    2    3    22   15   6    1    6    21   19   45   
10th    PAS Giannina                    26   4    3    6    17   20   4    3    6    16   15   30   
3rd     PAS Giannina                    26   9    4    0    29   10   4    3    6    12   21   46   
2nd     PAS Giannina                    26   8    2    3    33   19   5    3    5    18   19   44   
1st     PAS Giannina                    26   9    3    1    35   16   5    5    3    24   20   50   
10th    PAS Giannina                    26   6    2    5    21   16   2    4    7    13   23   30   
8th     PAS Giannina                    26   6    3    4    26   20   3    4    6    19   23   34   
2nd     PAS Giannina                    26   7    5    1    24   16   7    3    3    17   14   50   
4th     PAS Giannina                    26   7    3    3    25   16   4    4    5    15   18   40   
4th     PAS Giannina                    26   10   1    2    26   9    1    6    6    11   17   40   
2nd     PAS Giannina                    26   8    2    3    30   14   7    2    4    22   18   49   
1st     PAS Giannina                    26   11   1    1    40   12   6    3    4    25   19   55   
1st     PAS Giannina                    26   9    4    0    28   9    5    4    4    18   14   50   
5th     PAS Giannina                    26   7    2    4    23   14   5    3    5    17   20   41   
2nd     PAS Giannina                    26   9    3    1    31   13   5    3    5    18   18   48   
2nd     PAS Giannina                    26   10   2    1    32   15   4    7    2    23   19   51   
8th     PAS Giannina                    26   10   1    2    27   11   1    3    9    15   27   37   
2nd     PAS Giannina                    26   7    3    3    27   17   6    4    3    23   15   46   
2nd     PAS Giannina                    26   11   0    2    31   15   5    4    4    20   19   52   
2nd     PAS Giannina                    26   9    1    3    24   12   5    5    3    19   12   48   
6th     PAS Giannina                    26   6    3    4    23   16   5    2    6    16   16   38   
1st     PAS Giannina                    26   10   0    3    34   15   3    5    5    15   18   44   
4th     PAS Giannina                    26   8    2    3    23   12   4    5    4    29   23   43   
1st     PAS Giannina                    26   11   1    1    29   7    10   1    2    21   10   65   
2nd     PAS Giannina                    26   8    2    3    25   13   4    6    3    17   16   44   
2nd     PAS Giannina                    26   10   1    2    35   11   5    4    4    15   16   50   
5th     PAS Giannina                    26   8    2    3    23   12   5    3    5    19   21   44   
2nd     PAS Giannina                    26   7    3    3    28   16   9    4    0    25   10   55   
2nd     PAS Giannina                    26   6    5    2    25   14   7    3    3    27   15   47   
1st     PAS Giannina                    26   10   2    1    34   15   7    3    3    24   11   56   
3rd     PAS Giannina                    26   9    2    2    26   13   5    4    4    21   16   48   
1st     PAS Giannina                    26   9    3    1    28   12   9    0    4    24   18   57   
3rd     PAS Giannina                    26   10   1    2    32   15   3    4    6    15   22   44   
2nd     PAS Giannina                    26   10   1    2    32   15   5    4    4    18   15   50   
2nd     PAS Giannina                    26   11   1    1    33   14   6    3    4    23   17   55   
6th     PAS Giannina                    26   6    4    3    28   17   5    1    7    15   15   38   
3rd     PAS Giannina                    26   9    1    3    28   19   4    4    5    14   14   44   
1st     PAS Giannina                    26   10   1    2    31   12   4    4    5    16   16   47   
5th     PAS Giannina                    26   7    5    1    24   14   4    3    6    19   16   41   
2nd     PAS Giannina                    26   6    3    4    22   16   7    3    3    24   11   45   
4th     PAS Giannina                    26   8    2    3    28   12   4    5    4    21   21   43   
1st     PAS Giannina                    26   10   2    1    30   10   7    1    5    19   18   54   
3rd     PAS Giannina                    26   9    3    1    30   12   4    1    8    19   21   43   
4th     PAS Giannina                    26   7    6    0    33   19   3    5    5    16   17   41   
3rd     PAS Giannina                    26   7    5    1    24   11   6    2    5    22   18   46   
1st     PAS Giannina                    26   10   1    2    33   14   7    1    5    28   17   53   
1st     PAS Giannina                    26   8    4    1    26   10   6    3    4    21   14   49   
2nd     PAS Giannina                    26   8    3    2    34   18   7    2    4    18   12   50   
3rd     PAS Giannina                    26   8    5    0    28   11   5    0    8    21   20   44   
2nd     PAS Giannina                    26   7    4    2    26   17   8    3    2    22   12   52   
7th     PAS Giannina                    26   8    2    3    30   19   3    4    6    19   22   39   
2nd     PAS Giannina                    26   8    4    1    28   12   5    2    6    19   17   45   
1st     PAS Giannina                    26   9    3    1    26   10   7    3    3    26   17   54   
4th     PAS Giannina                    26   9    3    1    29   11   5    3    5    16   15   48   
1st     PAS Giannina                    26   12   1    0    42   13   6    3    4    26   16   58   
4th     PAS Giannina                    26   8    3    2    27   12   5    2    6    19   17   44   
4th     PAS Giannina                    26   7    2    4    25   17   6    2    5    27   20   43   
6th     PAS Giannina                    26   9    2    2    22   9    2    6    5    15   17   41   
1st     PAS Giannina                    26   10   3    0    28   5    7    4    2    24   15   58   
8th     PAS Giannina                    26   8    3    2    36   19   1    4    8    9    22   34   
2nd     PAS Giannina                    26   8    4    1    26   10   6    4    3    24   19   50   
4th     PAS Giannina                    26   7    4    2    30   15   4    2    7    15   19   39   
2nd     PAS Giannina                    26   9    1    3    34   21   8    4    1    25   13   56   
3rd     PAS Giannina                    26   8    3    2    27   14   4    5    4    17   17   44   
2nd     PAS Giannina                    26   9    3    1    24   11   6    5    2    26   16   53   
1st     PAS Giannina                    26   6    6    1    30   18   9    2    2    26   13   53   
8th     PAS Giannina                    26   7    2    4    16   9    4    3    6    17   20   38   
3rd     PAS Giannina                    26   8    4    1    35   20   3    6    4    19   20   43   
3rd     PAS Giannina                    26   7    1    5    26   19   5    5    3    22   18   42   
8th     PAS Giannina                    26   4    3    6    14   19   6    3    4    14   12   36   
2nd     PAS Giannina                    26   9    1    3    26   16   6    2    5    27   25   48   
6th     PAS Giannina                    26   7    4    2    26   14   4    2    7    17   24   39   
1st     PAS Giannina                    26   10   2    1    30   10   8    1    4    24   18   57   
5th     PAS Giannina                    26   6    3    4    21   17   5    4    4    18   17   40   
2nd     PAS Giannina                    26   8    3    2    28   16   5    7    1    15   11   49   
1st     PAS Giannina                    26   9    3    1    24   9    6    2    5    21   19   50   
1st     PAS Giannina                    26   7    4    2    26   16   7    4    2    25   17   50   
1st     PAS Giannina                    26   8    4    1    32   19   6    3    4    21   22   49   
1st     PAS Giannina                    26   10   2    1    30   13   6    5    2    23   19   55   
3rd     PAS Giannina                    26   8    2    3    25   13   4    5    4    23   18   43   
5th     PAS Giannina                    26   9    1    3    23   10   2    7    4    14   16   41   
2nd     PAS Giannina                    26   11   1    1    35   10   5    2    6    16   20   51   
3rd     PAS Giannina                    26   10   1    2    33   16   7    2    4    24   16   54   
2nd     PAS Giannina                    26   9    2    2    28   12   7    2    4    19   14   52   
1st     PAS Giannina                    26   10   3    0    31   8    6    3    4    27   20   54   
4th     PAS Giannina                    26   7    3    3    23   13   4    4    5    16   15   40   
6th     PAS Giannina                    26   7    3    3    28   14   3    5    5    21   23   38   
1st     PAS Giannina                    26   10   2    1    33   9    7    4    2    22   13   57   
4th     PAS Giannina                    26   9    1    3    30   15   5    2    6    22   19   45   
2nd     PAS Giannina                    26   10   3    0    36   13   2    5    6    18   22   44   
2nd     PAS Giannina                    26   6    1    6    18   16   10   1    2    27   12   50   
1st     PAS Giannina                    26   9    1    3    23   10   9    3    1    26   12   58   