1st     PAS Giannina                    26   9    3    1    33   14   9    3    1    33   14   60   
1st     PAS Giannina                    26   9    4    0    28   15   6    5    2    33   16   54   
1st     PAS Giannina                    26   11   2    0    38   16   8    1    4    27   21   60   
1st     PAS Giannina                    26   9    4    0    25   8    7    2    4    20   14   54   
1st     PAS Giannina                    26   11   1    1    30   10   11   1    1    24   8    68   
2nd     PAS Giannina                    26   10   2    1    27   11   7    2    4    26   19   55   
1st     PAS Giannina                    26   11   2    0    27   6    9    2    2    27   13   64   
1st     PAS Giannina                    26   11   1    1    25   6    8    2    3    27   12   60   
1st     PAS Giannina                    26   12   0    1    39   14   10   3    0    34   9    69   
1st     PAS Giannina                    26   10   2    1    38   14   10   2    1    30   12   64   
1st     PAS Giannina                    26   11   1    1    34   14   13   0    0    31   7    73   
1st     PAS Giannina                    26   11   1    1    31   12   10   1    2    31   12   65   
1st     PAS Giannina                    26   10   3    0    32   12   9    2    2    31   12   62   
1st     PAS Giannina                    26   9    3    1    28   8    10   1    2    23   9    61   
1st     PAS Giannina                    26   12   1    0    36   7    7    3    3    18   13   61   
1st     PAS Giannina                    26   9    3    1    25   10   10   0    3    30   15   60   
1st     PAS Giannina                    26   10   2    1    37   12   9    3    1    31   12   62   
1st     PAS Giannina                    26   12   1    0    37   9    9    2    2    30   13   66   
1st     PAS Giannina                    26   11   1    1    36   11   10   0    3    26   11   64   
1st     PAS Giannina                    26   12   1    0    32   11   8    4    1    28   10   65   
1st     PAS Giannina                    26   11   1    1    37   14   5    4    4    19   13   53   
1st     PAS Giannina                    26   11   2    0    36   13   8    3    2    31   17   62   
1st     PAS Giannina                    26   9    1    3    24   16   7    4    2    27   12   53   
1st     PAS Giannina                    26   10   2    1    24   8    7    3    3    28   16   56   
1st     PAS Giannina                    26   11   1    1    40   15   9    3    1    35   14   64   
1st     PAS Giannina                    26   12   1    0    40   6    9    1    3    26   13   65   
2nd     PAS Giannina                    26   8    4    1    25   9    7    4    2    27   15   53   
1st     PAS Giannina                    26   11   2    0    34   12   9    4    0    26   11   66   
1st     PAS Giannina                    26   8    4    1    33   10   9    2    2    29   11   57   
1st     PAS Giannina                    26   10   0    3    27   13   8    4    1    25   8    58   
2nd     PAS Giannina                    26   8    3    2    26   13   9    1    3    29   13   55   
1st     PAS Giannina                    26   12   0    1    36   13   7    3    3    21   14   60   
1st     PAS Giannina                    26   12   1    0    32   10   9    2    2    27   12   66   
2nd     PAS Giannina                    26   9    2    2    26   8    6    4    3    20   15   51   
1st     PAS Giannina                    26   10   3    0    31   9    11   1    1    30   8    67   
1st     PAS Giannina                    26   11   1    1    30   8    8    4    1    29   8    62   
1st     PAS Giannina                    26   11   2    0    34   12   7    4    2    24   13   60   
2nd     PAS Giannina                    26   11   1    1    31   11   7    4    2    19   10   59   
1st     PAS Giannina                    26   10   2    1    35   12   7    2    4    31   17   55   
1st     PAS Giannina                    26   13   0    0    39   8    9    3    1    26   10   69   
1st     PAS Giannina                    26   12   1    0    30   7    10   2    1    28   10   69   
1st     PAS Giannina                    26   10   1    2    30   17   12   0    1    39   16   67   
1st     PAS Giannina                    26   11   1    1    36   13   8    1    4    22   14   59   
1st     PAS Giannina                    26   9    1    3    32   14   7    5    1    24   14   54   
1st     PAS Giannina                    26   9    4    0    33   12   10   2    1    30   9    63   
1st     PAS Giannina                    26   10   2    1    33   10   10   2    1    31   7    64   
1st     PAS Giannina                    26   12   0    1    33   10   11   1    1    37   11   70   
1st     PAS Giannina                    26   9    4    0    40   15   8    3    2    32   15   58   
1st     PAS Giannina                    26   12   1    0    35   13   9    2    2    23   10   66   
1st     PAS Giannina                    26   8    3    2    29   12   9    1    3    24   14   55   
1st     PAS Giannina                    26   12   1    0    32   9    9    2    2    32   16   66   
1st     PAS Giannina                    26   11   0    2    30   8    7    3    3    26   18   57   
1st     PAS Giannina                    26   11   2    0    35   8    8    2    3    26   15   61   
1st     PAS Giannina                    26   9    2    2    37   14   8    5    0    29   11   58   
1st     PAS Giannina                    26   11   0    2    28   12   12   1    0    37   11   70   
1st     PAS Giannina                    26   11   1    1    32   15   7    4    2    24   14   59   
1st     PAS Giannina                    26   11   0    2    31   11   9    3    1    23   12   63   
1st     PAS Giannina                    26   11   1    1    31   8    6    2    5    24   19   54   
1st     PAS Giannina                    26   10   0    3    26   10   8    3    2    27   14   57   
1st     PAS Giannina                    26   11   2    0    40   8    8    2    3    27   16   61   
1st     PAS Giannina                    26   10   3    0    40   10   9    3    1    26   17   63   
1st     PAS Giannina                    26   13   0    0    32   7    6    3    4    22   17   60   
1st     PAS Giannina                    26   10   2    1    31   11   9    2    2    36   16   61   
1st     PAS Giannina                    26   10   3    0    31   12   12   0    1    36   8    69   
1st     PAS Giannina                    26   12   0    1    36   11   8    3    2    29   14   63   
1st     PAS Giannina                    26   13   0    0    38   6    6    3    4    29   21   60   
1st     PAS Giannina                    26   11   1    1    30   9    9    3    1    36   14   64   
1st     PAS Giannina                    26   10   2    1    39   9    9    4    0    34   16   63   
1st     PAS Giannina                    26   7    3    3    24   14   10   1    2    35   12   55   
1st     PAS Giannina                    26   11   0    2    31   10   11   1    1    36   15   67   
1st     PAS Giannina                    26   11   2    0    34   9    9    2    2    22   10   64   
1st     PAS Giannina                    26   11   1    1    35   11   9    1    3    29   19   62   
1st     PAS Giannina                    26   10   3    0    33   9    10   2    1    27   7    65   
1st     PAS Giannina                    26   10   2    1    28   9    7    5    1    22   10   58   
1st     PAS Giannina                    26   10   3    0    35   12   11   0    2    32   12   66   
2nd     PAS Giannina                    26   10   3    0    25   4    7    5    1    29   15   59   
1st     PAS Giannina                    26   11   1    1    30   9    10   2    1    28   14   66   
1st     PAS Giannina                    26   10   1    2    36   13   8    3    2    25   15   58   
1st     PAS Giannina                    26   10   3    0    28   11   8    2    3    27   13   59   
1st     PAS Giannina                    26   11   1    1    33   9    7    4    2    25   10   59   
1st     PAS Giannina                    26   10   3    0    30   9    9    1    3    23   10   61   
1st     PAS Giannina                    26   9    4    0    26   10   6    4    3    23   13   53   
3rd     PAS Giannina                    26   7    4    2    30   12   5    4    4    24   19   44   
1st     PAS Giannina                    26   12   1    0    38   7    8    2    3    23   12   63   
1st     PAS Giannina                    26   10   3    0    31   10   10   2    1    34   14   65   
1st     PAS Giannina                    26   9    0    4    25   15   10   1    2    28   10   58   
1st     PAS Giannina                    26   10   1    2    35   18   10   2    1    33   13   63   
1st     PAS Giannina                    26   10   3    0    31   11   9    2    2    29   11   62   
1st     PAS Giannina                    26   12   1    0    38   7    10   3    0    28   14   70   
1st     PAS Giannina                    26   13   0    0    34   11   8    3    2    26   12   66   
1st     PAS Giannina                    26   10   2    1    33   16   11   0    2    26   11   65   
2nd     PAS Giannina                    26   9    3    1    29   11   8    3    2    28   17   57   
1st     PAS Giannina                    26   10   0    3    22   7    8    4    1    25   11   58   
1st     PAS Giannina                    26   11   2    0    34   7    7    5    1    23   15   61   
1st     PAS Giannina                    26   10   1    2    31   15   7    2    4    26   16   54   
1st     PAS Giannina                    26   13   0    0    33   10   6    2    5    24   20   59   
1st     PAS Giannina                    26   13   0    0    37   9    8    4    1    26   11   67   
1st     PAS Giannina                    26   13   0    0    37   8    11   0    2    28   9    72   
1st     PAS Giannina                    26   11   1    1    34   15   7    5    1    27   14   60   
1st     PAS Giannina                    26   9    4    0    32   7    8    4    1    31   14   59   