1st     PAS Giannina                    26   9    3    1    25   10   7    3    3    22   16   54
2nd     PAS Giannina                    26   10   3    0    28   12   5    4    4    21   15   52
2nd     PAS Giannina                    26   9    2    2    26   13   9    2    2    25   10   58
2nd     PAS Giannina                    26   8    4    1    26   14   7    3    3    24   14   52
2nd     PAS Giannina                    26   8    4    1    23   11   6    4    3    24   18   50
1st     PAS Giannina                    26   11   2    0    26   11   9    0    4    22   13   62
1st     PAS Giannina                    26   9    3    1    23   7    7    1    5    25   12   52
1st     PAS Giannina                    26   9    1    3    28   12   9    2    2    25   10   57
1st     PAS Giannina                    26   12   0    1    30   10   9    3    1    29   9    66
1st     PAS Giannina                    26   11   2    0    24   5    7    4    2    24   15   60
2nd     PAS Giannina                    26   9    4    0    29   9    10   1    2    27   7    62
2nd     PAS Giannina                    26   10   2    1    26   14   8    1    4    25   16   57
1st     PAS Giannina                    26   10   2    1    28   7    6    6    1    22   11   56
1st     PAS Giannina                    26   7    4    2    18   9    7    4    2    19   14   50
1st     PAS Giannina                    26   8    4    1    22   10   9    2    2    30   15   57
1st     PAS Giannina                    26   9    3    1    20   9    8    2    3    20   7    56
1st     PAS Giannina                    26   11   2    0    35   14   6    6    1    20   10   59
1st     PAS Giannina                    26   10   3    0    25   6    7    3    3    21   10   57
1st     PAS Giannina                    26   10   1    2    24   8    10   2    1    33   11   63
1st     PAS Giannina                    26   9    3    1    25   7    8    3    2    24   11   57
1st     PAS Giannina                    26   7    4    2    24   13   8    2    3    24   14   51
1st     PAS Giannina                    26   12   0    1    32   7    10   2    1    31   16   68
1st     PAS Giannina                    26   10   1    2    27   15   9    3    1    27   12   61
2nd     PAS Giannina                    26   8    2    3    26   11   6    4    3    21   15   48
2nd     PAS Giannina                    26   11   2    0    31   8    6    2    5    22   18   55
3rd     PAS Giannina                    26   8    2    3    27   15   8    3    2    20   13   53
1st     PAS Giannina                    26   10   3    0    26   9    6    2    5    20   11   53
1st     PAS Giannina                    26   11   2    0    28   9    7    3    3    20   14   59
1st     PAS Giannina                    26   10   3    0    25   6    8    2    3    25   15   59
1st     PAS Giannina                    26   8    4    1    19   9    6    4    3    18   11   50
1st     PAS Giannina                    26   10   2    1    28   9    8    3    2    20   9    59
1st     PAS Giannina                    26   10   2    1    34   13   7    4    2    22   11   57
3rd     PAS Giannina                    26   8    3    2    29   11   5    6    2    16   11   48
2nd     PAS Giannina                    26   9    3    1    24   8    7    3    3    24   17   54
1st     PAS Giannina                    26   11   2    0    34   8    9    4    0    27   9    66
2nd     PAS Giannina                    26   6    6    1    17   8    6    3    4    22   16   45
1st     PAS Giannina                    26   11   2    0    23   4    7    6    0    27   13   62
2nd     PAS Giannina                    26   10   3    0    28   10   8    2    3    25   14   59
2nd     PAS Giannina                    26   9    2    2    26   10   4    5    4    16   16   46
1st     PAS Giannina                    26   11   2    0    26   7    11   1    1    26   7    69
1st     PAS Giannina                    26   11   1    1    27   8    8    3    2    23   9    61
2nd     PAS Giannina                    26   6    5    2    27   14   9    2    2    30   13   52
1st     PAS Giannina                    26   10   3    0    26   0    9    3    1    34   15   63
1st     PAS Giannina                    26   11   2    0    31   9    7    3    3    19   11   59
1st     PAS Giannina                    26   10   3    0    29   13   8    3    2    19   10   60
2nd     PAS Giannina                    26   8    3    2    25   14   8    1    4    18   12   52
1st     PAS Giannina                    26   10   2    1    26   9    7    3    3    18   11   56
1st     PAS Giannina                    26   8    2    3    22   13   8    2    3    28   14   52
3rd     PAS Giannina                    26   7    5    1    20   10   6    2    5    22   13   46
2nd     PAS Giannina                    26   9    3    1    26   9    10   1    2    24   11   61
2nd     PAS Giannina                    26   9    1    3    24   9    5    3    5    13   9    46
1st     PAS Giannina                    26   9    4    0    23   7    7    5    1    21   5    57
2nd     PAS Giannina                    26   10   2    1    30   10   7    1    5    16   14   54
2nd     PAS Giannina                    26   7    5    1    20   9    9    2    2    24   9    55
1st     PAS Giannina                    26   9    4    0    26   14   10   2    1    27   11   63
1st     PAS Giannina                    26   11   2    0    22   4    10   3    0    24   8    68
2nd     PAS Giannina                    26   10   2    1    25   3    5    2    6    19   18   49
1st     PAS Giannina                    26   12   1    0    27   9    8    3    2    18   7    64
2nd     PAS Giannina                    26   11   1    1    31   9    5    5    3    16   10   54
1st     PAS Giannina                    26   8    4    1    30   10   8    5    0    26   11   57
2nd     PAS Giannina                    26   10   3    0    26   7    6    0    7    25   19   51
2nd     PAS Giannina                    26   10   1    2    28   9    2    6    5    15   19   43
1st     PAS Giannina                    26   11   2    0    31   9    8    3    2    26   14   62
1st     PAS Giannina                    26   10   1    2    25   8    8    1    4    18   10   56
1st     PAS Giannina                    26   12   1    0    27   7    6    5    2    25   15   60
1st     PAS Giannina                    26   8    4    1    24   9    9    2    2    29   11   57
1st     PAS Giannina                    26   9    4    0    29   11   10   1    2    25   14   62
1st     PAS Giannina                    26   8    4    1    21   9    8    3    2    22   8    55
1st     PAS Giannina                    26   7    5    1    23   14   6    5    2    22   13   49
2nd     PAS Giannina                    26   12   1    0    29   7    5    2    6    18   17   54
2nd     PAS Giannina                    26   10   1    2    27   10   5    3    5    20   16   49
1st     PAS Giannina                    26   9    3    1    24   11   10   1    2    29   16   61
2nd     PAS Giannina                    26   10   2    1    34   12   7    4    2    23   13   57
2nd     PAS Giannina                    26   10   2    1    25   7    4    6    3    15   9    50
2nd     PAS Giannina                    26   8    4    1    19   5    7    3    3    25   16   52
3rd     PAS Giannina                    26   7    3    3    26   12   7    0    6    21   15   45
2nd     PAS Giannina                    26   10   2    1    25   10   7    2    4    22   17   55
1st     PAS Giannina                    26   7    5    1    28   12   7    3    3    18   11   50
1st     PAS Giannina                    26   10   1    2    31   13   9    4    0    31   7    62
1st     PAS Giannina                    26   10   3    0    25   9    9    2    2    24   10   62
2nd     PAS Giannina                    26   10   2    1    29   7    9    2    2    18   10   61
1st     PAS Giannina                    26   10   1    2    27   11   9    3    1    23   8    61
2nd     PAS Giannina                    26   8    5    0    22   10   5    6    2    21   16   50
1st     PAS Giannina                    26   11   2    0    34   5    9    2    2    24   10   64
1st     PAS Giannina                    26   7    5    1    18   7    8    1    4    24   13   51
1st     PAS Giannina                    26   9    2    2    30   9    7    4    2    22   13   54
2nd     PAS Giannina                    26   11   0    2    25   6    6    3    4    25   14   54
1st     PAS Giannina                    26   11   2    0    32   5    8    3    2    25   10   62
1st     PAS Giannina                    26   11   2    0    37   9    5    4    4    18   12   54
1st     PAS Giannina                    26   9    2    2    26   9    9    1    3    25   8    57
1st     PAS Giannina                    26   11   1    1    34   17   9    2    2    31   15   63
3rd     PAS Giannina                    26   7    3    3    25   14   5    5    3    20   11   44
2nd     PAS Giannina                    26   8    4    1    31   11   7    2    4    23   16   51
2nd     PAS Giannina                    26   8    5    0    26   10   5    5    3    17   11   49
2nd     PAS Giannina                    26   9    3    1    26   10   8    3    2    18   9    57
2nd     PAS Giannina                    26   6    5    2    19   11   8    2    3    22   12   49
1st     PAS Giannina                    26   10   3    0    25   7    9    1    3    27   11   61
1st     PAS Giannina                    26   9    3    1    22   6    6    5    2    23   13   53
1st     PAS Giannina                    26   10   2    1    24   9    9    3    1    25   11   62
1st     PAS Giannina                    26   11   0    2    33   11   6    3    4    16   9    54