1st      PAS Giannina                    26   10   1    2    26   10   7    4    2    19   9    56
1st      PAS Giannina                    26   11   2    0    37   11   9    1    3    23   11   63
1st      PAS Giannina                    26   10   1    2    31   9    10   3    0    31   12   64
1st      PAS Giannina                    26   10   2    1    26   9    8    5    0    21   8    61
2nd     PAS Giannina                    26   8    3    2    27   15   8    1    4    19   10   52
3rd     PAS Giannina                    26   7    5    1    31   13   5    6    2    19   13   47
1st      PAS Giannina                    26   11   2    0    25   9    8    2    3    23   10   61
1st      PAS Giannina                    26   11   2    0    32   8    7    3    3    25   14   59
1st      PAS Giannina                    26   8    4    1    24   9    6    2    5    18   15   48
2nd     PAS Giannina                    26   9    4    0    27   8    7    4    2    22   12   56
1st      PAS Giannina                    26   10   2    1    29   11   6    4    3    21   11   54
1st      PAS Giannina                    26   9    2    2    25   8    9    2    2    21   9    58
2nd     PAS Giannina                    26   12   1    0    32   5    6    3    4    21   12   58
1st      PAS Giannina                    26   11   1    1    29   9    8    3    2    27   16   61
2nd     PAS Giannina                    26   9    3    1    33   13   8    3    2    19   10   57
2nd     PAS Giannina                    26   8    4    1    25   13   6    6    1    23   10   52
1st      PAS Giannina                    26   12   0    1    32   6    7    4    2    29   17   61
1st      PAS Giannina                    26   11   2    0    34   13   5    5    3    24   16   55
1st      PAS Giannina                    26   8    2    3    28   16   7    3    3    23   16   50
1st      PAS Giannina                    26   10   2    1    25   11   6    5    2    18   13   55
1st      PAS Giannina                    26   9    3    1    20   5    6    6    1    26   18   54
2nd     PAS Giannina                    26   7    3    3    29   14   9    1    3    22   8    52
1st      PAS Giannina                    26   11   2    0    31   9    6    4    3    24   15   57
2nd     PAS Giannina                    26   10   1    2    25   11   4    4    5    18   18   47
1st      PAS Giannina                    26   10   1    2    33   13   10   2    1    26   7    63
1st      PAS Giannina                    26   11   2    0    29   9    7    4    2    28   16   60
2nd     PAS Giannina                    26   6    2    5    17   9    7    3    3    23   15   44
2nd     PAS Giannina                    26   8    5    0    23   13   4    7    2    19   15   48
1st      PAS Giannina                    26   9    2    2    28   10   7    3    3    24   14   53
1st      PAS Giannina                    26   9    4    0    33   14   8    1    4    21   14   56
2nd     PAS Giannina                    26   12   0    1    31   7    6    2    5    18   15   56
1st      PAS Giannina                    26   10   2    1    32   11   6    5    2    22   11   55
1st      PAS Giannina                    26   9    4    0    27   9    7    4    2    21   16   56
1st      PAS Giannina                    26   11   2    0    34   10   7    4    2    17   9    60
1st      PAS Giannina                    26   11   2    0    29   7    6    4    3    19   14   57
3rd     PAS Giannina                    26   8    4    1    24   10   6    3    4    19   11   49
1st      PAS Giannina                    26   9    1    3    29   16   7    3    3    24   14   52
1st      PAS Giannina                    26   12   1    0    31   5    6    1    6    23   15   56
2nd     PAS Giannina                    26   8    2    3    22   8    9    3    1    24   7    56
2nd     PAS Giannina                    26   8    5    0    26   10   6    4    3    18   11   51
1st      PAS Giannina                    26   10   2    1    24   9    7    2    4    16   10   55
1st      PAS Giannina                    26   10   2    1    26   9    7    5    1    19   7    58
1st      PAS Giannina                    26   12   1    0    35   5    11   2    0    24   8    72
7th     PAS Giannina                    26   6    2    5    26   22   4    5    4    14   17   37
1st      PAS Giannina                    26   8    5    0    25   11   8    2    3    20   11   55
1st      PAS Giannina                    26   10   2    1    31   15   7    3    3    20   10   56
1st      PAS Giannina                    26   11   1    1    30   8    7    4    2    24   13   59
2nd     PAS Giannina                    26   9    3    1    29   12   9    2    2    18   10   59
1st      PAS Giannina                    26   10   3    0    35   12   8    3    2    25   13   60
2nd     PAS Giannina                    26   11   1    1    32   12   6    4    3    25   13   56
2nd     PAS Giannina                    26   9    2    2    27   10   7    3    3    20   11   53
2nd     PAS Giannina                    26   8    4    1    31   15   6    3    4    19   18   49
2nd     PAS Giannina                    26   8    5    0    23   7    7    3    3    20   11   53
1st      PAS Giannina                    26   9    4    0    33   12   7    2    4    20   13   54
2nd     PAS Giannina                    26   10   1    2    28   8    7    5    1    24   12   57
1st      PAS Giannina                    26   13   0    0    35   9    6    2    5    18   15   59
2nd     PAS Giannina                    26   9    1    3    24   12   7    4    2    23   14   53
1st      PAS Giannina                    26   7    2    4    22   12   9    2    2    22   9    52
1st      PAS Giannina                    26   12   1    0    30   12   7    3    3    19   12   61
1st      PAS Giannina                    26   10   3    0    28   12   10   2    1    22   9    65
1st      PAS Giannina                    26   9    3    1    27   10   6    3    4    14   10   51
4th     PAS Giannina                    26   8    1    4    28   10   5    5    3    18   10   45
1st      PAS Giannina                    26   9    4    0    30   13   7    4    2    23   13   56
1st      PAS Giannina                    26   10   2    1    28   6    7    3    3    21   12   56
1st      PAS Giannina                    26   11   1    1    32   9    8    3    2    18   7    61
1st      PAS Giannina                    26   11   1    1    31   9    8    2    3    24   12   60
1st      PAS Giannina                    26   11   1    1    32   6    5    4    4    19   17   53
2nd     PAS Giannina                    26   8    3    2    28   17   9    3    1    31   12   57
2nd     PAS Giannina                    26   10   1    2    25   13   8    1    4    23   13   56
1st      PAS Giannina                    26   12   1    0    31   6    9    3    1    27   12   67
1st      PAS Giannina                    26   12   1    0    35   8    9    3    1    21   7    67
1st      PAS Giannina                    26   12   1    0    30   4    7    3    3    24   15   61
1st      PAS Giannina                    26   10   1    2    31   17   7    4    2    24   13   56
1st      PAS Giannina                    26   7    6    0    25   12   8    0    5    20   12   51
2nd     PAS Giannina                    26   9    2    2    24   8    7    4    2    18   11   54
1st      PAS Giannina                    26   8    3    2    23   13   8    2    3    26   13   53
1st      PAS Giannina                    26   10   2    1    25   8    7    4    2    27   13   57
1st      PAS Giannina                    26   12   0    1    29   7    8    4    1    23   10   64
1st      PAS Giannina                    26   11   0    2    30   13   7    1    5    19   17   55
1st      PAS Giannina                    26   12   0    1    28   10   8    3    2    22   9    63
2nd     PAS Giannina                    26   9    1    3    26   11   7    5    1    15   9    54
1st      PAS Giannina                    26   13   0    0    32   9    7    4    2    24   15   64
1st      PAS Giannina                    26   8    5    0    29   11   10   1    2    18   6    60
1st      PAS Giannina                    26   13   0    0    36   9    4    6    3    20   16   57
1st      PAS Giannina                    26   11   1    1    33   13   9    2    2    28   10   63
1st      PAS Giannina                    26   12   1    0    32   8    10   2    1    28   9    69
1st      PAS Giannina                    26   12   0    1    26   7    7    2    4    23   13   59
1st      PAS Giannina                    26   12   1    0    35   11   9    4    0    25   8    68
1st      PAS Giannina                    26   12   0    1    32   10   9    2    2    22   7    65
2nd     PAS Giannina                    26   8    2    3    24   10   8    4    1    21   8    54
4th     PAS Giannina                    26   7    3    3    23   16   3    6    4    13   10   39
1st      PAS Giannina                    26   11   2    0    27   8    9    2    2    20   6    64
1st      PAS Giannina                    26   10   1    2    24   6    4    8    1    16   9    51
2nd     PAS Giannina                    26   10   1    2    34   12   6    4    3    21   15   53
2nd     PAS Giannina                    26   10   3    0    26   5    6    4    3    22   10   55
1st      PAS Giannina                    26   11   2    0    29   8    7    4    2    22   12   60
1st      PAS Giannina                    26   10   2    1    25   11   9    1    3    23   9    60
2nd     PAS Giannina                    26   8    3    2    30   14   7    2    4    16   12   50
2nd     PAS Giannina                    26   11   0    2    27   9    6    2    5    21   15   53
1st      PAS Giannina                    26   12   1    0    36   7    7    3    3    21   14   61