2nd     PAS Giannina                    26   7    4    2    19   11   6    4    3    23   15   47   
1st     PAS Giannina                    26   11   2    0    32   9    7    4    2    25   16   60   
1st     PAS Giannina                    26   12   1    0    30   9    6    4    3    17   9    59   
3rd     PAS Giannina                    26   7    5    1    25   7    5    3    5    22   20   44   
7th     PAS Giannina                    26   7    4    2    22   12   3    3    7    14   21   37   
2nd     PAS Giannina                    26   8    2    3    25   14   5    6    2    20   13   47   
1st     PAS Giannina                    26   11   0    2    25   11   5    5    3    16   15   53   
1st     PAS Giannina                    26   9    4    0    23   8    6    2    5    24   20   51   
2nd     PAS Giannina                    26   8    2    3    25   14   8    3    2    23   13   53   
5th     PAS Giannina                    26   8    1    4    25   16   5    2    6    14   20   42   
1st     PAS Giannina                    26   12   0    1    31   10   7    2    4    17   14   59   
3rd     PAS Giannina                    26   5    4    4    15   13   6    5    2    26   18   42   
4th     PAS Giannina                    26   6    5    2    25   15   6    1    6    16   16   42   
1st     PAS Giannina                    26   7    4    2    27   18   9    2    2    27   8    54   
2nd     PAS Giannina                    26   8    4    1    25   10   7    4    2    21   15   53   
1st     PAS Giannina                    26   12   1    0    35   13   7    2    4    21   15   60   
3rd     PAS Giannina                    26   7    3    3    23   12   6    4    3    21   15   46   
6th     PAS Giannina                    26   6    4    3    20   18   4    5    4    22   22   39   
3rd     PAS Giannina                    26   9    4    0    29   14   2    7    4    15   17   44   
3rd     PAS Giannina                    26   8    3    2    28   17   6    4    3    16   15   49   
1st     PAS Giannina                    26   8    3    2    30   18   6    4    3    21   14   49   
2nd     PAS Giannina                    26   9    2    2    23   12   5    4    4    19   19   48   
2nd     PAS Giannina                    26   8    3    2    28   13   7    3    3    25   15   51   
1st     PAS Giannina                    26   9    2    2    23   10   7    4    2    25   11   54   
1st     PAS Giannina                    26   10   2    1    32   9    9    1    3    29   17   60   
3rd     PAS Giannina                    26   7    3    3    23   14   6    3    4    20   18   45   
1st     PAS Giannina                    26   9    3    1    22   14   9    3    1    23   10   60   
6th     PAS Giannina                    26   6    5    2    26   14   6    1    6    17   15   42   
1st     PAS Giannina                    26   9    2    2    17   7    7    4    2    24   20   54   
1st     PAS Giannina                    26   6    6    1    24   13   9    2    2    25   10   53   
1st     PAS Giannina                    26   11   2    0    27   13   6    2    5    20   13   55   
4th     PAS Giannina                    26   8    2    3    26   12   5    3    5    23   21   44   
1st     PAS Giannina                    26   11   1    1    30   13   8    3    2    21   11   61   
10th    PAS Giannina                    26   6    3    4    27   18   2    4    7    16   20   31   
2nd     PAS Giannina                    26   9    2    2    21   13   6    4    3    17   13   51   
2nd     PAS Giannina                    26   10   2    1    35   12   8    1    4    20   9    57   
1st     PAS Giannina                    26   9    1    3    22   12   7    2    4    26   21   51   
3rd     PAS Giannina                    26   8    3    2    27   15   5    3    5    17   14   45   
2nd     PAS Giannina                    26   8    3    2    23   14   4    5    4    20   18   44   
1st     PAS Giannina                    26   9    4    0    23   8    6    2    5    21   17   51   
1st     PAS Giannina                    26   9    2    2    25   10   10   1    2    29   11   60   
1st     PAS Giannina                    26   6    6    1    23   13   8    3    2    27   12   51   
1st     PAS Giannina                    26   8    3    2    26   11   8    3    2    28   13   54   
3rd     PAS Giannina                    26   5    5    3    17   16   7    2    4    20   14   43   
1st     PAS Giannina                    26   10   0    3    27   12   8    4    1    24   11   58   
2nd     PAS Giannina                    26   10   2    1    28   12   6    2    5    25   22   52   
3rd     PAS Giannina                    26   8    4    1    19   7    6    5    2    25   19   51   
2nd     PAS Giannina                    26   9    2    2    28   19   5    4    4    19   17   48   
1st     PAS Giannina                    26   8    2    3    27   15   9    2    2    23   13   55   
3rd     PAS Giannina                    26   9    1    3    27   11   4    4    5    21   18   44   
3rd     PAS Giannina                    26   7    4    2    18   9    6    4    3    22   12   47   
2nd     PAS Giannina                    26   8    4    1    19   8    9    3    1    23   8    58   
2nd     PAS Giannina                    26   11   1    1    27   6    4    6    3    13   11   52   
1st     PAS Giannina                    26   9    3    1    23   10   10   2    1    24   7    62   
7th     PAS Giannina                    26   7    2    4    24   15   3    6    4    20   19   38   
1st     PAS Giannina                    26   10   3    0    27   13   5    3    5    25   24   51   
5th     PAS Giannina                    26   10   0    3    29   12   2    5    6    16   20   41   
1st     PAS Giannina                    26   8    3    2    19   9    9    1    3    25   14   55   
1st     PAS Giannina                    26   9    2    2    20   11   5    4    4    18   16   48   
1st     PAS Giannina                    26   10   2    1    26   6    6    4    3    15   13   54   
2nd     PAS Giannina                    26   11   1    1    25   14   6    3    4    20   12   55   
2nd     PAS Giannina                    26   8    2    3    25   16   8    2    3    21   12   52   
1st     PAS Giannina                    26   9    3    1    24   9    6    5    2    23   12   53   
2nd     PAS Giannina                    26   6    5    2    20   8    7    3    3    20   14   47   
2nd     PAS Giannina                    26   10   1    2    27   7    7    2    4    18   16   54   
2nd     PAS Giannina                    26   11   1    1    26   12   8    1    4    22   17   59   
4th     PAS Giannina                    26   10   3    0    25   8    2    3    8    12   19   42   
2nd     PAS Giannina                    26   9    2    2    30   7    6    1    6    20   17   48   
2nd     PAS Giannina                    26   7    3    3    20   12   7    3    3    23   14   48   
1st     PAS Giannina                    26   11   1    1    33   10   8    3    2    19   9    61   
2nd     PAS Giannina                    26   8    3    2    18   8    6    5    2    18   11   50   
2nd     PAS Giannina                    26   6    4    3    19   17   7    4    2    21   10   47   
1st     PAS Giannina                    26   8    5    0    28   11   6    6    1    19   13   53   
5th     PAS Giannina                    26   6    4    3    23   15   5    2    6    16   15   39   
2nd     PAS Giannina                    26   7    4    2    21   8    8    3    2    20   5    52   
4th     PAS Giannina                    26   10   1    2    18   6    4    3    6    16   22   46   
2nd     PAS Giannina                    26   10   2    1    33   10   7    4    2    19   9    57   
2nd     PAS Giannina                    26   7    5    1    24   10   9    2    2    26   11   55   
2nd     PAS Giannina                    26   8    2    3    27   17   7    3    3    24   20   50   
1st     PAS Giannina                    26   8    4    1    21   9    6    6    1    16   8    52   
4th     PAS Giannina                    26   8    3    2    26   13   3    7    3    15   16   43   
3rd     PAS Giannina                    26   6    5    2    19   13   5    5    3    16   10   43   
2nd     PAS Giannina                    26   8    3    2    24   12   7    1    5    26   18   49   
3rd     PAS Giannina                    26   8    3    2    28   14   5    4    4    17   16   46   
2nd     PAS Giannina                    26   10   2    1    34   15   6    2    5    23   20   52   
2nd     PAS Giannina                    26   11   2    0    29   10   5    3    5    19   15   53   
2nd     PAS Giannina                    26   8    5    0    18   7    8    3    2    24   14   56   
1st     PAS Giannina                    26   10   3    0    25   9    7    1    5    20   14   55   
1st     PAS Giannina                    26   11   2    0    28   9    5    2    6    19   16   52   
2nd     PAS Giannina                    26   10   2    1    29   13   7    3    3    22   11   56   
5th     PAS Giannina                    26   8    2    3    32   14   4    3    6    24   21   41   
4th     PAS Giannina                    26   6    4    3    25   18   5    2    6    13   15   39   
2nd     PAS Giannina                    26   8    2    3    29   14   8    2    3    19   12   52   
2nd     PAS Giannina                    26   11   0    2    24   9    5    4    4    17   14   52   
2nd     PAS Giannina                    26   10   2    1    34   13   6    3    4    26   18   53   
1st     PAS Giannina                    26   9    1    3    27   14   4    6    3    19   17   46   
4th     PAS Giannina                    26   6    3    4    22   20   6    4    3    24   16   43   
1st     PAS Giannina                    26   7    5    1    23   15   8    3    2    23   15   53   
2nd     PAS Giannina                    26   6    5    2    25   15   6    5    2    20   11   46   
1st     PAS Giannina                    26   11   2    0    29   11   8    2    3    20   13   61   