1st     PAS Giannina                    26   11   2    0    38   8    8    3    2    30   15   62   
1st     PAS Giannina                    26   10   2    1    34   10   11   1    1    22   8    66   
1st     PAS Giannina                    26   12   0    1    33   9    8    5    0    20   8    65   
1st     PAS Giannina                    26   11   2    0    34   12   9    3    1    29   12   65   
1st     PAS Giannina                    26   11   2    0    35   8    8    2    3    21   12   61   
1st     PAS Giannina                    26   10   3    0    27   7    6    5    2    23   13   56   
1st     PAS Giannina                    26   10   3    0    28   9    7    3    3    27   18   57   
1st     PAS Giannina                    26   9    3    1    32   11   9    3    1    27   12   60   
1st     PAS Giannina                    26   12   1    0    49   11   8    5    0    30   12   66   
1st     PAS Giannina                    26   13   0    0    36   8    11   1    1    30   10   73   
1st     PAS Giannina                    26   12   1    0    36   11   7    3    3    21   13   61   
1st     PAS Giannina                    26   11   2    0    32   10   9    2    2    24   11   64   
1st     PAS Giannina                    26   12   0    1    28   9    8    2    3    23   13   62   
1st     PAS Giannina                    26   13   0    0    37   7    8    4    1    27   13   67   
1st     PAS Giannina                    26   12   1    0    43   9    9    2    2    29   11   66   
1st     PAS Giannina                    26   13   0    0    38   9    12   0    1    33   9    75   
1st     PAS Giannina                    26   9    4    0    33   16   10   3    0    30   6    64   
1st     PAS Giannina                    26   12   0    1    33   8    10   2    1    26   9    68   
1st     PAS Giannina                    26   11   1    1    35   8    8    3    2    29   16   61   
1st     PAS Giannina                    26   11   1    1    31   9    8    3    2    25   6    61   
1st     PAS Giannina                    26   12   0    1    34   13   8    3    2    29   14   63   
1st     PAS Giannina                    26   12   1    0    32   8    8    2    3    26   13   63   
1st     PAS Giannina                    26   12   1    0    40   7    10   1    2    24   8    68   
1st     PAS Giannina                    26   12   0    1    41   11   8    3    2    22   13   63   
1st     PAS Giannina                    26   10   1    2    29   10   9    3    1    26   13   61   
1st     PAS Giannina                    26   9    2    2    29   11   8    3    2    25   15   56   
1st     PAS Giannina                    26   13   0    0    35   7    11   1    1    28   12   73   
1st     PAS Giannina                    26   11   2    0    34   9    10   2    1    24   8    67   
1st     PAS Giannina                    26   12   1    0    32   5    9    3    1    33   14   67   
1st     PAS Giannina                    26   10   2    1    33   13   8    1    4    27   16   57   
1st     PAS Giannina                    26   12   1    0    30   5    8    3    2    25   15   64   
1st     PAS Giannina                    26   10   3    0    28   10   13   0    0    38   10   72   
2nd     PAS Giannina                    26   9    2    2    31   15   4    4    5    17   19   45   
2nd     PAS Giannina                    26   8    3    2    21   8    7    4    2    24   12   52   
1st     PAS Giannina                    26   10   0    3    27   8    8    2    3    28   14   56   
1st     PAS Giannina                    26   12   0    1    35   8    6    5    2    22   11   59   
1st     PAS Giannina                    26   13   0    0    38   11   5    5    3    23   19   59   
1st     PAS Giannina                    26   10   3    0    36   11   7    4    2    28   16   58   
1st     PAS Giannina                    26   13   0    0    25   3    9    2    2    28   12   68   
1st     PAS Giannina                    26   11   2    0    32   8    6    4    3    21   10   57   
1st     PAS Giannina                    26   9    2    2    26   13   11   1    1    29   9    63   
2nd     PAS Giannina                    26   8    2    3    29   15   8    4    1    24   11   54   
1st     PAS Giannina                    26   10   3    0    25   6    6    3    4    20   14   54   
1st     PAS Giannina                    26   12   0    1    41   10   8    2    3    28   13   62   
1st     PAS Giannina                    26   11   1    1    32   11   7    3    3    27   15   58   
1st     PAS Giannina                    26   11   1    1    34   10   7    4    2    19   8    59   
1st     PAS Giannina                    26   10   1    2    26   10   10   3    0    29   8    64   
1st     PAS Giannina                    26   10   2    1    34   12   5    7    1    22   16   54   
1st     PAS Giannina                    26   11   1    1    30   10   9    2    2    30   21   63   
1st     PAS Giannina                    26   13   0    0    40   6    9    2    2    32   13   68   
1st     PAS Giannina                    26   13   0    0    34   6    6    4    3    23   14   61   
1st     PAS Giannina                    26   10   2    1    31   9    8    2    3    25   17   58   
2nd     PAS Giannina                    26   10   2    1    35   10   4    6    3    21   18   50   
2nd     PAS Giannina                    26   9    2    2    24   8    7    0    6    19   19   50   
1st     PAS Giannina                    26   9    2    2    30   14   6    4    3    24   13   51   
1st     PAS Giannina                    26   13   0    0    37   9    5    6    2    26   20   60   
1st     PAS Giannina                    26   11   2    0    33   7    8    3    2    25   17   62   
1st     PAS Giannina                    26   9    2    2    31   18   10   2    1    30   17   61   
1st     PAS Giannina                    26   10   2    1    28   11   10   3    0    36   13   65   
1st     PAS Giannina                    26   10   2    1    34   14   7    3    3    19   17   56   
1st     PAS Giannina                    26   11   0    2    29   11   9    2    2    31   18   62   
1st     PAS Giannina                    26   11   1    1    24   7    8    3    2    28   12   61   
1st     PAS Giannina                    26   12   1    0    34   9    7    4    2    29   14   62   
1st     PAS Giannina                    26   12   1    0    36   6    8    3    2    30   15   64   
1st     PAS Giannina                    26   12   1    0    33   10   8    5    0    27   15   66   
1st     PAS Giannina                    26   10   2    1    32   11   10   2    1    35   12   64   
1st     PAS Giannina                    26   9    3    1    38   14   10   3    0    25   9    63   
1st     PAS Giannina                    26   10   2    1    35   12   9    3    1    30   11   62   
1st     PAS Giannina                    26   10   2    1    25   5    6    5    2    27   17   55   
1st     PAS Giannina                    26   11   0    2    37   14   7    5    1    24   14   59   
1st     PAS Giannina                    26   11   1    1    29   7    10   3    0    28   11   67   
1st     PAS Giannina                    26   10   2    1    33   7    9    3    1    29   17   62   
1st     PAS Giannina                    26   12   1    0    35   12   10   3    0    32   12   70   
1st     PAS Giannina                    26   11   1    1    34   12   9    4    0    32   8    65   
1st     PAS Giannina                    26   10   3    0    28   6    9    1    3    26   14   61   
1st     PAS Giannina                    26   11   1    1    34   9    9    3    1    32   13   64   
1st     PAS Giannina                    26   11   1    1    35   9    6    4    3    22   12   56   
1st     PAS Giannina                    26   10   2    1    32   9    7    2    4    22   14   55   
1st     PAS Giannina                    26   13   0    0    44   8    8    2    3    30   14   65   
1st     PAS Giannina                    26   13   0    0    34   2    8    0    5    32   13   63   
2nd     PAS Giannina                    26   8    4    1    29   11   8    3    2    24   9    55   
1st     PAS Giannina                    26   12   1    0    33   7    9    1    3    26   12   65   
1st     PAS Giannina                    26   12   0    1    34   10   9    1    3    27   11   64   
1st     PAS Giannina                    26   10   1    2    33   16   8    4    1    26   13   59   
1st     PAS Giannina                    26   11   2    0    35   7    10   2    1    38   11   67   
1st     PAS Giannina                    26   7    5    1    27   11   10   3    0    29   9    59   
1st     PAS Giannina                    26   12   0    1    35   12   11   1    1    33   13   70   
1st     PAS Giannina                    26   11   1    1    29   11   10   3    0    30   9    67   
1st     PAS Giannina                    26   11   1    1    36   12   10   1    2    18   6    65   
2nd     PAS Giannina                    26   12   0    1    34   10   8    3    2    21   8    63   
1st     PAS Giannina                    26   12   1    0    38   13   6    4    3    25   20   59   
1st     PAS Giannina                    26   11   1    1    28   7    11   2    0    23   9    69   
1st     PAS Giannina                    26   8    3    2    27   9    11   1    1    23   6    61   
1st     PAS Giannina                    26   10   2    1    37   10   7    5    1    21   11   58   
1st     PAS Giannina                    26   10   3    0    35   7    10   1    2    32   14   64   
1st     PAS Giannina                    26   10   2    1    30   9    10   1    2    27   16   63   
1st     PAS Giannina                    26   10   3    0    32   10   9    2    2    19   9    62   
1st     PAS Giannina                    26   13   0    0    34   8    8    3    2    28   13   66   
1st     PAS Giannina                    26   13   0    0    38   11   8    2    3    24   17   65   
1st     PAS Giannina                    26   11   1    1    29   6    9    1    3    25   12   62   