1st      PAS Giannina                    26   10   2    1    27   7    8    3    2    20   11   59
1st      PAS Giannina                    26   13   0    0    28   7    10   2    1    24   6    71
1st      PAS Giannina                    26   10   1    2    37   13   5    3    5    17   15   49
3rd     PAS Giannina                    26   7    3    3    26   13   6    5    2    25   15   47
1st      PAS Giannina                    26   11   2    0    23   5    10   0    3    27   10   65
4th     PAS Giannina                    26   9    3    1    21   8    4    4    5    18   17   46
1st      PAS Giannina                    26   8    5    0    21   7    9    4    0    28   11   60
2nd     PAS Giannina                    26   11   1    1    29   12   5    4    4    20   14   53
1st      PAS Giannina                    26   11   2    0    29   10   6    6    1    24   9    59
1st      PAS Giannina                    26   11   1    1    27   5    11   0    2    31   10   67
1st      PAS Giannina                    26   11   1    1    30   6    9    3    1    27   9    64
1st      PAS Giannina                    26   10   2    1    29   12   10   3    0    28   6    65
1st      PAS Giannina                    26   10   1    2    25   7    10   3    0    23   4    64
1st      PAS Giannina                    26   12   0    1    34   6    8    3    2    26   15   63
1st      PAS Giannina                    26   10   1    2    30   7    11   1    1    23   5    65
1st      PAS Giannina                    26   12   1    0    31   8    8    0    5    20   18   61
1st      PAS Giannina                    26   9    2    2    21   7    10   3    0    25   9    62
1st      PAS Giannina                    26   10   3    0    33   12   6    6    1    21   6    57
1st      PAS Giannina                    26   11   1    1    37   10   6    5    2    15   10   57
1st      PAS Giannina                    26   11   1    1    37   12   7    3    3    16   9    58
1st      PAS Giannina                    26   10   2    1    32   11   7    3    3    19   6    56
1st      PAS Giannina                    26   10   1    2    22   8    8    4    1    22   13   59
4th     PAS Giannina                    26   5    5    3    25   18   4    6    3    17   13   38
1st      PAS Giannina                    26   12   1    0    37   7    6    6    1    20   12   61
2nd     PAS Giannina                    26   8    3    2    22   11   8    2    3    22   9    53
1st      PAS Giannina                    26   11   2    0    25   6    9    2    2    21   9    64
1st      PAS Giannina                    26   11   2    0    26   7    10   3    0    24   5    68
1st      PAS Giannina                    26   9    3    1    31   13   9    4    0    24   11   61
1st      PAS Giannina                    26   10   2    1    28   11   9    3    1    27   10   62
2nd     PAS Giannina                    26   13   0    0    31   9    5    2    6    14   12   56
1st      PAS Giannina                    26   11   1    1    29   8    6    1    6    17   17   53
1st      PAS Giannina                    26   10   2    1    30   10   10   3    0    26   7    65
2nd     PAS Giannina                    26   11   1    1    27   7    6    3    4    23   19   55
1st      PAS Giannina                    26   8    4    1    25   12   8    4    1    22   9    56
1st      PAS Giannina                    26   11   2    0    35   11   5    4    4    17   15   54
1st      PAS Giannina                    26   11   0    2    28   8    7    4    2    17   7    58
1st      PAS Giannina                    26   12   1    0    36   10   6    2    5    15   11   57
1st      PAS Giannina                    26   11   2    0    34   8    8    2    3    27   14   61
1st      PAS Giannina                    26   10   2    1    33   11   8    4    1    21   10   60
1st      PAS Giannina                    26   8    5    0    31   13   8    4    1    22   13   57
1st      PAS Giannina                    26   10   2    1    23   7    8    1    4    22   12   57
3rd     PAS Giannina                    26   10   3    0    27   11   3    5    5    18   18   47
1st      PAS Giannina                    26   9    4    0    28   11   8    4    1    15   5    59
1st      PAS Giannina                    26   10   1    2    26   8    7    4    2    14   8    56
1st      PAS Giannina                    26   12   0    1    31   10   9    0    4    29   14   63
1st      PAS Giannina                    26   11   1    1    31   8    8    4    1    23   8    62
2nd     PAS Giannina                    26   9    1    3    27   11   7    3    3    19   11   52
2nd     PAS Giannina                    26   9    1    3    28   8    6    5    2    23   16   51
1st      PAS Giannina                    26   9    4    0    27   9    10   0    3    23   9    61
1st      PAS Giannina                    26   11   2    0    27   5    9    2    2    23   10   64
1st      PAS Giannina                    26   11   2    0    28   7    8    0    5    17   14   59
1st      PAS Giannina                    26   12   1    0    33   6    9    1    3    29   10   65
1st      PAS Giannina                    26   13   0    0    27   5    11   1    1    26   7    73
1st      PAS Giannina                    26   10   3    0    27   8    10   2    1    29   10   65
1st      PAS Giannina                    26   12   1    0    32   7    9    2    2    24   8    66
1st      PAS Giannina                    26   11   2    0    33   12   7    3    3    21   10   59
2nd     PAS Giannina                    26   10   2    1    24   8    5    3    5    20   15   50
2nd     PAS Giannina                    26   10   2    1    32   11   5    4    4    25   15   51
1st      PAS Giannina                    26   8    3    2    27   12   7    6    0    25   8    54
1st      PAS Giannina                    26   9    3    1    27   11   8    4    1    23   8    58
1st      PAS Giannina                    26   11   1    1    29   9    8    4    1    26   15   62
1st      PAS Giannina                    26   9    3    1    28   14   6    5    2    21   10   53
2nd     PAS Giannina                    26   11   2    0    32   8    6    4    3    24   16   57
1st      PAS Giannina                    26   11   2    0    37   9    6    3    4    17   15   56
1st      PAS Giannina                    26   7    3    3    23   17   10   2    1    23   11   56
1st      PAS Giannina                    26   7    5    1    25   12   7    4    2    21   8    51
2nd     PAS Giannina                    26   10   2    1    29   9    4    4    5    16   15   48
1st      PAS Giannina                    26   7    6    0    25   10   9    4    0    28   10   58
2nd     PAS Giannina                    26   8    3    2    21   10   9    4    0    26   10   58
1st      PAS Giannina                    26   10   2    1    28   13   10   2    1    34   9    64
1st      PAS Giannina                    26   10   3    0    28   6    8    3    2    24   15   60
1st      PAS Giannina                    26   12   1    0    38   6    6    3    4    18   13   58
1st      PAS Giannina                    26   9    4    0    27   9    8    1    4    24   14   56
2nd     PAS Giannina                    26   8    5    0    28   10   5    4    4    21   17   48
1st      PAS Giannina                    26   11   2    0    34   11   7    2    4    20   11   58
1st      PAS Giannina                    26   11   2    0    32   9    7    4    2    19   10   60
1st      PAS Giannina                    26   8    2    3    26   14   7    2    4    18   8    49
1st      PAS Giannina                    26   10   2    1    26   5    11   0    2    31   8    65
1st      PAS Giannina                    26   9    4    0    25   9    9    4    0    26   13   62
2nd     PAS Giannina                    26   11   1    1    30   9    8    2    3    22   10   60
1st      PAS Giannina                    26   11   1    1    33   7    9    2    2    21   10   63
3rd     PAS Giannina                    26   10   1    2    32   15   5    3    5    19   13   49
2nd     PAS Giannina                    26   8    5    0    32   12   8    3    2    25   10   56
1st      PAS Giannina                    26   11   1    1    30   7    8    4    1    27   13   62
2nd     PAS Giannina                    26   8    2    3    25   15   7    3    3    22   15   50
1st      PAS Giannina                    26   11   2    0    29   7    6    2    5    16   13   55
1st      PAS Giannina                    26   10   3    0    35   8    10   0    3    24   9    63
1st      PAS Giannina                    26   9    4    0    27   10   10   1    2    29   12   62
1st      PAS Giannina                    26   10   1    2    33   13   8    3    2    24   12   58
1st      PAS Giannina                    26   9    4    0    25   6    8    3    2    30   15   58
1st      PAS Giannina                    26   10   3    0    23   9    6    4    3    20   10   55
1st      PAS Giannina                    26   12   1    0    29   7    10   0    3    26   14   67
1st      PAS Giannina                    26   8    2    3    24   11   7    5    1    19   7    52
2nd     PAS Giannina                    26   9    3    1    24   11   8    4    1    20   10   58
1st      PAS Giannina                    26   10   2    1    30   13   10   1    2    24   12   63
1st      PAS Giannina                    26   8    4    1    29   12   9    4    0    26   11   59
1st      PAS Giannina                    26   9    2    2    20   8    8    2    3    18   11   55
2nd     PAS Giannina                    26   8    3    2    20   11   6    3    4    15   11   48
1st      PAS Giannina                    26   8    4    1    22   7    9    3    1    24   9    58
1st      PAS Giannina                    26   11   1    1    35   11   10   2    1    24   9    66