2nd     PAS Giannina                    26   10   1    2    30   10   5    3    5    12   16   49
11th    PAS Giannina                    26   5    5    3    18   14   3    1    9    16   26   30
11th    PAS Giannina                    26   5    5    3    17   12   3    2    8    14   25   31
6th     PAS Giannina                    26   7    3    3    14   10   3    2    8    12   26   35
7th     PAS Giannina                    26   6    5    2    21   14   3    3    7    12   20   35
4th     PAS Giannina                    26   7    2    4    21   15   6    4    3    21   13   45
12th    PAS Giannina                    26   4    2    7    15   18   4    1    8    13   19   27
7th     PAS Giannina                    26   7    2    4    19   14   1    8    4    14   18   34
3rd     PAS Giannina                    26   8    3    2    20   8    6    2    5    14   17   47
6th     PAS Giannina                    26   6    4    3    22   18   5    1    7    15   17   38
4th     PAS Giannina                    26   8    2    3    25   14   4    3    6    12   16   41
4th     PAS Giannina                    26   8    3    2    22   12   4    3    6    11   17   42
13th     PAS Giannina                    26   7    2    4    17   15   1    2    10   9    24   28
10th    PAS Giannina                    26   4    4    5    16   18   4    5    4    11   14   33
8th     PAS Giannina                    26   5    4    4    17   15   4    2    7    13   20   33
6th     PAS Giannina                    26   8    2    3    27   16   3    3    7    15   26   38
6th     PAS Giannina                    26   10   1    2    27   13   0    4    9    6    23   35
13th     PAS Giannina                    26   3    4    6    18   24   1    4    8    13   21   20
12th    PAS Giannina                    26   4    5    4    21   23   2    4    7    10   18   27
8th     PAS Giannina                    26   4    5    4    21   18   5    3    5    12   11   35
8th     PAS Giannina                    26   6    5    2    20   12   2    4    7    12   21   33
6th     PAS Giannina                    26   8    3    2    27   18   4    2    7    13   14   41
13th     PAS Giannina                    26   2    6    5    13   16   3    6    4    12   14   27
12th    PAS Giannina                    26   6    3    4    21   16   2    3    8    15   19   30
8th     PAS Giannina                    26   9    1    3    24   10   1    3    9    8    24   34
6th     PAS Giannina                    26   7    4    2    26   18   3    4    6    13   21   38
10th    PAS Giannina                    26   5    6    2    27   20   1    6    6    13   22   30
11th    PAS Giannina                    26   6    4    3    19   15   1    5    7    16   24   30
10th    PAS Giannina                    26   6    5    2    21   12   2    2    9    11   20   31
4th     PAS Giannina                    26   6    3    4    18   15   6    4    3    20   15   43
14th     PAS Giannina                    26   2    2    9    12   23   2    5    6    12   18   19
9th     PAS Giannina                    26   7    3    3    22   14   3    2    8    15   24   35
7th     PAS Giannina                    26   6    3    4    20   13   2    4    7    10   16   31
9th     PAS Giannina                    26   6    2    5    20   17   3    3    7    15   21   32
3rd     PAS Giannina                    26   10   3    0    30   10   3    4    6    10   17   46
4th     PAS Giannina                    26   10   1    2    26   11   2    7    4    13   15   44
11th    PAS Giannina                    26   8    2    3    20   13   1    4    8    14   26   33
11th    PAS Giannina                    26   6    3    4    17   13   0    5    8    10   18   26
3rd     PAS Giannina                    26   7    3    3    21   15   6    2    5    15   14   44
13th     PAS Giannina                    26   4    3    6    22   21   0    2    11   6    23   17
9th     PAS Giannina                    26   4    5    4    16   12   3    4    6    13   16   30
11th    PAS Giannina                    26   6    1    6    20   20   2    6    5    17   20   31
2nd     PAS Giannina                    26   6    4    3    21   17   4    5    4    10   10   39
7th     PAS Giannina                    26   8    3    2    25   16   2    2    9    15   22   35
5th     PAS Giannina                    26   8    1    4    19   13   3    6    4    15   20   40
8th     PAS Giannina                    26   6    5    2    22   17   3    3    7    13   21   35
12th    PAS Giannina                    26   5    4    4    15   14   1    5    7    11   22   27
8th     PAS Giannina                    26   6    4    3    19   13   3    3    7    10   19   34
12th    PAS Giannina                    26   6    1    6    21   21   3    0    10   11   20   28
5th     PAS Giannina                    26   11   0    2    26   8    2    3    8    13   22   42
8th     PAS Giannina                    26   9    3    1    24   12   2    1    10   10   26   37
11th    PAS Giannina                    26   6    5    2    19   14   1    3    9    9    18   29
4th     PAS Giannina                    26   9    2    2    24   13   3    2    8    12   17   40
2nd     PAS Giannina                    26   5    6    2    18   12   6    3    4    20   16   42
8th     PAS Giannina                    26   7    4    2    18   13   1    8    4    10   13   36
8th     PAS Giannina                    26   7    3    3    18   11   2    3    8    10   21   33
6th     PAS Giannina                    26   10   1    2    26   11   2    2    9    10   21   39
11th    PAS Giannina                    26   6    3    4    14   9    1    4    8    12   22   28
9th     PAS Giannina                    26   5    1    7    17   15   3    3    7    14   21   28
9th     PAS Giannina                    26   5    4    4    19   15   2    5    6    6    15   30
3rd     PAS Giannina                    26   9    3    1    26   11   2    5    6    12   19   41
4th     PAS Giannina                    26   8    3    2    23   13   3    4    6    15   18   40
4th     PAS Giannina                    26   6    4    3    22   13   5    4    4    20   18   41
10th    PAS Giannina                    26   7    3    3    21   13   0    4    9    9    21   28
11th    PAS Giannina                    26   4    6    3    23   18   2    6    5    11   19   30
6th     PAS Giannina                    26   8    2    3    26   16   3    2    8    11   22   37
9th     PAS Giannina                    26   8    3    2    24   17   1    4    8    4    18   34
4th     PAS Giannina                    26   8    2    3    26   20   4    4    5    17   24   42
5th     PAS Giannina                    26   9    4    0    21   7    2    2    9    13   24   39
4th     PAS Giannina                    26   7    2    4    22   12   4    5    4    15   14   40
11th    PAS Giannina                    26   4    6    3    19   16   3    3    7    15   27   30
6th     PAS Giannina                    26   9    1    3    26   13   3    4    6    11   19   41
5th     PAS Giannina                    26   9    3    1    26   15   2    3    8    12   19   39
9th     PAS Giannina                    26   8    1    4    25   18   2    4    7    12   21   35
7th     PAS Giannina                    26   6    4    3    17   14   3    6    4    18   19   37
5th     PAS Giannina                    26   9    2    2    21   11   2    3    8    16   23   38
4th     PAS Giannina                    26   9    4    0    28   13   4    1    8    15   23   44
3rd     PAS Giannina                    26   10   1    2    20   7    4    2    7    11   20   45
1st     PAS Giannina                    26   9    3    1    35   14   4    4    5    13   15   46
6th     PAS Giannina                    26   7    2    4    26   19   3    5    5    13   14   37
9th     PAS Giannina                    26   9    2    2    20   9    1    2    10   9    29   34
5th     PAS Giannina                    26   6    4    3    16   13   4    6    3    17   18   40
10th    PAS Giannina                    26   6    2    5    21   15   2    3    8    12   22   29
6th     PAS Giannina                    26   7    2    4    19   10   3    3    7    11   21   35
12th    PAS Giannina                    26   6    2    5    15   11   2    2    9    14   24   28
14th     PAS Giannina                    26   5    1    7    17   16   1    5    7    13   21   24
9th     PAS Giannina                    26   7    3    3    21   12   2    4    7    10   22   34
8th     PAS Giannina                    26   8    2    3    21   12   1    5    7    7    20   34
6th     PAS Giannina                    26   6    3    4    25   16   5    3    5    20   17   39
8th     PAS Giannina                    26   5    5    3    23   18   3    5    5    12   20   34
9th     PAS Giannina                    26   8    4    1    31   16   1    3    9    9    22   34
13th     PAS Giannina                    26   7    1    5    22   19   0    3    10   6    18   25
5th     PAS Giannina                    26   10   3    0    27   9    2    2    9    12   23   41
6th     PAS Giannina                    26   9    3    1    24   12   2    3    8    10   22   39
9th     PAS Giannina                    26   4    5    4    20   18   4    3    6    16   17   32
3rd     PAS Giannina                    26   12   0    1    28   11   2    2    9    11   22   44
7th     PAS Giannina                    26   4    6    3    19   15   4    5    4    15   14   35
11th    PAS Giannina                    26   7    2    4    23   14   1    1    11   9    23   27
10th    PAS Giannina                    26   6    5    2    25   17   1    4    8    11   22   30
7th     PAS Giannina                    26   4    4    5    17   19   6    2    5    17   17   36