1st     PAS Giannina                    26   10   3    0    40   15   6    5    2    21   13   56   
1st     PAS Giannina                    26   11   0    2    32   9    12   0    1    35   9    69   
1st     PAS Giannina                    26   11   2    0    32   7    7    2    4    25   15   58   
1st     PAS Giannina                    26   8    2    3    29   9    11   1    1    34   9    60   
1st     PAS Giannina                    26   10   2    1    36   10   10   3    0    32   9    65   
1st     PAS Giannina                    26   11   2    0    34   8    9    3    1    32   10   65   
1st     PAS Giannina                    26   9    3    1    27   10   11   0    2    35   14   63   
1st     PAS Giannina                    26   11   1    1    33   7    8    3    2    28   14   61   
1st     PAS Giannina                    26   11   1    1    32   8    5    4    4    23   19   53   
1st     PAS Giannina                    26   10   2    1    34   11   9    3    1    32   14   62   
1st     PAS Giannina                    26   9    3    1    27   13   9    3    1    37   13   60   
1st     PAS Giannina                    26   12   0    1    35   12   11   2    0    31   13   71   
1st     PAS Giannina                    26   10   1    2    22   5    9    1    3    29   12   59   
1st     PAS Giannina                    26   11   2    0    30   8    11   1    1    36   15   69   
1st     PAS Giannina                    26   7    6    0    26   8    9    2    2    36   13   56   
2nd     PAS Giannina                    26   10   1    2    24   10   9    2    2    28   12   60   
1st     PAS Giannina                    26   11   1    1    36   12   10   2    1    27   12   66   
1st     PAS Giannina                    26   12   1    0    29   7    10   0    3    29   15   67   
1st     PAS Giannina                    26   11   1    1    37   15   10   3    0    28   9    67   
1st     PAS Giannina                    26   11   2    0    37   12   12   0    1    30   7    71   
1st     PAS Giannina                    26   11   2    0    34   11   11   1    1    32   15   69   
1st     PAS Giannina                    26   10   0    3    31   10   9    2    2    29   13   59   
1st     PAS Giannina                    26   10   3    0    33   12   11   2    0    30   5    68   
1st     PAS Giannina                    26   11   1    1    36   12   10   3    0    37   15   67   
1st     PAS Giannina                    26   11   1    1    31   7    11   1    1    37   9    68   
1st     PAS Giannina                    26   13   0    0    35   6    8    1    4    30   15   64   
1st     PAS Giannina                    26   12   1    0    37   10   13   0    0    28   7    76   
1st     PAS Giannina                    26   11   1    1    37   12   11   0    2    34   12   67   
1st     PAS Giannina                    26   11   2    0    33   10   7    4    2    31   14   60   
1st     PAS Giannina                    26   12   1    0    33   9    11   0    2    31   11   70   
1st     PAS Giannina                    26   10   2    1    35   9    11   1    1    36   8    66   
1st     PAS Giannina                    26   11   2    0    28   10   12   0    1    27   7    71   
1st     PAS Giannina                    26   12   0    1    38   8    7    4    2    26   11   61   
1st     PAS Giannina                    26   11   1    1    37   10   9    1    3    32   10   62   
1st     PAS Giannina                    26   10   3    0    30   9    11   0    2    30   8    66   
1st     PAS Giannina                    26   10   3    0    34   13   10   1    2    27   11   64   
1st     PAS Giannina                    26   12   0    1    41   14   10   3    0    30   10   69   
1st     PAS Giannina                    26   11   0    2    34   11   9    3    1    29   8    63   
1st     PAS Giannina                    26   12   0    1    39   8    10   2    1    28   12   68   
1st     PAS Giannina                    26   9    3    1    38   17   8    3    2    29   11   57   
1st     PAS Giannina                    26   11   1    1    32   9    9    3    1    27   7    64   
1st     PAS Giannina                    26   12   1    0    35   8    8    2    3    30   13   63   
1st     PAS Giannina                    26   10   2    1    28   10   11   2    0    29   11   67   
2nd     PAS Giannina                    26   8    3    2    34   14   9    3    1    29   11   57   
1st     PAS Giannina                    26   11   2    0    32   10   10   3    0    31   11   68   
1st     PAS Giannina                    26   10   2    1    36   8    9    1    3    32   15   60   
1st     PAS Giannina                    26   12   1    0    39   5    10   2    1    34   13   69   
1st     PAS Giannina                    26   12   1    0    31   7    9    3    1    30   14   67   
1st     PAS Giannina                    26   10   3    0    27   11   10   3    0    31   10   66   
1st     PAS Giannina                    26   11   1    1    23   8    9    1    3    26   11   62   
1st     PAS Giannina                    26   9    2    2    32   14   9    2    2    31   15   58   
1st     PAS Giannina                    26   11   2    0    29   7    9    3    1    25   10   65   
1st     PAS Giannina                    26   12   1    0    38   17   9    0    4    33   13   64   
1st     PAS Giannina                    26   10   2    1    29   11   9    3    1    30   10   62   
1st     PAS Giannina                    26   10   2    1    27   7    10   2    1    35   13   64   
1st     PAS Giannina                    26   13   0    0    37   7    8    3    2    43   22   66   
1st     PAS Giannina                    26   12   0    1    35   11   11   1    1    30   13   70   
3rd     PAS Giannina                    26   8    1    4    26   15   6    3    4    24   14   46   
1st     PAS Giannina                    26   13   0    0    36   6    11   1    1    34   9    73   
1st     PAS Giannina                    26   9    3    1    31   11   9    3    1    34   13   60   
1st     PAS Giannina                    26   10   3    0    33   11   9    4    0    35   12   64   
1st     PAS Giannina                    26   9    4    0    33   10   12   1    0    31   8    68   
1st     PAS Giannina                    26   12   1    0    35   5    9    3    1    32   15   67   
1st     PAS Giannina                    26   12   1    0    27   7    11   2    0    33   11   72   
1st     PAS Giannina                    26   11   1    1    35   9    6    5    2    27   15   57   
1st     PAS Giannina                    26   9    3    1    26   14   9    0    4    20   10   57   
2nd     PAS Giannina                    26   10   2    1    28   8    6    6    1    26   15   56   
1st     PAS Giannina                    26   10   2    1    42   13   9    2    2    27   10   61   
1st     PAS Giannina                    26   11   0    2    33   8    10   2    1    29   13   65   
1st     PAS Giannina                    26   10   1    2    31   10   11   1    1    30   10   65   
2nd     PAS Giannina                    26   7    4    2    28   19   11   1    1    34   12   59   
2nd     PAS Giannina                    26   9    3    1    23   7    9    0    4    17   8    57   
1st     PAS Giannina                    26   11   1    1    30   9    10   2    1    37   10   66   
1st     PAS Giannina                    26   10   3    0    36   12   10   1    2    29   11   64   
1st     PAS Giannina                    26   10   3    0    29   10   8    3    2    23   13   60   
1st     PAS Giannina                    26   12   0    1    33   6    11   1    1    36   12   70   
1st     PAS Giannina                    26   13   0    0    40   9    6    5    2    23   16   62   
2nd     PAS Giannina                    26   11   1    1    32   8    6    3    4    23   13   55   
1st     PAS Giannina                    26   12   1    0    30   9    10   3    0    29   11   70   
1st     PAS Giannina                    26   11   1    1    35   10   10   3    0    27   11   67   
1st     PAS Giannina                    26   10   1    2    33   11   10   2    1    24   8    63   
1st     PAS Giannina                    26   10   3    0    35   11   10   1    2    28   8    64   
1st     PAS Giannina                    26   11   1    1    32   11   11   1    1    31   11   68   
1st     PAS Giannina                    26   12   1    0    37   6    11   0    2    34   9    70   
1st     PAS Giannina                    26   11   2    0    31   11   10   1    2    37   15   66   
1st     PAS Giannina                    26   12   1    0    35   9    10   1    2    36   12   68   
1st     PAS Giannina                    26   10   2    1    31   13   10   3    0    35   10   65   
1st     PAS Giannina                    26   12   0    1    31   12   12   0    1    33   13   72   
1st     PAS Giannina                    26   11   2    0    34   13   9    3    1    27   7    65   
1st     PAS Giannina                    26   10   1    2    30   8    9    1    3    26   9    59   
1st     PAS Giannina                    26   11   1    1    36   7    8    3    2    27   13   61   
1st     PAS Giannina                    26   10   3    0    31   9    9    3    1    30   10   63   
1st     PAS Giannina                    26   10   2    1    35   16   12   1    0    30   8    69   
1st     PAS Giannina                    26   12   1    0    35   11   9    0    4    33   15   64   
1st     PAS Giannina                    26   13   0    0    35   8    9    3    1    30   11   69   
1st     PAS Giannina                    26   12   0    1    33   7    6    4    3    22   19   58   
1st     PAS Giannina                    26   12   0    1    33   10   9    3    1    38   16   66   
1st     PAS Giannina                    26   13   0    0    41   6    9    2    2    34   14   68   
1st     PAS Giannina                    26   11   2    0    33   8    12   1    0    27   4    72   
1st     PAS Giannina                    26   10   3    0    27   5    7    1    5    27   15   55   