1st     PAS Giannina                    26   13   0    0    51   16   10   2    1    30   13   71   
1st     PAS Giannina                    26   10   2    1    40   15   9    0    4    27   17   59   
1st     PAS Giannina                    26   12   1    0    48   17   10   3    0    41   17   70   
1st     PAS Giannina                    26   10   3    0    41   9    7    2    4    30   17   56   
1st     PAS Giannina                    26   11   2    0    33   11   11   2    0    33   12   70   
1st     PAS Giannina                    26   12   1    0    43   19   7    2    4    24   14   60   
1st     PAS Giannina                    26   11   2    0    42   12   10   3    0    33   12   68   
1st     PAS Giannina                    26   13   0    0    46   14   9    2    2    37   17   68   
1st     PAS Giannina                    26   12   1    0    44   17   11   1    1    38   13   71   
1st     PAS Giannina                    26   10   3    0    35   6    11   1    1    33   16   67   
1st     PAS Giannina                    26   13   0    0    50   15   9    3    1    39   15   69   
1st     PAS Giannina                    26   11   1    1    45   18   9    3    1    35   16   64   
1st     PAS Giannina                    26   12   1    0    48   16   10   2    1    42   17   69   
1st     PAS Giannina                    26   12   0    1    46   19   9    3    1    33   14   66   
1st     PAS Giannina                    26   13   0    0    41   10   7    2    4    30   13   62   
1st     PAS Giannina                    26   12   1    0    39   14   7    4    2    36   22   62   
1st     PAS Giannina                    26   11   1    1    38   15   9    2    2    30   15   63   
1st     PAS Giannina                    26   12   1    0    39   12   9    2    2    30   14   66   
1st     PAS Giannina                    26   9    1    3    41   22   9    3    1    30   12   58   
1st     PAS Giannina                    26   9    2    2    40   15   8    3    2    26   13   56   
1st     PAS Giannina                    26   12   1    0    42   13   9    3    1    37   21   67   
1st     PAS Giannina                    26   13   0    0    43   14   8    4    1    35   16   67   
1st     PAS Giannina                    26   11   1    1    47   15   11   1    1    37   14   68   
1st     PAS Giannina                    26   10   1    2    42   18   7    3    3    24   19   55   
1st     PAS Giannina                    26   10   3    0    34   15   9    3    1    35   16   63   
1st     PAS Giannina                    26   9    3    1    36   21   7    4    2    28   19   55   
1st     PAS Giannina                    26   9    3    1    37   10   8    4    1    26   13   58   
1st     PAS Giannina                    26   12   1    0    48   17   10   1    2    27   10   68   
1st     PAS Giannina                    26   13   0    0    50   17   7    2    4    31   22   62   
1st     PAS Giannina                    26   11   2    0    49   14   7    2    4    30   20   58   
1st     PAS Giannina                    26   11   1    1    36   12   7    4    2    33   19   59   
1st     PAS Giannina                    26   11   2    0    46   17   6    6    1    28   17   59   
1st     PAS Giannina                    26   13   0    0    45   10   11   1    1    30   8    73   
1st     PAS Giannina                    26   13   0    0    44   9    9    4    0    33   17   70   
1st     PAS Giannina                    26   11   1    1    38   10   8    2    3    30   21   60   
1st     PAS Giannina                    26   11   0    2    41   17   8    1    4    33   18   58   
1st     PAS Giannina                    26   9    1    3    42   25   6    1    6    27   23   47   
1st     PAS Giannina                    26   11   2    0    46   15   10   3    0    38   14   68   
1st     PAS Giannina                    26   10   3    0    39   15   10   3    0    34   16   66   
2nd     PAS Giannina                    26   9    4    0    40   20   8    3    2    28   15   58   
2nd     PAS Giannina                    26   10   3    0    43   14   6    4    3    30   21   55   
1st     PAS Giannina                    26   12   0    1    46   15   9    1    3    41   21   64   
1st     PAS Giannina                    26   11   1    1    37   18   11   1    1    44   15   68   
1st     PAS Giannina                    26   8    4    1    38   24   12   1    0    37   9    65   
1st     PAS Giannina                    26   11   0    2    33   15   9    1    3    34   19   61   
1st     PAS Giannina                    26   13   0    0    45   19   10   1    2    42   15   70   
2nd     PAS Giannina                    26   11   1    1    42   17   6    4    3    30   24   56   
1st     PAS Giannina                    26   10   3    0    43   18   9    1    3    35   20   61   
1st     PAS Giannina                    26   12   1    0    48   17   8    4    1    34   17   65   
1st     PAS Giannina                    26   11   1    1    41   16   9    3    1    28   15   64   
1st     PAS Giannina                    26   12   1    0    55   17   6    5    2    25   19   60   
1st     PAS Giannina                    26   11   2    0    32   7    5    5    3    26   20   55   
1st     PAS Giannina                    26   10   2    1    44   24   11   0    2    39   18   65   
1st     PAS Giannina                    26   10   1    2    37   21   11   1    1    27   14   65   
1st     PAS Giannina                    26   9    2    2    38   19   9    3    1    32   16   59   
1st     PAS Giannina                    26   8    4    1    34   20   9    1    3    39   24   56   
2nd     PAS Giannina                    26   12   1    0    40   14   6    4    3    24   21   59   
1st     PAS Giannina                    26   11   0    2    43   18   10   2    1    35   13   65   
1st     PAS Giannina                    26   12   1    0    46   10   7    2    4    34   19   60   
1st     PAS Giannina                    26   9    3    1    46   19   8    5    0    34   15   59   
1st     PAS Giannina                    26   11   0    2    48   20   6    4    3    32   22   55   
1st     PAS Giannina                    26   12   1    0    42   16   9    3    1    29   13   67   
1st     PAS Giannina                    26   10   1    2    42   18   10   2    1    34   17   63   
1st     PAS Giannina                    26   12   1    0    41   8    9    2    2    37   23   66   
1st     PAS Giannina                    26   10   3    0    42   14   10   3    0    37   13   66   
1st     PAS Giannina                    26   10   0    3    42   22   10   2    1    32   14   62   
1st     PAS Giannina                    26   12   1    0    42   17   11   2    0    38   17   72   
1st     PAS Giannina                    26   10   1    2    43   18   11   0    2    29   9    64   
1st     PAS Giannina                    26   11   1    1    43   18   9    2    2    30   7    63   
2nd     PAS Giannina                    26   11   2    0    46   17   5    3    5    30   25   53   
1st     PAS Giannina                    26   11   1    1    43   20   9    2    2    32   15   63   
1st     PAS Giannina                    26   12   1    0    44   11   7    5    1    30   17   63   
1st     PAS Giannina                    26   11   1    1    41   18   8    4    1    27   12   62   
1st     PAS Giannina                    26   10   3    0    42   20   7    3    3    37   25   57   
1st     PAS Giannina                    26   12   1    0    46   15   10   2    1    32   17   69   
1st     PAS Giannina                    26   12   1    0    43   18   8    4    1    28   16   65   
1st     PAS Giannina                    26   12   1    0    43   13   10   0    3    33   16   67   
1st     PAS Giannina                    26   13   0    0    45   9    9    1    3    30   19   67   
1st     PAS Giannina                    26   11   2    0    42   15   9    2    2    32   16   64   
1st     PAS Giannina                    26   13   0    0    40   9    8    3    2    37   18   66   
1st     PAS Giannina                    26   11   1    1    42   11   7    3    3    26   13   58   
1st     PAS Giannina                    26   11   0    2    42   16   7    3    3    34   21   57   
1st     PAS Giannina                    26   12   1    0    39   14   9    0    4    34   17   64   
1st     PAS Giannina                    26   11   2    0    42   16   9    1    3    28   14   63   
1st     PAS Giannina                    26   11   0    2    34   10   7    2    4    24   21   56   
1st     PAS Giannina                    26   12   0    1    46   12   8    4    1    33   13   64   
1st     PAS Giannina                    26   12   1    0    33   10   9    1    3    38   20   65   
1st     PAS Giannina                    26   13   0    0    43   9    8    2    3    31   17   65   
1st     PAS Giannina                    26   8    4    1    30   18   8    2    3    33   19   54   
1st     PAS Giannina                    26   12   1    0    43   15   12   1    0    37   10   74   
1st     PAS Giannina                    26   12   0    1    51   15   7    5    1    35   17   62   
1st     PAS Giannina                    26   10   1    2    41   19   13   0    0    37   12   70   
1st     PAS Giannina                    26   9    3    1    32   8    8    3    2    27   16   57   
1st     PAS Giannina                    26   12   1    0    46   14   5    5    3    23   18   57   
1st     PAS Giannina                    26   10   2    1    39   14   9    1    3    27   13   60   
1st     PAS Giannina                    26   11   2    0    48   19   10   2    1    38   18   67   
1st     PAS Giannina                    26   9    3    1    40   14   10   0    3    35   20   60   
1st     PAS Giannina                    26   12   0    1    42   13   11   1    1    40   15   70   
1st     PAS Giannina                    26   11   1    1    39   15   10   3    0    34   12   67   
1st     PAS Giannina                    26   12   1    0    38   13   9    2    2    30   16   66   