1st     PAS Giannina                    26   12   1    0    43   17   8    2    3    25   19   63   
1st     PAS Giannina                    26   12   0    1    31   11   9    1    3    23   10   64   
2nd     PAS Giannina                    26   10   2    1    36   12   5    4    4    28   21   51   
1st     PAS Giannina                    26   10   1    2    35   14   8    1    4    21   13   56   
1st     PAS Giannina                    26   12   1    0    31   8    11   1    1    42   18   71   
1st     PAS Giannina                    26   11   1    1    42   13   7    4    2    28   15   59   
3rd     PAS Giannina                    26   9    3    1    32   14   6    2    5    33   30   50   
1st     PAS Giannina                    26   11   2    0    43   13   11   2    0    30   13   70   
1st     PAS Giannina                    26   11   1    1    35   15   9    0    4    37   21   61   
2nd     PAS Giannina                    26   10   1    2    34   19   7    3    3    25   17   55   
1st     PAS Giannina                    26   12   1    0    34   6    7    4    2    30   20   62   
1st     PAS Giannina                    26   10   3    0    44   14   8    2    3    27   13   59   
1st     PAS Giannina                    26   11   1    1    33   17   8    3    2    28   17   61   
1st     PAS Giannina                    26   12   1    0    37   6    6    4    3    24   18   59   
1st     PAS Giannina                    26   9    3    1    39   16   9    2    2    27   15   59   
2nd     PAS Giannina                    26   8    4    1    35   18   7    5    1    29   17   54   
1st     PAS Giannina                    26   11   1    1    35   10   6    3    4    25   15   55   
1st     PAS Giannina                    26   12   0    1    37   12   7    4    2    26   17   61   
1st     PAS Giannina                    26   12   1    0    37   13   6    1    6    23   19   56   
1st     PAS Giannina                    26   12   1    0    36   15   9    1    3    20   10   65   
1st     PAS Giannina                    26   13   0    0    38   7    10   2    1    34   11   71   
1st     PAS Giannina                    26   12   1    0    32   10   6    3    4    26   18   58   
2nd     PAS Giannina                    26   10   0    3    39   13   4    3    6    20   19   45   
1st     PAS Giannina                    26   11   2    0    40   11   8    2    3    29   22   61   
1st     PAS Giannina                    26   11   1    1    34   12   9    1    3    29   12   62   
1st     PAS Giannina                    26   12   1    0    33   4    7    2    4    24   11   60   
2nd     PAS Giannina                    26   10   3    0    37   13   5    3    5    20   20   51   
1st     PAS Giannina                    26   7    4    2    30   11   8    2    3    23   15   51   
4th     PAS Giannina                    26   8    3    2    31   17   6    2    5    24   22   47   
1st     PAS Giannina                    26   9    3    1    34   17   6    6    1    25   14   54   
1st     PAS Giannina                    26   11   1    1    42   18   7    5    1    23   13   60   
1st     PAS Giannina                    26   11   1    1    42   16   7    5    1    28   17   60   
1st     PAS Giannina                    26   12   1    0    36   11   9    4    0    31   17   68   
1st     PAS Giannina                    26   9    0    4    32   19   8    3    2    29   15   54   
1st     PAS Giannina                    26   13   0    0    38   12   4    7    2    21   17   58   
3rd     PAS Giannina                    26   7    4    2    26   17   5    3    5    23   21   43   
2nd     PAS Giannina                    26   8    3    2    36   16   8    3    2    29   21   54   
2nd     PAS Giannina                    26   10   3    0    27   6    5    5    3    24   19   53   
1st     PAS Giannina                    26   10   3    0    35   9    5    4    4    18   15   52   
1st     PAS Giannina                    26   11   0    2    38   12   8    3    2    27   18   60   
2nd     PAS Giannina                    26   9    3    1    30   9    8    1    4    28   19   55   
1st     PAS Giannina                    26   12   1    0    45   9    6    4    3    23   16   59   
2nd     PAS Giannina                    26   11   2    0    39   12   4    4    5    15   16   51   
1st     PAS Giannina                    26   11   1    1    36   14   8    2    3    26   16   60   
2nd     PAS Giannina                    26   7    5    1    34   15   7    5    1    23   14   52   
2nd     PAS Giannina                    26   8    2    3    30   19   8    1    4    24   17   51   
1st     PAS Giannina                    26   11   2    0    34   14   8    4    1    31   14   63   
1st     PAS Giannina                    26   12   1    0    37   11   12   1    0    25   7    74   
2nd     PAS Giannina                    26   9    3    1    34   18   7    2    4    18   11   53   
2nd     PAS Giannina                    26   12   1    0    45   11   7    4    2    25   16   62   
1st     PAS Giannina                    26   9    4    0    38   13   8    2    3    26   16   57   
2nd     PAS Giannina                    26   11   1    1    41   16   6    6    1    25   13   58   
1st     PAS Giannina                    26   12   0    1    40   11   8    2    3    28   20   62   
2nd     PAS Giannina                    26   11   1    1    37   14   4    4    5    26   25   50   
1st     PAS Giannina                    26   11   0    2    38   20   9    0    4    28   15   60   
1st     PAS Giannina                    26   11   2    0    36   13   6    6    1    23   15   59   
1st     PAS Giannina                    26   9    3    1    38   20   9    1    3    27   8    58   
1st     PAS Giannina                    26   12   1    0    26   7    9    2    2    25   13   66   
1st     PAS Giannina                    26   11   2    0    41   15   7    4    2    26   16   60   
1st     PAS Giannina                    26   13   0    0    46   12   2    5    6    20   24   50   
1st     PAS Giannina                    26   13   0    0    40   19   9    3    1    30   16   69   
1st     PAS Giannina                    26   10   1    2    37   17   7    2    4    27   19   54   
1st     PAS Giannina                    26   11   2    0    43   15   9    2    2    24   15   64   
1st     PAS Giannina                    26   11   2    0    44   10   10   2    1    26   7    67   
1st     PAS Giannina                    26   9    2    2    37   17   11   2    0    30   10   64   
2nd     PAS Giannina                    26   10   1    2    29   10   9    2    2    32   9    60   
2nd     PAS Giannina                    26   8    3    2    26   13   7    0    6    19   15   48   
1st     PAS Giannina                    26   10   1    2    38   14   8    4    1    33   11   59   
1st     PAS Giannina                    26   8    4    1    27   14   4    4    5    21   20   44   
1st     PAS Giannina                    26   10   1    2    26   11   8    5    0    28   14   60   
1st     PAS Giannina                    26   10   1    2    31   14   7    4    2    27   15   56   
1st     PAS Giannina                    26   10   2    1    36   16   10   3    0    31   15   65   
1st     PAS Giannina                    26   11   1    1    33   10   7    4    2    28   13   59   
2nd     PAS Giannina                    26   10   1    2    29   9    4    5    4    21   22   48   
1st     PAS Giannina                    26   11   1    1    39   14   7    4    2    24   10   59   
1st     PAS Giannina                    26   10   2    1    38   11   9    3    1    27   15   62   
1st     PAS Giannina                    26   11   2    0    35   11   6    5    2    27   19   58   
1st     PAS Giannina                    26   10   1    2    39   17   11   1    1    33   14   65   
2nd     PAS Giannina                    26   9    3    1    41   21   6    3    4    21   18   51   
1st     PAS Giannina                    26   13   0    0    38   9    9    3    1    31   17   69   
1st     PAS Giannina                    26   12   1    0    39   9    9    1    3    22   13   65   
1st     PAS Giannina                    26   10   3    0    39   12   6    3    4    23   18   54   
1st     PAS Giannina                    26   11   1    1    37   13   10   1    2    28   15   65   
1st     PAS Giannina                    26   10   2    1    40   11   7    3    3    23   16   56   
1st     PAS Giannina                    26   12   1    0    39   8    7    3    3    26   17   61   
2nd     PAS Giannina                    26   10   2    1    28   8    6    4    3    21   18   54   
1st     PAS Giannina                    26   10   2    1    34   7    7    4    2    30   16   57   
2nd     PAS Giannina                    26   12   1    0    45   14   6    3    4    20   17   58   
2nd     PAS Giannina                    26   8    3    2    27   11   8    3    2    24   10   54   
2nd     PAS Giannina                    26   12   0    1    32   9    6    3    4    24   19   57   
1st     PAS Giannina                    26   11   1    1    37   15   9    2    2    29   13   63   
1st     PAS Giannina                    26   11   0    2    43   16   7    2    4    22   17   56   
2nd     PAS Giannina                    26   11   1    1    42   18   3    7    3    21   19   50   
2nd     PAS Giannina                    26   10   1    2    31   16   7    3    3    28   19   55   
1st     PAS Giannina                    26   10   3    0    32   13   8    2    3    28   17   59   
1st     PAS Giannina                    26   11   0    2    40   14   9    3    1    31   14   63   
2nd     PAS Giannina                    26   10   1    2    29   16   5    3    5    19   18   49   
2nd     PAS Giannina                    26   10   3    0    38   16   4    5    4    24   21   50   
1st     PAS Giannina                    26   13   0    0    44   8    5    6    2    23   17   60   
2nd     PAS Giannina                    26   10   3    0    36   13   6    3    4    19   16   54   