1st      PAS Giannina                    26   9    1    3    30   16   8    3    2    16   5    55
1st      PAS Giannina                    26   12   0    1    34   9    9    2    2    24   14   65
1st      PAS Giannina                    26   11   1    1    29   8    7    3    3    14   7    58
1st      PAS Giannina                    26   9    4    0    31   14   11   1    1    26   10   65
1st      PAS Giannina                    26   11   0    2    33   16   9    3    1    27   11   63
2nd     PAS Giannina                    26   11   1    1    38   14   7    5    1    21   12   60
1st      PAS Giannina                    26   10   2    1    35   18   9    1    3    20   10   60
1st      PAS Giannina                    26   11   2    0    38   17   8    2    3    22   8    61
2nd     PAS Giannina                    26   9    4    0    35   16   8    1    4    26   15   56
1st      PAS Giannina                    26   11   0    2    34   16   5    6    2    18   11   54
2nd     PAS Giannina                    26   10   1    2    23   14   7    2    4    25   12   54
2nd     PAS Giannina                    26   10   2    1    23   11   8    1    4    31   24   57
5th     PAS Giannina                    26   8    3    2    28   12   3    3    7    18   25   39
2nd     PAS Giannina                    26   10   1    2    33   12   6    2    5    24   20   51
2nd     PAS Giannina                    26   10   2    1    32   14   6    2    5    26   18   52
1st      PAS Giannina                    26   8    4    1    29   8    9    2    2    23   10   57
4th     PAS Giannina                    26   7    4    2    24   13   6    1    6    19   18   44
2nd     PAS Giannina                    26   9    2    2    34   13   9    3    1    24   10   59
1st      PAS Giannina                    26   12   1    0    39   16   7    3    3    24   15   61
3rd     PAS Giannina                    26   10   2    1    39   16   6    1    6    23   19   51
1st      PAS Giannina                    26   11   2    0    26   10   7    3    3    25   18   59
1st      PAS Giannina                    26   9    3    1    35   13   5    3    5    24   20   48
2nd     PAS Giannina                    26   8    2    3    29   14   9    2    2    22   10   55
2nd     PAS Giannina                    26   9    2    2    29   13   5    6    2    14   10   50
1st      PAS Giannina                    26   10   2    1    31   12   5    4    4    20   20   51
1st      PAS Giannina                    26   10   3    0    29   12   9    2    2    28   21   62
1st      PAS Giannina                    26   10   3    0    36   8    8    3    2    27   15   60
1st      PAS Giannina                    26   12   0    1    37   15   6    6    1    23   13   60
1st      PAS Giannina                    26   9    3    1    31   16   6    5    2    26   17   53
1st      PAS Giannina                    26   10   2    1    35   9    8    1    4    27   18   57
2nd     PAS Giannina                    26   8    3    2    27   15   6    4    3    24   12   49
1st      PAS Giannina                    26   13   0    0    32   9    7    4    2    23   12   64
1st      PAS Giannina                    26   11   1    1    30   10   4    6    3    17   17   52
1st      PAS Giannina                    26   12   1    0    34   11   8    1    4    24   13   62
1st      PAS Giannina                    26   12   0    1    36   10   7    4    2    21   12   61
1st      PAS Giannina                    26   12   1    0    38   11   7    2    4    26   13   60
2nd     PAS Giannina                    26   9    1    3    33   12   7    3    3    30   16   52
1st      PAS Giannina                    26   11   2    0    31   10   6    1    6    23   20   54
1st      PAS Giannina                    26   9    2    2    28   12   6    2    5    24   19   49
1st      PAS Giannina                    26   11   1    1    31   11   12   1    0    37   10   71
2nd     PAS Giannina                    26   10   0    3    29   16   6    4    3    24   17   52
2nd     PAS Giannina                    26   8    2    3    33   22   11   0    2    23   13   59
1st      PAS Giannina                    26   12   0    1    32   7    5    5    3    19   16   56
1st      PAS Giannina                    26   10   2    1    29   12   8    4    1    26   12   60
2nd     PAS Giannina                    26   9    2    2    37   18   8    2    3    28   19   55
2nd     PAS Giannina                    26   8    3    2    28   14   7    2    4    15   11   50
1st      PAS Giannina                    26   8    4    1    31   14   9    2    2    28   15   57
1st      PAS Giannina                    26   13   0    0    35   10   6    4    3    24   16   61
2nd     PAS Giannina                    26   12   0    1    38   9    7    3    3    23   18   60
3rd     PAS Giannina                    26   9    3    1    29   10   3    6    4    20   18   45
1st      PAS Giannina                    26   7    4    2    23   12   9    1    3    24   13   53
1st      PAS Giannina                    26   11   1    1    37   13   8    3    2    27   15   61
1st      PAS Giannina                    26   11   1    1    30   11   6    4    3    25   19   56
2nd     PAS Giannina                    26   11   1    1    36   15   3    4    6    20   23   47
1st      PAS Giannina                    26   10   2    1    36   12   8    2    3    28   12   58
1st      PAS Giannina                    26   11   2    0    32   8    7    2    4    30   19   58
1st      PAS Giannina                    26   12   1    0    36   14   7    4    2    24   14   62
1st      PAS Giannina                    26   9    2    2    28   13   8    2    3    26   14   55
2nd     PAS Giannina                    26   11   2    0    36   13   5    6    2    27   19   56
2nd     PAS Giannina                    26   10   3    0    35   9    5    4    4    24   18   52
1st      PAS Giannina                    26   12   1    0    40   14   6    5    2    24   13   60
1st      PAS Giannina                    26   7    4    2    29   16   8    3    2    28   15   52
1st      PAS Giannina                    26   9    2    2    32   15   8    2    3    30   9    55
2nd     PAS Giannina                    26   8    2    3    25   16   7    4    2    19   11   51
1st      PAS Giannina                    26   9    2    2    33   15   8    3    2    26   13   56
1st      PAS Giannina                    26   11   1    1    31   9    7    4    2    20   11   59
2nd     PAS Giannina                    26   9    3    1    30   9    8    1    4    27   19   55
1st      PAS Giannina                    26   12   0    1    29   10   6    6    1    27   15   60
1st      PAS Giannina                    26   9    0    4    27   18   8    1    4    25   15   52
1st      PAS Giannina                    26   11   1    1    33   12   9    2    2    29   15   63
1st      PAS Giannina                    26   10   3    0    39   17   8    3    2    30   12   60
2nd     PAS Giannina                    26   6    6    1    24   11   8    2    3    23   15   50
1st      PAS Giannina                    26   10   2    1    31   11   7    2    4    24   15   55
1st      PAS Giannina                    26   12   0    1    37   6    6    4    3    18   14   58
2nd     PAS Giannina                    26   9    2    2    33   17   7    3    3    24   14   53
1st      PAS Giannina                    26   10   1    2    36   17   6    2    5    18   14   51
1st      PAS Giannina                    26   10   2    1    35   13   9    3    1    27   11   62
1st      PAS Giannina                    26   11   1    1    37   11   9    3    1    21   8    64
1st      PAS Giannina                    26   10   2    1    36   18   9    3    1    24   14   62
1st      PAS Giannina                    26   7    5    1    27   14   10   2    1    23   11   58
2nd     PAS Giannina                    26   9    4    0    36   14   4    5    4    17   16   48
2nd     PAS Giannina                    26   9    3    1    37   18   6    2    5    22   19   50
1st      PAS Giannina                    26   10   1    2    37   13   7    4    2    30   18   56
1st      PAS Giannina                    26   9    2    2    31   11   7    5    1    26   8    55
1st      PAS Giannina                    26   12   0    1    32   13   9    3    1    33   14   66
2nd     PAS Giannina                    26   10   2    1    33   13   4    7    2    24   20   51
2nd     PAS Giannina                    26   10   2    1    35   17   6    2    5    24   18   52
1st      PAS Giannina                    26   10   1    2    32   13   6    5    2    18   9    54
1st      PAS Giannina                    26   9    1    3    33   10   8    3    2    23   10   55
2nd     PAS Giannina                    26   9    4    0    37   16   5    7    1    22   15   53
1st      PAS Giannina                    26   10   3    0    26   9    5    7    1    29   23   55
2nd     PAS Giannina                    26   10   2    1    35   14   4    5    4    21   19   49
1st      PAS Giannina                    26   10   3    0    33   10   8    1    4    26   12   58
4th     PAS Giannina                    26   8    1    4    26   13   6    3    4    19   17   46
1st      PAS Giannina                    26   11   2    0    30   12   7    3    3    19   10   59
2nd     PAS Giannina                    26   11   2    0    34   13   5    4    4    19   11   54
1st      PAS Giannina                    26   11   1    1    42   13   5    4    4    17   11   53
1st      PAS Giannina                    26   9    3    1    31   15   5    3    5    23   18   48
2nd     PAS Giannina                    26   10   3    0    37   10   6    5    2    21   15   56
2nd     PAS Giannina                    26   11   1    1    31   17   6    2    5    25   22   54