3rd     PAS Giannina                    26   9    2    2    29   15   5    2    6    16   20   46   
10th    PAS Giannina                    26   5    4    4    20   15   1    5    7    12   22   27   
2nd     PAS Giannina                    26   9    2    2    24   12   6    5    2    15   9    52   
1st     PAS Giannina                    26   11   1    1    31   10   5    4    4    21   20   53   
1st     PAS Giannina                    26   9    2    2    35   16   6    3    4    21   15   50   
1st     PAS Giannina                    26   10   0    3    30   12   6    5    2    28   17   53   
2nd     PAS Giannina                    26   12   1    0    32   12   3    3    7    15   22   49   
2nd     PAS Giannina                    26   9    0    4    27   14   7    1    5    20   16   49   
4th     PAS Giannina                    26   6    5    2    24   16   5    3    5    23   24   41   
3rd     PAS Giannina                    26   12   1    0    37   16   2    5    6    14   21   48   
2nd     PAS Giannina                    26   9    3    1    28   12   5    3    5    13   14   48   
5th     PAS Giannina                    26   6    2    5    20   17   5    4    4    17   16   39   
3rd     PAS Giannina                    26   7    3    3    24   14   6    3    4    16   14   45   
1st     PAS Giannina                    26   10   3    0    29   13   5    5    3    19   21   53   
3rd     PAS Giannina                    26   8    2    3    32   18   6    3    4    22   21   47   
6th     PAS Giannina                    26   7    4    2    23   13   3    4    6    15   17   38   
1st     PAS Giannina                    26   10   1    2    34   14   6    0    7    19   22   49   
1st     PAS Giannina                    26   11   2    0    34   8    6    2    5    19   18   55   
3rd     PAS Giannina                    26   8    2    3    28   16   7    0    6    20   21   47   
2nd     PAS Giannina                    26   9    3    1    29   14   4    3    6    18   20   45   
4th     PAS Giannina                    26   7    3    3    27   18   7    1    5    19   17   46   
5th     PAS Giannina                    26   9    1    3    29   14   4    2    7    20   23   42   
5th     PAS Giannina                    26   6    2    5    23   20   4    5    4    17   15   37   
2nd     PAS Giannina                    26   10   2    1    31   13   4    2    7    21   18   46   
2nd     PAS Giannina                    26   9    3    1    29   10   4    4    5    18   19   46   
3rd     PAS Giannina                    26   7    4    2    28   20   4    4    5    15   19   41   
4th     PAS Giannina                    26   9    2    2    35   14   3    3    7    9    13   41   
6th     PAS Giannina                    26   6    3    4    24   18   5    4    4    13   13   40   
3rd     PAS Giannina                    26   7    3    3    27   15   4    5    4    17   20   41   
6th     PAS Giannina                    26   9    2    2    29   14   2    3    8    16   26   38   
1st     PAS Giannina                    26   12   0    1    33   10   6    4    3    22   15   58   
5th     PAS Giannina                    26   8    3    2    30   18   3    3    7    13   19   39   
2nd     PAS Giannina                    26   8    3    2    26   15   6    3    4    27   25   48   
5th     PAS Giannina                    26   7    4    2    26   14   4    5    4    14   13   42   
5th     PAS Giannina                    26   9    1    3    25   14   4    4    5    15   16   44   
3rd     PAS Giannina                    26   10   1    2    30   18   3    4    6    18   25   44   
4th     PAS Giannina                    26   9    1    3    30   12   3    5    5    21   23   42   
2nd     PAS Giannina                    26   11   0    2    35   15   3    5    5    16   19   47   
4th     PAS Giannina                    26   10   1    2    28   12   4    1    8    15   25   44   
5th     PAS Giannina                    26   7    3    3    20   10   4    6    3    16   14   42   
4th     PAS Giannina                    26   8    2    3    23   16   5    4    4    17   15   45   
1st     PAS Giannina                    26   11   2    0    41   12   6    4    3    23   17   57   
4th     PAS Giannina                    26   12   0    1    31   11   1    6    6    13   20   45   
5th     PAS Giannina                    26   8    1    4    22   13   3    6    4    12   14   40   
8th     PAS Giannina                    26   5    5    3    21   17   5    1    7    15   22   36   
5th     PAS Giannina                    26   7    4    2    25   15   5    0    8    13   20   40   
1st     PAS Giannina                    26   8    5    0    30   17   9    4    0    31   17   60   
2nd     PAS Giannina                    26   11   1    1    33   12   2    5    6    16   24   45   
4th     PAS Giannina                    26   7    2    4    21   13   4    4    5    16   16   39   
1st     PAS Giannina                    26   8    3    2    26   15   8    4    1    22   14   55   
1st     PAS Giannina                    26   12   0    1    36   12   7    1    5    19   16   58   
2nd     PAS Giannina                    26   10   2    1    35   17   4    5    4    17   17   49   
6th     PAS Giannina                    26   6    5    2    26   17   4    3    6    14   19   38   
3rd     PAS Giannina                    26   11   1    1    30   12   3    2    8    14   20   45   
8th     PAS Giannina                    26   7    4    2    30   20   3    2    8    17   20   36   
3rd     PAS Giannina                    26   9    2    2    40   20   2    6    5    15   19   41   
4th     PAS Giannina                    26   8    3    2    23   16   3    3    7    17   23   39   
2nd     PAS Giannina                    26   10   2    1    35   17   4    1    8    17   23   45   
7th     PAS Giannina                    26   4    5    4    16   19   5    2    6    16   17   34   
1st     PAS Giannina                    26   11   1    1    28   14   5    1    7    16   22   50   
2nd     PAS Giannina                    26   10   2    1    35   13   7    0    6    22   17   53   
4th     PAS Giannina                    26   10   1    2    31   10   3    2    8    11   20   42   
4th     PAS Giannina                    26   8    4    1    30   16   3    3    7    13   21   40   
3rd     PAS Giannina                    26   8    4    1    27   15   3    4    6    18   19   41   
5th     PAS Giannina                    26   10   3    0    35   12   1    5    7    15   21   41   
3rd     PAS Giannina                    26   12   1    0    33   10   1    5    7    15   27   45   
3rd     PAS Giannina                    26   8    3    2    27   16   4    5    4    17   20   44   
2nd     PAS Giannina                    26   9    1    3    28   20   6    3    4    17   14   49   
2nd     PAS Giannina                    26   12   0    1    31   9    4    3    6    18   24   51   
3rd     PAS Giannina                    26   8    4    1    29   14   4    4    5    17   18   44   
4th     PAS Giannina                    26   7    4    2    32   23   5    2    6    14   11   42   
1st     PAS Giannina                    26   10   3    0    29   14   3    6    4    18   22   48   
2nd     PAS Giannina                    26   10   3    0    33   12   3    1    9    17   24   43   
2nd     PAS Giannina                    26   10   2    1    27   11   4    2    7    18   19   46   
1st     PAS Giannina                    26   11   0    2    28   10   5    3    5    14   14   51   
2nd     PAS Giannina                    26   11   2    0    29   12   7    2    4    22   17   58   
9th     PAS Giannina                    26   6    4    3    28   19   2    2    9    15   24   30   
4th     PAS Giannina                    26   9    2    2    23   10   3    4    6    13   18   42   
5th     PAS Giannina                    26   8    3    2    30   13   3    4    6    13   17   40   
1st     PAS Giannina                    26   9    4    0    27   9    7    4    2    23   15   56   
3rd     PAS Giannina                    26   7    3    3    27   13   5    2    6    12   16   41   
6th     PAS Giannina                    26   8    3    2    29   16   3    2    8    16   29   38   
3rd     PAS Giannina                    26   7    5    1    18   9    4    6    3    19   16   44   
2nd     PAS Giannina                    26   10   2    1    29   10   5    5    3    19   17   52   
2nd     PAS Giannina                    26   6    4    3    24   18   6    4    3    22   18   44   
2nd     PAS Giannina                    26   10   1    2    33   13   4    5    4    15   14   48   
3rd     PAS Giannina                    26   9    3    1    33   18   5    3    5    17   18   48   
4th     PAS Giannina                    26   8    4    1    29   11   4    5    4    16   13   45   
2nd     PAS Giannina                    26   11   0    2    34   17   4    3    6    14   18   48   
2nd     PAS Giannina                    26   10   1    2    33   14   6    1    6    12   13   50   
8th     PAS Giannina                    26   8    3    2    26   17   2    4    7    12   24   37   
1st     PAS Giannina                    26   6    5    2    24   12   9    2    2    18   10   52   
3rd     PAS Giannina                    26   10   1    2    28   14   5    1    7    25   29   47   
4th     PAS Giannina                    26   8    1    4    23   15   5    2    6    19   23   42   
3rd     PAS Giannina                    26   9    2    2    37   15   5    4    4    16   15   48   
3rd     PAS Giannina                    26   11   1    1    29   8    4    2    7    16   19   48   
6th     PAS Giannina                    26   9    2    2    21   9    3    2    8    16   25   40   
5th     PAS Giannina                    26   8    4    1    32   18   3    4    6    15   18   41   
4th     PAS Giannina                    26   7    5    1    19   10   5    4    4    16   14   45   
1st     PAS Giannina                    26   9    2    2    28   18   6    4    3    20   15   51   