3rd     PAS Giannina                    26   9    2    2    35   18   3    6    4    22   19   44
3rd     PAS Giannina                    26   9    2    2    29   15   4    5    4    21   19   46
3rd     PAS Giannina                    26   7    3    3    24   13   5    3    5    19   16   42
2nd     PAS Giannina                    26   10   1    2    32   20   6    4    3    25   21   53
6th     PAS Giannina                    26   8    4    1    32   21   1    6    6    18   23   37
1st      PAS Giannina                    26   9    4    0    28   13   4    8    1    21   17   51
1st      PAS Giannina                    26   11   1    1    33   10   7    2    4    23   21   57
2nd     PAS Giannina                    26   8    5    0    39   19   6    2    5    26   22   49
5th     PAS Giannina                    26   8    2    3    27   19   4    1    8    12   20   39
3rd     PAS Giannina                    26   9    0    4    28   21   5    2    6    15   15   44
1st      PAS Giannina                    26   8    3    2    29   15   7    4    2    23   14   52
1st      PAS Giannina                    26   11   1    1    37   13   8    2    3    26   19   60
3rd     PAS Giannina                    26   7    4    2    27   15   4    2    7    17   23   39
2nd     PAS Giannina                    26   10   2    1    37   16   7    1    5    22   19   54
2nd     PAS Giannina                    26   9    1    3    32   21   6    3    4    26   18   49
7th     PAS Giannina                    26   7    3    3    33   22   2    6    5    18   19   36
2nd     PAS Giannina                    26   10   3    0    34   14   4    1    8    18   25   46
3rd     PAS Giannina                    26   10   0    3    31   16   6    2    5    26   20   50
2nd     PAS Giannina                    26   8    3    2    29   23   9    1    3    24   20   55
3rd     PAS Giannina                    26   9    3    1    37   17   3    3    7    19   26   42
2nd     PAS Giannina                    26   8    2    3    27   16   6    2    5    20   16   46
2nd     PAS Giannina                    26   8    2    3    25   17   7    3    3    23   17   50
2nd     PAS Giannina                    26   9    3    1    34   17   7    2    4    17   12   53
1st      PAS Giannina                    26   13   0    0    42   17   6    2    5    19   18   59
3rd     PAS Giannina                    26   7    2    4    23   13   6    4    3    25   15   45
4th     PAS Giannina                    26   7    2    4    27   21   3    7    3    19   20   39
2nd     PAS Giannina                    26   9    2    2    32   17   5    2    6    24   25   46
1st      PAS Giannina                    26   8    4    1    23   12   9    4    0    29   10   59
2nd     PAS Giannina                    26   9    2    2    38   18   5    6    2    24   19   50
4th     PAS Giannina                    26   9    2    2    34   20   3    4    6    20   20   42
2nd     PAS Giannina                    26   9    2    2    42   21   6    3    4    25   19   50
1st      PAS Giannina                    26   11   0    2    37   18   3    7    3    21   22   49
6th     PAS Giannina                    26   7    2    4    34   24   5    0    8    19   23   38
6th     PAS Giannina                    26   8    1    4    31   17   2    4    7    22   25   35
1st      PAS Giannina                    26   9    1    3    28   16   6    5    2    29   19   51
1st      PAS Giannina                    26   10   1    2    33   16   8    1    4    21   17   56
3rd     PAS Giannina                    26   10   1    2    36   18   5    2    6    25   27   48
1st      PAS Giannina                    26   9    2    2    36   20   7    3    3    22   16   53
2nd     PAS Giannina                    26   11   1    1    31   12   3    4    6    22   27   47
2nd     PAS Giannina                    26   11   2    0    36   11   4    4    5    25   21   51
2nd     PAS Giannina                    26   11   1    1    33   11   5    3    5    20   19   52
3rd     PAS Giannina                    26   9    3    1    30   14   5    3    5    30   24   48
10th    PAS Giannina                    26   6    3    4    29   21   2    3    8    17   23   30
3rd     PAS Giannina                    26   10   1    2    29   10   4    6    3    22   18   49
3rd     PAS Giannina                    26   8    5    0    31   12   5    3    5    27   26   47
2nd     PAS Giannina                    26   7    3    3    32   17   5    5    3    19   16   44
2nd     PAS Giannina                    26   8    1    4    27   19   8    1    4    24   14   50
1st      PAS Giannina                    26   9    2    2    31   15   8    3    2    25   14   56
5th     PAS Giannina                    26   8    2    3    27   16   3    6    4    18   21   41
2nd     PAS Giannina                    26   9    3    1    34   19   6    2    5    17   18   50
3rd     PAS Giannina                    26   7    3    3    25   18   6    4    3    18   11   46
3rd     PAS Giannina                    26   9    1    3    33   18   5    5    3    21   18   48
1st      PAS Giannina                    26   9    2    2    34   20   5    4    4    21   18   48
2nd     PAS Giannina                    26   9    2    2    33   20   7    3    3    26   12   53
3rd     PAS Giannina                    26   7    4    2    28   18   7    3    3    17   11   49
4th     PAS Giannina                    26   8    1    4    28   18   5    4    4    20   18   44
1st      PAS Giannina                    26   10   0    3    32   15   7    2    4    23   19   53
2nd     PAS Giannina                    26   8    5    0    32   9    5    5    3    18   19   49
1st      PAS Giannina                    26   10   1    2    29   14   7    3    3    22   13   55
2nd     PAS Giannina                    26   9    2    2    34   17   5    6    2    27   22   50
1st      PAS Giannina                    26   11   1    1    34   10   7    2    4    26   21   57
2nd     PAS Giannina                    26   10   2    1    36   15   7    0    6    27   17   53
2nd     PAS Giannina                    26   11   2    0    29   13   3    3    7    20   24   47
3rd     PAS Giannina                    26   9    2    2    36   16   6    2    5    20   20   49
2nd     PAS Giannina                    26   9    2    2    38   19   6    2    5    20   22   49
2nd     PAS Giannina                    26   10   3    0    42   18   6    3    4    21   15   54
2nd     PAS Giannina                    26   10   2    1    34   13   4    5    4    16   19   49
1st      PAS Giannina                    26   8    2    3    33   21   9    1    3    30   16   54
2nd     PAS Giannina                    26   9    1    3    39   20   7    1    5    23   20   50
8th     PAS Giannina                    26   7    1    5    29   23   3    5    5    9    16   36
1st      PAS Giannina                    26   11   2    0    39   16   6    3    4    28   21   56
1st      PAS Giannina                    26   10   1    2    28   15   6    3    4    27   23   52
1st      PAS Giannina                    26   10   0    3    30   15   6    3    4    24   18   51
1st      PAS Giannina                    26   9    2    2    31   17   9    4    0    29   12   60
2nd     PAS Giannina                    26   9    4    0    25   8    9    1    3    26   18   59
2nd     PAS Giannina                    26   11   0    2    29   11   7    4    2    29   20   58
2nd     PAS Giannina                    26   9    1    3    33   14   6    2    5    17   14   48
2nd     PAS Giannina                    26   9    2    2    31   19   7    1    5    23   21   51
1st      PAS Giannina                    26   10   0    3    38   18   7    3    3    18   13   54
1st      PAS Giannina                    26   10   1    2    33   17   4    5    4    20   19   48
2nd     PAS Giannina                    26   9    2    2    38   18   5    3    5    22   20   47
2nd     PAS Giannina                    26   11   1    1    35   8    5    5    3    23   20   54
2nd     PAS Giannina                    26   9    2    2    28   13   5    3    5    24   28   47
1st      PAS Giannina                    26   9    3    1    34   12   6    4    3    21   14   52
3rd     PAS Giannina                    26   9    3    1    35   19   5    3    5    25   26   48
3rd     PAS Giannina                    26   9    3    1    33   17   4    4    5    18   16   46
6th     PAS Giannina                    26   8    3    2    32   17   3    1    9    16   25   37
7th     PAS Giannina                    26   7    4    2    26   16   2    7    4    14   19   38
1st      PAS Giannina                    26   10   2    1    30   13   6    2    5    28   22   52
3rd     PAS Giannina                    26   8    2    3    32   16   5    3    5    24   20   44
1st      PAS Giannina                    26   9    3    1    31   10   6    4    3    19   12   52
6th     PAS Giannina                    26   8    2    3    28   20   4    4    5    25   26   42
2nd     PAS Giannina                    26   11   2    0    42   16   7    3    3    24   17   59
2nd     PAS Giannina                    26   12   0    1    36   13   5    1    7    22   28   52
3rd     PAS Giannina                    26   9    2    2    31   14   5    2    6    23   21   46
2nd     PAS Giannina                    26   10   1    2    30   17   7    2    4    21   16   54
1st      PAS Giannina                    26   12   0    1    38   13   6    3    4    21   12   57
2nd     PAS Giannina                    26   8    4    1    27   16   5    5    3    26   21   48
2nd     PAS Giannina                    26   10   2    1    38   18   5    1    7    23   20   48
2nd     PAS Giannina                    26   7    6    0    24   12   7    2    4    18   15   50