1st     PAS Giannina                    26   10   3    0    25   9    7    3    3    24   15   57   
1st     PAS Giannina                    26   7    4    2    25   15   9    4    0    29   11   56   
1st     PAS Giannina                    26   12   1    0    27   4    11   2    0    24   10   72   
2nd     PAS Giannina                    26   8    4    1    26   10   6    5    2    15   6    51   
1st     PAS Giannina                    26   11   1    1    31   10   8    4    1    20   13   62   
1st     PAS Giannina                    26   12   1    0    31   8    10   2    1    20   5    69   
1st     PAS Giannina                    26   11   1    1    32   10   12   1    0    30   4    71   
2nd     PAS Giannina                    26   9    2    2    27   8    9    2    2    24   13   58   
1st     PAS Giannina                    26   12   1    0    36   9    4    5    4    16   10   54   
1st     PAS Giannina                    26   12   1    0    28   6    8    3    2    19   11   64   
1st     PAS Giannina                    26   13   0    0    31   6    6    4    3    19   11   61   
2nd     PAS Giannina                    26   9    3    1    24   5    9    3    1    25   6    60   
2nd     PAS Giannina                    26   9    3    1    34   11   9    0    4    19   13   57   
2nd     PAS Giannina                    26   8    3    2    24   10   4    5    4    13   11   44   
2nd     PAS Giannina                    26   10   2    1    32   11   7    1    5    15   11   54   
1st     PAS Giannina                    26   10   3    0    25   4    8    2    3    20   11   59   
1st     PAS Giannina                    26   11   2    0    30   7    8    5    0    19   9    64   
1st     PAS Giannina                    26   12   0    1    28   8    11   2    0    28   7    71   
1st     PAS Giannina                    26   9    3    1    30   8    10   3    0    28   8    63   
1st     PAS Giannina                    26   9    3    1    31   11   8    2    3    22   12   56   
1st     PAS Giannina                    26   11   2    0    32   8    7    5    1    18   10   61   
1st     PAS Giannina                    26   9    4    0    27   9    7    3    3    23   12   55   
1st     PAS Giannina                    26   12   1    0    37   5    6    3    4    21   15   58   
1st     PAS Giannina                    26   10   2    1    37   11   8    2    3    22   10   58   
1st     PAS Giannina                    26   11   1    1    31   12   8    3    2    20   6    61   
1st     PAS Giannina                    26   8    4    1    32   13   10   1    2    31   12   59   
1st     PAS Giannina                    26   7    4    2    21   11   10   2    1    26   4    57   
1st     PAS Giannina                    26   11   1    1    34   11   7    5    1    22   9    60   
1st     PAS Giannina                    26   12   0    1    29   9    7    4    2    20   10   61   
1st     PAS Giannina                    26   11   2    0    34   9    6    5    2    19   8    58   
1st     PAS Giannina                    26   11   1    1    34   10   5    6    2    26   18   55   
1st     PAS Giannina                    26   11   1    1    37   11   8    2    3    18   11   60   
1st     PAS Giannina                    26   10   1    2    31   5    8    4    1    27   8    59   
1st     PAS Giannina                    26   11   1    1    29   5    10   1    2    24   9    65   
1st     PAS Giannina                    26   9    3    1    30   9    9    3    1    29   15   60   
1st     PAS Giannina                    26   11   1    1    34   9    8    4    1    20   6    62   
1st     PAS Giannina                    26   10   1    2    30   10   9    1    3    24   16   59   
2nd     PAS Giannina                    26   10   2    1    28   10   7    2    4    21   9    55   
1st     PAS Giannina                    26   8    3    2    27   13   9    4    0    21   5    58   
1st     PAS Giannina                    26   11   2    0    36   12   7    3    3    23   7    59   
1st     PAS Giannina                    26   12   1    0    39   10   9    2    2    21   10   66   
1st     PAS Giannina                    26   11   2    0    30   9    7    4    2    18   6    60   
1st     PAS Giannina                    26   10   3    0    31   7    10   3    0    31   7    66   
1st     PAS Giannina                    26   10   3    0    29   12   11   1    1    29   10   67   
1st     PAS Giannina                    26   11   1    1    24   7    7    5    1    20   8    60   
1st     PAS Giannina                    26   13   0    0    32   6    8    3    2    20   13   66   
1st     PAS Giannina                    26   10   1    2    33   15   6    7    0    25   14   56   
2nd     PAS Giannina                    26   10   3    0    26   8    5    6    2    20   18   54   
2nd     PAS Giannina                    26   13   0    0    36   8    4    4    5    18   13   55   
1st     PAS Giannina                    26   11   1    1    30   8    7    5    1    20   10   60   
1st     PAS Giannina                    26   13   0    0    31   7    9    4    0    23   9    70   
1st     PAS Giannina                    26   12   1    0    30   9    7    3    3    20   14   61   
1st     PAS Giannina                    26   12   1    0    36   12   8    3    2    26   19   64   
1st     PAS Giannina                    26   9    3    1    33   14   8    1    4    24   10   55   
1st     PAS Giannina                    26   12   1    0    39   12   8    3    2    25   10   64   
1st     PAS Giannina                    26   12   1    0    33   9    7    3    3    20   12   61   
1st     PAS Giannina                    26   11   2    0    33   8    9    3    1    19   8    65   
1st     PAS Giannina                    26   12   1    0    32   7    7    3    3    22   14   61   
1st     PAS Giannina                    26   10   2    1    31   9    9    3    1    26   8    62   
1st     PAS Giannina                    26   11   2    0    37   16   12   0    1    23   5    71   
1st     PAS Giannina                    26   11   2    0    26   3    9    1    3    23   6    63   
1st     PAS Giannina                    26   8    4    1    28   15   7    4    2    18   8    53   
2nd     PAS Giannina                    26   9    3    1    26   11   5    7    1    19   12   52   
1st     PAS Giannina                    26   12   0    1    33   10   9    3    1    24   8    66   
2nd     PAS Giannina                    26   12   1    0    34   11   6    2    5    15   14   57   
1st     PAS Giannina                    26   9    4    0    28   7    10   2    1    30   8    63   
1st     PAS Giannina                    26   10   2    1    32   10   10   2    1    28   10   64   
3rd     PAS Giannina                    26   10   2    1    36   12   5    3    5    19   21   50   
1st     PAS Giannina                    26   12   1    0    29   8    6    3    4    31   17   58   
1st     PAS Giannina                    26   11   1    1    29   7    7    5    1    20   7    60   
1st     PAS Giannina                    26   11   1    1    31   10   10   1    2    24   8    65   
2nd     PAS Giannina                    26   7    4    2    25   10   7    1    5    23   13   47   
1st     PAS Giannina                    26   13   0    0    30   6    10   1    2    19   7    70   
1st     PAS Giannina                    26   10   1    2    30   10   10   1    2    25   8    62   
1st     PAS Giannina                    26   9    4    0    36   9    8    3    2    25   15   58   
1st     PAS Giannina                    26   10   2    1    26   11   6    3    4    20   12   53   
1st     PAS Giannina                    26   10   3    0    27   9    10   2    1    25   10   65   
1st     PAS Giannina                    26   13   0    0    38   11   8    4    1    25   10   67   
1st     PAS Giannina                    26   12   1    0    35   7    8    2    3    22   10   63   
1st     PAS Giannina                    26   11   1    1    32   10   6    4    3    19   11   56   
2nd     PAS Giannina                    26   10   1    2    22   8    6    4    3    19   14   53   
1st     PAS Giannina                    26   9    3    1    26   11   9    3    1    25   6    60   
1st     PAS Giannina                    26   10   2    1    29   7    10   1    2    28   13   63   
1st     PAS Giannina                    26   11   2    0    31   11   10   3    0    28   11   68   
1st     PAS Giannina                    26   11   1    1    36   13   8    2    3    25   14   60   
2nd     PAS Giannina                    26   10   3    0    32   9    4    7    2    15   11   52   
1st     PAS Giannina                    26   12   1    0    39   8    8    3    2    26   17   64   
1st     PAS Giannina                    26   9    4    0    31   9    7    3    3    28   18   55   
1st     PAS Giannina                    26   10   1    2    32   13   9    1    3    24   11   59   
1st     PAS Giannina                    26   9    3    1    31   7    8    3    2    20   10   57   
1st     PAS Giannina                    26   13   0    0    37   4    8    4    1    25   15   67   
2nd     PAS Giannina                    26   11   1    1    27   8    6    2    5    17   10   54   
2nd     PAS Giannina                    26   9    2    2    24   15   8    2    3    23   12   55   
2nd     PAS Giannina                    26   8    2    3    28   13   7    4    2    21   12   51   
2nd     PAS Giannina                    26   11   2    0    31   7    4    4    5    20   16   51   
2nd     PAS Giannina                    26   9    2    2    36   15   7    3    3    23   19   53   
1st     PAS Giannina                    26   12   0    1    33   8    9    2    2    27   9    65   
1st     PAS Giannina                    26   10   3    0    32   14   8    4    1    24   8    61   
1st     PAS Giannina                    26   13   0    0    28   7    8    3    2    26   13   66   
2nd     PAS Giannina                    26   10   2    1    27   11   6    4    3    21   15   54   