2nd     PAS Giannina                    26   10   2    1    30   11   5    2    6    25   30   49   
4th     PAS Giannina                    26   7    2    4    23   19   5    5    3    28   26   43   
6th     PAS Giannina                    26   6    4    3    22   15   4    2    7    31   33   36   
7th     PAS Giannina                    26   6    4    3    22   19   4    3    6    30   23   37   
2nd     PAS Giannina                    26   11   1    1    35   15   10   0    3    29   14   64   
2nd     PAS Giannina                    26   8    0    5    24   18   5    5    3    24   17   44   
4th     PAS Giannina                    26   8    3    2    34   17   5    1    7    27   27   43   
2nd     PAS Giannina                    26   8    4    1    27   14   5    3    5    18   17   46   
2nd     PAS Giannina                    26   7    4    2    25   16   5    6    2    23   14   46   
2nd     PAS Giannina                    26   7    2    4    27   22   8    4    1    34   19   51   
1st     PAS Giannina                    26   7    4    2    21   15   7    4    2    28   22   50   
6th     PAS Giannina                    26   4    6    3    21   13   6    4    3    26   22   40   
3rd     PAS Giannina                    26   3    7    3    20   19   9    1    3    28   16   44   
5th     PAS Giannina                    26   7    3    3    23   14   5    2    6    18   20   41   
4th     PAS Giannina                    26   9    1    3    26   14   4    3    6    24   23   43   
1st     PAS Giannina                    26   8    4    1    24   15   10   1    2    32   18   59   
2nd     PAS Giannina                    26   10   0    3    24   12   5    5    3    27   24   50   
3rd     PAS Giannina                    26   11   1    1    27   11   4    1    8    19   27   47   
3rd     PAS Giannina                    26   8    3    2    24   13   5    3    5    24   22   45   
3rd     PAS Giannina                    26   8    1    4    30   17   5    5    3    19   16   45   
3rd     PAS Giannina                    26   10   1    2    21   15   2    6    5    14   19   43   
2nd     PAS Giannina                    26   8    3    2    28   12   5    6    2    30   22   48   
9th     PAS Giannina                    26   5    5    3    27   22   2    4    7    23   29   30   
1st     PAS Giannina                    26   9    3    1    25   10   6    0    7    27   28   48   
2nd     PAS Giannina                    26   6    4    3    24   21   9    1    3    33   20   50   
5th     PAS Giannina                    26   8    5    0    31   13   3    2    8    18   31   40   
2nd     PAS Giannina                    26   8    3    2    24   15   7    2    4    25   18   50   
1st     PAS Giannina                    26   8    5    0    30   16   6    5    2    29   21   52   
3rd     PAS Giannina                    26   8    2    3    31   17   6    1    6    26   22   45   
5th     PAS Giannina                    26   6    5    2    25   15   4    4    5    33   31   39   
3rd     PAS Giannina                    26   8    4    1    29   14   3    4    6    25   29   41   
4th     PAS Giannina                    26   8    3    2    25   13   4    3    6    23   23   42   
4th     PAS Giannina                    26   5    7    1    27   19   5    4    4    29   23   41   
5th     PAS Giannina                    26   9    2    2    28   9    3    5    5    19   23   43   
2nd     PAS Giannina                    26   7    5    1    24   12   7    5    1    33   22   52   
3rd     PAS Giannina                    26   9    2    2    25   13   6    2    5    24   21   49   
6th     PAS Giannina                    26   6    5    2    26   18   4    3    6    22   28   38   
2nd     PAS Giannina                    26   8    5    0    26   11   5    2    6    22   24   46   
2nd     PAS Giannina                    26   9    2    2    24   11   4    7    2    23   17   48   
3rd     PAS Giannina                    26   5    1    7    14   15   7    2    4    23   19   39   
1st     PAS Giannina                    26   10   1    2    29   17   6    2    5    26   16   51   
1st     PAS Giannina                    26   10   3    0    29   11   7    3    3    25   19   57   
2nd     PAS Giannina                    26   9    1    3    31   20   6    2    5    21   24   48   
4th     PAS Giannina                    26   4    7    2    18   15   6    3    4    27   29   40   
8th     PAS Giannina                    26   4    6    3    21   17   3    6    4    26   21   33   
5th     PAS Giannina                    26   5    3    5    18   16   7    0    6    28   19   39   
2nd     PAS Giannina                    26   8    1    4    27   18   7    2    4    36   27   48   
2nd     PAS Giannina                    26   9    2    2    29   13   6    2    5    28   24   49   
5th     PAS Giannina                    26   4    6    3    19   17   6    4    3    23   19   40   
4th     PAS Giannina                    26   4    6    3    26   20   7    2    4    33   20   41   
12th    PAS Giannina                    26   5    1    7    18   17   2    4    7    15   26   26   
2nd     PAS Giannina                    26   4    5    4    24   19   9    1    3    25   17   45   
7th     PAS Giannina                    26   8    5    0    31   11   0    4    9    20   30   33   
3rd     PAS Giannina                    26   9    2    2    26   10   6    4    3    23   19   51   
3rd     PAS Giannina                    26   9    3    1    34   16   4    2    7    24   30   44   
6th     PAS Giannina                    26   7    3    3    28   17   4    4    5    24   22   40   
3rd     PAS Giannina                    26   9    3    1    29   14   3    4    6    21   28   43   
2nd     PAS Giannina                    26   9    3    1    38   16   7    3    3    29   26   54   
1st     PAS Giannina                    26   9    1    3    26   15   9    2    2    34   16   57   
4th     PAS Giannina                    26   6    5    2    21   15   6    2    5    24   19   43   
1st     PAS Giannina                    26   13   0    0    31   11   9    2    2    33   20   68   
3rd     PAS Giannina                    26   5    4    4    28   23   6    2    5    25   26   39   
5th     PAS Giannina                    26   6    2    5    23   17   6    1    6    22   23   39   
3rd     PAS Giannina                    26   11   2    0    36   14   3    4    6    17   22   48   
5th     PAS Giannina                    26   7    0    6    30   20   5    5    3    27   23   41   
7th     PAS Giannina                    26   7    2    4    22   18   4    2    7    20   24   37   
1st     PAS Giannina                    26   9    3    1    28   10   8    2    3    32   22   56   
2nd     PAS Giannina                    26   9    1    3    21   12   3    3    7    25   29   40   
3rd     PAS Giannina                    26   6    5    2    25   17   6    2    5    20   20   43   
1st     PAS Giannina                    26   8    3    2    30   17   6    4    3    31   24   49   
2nd     PAS Giannina                    26   10   2    1    32   13   6    1    6    28   23   51   
2nd     PAS Giannina                    26   9    3    1    29   10   4    4    5    26   28   46   
5th     PAS Giannina                    26   7    5    1    28   19   4    3    6    16   21   41   
3rd     PAS Giannina                    26   8    3    2    33   19   4    3    6    26   23   42   
7th     PAS Giannina                    26   7    3    3    23   19   5    2    6    17   16   41   
3rd     PAS Giannina                    26   7    5    1    28   19   5    4    4    24   18   45   
3rd     PAS Giannina                    26   5    4    4    18   14   7    4    2    28   23   44   
2nd     PAS Giannina                    26   8    3    2    27   12   5    4    4    34   27   46   
3rd     PAS Giannina                    26   7    3    3    20   14   6    4    3    25   20   46   
2nd     PAS Giannina                    26   8    2    3    22   17   5    6    2    18   11   47   
2nd     PAS Giannina                    26   10   2    1    38   13   3    4    6    21   24   45   
2nd     PAS Giannina                    26   10   1    2    24   10   5    5    3    26   27   51   
3rd     PAS Giannina                    26   9    1    3    29   16   7    0    6    24   21   49   
3rd     PAS Giannina                    26   7    4    2    24   13   4    5    4    26   24   42   
7th     PAS Giannina                    26   5    3    5    20   18   4    3    6    23   22   33   
2nd     PAS Giannina                    26   11   1    1    31   14   6    1    6    25   26   53   
3rd     PAS Giannina                    26   7    3    3    23   17   6    4    3    29   19   46   
7th     PAS Giannina                    26   7    3    3    27   16   5    1    7    22   25   40   
5th     PAS Giannina                    26   8    3    2    26   12   3    7    3    25   26   43   
4th     PAS Giannina                    26   7    2    4    22   14   8    1    4    30   21   48   
4th     PAS Giannina                    26   6    3    4    24   11   6    3    4    21   16   42   
1st     PAS Giannina                    26   8    5    0    32   15   6    3    4    24   18   50   
5th     PAS Giannina                    26   9    0    4    24   15   3    4    6    16   20   40   
6th     PAS Giannina                    26   6    5    2    23   12   5    1    7    20   21   39   
3rd     PAS Giannina                    26   12   1    0    28   7    2    1    10   15   29   44   
3rd     PAS Giannina                    26   9    1    3    35   20   5    4    4    30   29   47   
2nd     PAS Giannina                    26   9    4    0    26   11   4    2    7    16   23   45   
3rd     PAS Giannina                    26   6    4    3    24   17   5    3    5    23   21   40   
5th     PAS Giannina                    26   3    7    3    15   14   6    3    4    25   19   37   
2nd     PAS Giannina                    26   8    4    1    26   11   7    5    1    28   22   54   