1st     PAS Giannina                    26   8    4    1    25   8    8    3    2    26   15   55   
1st     PAS Giannina                    26   10   3    0    35   11   10   1    2    30   14   64   
1st     PAS Giannina                    26   10   2    1    34   9    8    2    3    24   17   58   
1st     PAS Giannina                    26   12   0    1    35   8    10   2    1    34   12   68   
1st     PAS Giannina                    26   9    2    2    27   14   8    2    3    27   16   55   
1st     PAS Giannina                    26   10   1    2    22   7    10   2    1    29   14   63   
1st     PAS Giannina                    26   9    2    2    28   11   7    4    2    28   15   54   
1st     PAS Giannina                    26   11   0    2    38   7    7    4    2    21   13   58   
1st     PAS Giannina                    26   10   2    1    29   5    6    4    3    23   14   54   
1st     PAS Giannina                    26   10   1    2    28   10   10   0    3    27   13   61   
1st     PAS Giannina                    26   11   1    1    31   7    8    2    3    34   14   60   
1st     PAS Giannina                    26   12   1    0    39   7    7    4    2    27   14   62   
1st     PAS Giannina                    26   10   3    0    34   10   7    4    2    22   13   58   
1st     PAS Giannina                    26   12   1    0    35   6    10   1    2    27   6    68   
1st     PAS Giannina                    26   9    2    2    28   10   7    4    2    29   13   54   
1st     PAS Giannina                    26   12   1    0    41   8    6    2    5    16   16   57   
1st     PAS Giannina                    26   11   1    1    42   12   9    2    2    26   14   63   
1st     PAS Giannina                    26   8    3    2    31   17   10   3    0    33   10   60   
1st     PAS Giannina                    26   11   1    1    33   10   8    2    3    28   12   60   
1st     PAS Giannina                    26   12   1    0    43   14   7    3    3    22   13   61   
1st     PAS Giannina                    26   11   2    0    35   12   9    3    1    34   9    65   
1st     PAS Giannina                    26   9    2    2    28   16   12   0    1    30   10   65   
1st     PAS Giannina                    26   10   3    0    31   10   9    2    2    29   16   62   
1st     PAS Giannina                    26   10   3    0    28   8    5    8    0    22   13   56   
1st     PAS Giannina                    26   10   1    2    30   12   10   2    1    26   10   63   
1st     PAS Giannina                    26   12   0    1    33   11   9    2    2    28   9    65   
1st     PAS Giannina                    26   9    2    2    29   19   10   2    1    27   9    61   
1st     PAS Giannina                    26   13   0    0    35   7    9    3    1    32   15   69   
3rd     PAS Giannina                    26   6    4    3    23   12   6    6    1    23   17   46   
1st     PAS Giannina                    26   9    2    2    30   13   11   1    1    32   9    63   
1st     PAS Giannina                    26   12   0    1    36   10   9    2    2    27   9    65   
1st     PAS Giannina                    26   11   2    0    39   13   6    2    5    20   15   55   
2nd     PAS Giannina                    26   9    3    1    27   10   7    3    3    19   12   54   
1st     PAS Giannina                    26   11   1    1    31   6    10   0    3    28   17   64   
1st     PAS Giannina                    26   11   2    0    37   13   4    5    4    18   15   52   
1st     PAS Giannina                    26   7    5    1    23   9    8    3    2    30   16   53   
1st     PAS Giannina                    26   11   2    0    38   10   7    3    3    24   11   59   
1st     PAS Giannina                    26   11   2    0    45   11   10   0    3    28   12   65   
1st     PAS Giannina                    26   10   0    3    34   14   10   1    2    33   12   61   
1st     PAS Giannina                    26   13   0    0    37   8    6    4    3    23   12   61   
1st     PAS Giannina                    26   11   1    1    37   12   10   3    0    30   12   67   
1st     PAS Giannina                    26   11   1    1    42   13   8    2    3    29   12   60   
1st     PAS Giannina                    26   11   2    0    36   11   7    3    3    22   15   59   
1st     PAS Giannina                    26   12   1    0    39   10   11   2    0    39   16   72   
1st     PAS Giannina                    26   10   3    0    32   12   7    4    2    22   13   58   
1st     PAS Giannina                    26   11   2    0    28   12   8    4    1    30   13   63   
1st     PAS Giannina                    26   10   2    1    30   10   8    2    3    26   13   58   
1st     PAS Giannina                    26   9    2    2    29   12   9    3    1    30   14   59   
2nd     PAS Giannina                    26   10   1    2    27   9    5    3    5    21   18   49   
1st     PAS Giannina                    26   12   1    0    35   9    8    3    2    32   20   64   
1st     PAS Giannina                    26   9    4    0    28   10   6    2    5    21   19   51   
2nd     PAS Giannina                    26   9    1    3    28   12   7    4    2    25   15   53   
1st     PAS Giannina                    26   7    2    4    31   16   9    3    1    34   16   53   
1st     PAS Giannina                    26   12   0    1    30   7    10   3    0    31   10   69   
1st     PAS Giannina                    26   12   1    0    39   12   9    0    4    24   11   64   
1st     PAS Giannina                    26   10   1    2    36   18   9    2    2    26   11   60   
1st     PAS Giannina                    26   8    2    3    31   20   6    2    5    25   20   46   
1st     PAS Giannina                    26   11   1    1    43   14   7    4    2    25   16   59   
1st     PAS Giannina                    26   11   1    1    37   15   10   2    1    21   5    66   
1st     PAS Giannina                    26   10   2    1    33   10   8    2    3    29   15   58   
1st     PAS Giannina                    26   12   0    1    34   8    7    3    3    26   14   60   
2nd     PAS Giannina                    26   9    2    2    25   8    7    5    1    22   10   55   
1st     PAS Giannina                    26   11   2    0    40   12   8    2    3    30   17   61   
1st     PAS Giannina                    26   12   1    0    38   13   9    2    2    25   10   66   
1st     PAS Giannina                    26   10   1    2    31   12   8    4    1    28   12   59   
2nd     PAS Giannina                    26   10   0    3    36   11   6    2    5    21   11   50   
1st     PAS Giannina                    26   10   2    1    30   11   10   3    0    28   11   65   
1st     PAS Giannina                    26   9    4    0    23   6    10   0    3    32   15   61   
1st     PAS Giannina                    26   12   0    1    39   13   7    5    1    28   15   62   
1st     PAS Giannina                    26   10   3    0    31   11   9    3    1    31   9    63   
1st     PAS Giannina                    26   9    3    1    28   10   11   1    1    29   8    64   
1st     PAS Giannina                    26   11   1    1    30   10   11   2    0    30   8    69   
2nd     PAS Giannina                    26   10   2    1    41   13   9    2    2    25   11   61   
1st     PAS Giannina                    26   11   2    0    34   6    12   1    0    38   7    72   
1st     PAS Giannina                    26   10   2    1    35   15   5    6    2    21   18   53   
1st     PAS Giannina                    26   10   1    2    26   10   11   2    0    27   5    66   
1st     PAS Giannina                    26   9    2    2    25   16   9    1    3    25   13   57   
1st     PAS Giannina                    26   9    1    3    32   16   6    5    2    23   17   51   
1st     PAS Giannina                    26   10   3    0    34   9    10   2    1    25   8    65   
2nd     PAS Giannina                    26   8    4    1    34   18   9    3    1    26   9    58   
1st     PAS Giannina                    26   9    2    2    34   17   9    2    2    24   7    58   
1st     PAS Giannina                    26   11   1    1    36   17   6    4    3    24   13   56   
1st     PAS Giannina                    26   11   1    1    37   8    8    4    1    28   15   62   
1st     PAS Giannina                    26   10   2    1    31   14   5    7    1    26   17   54   
1st     PAS Giannina                    26   11   1    1    33   12   10   2    1    31   8    66   
2nd     PAS Giannina                    26   10   1    2    35   12   10   1    2    31   13   62   
2nd     PAS Giannina                    26   12   1    0    34   8    5    4    4    22   19   56   
1st     PAS Giannina                    26   12   1    0    29   4    7    3    3    30   15   61   
1st     PAS Giannina                    26   11   1    1    34   11   10   2    1    31   11   66   
1st     PAS Giannina                    26   11   1    1    30   11   7    4    2    26   12   59   
3rd     PAS Giannina                    26   9    3    1    33   12   5    2    6    19   18   47   
1st     PAS Giannina                    26   13   0    0    39   5    7    3    3    18   10   63   
2nd     PAS Giannina                    26   9    2    2    28   9    6    3    4    22   13   50   
1st     PAS Giannina                    26   11   1    1    30   9    9    2    2    28   12   63   
1st     PAS Giannina                    26   13   0    0    38   9    6    5    2    25   12   62   
2nd     PAS Giannina                    26   10   3    0    33   11   4    6    3    26   21   51   
2nd     PAS Giannina                    26   6    4    3    25   15   8    3    2    27   11   49   
1st     PAS Giannina                    26   10   2    1    35   15   10   2    1    27   11   64   
1st     PAS Giannina                    26   12   1    0    37   9    6    5    2    23   14   60   
1st     PAS Giannina                    26   11   2    0    33   9    6    5    2    22   10   58   