1st      PAS Giannina                    26   7    3    3    24   13   7    2    4    22   16   47
1st      PAS Giannina                    26   12   1    0    27   11   6    3    4    15   9    58
2nd     PAS Giannina                    26   10   2    1    29   13   5    3    5    12   10   50
2nd     PAS Giannina                    26   9    2    2    26   15   6    3    4    14   14   50
2nd     PAS Giannina                    26   8    2    3    26   16   7    4    2    19   8    51
1st      PAS Giannina                    26   11   2    0    33   11   8    3    2    21   10   62
1st      PAS Giannina                    26   8    3    2    23   12   9    3    1    19   7    57
2nd     PAS Giannina                    26   9    3    1    27   10   6    3    4    19   13   51
3rd     PAS Giannina                    26   8    2    3    25   15   2    7    4    15   21   39
1st      PAS Giannina                    26   11   1    1    28   8    5    6    2    17   12   55
1st      PAS Giannina                    26   10   3    0    23   8    6    2    5    18   14   53
1st      PAS Giannina                    26   10   3    0    36   11   5    5    3    23   23   53
1st      PAS Giannina                    26   11   0    2    26   12   10   2    1    26   10   65
1st      PAS Giannina                    26   9    4    0    28   14   4    3    6    12   15   46
3rd     PAS Giannina                    26   8    4    1    23   12   4    5    4    15   15   45
6th     PAS Giannina                    26   6    2    5    20   17   4    6    3    15   16   38
2nd     PAS Giannina                    26   9    4    0    23   7    7    2    4    18   11   54
6th     PAS Giannina                    26   4    5    4    25   19   7    2    4    13   10   40
2nd     PAS Giannina                    26   8    2    3    27   14   7    3    3    18   9    50
3rd     PAS Giannina                    26   6    4    3    25   15   9    2    2    19   5    51
5th     PAS Giannina                    26   7    2    4    21   13   5    2    6    15   18   40
2nd     PAS Giannina                    26   9    3    1    26   10   5    5    3    22   11   50
1st      PAS Giannina                    26   10   3    0    27   11   5    5    3    15   18   53
2nd     PAS Giannina                    26   9    2    2    30   11   6    3    4    20   16   50
5th     PAS Giannina                    26   7    2    4    22   20   5    3    5    15   17   41
3rd     PAS Giannina                    26   7    3    3    21   12   6    4    3    15   10   46
3rd     PAS Giannina                    26   7    3    3    19   13   5    5    3    15   11   44
1st      PAS Giannina                    26   11   1    1    27   9    6    2    5    17   17   54
2nd     PAS Giannina                    26   9    3    1    25   11   6    3    4    18   16   51
1st      PAS Giannina                    26   10   1    2    22   5    5    5    3    18   11   51
1st      PAS Giannina                    26   8    3    2    26   12   7    4    2    19   10   52
3rd     PAS Giannina                    26   8    4    1    22   8    3    7    3    15   13   44
5th     PAS Giannina                    26   8    3    2    21   8    4    5    4    16   11   44
3rd     PAS Giannina                    26   7    3    3    22   10   5    5    3    10   10   44
1st      PAS Giannina                    26   10   3    0    31   11   8    2    3    15   11   59
3rd     PAS Giannina                    26   9    3    1    25   10   4    3    6    9    16   45
1st      PAS Giannina                    26   9    3    1    26   6    6    4    3    17   15   52
1st      PAS Giannina                    26   9    1    3    25   13   8    4    1    26   12   56
2nd     PAS Giannina                    26   10   1    2    29   12   4    9    0    18   10   52
3rd     PAS Giannina                    26   8    1    4    24   15   5    4    4    17   11   44
1st      PAS Giannina                    26   8    5    0    33   16   7    5    1    14   7    55
4th     PAS Giannina                    26   9    2    2    27   10   3    7    3    15   13   45
3rd     PAS Giannina                    26   10   1    2    21   9    5    3    5    18   15   49
3rd     PAS Giannina                    26   10   2    1    29   8    5    3    5    18   14   50
4th     PAS Giannina                    26   6    2    5    17   12   6    6    1    21   14   44
2nd     PAS Giannina                    26   8    1    4    23   14   5    4    4    17   13   44
1st      PAS Giannina                    26   9    3    1    19   7    7    3    3    16   11   54
2nd     PAS Giannina                    26   8    2    3    30   17   5    2    6    13   13   43
2nd     PAS Giannina                    26   8    2    3    29   14   7    2    4    18   11   49
2nd     PAS Giannina                    26   8    3    2    26   9    6    4    3    21   16   49
1st      PAS Giannina                    26   12   1    0    33   7    9    2    2    19   10   66
1st      PAS Giannina                    26   10   3    0    29   7    7    4    2    16   10   58
1st      PAS Giannina                    26   9    2    2    30   15   6    3    4    18   12   50
1st      PAS Giannina                    26   10   3    0    31   14   8    4    1    24   11   61
1st      PAS Giannina                    26   9    2    2    21   10   7    4    2    19   13   54
2nd     PAS Giannina                    26   10   2    1    26   9    6    5    2    21   16   55
2nd     PAS Giannina                    26   6    3    4    23   14   9    1    3    18   9    49
2nd     PAS Giannina                    26   9    2    2    29   9    5    7    1    17   8    51
1st      PAS Giannina                    26   11   0    2    31   10   5    2    6    15   15   50
6th     PAS Giannina                    26   8    1    4    24   12   4    1    8    10   17   38
6th     PAS Giannina                    26   9    2    2    31   12   3    2    8    7    15   40
1st      PAS Giannina                    26   8    2    3    25   13   8    1    4    23   10   51
1st      PAS Giannina                    26   12   1    0    32   8    6    4    3    24   14   59
2nd     PAS Giannina                    26   12   1    0    32   7    4    6    3    14   11   55
2nd     PAS Giannina                    26   6    6    1    21   9    7    4    2    16   4    49
1st      PAS Giannina                    26   8    3    2    23   10   8    2    3    17   11   53
2nd     PAS Giannina                    26   9    2    2    28   15   4    5    4    18   18   46
2nd     PAS Giannina                    26   5    5    3    23   15   9    1    3    23   15   48
2nd     PAS Giannina                    26   10   3    0    31   9    6    3    4    16   12   54
1st      PAS Giannina                    26   10   2    1    25   10   7    4    2    19   10   57
1st      PAS Giannina                    26   10   3    0    25   10   10   2    1    25   8    65
2nd     PAS Giannina                    26   10   2    1    27   9    7    0    6    18   12   53
1st      PAS Giannina                    26   8    3    2    25   10   8    2    3    22   11   53
3rd     PAS Giannina                    26   8    3    2    15   6    7    1    5    22   14   49
2nd     PAS Giannina                    26   8    4    1    27   13   6    4    3    15   11   50
1st      PAS Giannina                    26   8    4    1    23   5    9    0    4    23   14   55
2nd     PAS Giannina                    26   8    4    1    28   14   6    3    4    18   17   49
2nd     PAS Giannina                    26   10   3    0    29   12   6    5    2    17   13   56
2nd     PAS Giannina                    26   9    2    2    26   9    4    4    5    12   16   45
2nd     PAS Giannina                    26   8    2    3    20   11   9    3    1    22   11   56
3rd     PAS Giannina                    26   8    3    2    23   10   5    4    4    16   14   46
1st      PAS Giannina                    26   9    4    0    32   7    6    3    4    14   10   52
2nd     PAS Giannina                    26   8    3    2    25   11   6    4    3    15   9    49
2nd     PAS Giannina                    26   8    3    2    25   15   6    2    5    24   18   47
3rd     PAS Giannina                    26   6    6    1    26   10   4    5    4    17   16   41
1st      PAS Giannina                    26   10   2    1    28   11   4    3    6    17   19   47
1st      PAS Giannina                    26   12   0    1    32   13   3    5    5    17   16   50
1st      PAS Giannina                    26   8    4    1    19   6    9    3    1    21   12   58
2nd     PAS Giannina                    26   10   2    1    34   13   8    2    3    18   11   58
3rd     PAS Giannina                    26   9    1    3    18   10   4    5    4    16   13   45
1st      PAS Giannina                    26   8    3    2    27   16   9    3    1    21   4    57
4th     PAS Giannina                    26   7    4    2    18   11   4    4    5    16   15   41
2nd     PAS Giannina                    26   9    4    0    28   10   7    4    2    27   18   56
1st      PAS Giannina                    26   10   2    1    29   12   7    5    1    23   12   58
6th     PAS Giannina                    26   5    5    3    23   17   3    7    3    12   10   36
1st      PAS Giannina                    26   10   2    1    23   7    9    2    2    21   11   61
1st      PAS Giannina                    26   9    3    1    28   9    7    4    2    23   14   55
2nd     PAS Giannina                    26   12   1    0    34   14   5    4    4    18   17   56
2nd     PAS Giannina                    26   9    3    1    27   9    6    2    5    20   16   50
1st      PAS Giannina                    26   11   0    2    28   13   6    3    4    21   17   54