11th    PAS Giannina                    26   6    5    2    21   14   2    2    9    15   28   31   
1st     PAS Giannina                    26   9    2    2    26   13   3    6    4    12   13   44   
5th     PAS Giannina                    26   7    3    3    20   15   5    2    6    16   16   41   
4th     PAS Giannina                    26   8    4    1    28   12   3    4    6    18   21   41   
4th     PAS Giannina                    26   5    6    2    25   19   5    4    4    18   19   40   
2nd     PAS Giannina                    26   6    3    4    22   16   6    3    4    21   17   42   
7th     PAS Giannina                    26   6    2    5    25   19   5    2    6    14   18   37   
3rd     PAS Giannina                    26   8    3    2    32   15   4    3    6    22   26   42   
4th     PAS Giannina                    26   6    4    3    25   17   4    5    4    20   20   39   
2nd     PAS Giannina                    26   10   1    2    33   14   4    1    8    19   23   44   
5th     PAS Giannina                    26   6    6    1    27   19   5    3    5    18   18   42   
2nd     PAS Giannina                    26   9    2    2    34   15   4    5    4    20   17   46   
9th     PAS Giannina                    26   5    4    4    21   18   4    3    6    12   16   34   
6th     PAS Giannina                    26   6    3    4    22   10   4    4    5    15   24   37   
1st     PAS Giannina                    26   8    3    2    25   15   7    4    2    27   19   52   
2nd     PAS Giannina                    26   10   2    1    31   16   4    3    6    21   27   47   
4th     PAS Giannina                    26   8    3    2    32   19   4    4    5    14   20   43   
3rd     PAS Giannina                    26   7    4    2    25   10   5    1    7    19   20   41   
3rd     PAS Giannina                    26   8    3    2    25   13   5    3    5    20   24   45   
2nd     PAS Giannina                    26   10   1    2    26   7    5    2    6    15   22   48   
4th     PAS Giannina                    26   10   2    1    28   9    2    4    7    15   24   42   
3rd     PAS Giannina                    26   8    3    2    25   9    6    1    6    19   20   46   
2nd     PAS Giannina                    26   9    3    1    30   15   5    4    4    13   16   49   
5th     PAS Giannina                    26   7    2    4    20   17   5    3    5    20   23   41   
3rd     PAS Giannina                    26   8    3    2    24   13   6    0    7    13   19   45   
4th     PAS Giannina                    26   8    3    2    25   14   5    1    7    14   20   43   
3rd     PAS Giannina                    26   7    2    4    26   18   4    4    5    16   20   39   
3rd     PAS Giannina                    26   6    2    5    26   23   7    3    3    19   12   44   
9th     PAS Giannina                    26   4    4    5    17   17   4    3    6    19   31   31   
3rd     PAS Giannina                    26   10   2    1    24   11   4    3    6    16   21   47   
3rd     PAS Giannina                    26   6    5    2    20   14   5    3    5    26   18   41   
2nd     PAS Giannina                    26   9    4    0    34   16   4    4    5    15   20   47   
7th     PAS Giannina                    26   8    3    2    30   16   2    4    7    10   20   37   
4th     PAS Giannina                    26   9    3    1    26   15   3    3    7    13   22   42   
3rd     PAS Giannina                    26   10   2    1    32   12   4    0    9    16   25   44   
4th     PAS Giannina                    26   8    3    2    27   16   4    3    6    13   18   42   
7th     PAS Giannina                    26   5    5    3    21   16   4    4    5    20   17   36   
3rd     PAS Giannina                    26   11   0    2    27   11   3    4    6    16   22   46   
3rd     PAS Giannina                    26   8    3    2    26   13   4    0    9    12   19   39   
2nd     PAS Giannina                    26   8    3    2    30   20   6    2    5    18   16   47   
9th     PAS Giannina                    26   6    3    4    19   16   3    2    8    18   31   32   
3rd     PAS Giannina                    26   7    2    4    27   22   5    5    3    16   12   43   
3rd     PAS Giannina                    26   10   2    1    32   12   3    7    3    22   22   48   
5th     PAS Giannina                    26   9    2    2    30   15   5    0    8    22   30   44   
3rd     PAS Giannina                    26   8    4    1    24   11   4    4    5    14   17   44   
2nd     PAS Giannina                    26   10   1    2    34   14   6    2    5    17   19   51   
10th    PAS Giannina                    26   5    4    4    24   14   3    3    7    16   22   31   
7th     PAS Giannina                    26   6    4    3    28   23   4    3    6    17   18   37   
2nd     PAS Giannina                    26   9    1    3    29   12   7    2    4    20   15   51   
2nd     PAS Giannina                    26   9    4    0    32   14   4    2    7    16   22   45   
1st     PAS Giannina                    26   10   1    2    29   15   6    1    6    20   18   50   
2nd     PAS Giannina                    26   10   0    3    31   18   4    3    6    17   19   45   
1st     PAS Giannina                    26   8    3    2    26   16   7    4    2    20   14   52   
2nd     PAS Giannina                    26   9    3    1    33   16   4    2    7    15   20   44   
4th     PAS Giannina                    26   9    2    2    29   16   2    3    8    13   23   38   
5th     PAS Giannina                    26   8    3    2    28   15   5    1    7    21   28   43   
2nd     PAS Giannina                    26   9    2    2    27   12   5    5    3    17   17   49   
2nd     PAS Giannina                    26   9    2    2    22   10   5    4    4    16   13   48   
3rd     PAS Giannina                    26   8    2    3    24   16   6    3    4    19   15   47   
7th     PAS Giannina                    26   8    3    2    29   19   2    4    7    17   21   37   
3rd     PAS Giannina                    26   7    3    3    28   21   5    2    6    22   21   41   
2nd     PAS Giannina                    26   8    3    2    32   16   5    4    4    22   18   46   
6th     PAS Giannina                    26   8    2    3    30   21   3    5    5    22   25   40   
5th     PAS Giannina                    26   7    3    3    27   22   4    4    5    22   20   40   
5th     PAS Giannina                    26   8    0    5    25   20   5    4    4    15   16   43   
2nd     PAS Giannina                    26   11   0    2    35   15   4    5    4    21   22   50   
2nd     PAS Giannina                    26   9    2    2    32   13   5    3    5    19   18   47   
10th    PAS Giannina                    26   5    2    6    21   23   4    2    7    13   16   31   
2nd     PAS Giannina                    26   9    3    1    30   12   7    3    3    17   14   54   
3rd     PAS Giannina                    26   7    5    1    23   14   4    3    6    19   24   41   
3rd     PAS Giannina                    26   8    0    5    24   22   6    2    5    16   13   44   
5th     PAS Giannina                    26   7    3    3    17   10   4    5    4    16   15   41   
2nd     PAS Giannina                    26   9    3    1    30   17   4    4    5    16   16   46   
1st     PAS Giannina                    26   11   2    0    34   17   3    4    6    14   15   48   
10th    PAS Giannina                    26   5    1    7    24   24   3    5    5    15   17   30   
2nd     PAS Giannina                    26   9    2    2    27   15   4    5    4    19   20   46   
2nd     PAS Giannina                    26   10   3    0    31   9    4    3    6    10   17   48   
1st     PAS Giannina                    26   10   2    1    28   15   8    2    3    26   19   58   
5th     PAS Giannina                    26   7    4    2    30   18   4    2    7    12   21   39   
3rd     PAS Giannina                    26   10   1    2    35   16   5    2    6    22   19   48   
2nd     PAS Giannina                    26   9    3    1    30   15   5    2    6    14   21   47   
5th     PAS Giannina                    26   10   2    1    32   11   2    3    8    17   28   41   
6th     PAS Giannina                    26   9    3    1    32   13   1    7    5    17   20   40   
2nd     PAS Giannina                    26   8    2    3    27   16   6    4    3    21   14   48   
1st     PAS Giannina                    26   10   2    1    29   12   4    3    6    16   20   47   
4th     PAS Giannina                    26   11   2    0    33   9    1    3    9    13   24   41   
4th     PAS Giannina                    26   8    3    2    25   15   4    3    6    13   19   42   
4th     PAS Giannina                    26   7    4    2    31   18   5    4    4    18   20   44   
6th     PAS Giannina                    26   10   1    2    29   14   2    5    6    15   25   42   
5th     PAS Giannina                    26   8    3    2    27   14   4    3    6    17   20   42   
5th     PAS Giannina                    26   8    3    2    32   19   4    3    6    15   20   42   
4th     PAS Giannina                    26   9    2    2    32   15   3    5    5    18   22   43   
2nd     PAS Giannina                    26   9    3    1    27   16   4    5    4    18   17   47   
10th    PAS Giannina                    26   5    4    4    24   16   2    3    8    7    23   28   
4th     PAS Giannina                    26   9    0    4    37   15   4    4    5    20   24   43   
5th     PAS Giannina                    26   9    2    2    35   16   5    2    6    19   24   46   
8th     PAS Giannina                    26   8    2    3    21   11   2    2    9    9    17   34   
5th     PAS Giannina                    26   7    3    3    23   14   3    3    7    18   25   36   
5th     PAS Giannina                    26   8    4    1    27   15   4    1    8    16   19   41   
3rd     PAS Giannina                    26   8    4    1    33   18   3    3    7    16   23   40   