14th     PAS Giannina                    26   4    4    5    16   20   0    4    9    8    24   20
14th     PAS Giannina                    26   3    5    5    12   17   0    2    11   9    28   16
13th     PAS Giannina                    26   4    4    5    13   14   3    3    7    14   27   28
14th     PAS Giannina                    26   3    5    5    17   20   1    1    11   12   30   18
13th     PAS Giannina                    26   5    2    6    18   21   3    3    7    9    16   29
13th     PAS Giannina                    26   4    4    5    18   19   1    3    9    14   28   22
14th     PAS Giannina                    26   0    3    10   9    26   2    2    9    10   20   11
13th     PAS Giannina                    26   5    3    5    14   11   1    3    9    10   33   24
12th    PAS Giannina                    26   5    2    6    17   23   1    4    8    8    25   24
13th     PAS Giannina                    26   5    4    4    14   15   1    5    7    9    23   27
14th     PAS Giannina                    26   4    3    6    13   21   2    2    9    9    25   23
12th    PAS Giannina                    26   5    3    5    12   17   1    1    11   9    29   22
14th     PAS Giannina                    26   5    2    6    14   19   0    0    13   8    31   17
14th     PAS Giannina                    26   5    5    3    12   10   0    4    9    4    20   24
13th     PAS Giannina                    26   4    3    6    17   18   1    2    10   11   28   20
14th     PAS Giannina                    26   3    6    4    13   15   1    1    11   6    27   19
13th     PAS Giannina                    26   7    1    5    20   19   0    2    11   8    30   24
12th    PAS Giannina                    26   5    2    6    18   22   2    2    9    10   20   25
10th    PAS Giannina                    26   5    5    3    23   19   2    2    9    12   26   28
13th     PAS Giannina                    26   6    3    4    23   15   0    4    9    9    24   25
13th     PAS Giannina                    26   3    3    7    15   20   1    2    10   8    25   17
14th     PAS Giannina                    26   3    3    7    12   18   0    1    12   8    31   13
14th     PAS Giannina                    26   5    3    5    20   22   0    2    11   7    20   20
13th     PAS Giannina                    26   5    5    3    20   17   2    1    10   7    25   27
9th     PAS Giannina                    26   6    1    6    17   19   4    2    7    11   22   33
14th     PAS Giannina                    26   4    6    3    19   18   0    2    11   8    31   20
13th     PAS Giannina                    26   3    6    4    19   21   0    1    12   5    28   16
11th    PAS Giannina                    26   7    3    3    24   18   1    1    11   9    26   28
14th     PAS Giannina                    26   3    5    5    15   17   2    2    9    10   21   22
14th     PAS Giannina                    26   3    6    4    17   18   1    1    11   8    30   19
14th     PAS Giannina                    26   4    1    8    13   20   1    2    10   6    23   18
11th    PAS Giannina                    26   5    2    6    19   18   2    4    7    12   22   27
13th     PAS Giannina                    26   4    3    6    12   18   1    2    10   10   24   20
13th     PAS Giannina                    26   6    3    4    19   14   1    2    10   7    25   26
11th    PAS Giannina                    26   4    7    2    15   13   0    6    7    9    23   25
9th     PAS Giannina                    26   7    2    4    17   13   2    2    9    10   24   31
14th     PAS Giannina                    26   6    2    5    19   19   0    1    12   9    30   21
14th     PAS Giannina                    26   4    3    6    16   20   2    0    11   15   30   21
14th     PAS Giannina                    26   4    3    6    15   22   1    1    11   4    27   19
13th     PAS Giannina                    26   5    3    5    17   18   2    1    10   10   27   25
14th     PAS Giannina                    26   3    3    7    19   23   1    4    8    9    26   19
14th     PAS Giannina                    26   3    5    5    24   26   2    0    11   7    32   20
14th     PAS Giannina                    26   5    2    6    21   18   1    4    8    7    21   24
13th     PAS Giannina                    26   3    6    4    18   19   0    3    10   6    24   18
9th     PAS Giannina                    26   7    4    2    21   15   2    2    9    11   28   33
13th     PAS Giannina                    26   5    3    5    18   15   1    5    7    11   30   26
8th     PAS Giannina                    26   6    5    2    24   15   2    6    5    16   19   35
11th    PAS Giannina                    26   8    1    4    24   15   1    2    10   12   32   30
5th     PAS Giannina                    26   8    1    4    24   16   2    5    6    8    17   36
13th     PAS Giannina                    26   4    4    5    14   22   2    2    9    14   29   24
11th    PAS Giannina                    26   6    3    4    23   19   2    2    9    8    22   29
11th    PAS Giannina                    26   6    2    5    24   21   2    4    7    8    14   30
11th    PAS Giannina                    26   6    1    6    17   19   2    2    9    10   26   27
14th     PAS Giannina                    26   2    6    5    18   20   1    3    9    9    24   18
9th     PAS Giannina                    26   7    4    2    19   13   2    1    10   7    20   32
8th     PAS Giannina                    26   5    4    4    19   19   3    6    4    11   18   34
14th     PAS Giannina                    26   4    4    5    12   18   2    3    8    11   23   25
14th     PAS Giannina                    26   4    4    5    20   19   1    2    10   7    27   21
12th    PAS Giannina                    26   7    2    4    27   17   1    1    11   8    25   27
12th    PAS Giannina                    26   3    3    7    14   18   2    4    7    7    17   22
14th     PAS Giannina                    26   4    3    6    15   18   1    1    11   6    26   19
14th     PAS Giannina                    26   3    3    7    17   22   1    1    11   6    25   16
14th     PAS Giannina                    26   4    3    6    18   21   0    1    12   9    30   16
13th     PAS Giannina                    26   4    2    7    16   19   2    1    10   8    22   21
13th     PAS Giannina                    26   6    2    5    23   21   1    2    10   6    26   25
13th     PAS Giannina                    26   4    1    8    14   25   3    5    5    11   15   27
14th     PAS Giannina                    26   4    3    6    17   18   1    4    8    9    27   22
14th     PAS Giannina                    26   3    2    8    17   26   1    2    10   9    25   16
8th     PAS Giannina                    26   7    2    4    24   18   3    4    6    13   23   36
13th     PAS Giannina                    26   5    2    6    18   20   2    4    7    11   23   27
14th     PAS Giannina                    26   3    3    7    18   24   2    1    10   8    26   19
14th     PAS Giannina                    26   3    4    6    16   18   1    2    10   12   30   18
9th     PAS Giannina                    26   5    4    4    24   24   3    2    8    15   21   30
12th    PAS Giannina                    26   5    4    4    18   20   2    0    11   9    26   25
12th    PAS Giannina                    26   7    4    2    23   13   2    0    11   12   28   31
13th     PAS Giannina                    26   5    3    5    19   19   1    1    11   10   33   22
13th     PAS Giannina                    26   6    1    6    19   18   3    0    10   16   29   28
14th     PAS Giannina                    26   5    2    6    17   21   0    2    11   5    27   19
13th     PAS Giannina                    26   3    4    6    15   22   0    2    11   6    30   15
12th    PAS Giannina                    26   7    4    2    24   12   0    4    9    8    25   29
12th    PAS Giannina                    26   5    5    3    18   15   2    0    11   6    32   26
7th     PAS Giannina                    26   10   1    2    27   13   1    4    8    9    24   38
14th     PAS Giannina                    26   5    5    3    15   14   0    3    10   10   27   23
14th     PAS Giannina                    26   3    3    7    19   23   0    3    10   7    25   15
13th     PAS Giannina                    26   4    5    4    19   21   0    0    13   6    32   17
13th     PAS Giannina                    26   5    3    5    19   22   1    0    12   7    30   21
14th     PAS Giannina                    26   5    3    5    15   14   1    4    8    12   26   25
13th     PAS Giannina                    26   3    3    7    16   24   3    2    8    8    22   23
13th     PAS Giannina                    26   2    6    5    15   19   0    3    10   8    26   15
10th    PAS Giannina                    26   5    3    5    18   18   4    2    7    12   23   32
11th    PAS Giannina                    26   6    0    7    20   19   4    1    8    18   26   31
13th     PAS Giannina                    26   5    3    5    21   19   2    1    10   5    24   25
14th     PAS Giannina                    26   6    3    4    18   17   0    0    13   9    25   21
14th     PAS Giannina                    26   5    1    7    18   25   0    5    8    5    22   21
14th     PAS Giannina                    26   2    3    8    17   22   1    5    7    7    23   17
14th     PAS Giannina                    26   1    7    5    16   23   0    1    12   6    34   11
13th     PAS Giannina                    26   3    4    6    18   22   0    5    8    7    22   18
14th     PAS Giannina                    26   3    5    5    23   26   1    1    11   11   30   18
11th    PAS Giannina                    26   6    4    3    16   9    2    1    10   10   32   29
13th     PAS Giannina                    26   4    6    3    17   13   1    3    9    10   21   24