1st     PAS Giannina                    26   10   0    3    33   13   9    2    2    27   13   59   
1st     PAS Giannina                    26   12   1    0    31   9    10   3    0    27   9    70   
1st     PAS Giannina                    26   10   2    1    34   11   9    2    2    28   10   61   
1st     PAS Giannina                    26   9    3    1    31   11   9    4    0    24   7    61   
1st     PAS Giannina                    26   11   1    1    33   7    9    2    2    27   11   63   
1st     PAS Giannina                    26   8    3    2    22   15   11   2    0    34   8    62   
2nd     PAS Giannina                    26   7    4    2    30   13   8    4    1    27   14   53   
1st     PAS Giannina                    26   9    2    2    25   11   9    4    0    33   13   60   
1st     PAS Giannina                    26   11   1    1    34   10   11   2    0    42   11   69   
1st     PAS Giannina                    26   10   3    0    32   11   9    2    2    31   14   62   
1st     PAS Giannina                    26   12   0    1    33   8    8    3    2    30   14   63   
1st     PAS Giannina                    26   12   1    0    34   10   5    5    3    25   19   57   
1st     PAS Giannina                    26   12   1    0    39   11   5    4    4    21   18   56   
1st     PAS Giannina                    26   8    3    2    33   18   11   1    1    29   7    61   
1st     PAS Giannina                    26   10   1    2    34   10   9    2    2    30   11   60   
1st     PAS Giannina                    26   9    3    1    30   11   11   2    0    33   12   65   
2nd     PAS Giannina                    26   12   1    0    35   7    5    4    4    26   23   56   
1st     PAS Giannina                    26   12   0    1    32   11   9    2    2    31   17   65   
1st     PAS Giannina                    26   11   2    0    35   11   8    3    2    31   15   62   
1st     PAS Giannina                    26   9    2    2    34   13   9    1    3    36   16   57   
2nd     PAS Giannina                    26   10   2    1    33   9    6    5    2    19   12   55   
1st     PAS Giannina                    26   10   3    0    34   15   8    2    3    27   14   59   
1st     PAS Giannina                    26   10   0    3    25   11   10   0    3    37   18   60   
1st     PAS Giannina                    26   8    3    2    26   11   10   2    1    26   11   59   
2nd     PAS Giannina                    26   9    4    0    31   13   8    2    3    20   12   57   
1st     PAS Giannina                    26   11   1    1    29   7    8    2    3    25   13   60   
1st     PAS Giannina                    26   11   1    1    36   13   8    2    3    28   18   60   
1st     PAS Giannina                    26   10   3    0    31   9    12   1    0    36   10   70   
2nd     PAS Giannina                    26   11   0    2    33   14   4    6    3    25   15   51   
1st     PAS Giannina                    26   10   2    1    32   8    10   2    1    30   14   64   
1st     PAS Giannina                    26   10   0    3    30   13   10   3    0    29   12   63   
4th     PAS Giannina                    26   6    2    5    25   19   9    1    3    30   16   48   
1st     PAS Giannina                    26   10   3    0    40   16   9    4    0    27   13   64   
1st     PAS Giannina                    26   9    4    0    25   10   6    3    4    26   18   52   
2nd     PAS Giannina                    26   7    4    2    26   17   7    4    2    32   15   50   
1st     PAS Giannina                    26   11   0    2    44   15   9    2    2    27   9    62   
1st     PAS Giannina                    26   9    3    1    34   9    10   2    1    32   8    62   
2nd     PAS Giannina                    26   11   1    1    32   9    6    4    3    26   19   56   
1st     PAS Giannina                    26   12   0    1    38   13   8    1    4    23   12   61   
1st     PAS Giannina                    26   11   2    0    29   9    9    2    2    28   13   64   
1st     PAS Giannina                    26   10   2    1    35   8    8    3    2    24   10   59   
1st     PAS Giannina                    26   13   0    0    42   8    5    5    3    22   17   59   
1st     PAS Giannina                    26   11   1    1    37   14   6    5    2    29   22   57   
1st     PAS Giannina                    26   11   1    1    39   11   10   2    1    35   10   66   
2nd     PAS Giannina                    26   10   0    3    39   14   7    2    4    29   17   53   
1st     PAS Giannina                    26   11   1    1    39   9    10   2    1    28   11   66   
2nd     PAS Giannina                    26   10   1    2    34   13   9    1    3    29   18   59   
1st     PAS Giannina                    26   10   2    1    39   11   11   2    0    32   10   67   
1st     PAS Giannina                    26   9    2    2    26   13   8    2    3    27   14   55   
1st     PAS Giannina                    26   10   2    1    34   16   8    3    2    26   14   59   
2nd     PAS Giannina                    26   8    5    0    30   14   6    5    2    21   14   52   
1st     PAS Giannina                    26   10   2    1    32   12   9    3    1    24   10   62   
2nd     PAS Giannina                    26   11   1    1    33   11   4    5    4    22   21   51   
1st     PAS Giannina                    26   11   2    0    37   8    8    3    2    25   13   62   
1st     PAS Giannina                    26   10   3    0    43   10   6    6    1    25   12   57   
1st     PAS Giannina                    26   11   2    0    35   11   9    3    1    29   15   65   
1st     PAS Giannina                    26   12   1    0    36   8    9    3    1    30   15   67   
1st     PAS Giannina                    26   12   1    0    34   12   5    6    2    27   15   58   
1st     PAS Giannina                    26   10   3    0    27   8    9    3    1    36   16   63   
1st     PAS Giannina                    26   11   2    0    35   11   5    3    5    27   21   53   
1st     PAS Giannina                    26   12   0    1    39   16   10   1    2    26   13   67   
1st     PAS Giannina                    26   11   1    1    33   15   9    3    1    32   15   64   
1st     PAS Giannina                    26   10   3    0    35   15   7    5    1    33   15   59   
1st     PAS Giannina                    26   13   0    0    35   6    5    5    3    28   21   59   
1st     PAS Giannina                    26   12   0    1    37   12   9    2    2    23   9    65   
1st     PAS Giannina                    26   12   0    1    38   14   8    4    1    25   12   64   
1st     PAS Giannina                    26   11   0    2    35   12   9    1    3    28   9    61   
1st     PAS Giannina                    26   13   0    0    37   9    8    2    3    27   14   65   
1st     PAS Giannina                    26   12   1    0    35   11   7    5    1    30   23   63   
1st     PAS Giannina                    26   12   1    0    35   10   10   3    0    36   11   70   
1st     PAS Giannina                    26   11   1    1    29   7    6    3    4    24   12   55   
1st     PAS Giannina                    26   9    2    2    38   12   11   1    1    37   10   63   
1st     PAS Giannina                    26   10   2    1    35   16   10   1    2    30   8    63   
1st     PAS Giannina                    26   11   0    2    30   15   9    1    3    28   11   61   
3rd     PAS Giannina                    26   10   2    1    34   13   4    4    5    18   20   48   
1st     PAS Giannina                    26   9    2    2    25   11   8    1    4    25   20   54   
1st     PAS Giannina                    26   13   0    0    39   8    9    2    2    30   16   68   
1st     PAS Giannina                    26   12   1    0    36   9    11   1    1    28   9    71   
1st     PAS Giannina                    26   9    3    1    38   15   11   2    0    40   12   65   
1st     PAS Giannina                    26   12   1    0    31   11   7    4    2    20   14   62   
1st     PAS Giannina                    26   11   2    0    37   14   9    1    3    25   12   63   
1st     PAS Giannina                    26   9    2    2    27   12   9    2    2    33   20   58   
1st     PAS Giannina                    26   11   1    1    30   7    10   3    0    35   12   67   
1st     PAS Giannina                    26   11   2    0    36   11   7    1    5    25   19   57   
2nd     PAS Giannina                    26   11   1    1    30   6    4    6    3    24   20   52   
1st     PAS Giannina                    26   12   1    0    44   12   8    2    3    25   10   63   
1st     PAS Giannina                    26   11   2    0    41   13   9    3    1    31   14   65   
1st     PAS Giannina                    26   12   0    1    34   8    11   0    2    28   10   69   
1st     PAS Giannina                    26   11   1    1    29   9    8    2    3    24   11   60   
1st     PAS Giannina                    26   12   1    0    37   6    7    5    1    24   10   63   
1st     PAS Giannina                    26   12   1    0    33   5    10   0    3    28   12   67   
1st     PAS Giannina                    26   11   1    1    35   13   11   1    1    30   9    68   
1st     PAS Giannina                    26   11   0    2    36   12   9    3    1    29   11   63   
1st     PAS Giannina                    26   9    4    0    31   11   11   2    0    32   6    66   
1st     PAS Giannina                    26   9    3    1    25   7    9    2    2    27   11   59   
1st     PAS Giannina                    26   9    1    3    32   10   7    2    4    27   20   51   
1st     PAS Giannina                    26   12   1    0    30   5    10   2    1    30   17   69   
1st     PAS Giannina                    26   8    1    4    27   15   7    3    3    26   15   49   
1st     PAS Giannina                    26   10   1    2    33   12   10   2    1    26   7    63   
1st     PAS Giannina                    26   12   0    1    38   10   9    2    2    25   15   65   