2nd     PAS Giannina                    26   10   3    0    34   19   6    1    6    21   16   52   
9th     PAS Giannina                    26   7    2    4    23   16   3    2    8    21   31   34   
2nd     PAS Giannina                    26   7    4    2    31   23   7    4    2    29   21   50   
2nd     PAS Giannina                    26   9    2    2    36   24   5    4    4    23   20   48   
3rd     PAS Giannina                    26   7    5    1    33   19   4    5    4    23   22   43   
2nd     PAS Giannina                    26   8    5    0    36   24   6    5    2    28   22   52   
5th     PAS Giannina                    26   7    1    5    25   22   5    4    4    21   18   41   
3rd     PAS Giannina                    26   9    1    3    35   18   4    3    6    15   19   43   
3rd     PAS Giannina                    26   9    1    3    32   16   6    1    6    19   20   47   
4th     PAS Giannina                    26   8    1    4    27   21   5    2    6    17   15   42   
1st     PAS Giannina                    26   11   2    0    31   9    5    2    6    20   20   52   
6th     PAS Giannina                    26   7    2    4    30   21   4    3    6    15   20   38   
4th     PAS Giannina                    26   7    4    2    28   19   4    3    6    13   17   40   
2nd     PAS Giannina                    26   7    5    1    32   19   6    4    3    21   16   48   
3rd     PAS Giannina                    26   8    3    2    33   22   4    3    6    16   17   42   
4th     PAS Giannina                    26   7    3    3    32   24   3    5    5    16   21   38   
3rd     PAS Giannina                    26   10   1    2    35   17   3    5    5    21   22   45   
3rd     PAS Giannina                    26   7    4    2    25   14   4    3    6    19   21   40   
4th     PAS Giannina                    26   7    3    3    29   13   4    4    5    21   19   40   
5th     PAS Giannina                    26   6    6    1    29   19   4    4    5    15   18   40   
5th     PAS Giannina                    26   7    2    4    23   20   5    2    6    21   20   40   
2nd     PAS Giannina                    26   9    1    3    26   17   8    1    4    24   15   53   
2nd     PAS Giannina                    26   8    1    4    25   11   7    1    5    18   19   47   
3rd     PAS Giannina                    26   9    1    3    31   20   6    1    6    22   27   47   
1st     PAS Giannina                    26   9    3    1    33   17   6    3    4    18   16   51   
2nd     PAS Giannina                    26   8    3    2    25   14   7    3    3    25   20   51   
2nd     PAS Giannina                    26   9    2    2    30   17   5    1    7    18   24   45   
2nd     PAS Giannina                    26   8    3    2    29   18   6    4    3    25   12   49   
6th     PAS Giannina                    26   8    4    1    27   13   3    3    7    17   23   40   
2nd     PAS Giannina                    26   10   2    1    30   13   3    6    4    23   23   47   
2nd     PAS Giannina                    26   10   2    1    26   13   5    4    4    18   17   51   
1st     PAS Giannina                    26   10   1    2    29   16   8    3    2    26   16   58   
1st     PAS Giannina                    26   8    4    1    34   16   7    2    4    20   16   51   
1st     PAS Giannina                    26   11   1    1    34   17   7    2    4    18   15   57   
2nd     PAS Giannina                    26   11   2    0    31   10   2    2    9    19   31   43   
1st     PAS Giannina                    26   9    1    3    30   16   8    3    2    28   16   55   
4th     PAS Giannina                    26   9    4    0    30   19   3    3    7    20   28   43   
2nd     PAS Giannina                    26   12   0    1    33   11   3    5    5    18   20   50   
2nd     PAS Giannina                    26   8    2    3    30   24   6    4    3    24   17   48   
2nd     PAS Giannina                    26   9    2    2    30   17   6    3    4    21   18   50   
2nd     PAS Giannina                    26   10   1    2    36   14   6    2    5    16   17   51   
2nd     PAS Giannina                    26   9    1    3    25   14   6    4    3    23   18   50   
3rd     PAS Giannina                    26   8    2    3    26   14   5    3    5    18   19   44   
2nd     PAS Giannina                    26   7    3    3    27   18   6    3    4    22   18   45   
5th     PAS Giannina                    26   5    4    4    15   14   4    5    4    23   23   36   
2nd     PAS Giannina                    26   11   0    2    32   13   7    2    4    29   23   56   
2nd     PAS Giannina                    26   9    2    2    26   14   7    1    5    24   20   51   
4th     PAS Giannina                    26   7    3    3    31   20   5    2    6    21   23   41   
5th     PAS Giannina                    26   8    4    1    28   13   5    2    6    23   23   45   
1st     PAS Giannina                    26   9    3    1    28   14   6    2    5    17   20   50   
2nd     PAS Giannina                    26   11   0    2    31   11   4    4    5    18   18   49   
2nd     PAS Giannina                    26   9    2    2    29   20   6    4    3    27   18   51   
2nd     PAS Giannina                    26   9    2    2    31   18   5    4    4    23   17   48   
1st     PAS Giannina                    26   9    3    1    27   13   9    1    3    28   13   58   
1st     PAS Giannina                    26   11   2    0    30   10   6    2    5    25   20   55   
3rd     PAS Giannina                    26   10   2    1    25   15   2    3    8    12   21   41   
2nd     PAS Giannina                    26   9    2    2    29   19   6    2    5    21   20   49   
4th     PAS Giannina                    26   9    3    1    32   17   4    3    6    18   22   45   
6th     PAS Giannina                    26   7    3    3    31   19   2    7    4    20   22   37   
1st     PAS Giannina                    26   8    2    3    28   22   11   0    2    26   16   59   
10th    PAS Giannina                    26   5    3    5    26   24   4    4    5    21   23   34   
2nd     PAS Giannina                    26   10   0    3    32   24   5    2    6    17   19   47   
4th     PAS Giannina                    26   8    3    2    33   21   4    3    6    21   20   42   
2nd     PAS Giannina                    26   11   2    0    34   15   7    1    5    26   20   57   
1st     PAS Giannina                    26   11   2    0    38   13   7    3    3    30   19   59   
2nd     PAS Giannina                    26   9    3    1    31   16   6    1    6    20   16   49   
1st     PAS Giannina                    26   9    2    2    32   17   9    0    4    28   20   56   
2nd     PAS Giannina                    26   7    2    4    35   20   6    3    4    23   18   44   
4th     PAS Giannina                    26   6    1    6    29   25   7    1    5    23   20   41   
2nd     PAS Giannina                    26   8    4    1    28   13   5    1    7    16   21   44   
4th     PAS Giannina                    26   10   1    2    30   13   4    2    7    20   20   45   
2nd     PAS Giannina                    26   8    2    3    26   18   6    2    5    23   19   46   
2nd     PAS Giannina                    26   11   1    1    38   17   4    4    5    18   17   50   
5th     PAS Giannina                    26   7    4    2    27   20   4    4    5    25   29   41   
4th     PAS Giannina                    26   6    6    1    28   19   5    4    4    15   11   43   
3rd     PAS Giannina                    26   6    4    3    28   18   5    2    6    17   21   39   
3rd     PAS Giannina                    26   7    3    3    30   21   4    4    5    18   20   40   
5th     PAS Giannina                    26   10   2    1    27   12   3    3    7    22   23   44   
1st     PAS Giannina                    26   9    2    2    34   21   9    1    3    25   12   57   
1st     PAS Giannina                    26   9    2    2    30   10   5    3    5    21   18   47   
2nd     PAS Giannina                    26   9    3    1    35   20   8    1    4    26   15   55   
3rd     PAS Giannina                    26   8    3    2    24   15   4    3    6    26   29   42   
1st     PAS Giannina                    26   10   2    1    36   18   5    3    5    21   16   50   
1st     PAS Giannina                    26   7    4    2    31   22   7    2    4    23   20   48   
7th     PAS Giannina                    26   6    3    4    27   23   5    1    7    24   26   37   
1st     PAS Giannina                    26   9    3    1    29   13   8    2    3    28   15   56   
9th     PAS Giannina                    26   6    4    3    20   16   3    4    6    13   20   35   
9th     PAS Giannina                    26   7    2    4    28   19   3    3    7    13   17   35   
1st     PAS Giannina                    26   10   2    1    34   12   4    6    3    21   19   50   
6th     PAS Giannina                    26   7    4    2    28   16   3    3    7    13   16   37   
5th     PAS Giannina                    26   8    1    4    28   21   4    3    6    26   24   40   
1st     PAS Giannina                    26   8    3    2    24   15   6    3    4    17   13   48   
4th     PAS Giannina                    26   7    3    3    29   19   5    5    3    22   19   44   
9th     PAS Giannina                    26   5    2    6    22   20   5    3    5    22   21   35   
6th     PAS Giannina                    26   7    4    2    34   20   3    2    8    16   26   36   
6th     PAS Giannina                    26   7    1    5    30   22   5    1    7    18   22   38   
2nd     PAS Giannina                    26   8    3    2    24   16   8    2    3    27   11   53   
2nd     PAS Giannina                    26   8    3    2    32   19   8    0    5    21   13   51   
1st     PAS Giannina                    26   8    4    1    31   15   6    5    2    20   17   51   
3rd     PAS Giannina                    26   6    5    2    26   17   6    3    4    24   21   44   