1st     PAS Giannina                    26   12   1    0    38   8    8    4    1    21   6    65   
1st     PAS Giannina                    26   12   0    1    34   8    8    1    4    20   10   61   
1st     PAS Giannina                    26   12   0    1    34   6    8    2    3    19   10   62   
1st     PAS Giannina                    26   12   0    1    35   8    8    5    0    29   13   65   
1st     PAS Giannina                    26   11   2    0    32   6    9    3    1    27   8    65   
1st     PAS Giannina                    26   12   1    0    41   10   9    2    2    25   11   66   
2nd     PAS Giannina                    26   10   2    1    24   6    7    4    2    24   17   57   
1st     PAS Giannina                    26   13   0    0    29   4    10   1    2    24   7    70   
1st     PAS Giannina                    26   12   0    1    26   7    10   2    1    31   11   68   
1st     PAS Giannina                    26   13   0    0    39   7    9    3    1    26   5    69   
1st     PAS Giannina                    26   10   3    0    31   14   11   1    1    25   6    67   
1st     PAS Giannina                    26   12   0    1    30   12   11   2    0    27   9    71   
1st     PAS Giannina                    26   9    3    1    28   8    8    4    1    23   8    58   
1st     PAS Giannina                    26   11   1    1    35   10   7    3    3    23   13   58   
1st     PAS Giannina                    26   11   1    1    31   8    11   1    1    29   8    68   
2nd     PAS Giannina                    26   9    3    1    24   6    6    5    2    28   12   53   
1st     PAS Giannina                    26   11   2    0    28   8    9    2    2    29   10   64   
1st     PAS Giannina                    26   10   1    2    31   11   9    2    2    33   13   60   
1st     PAS Giannina                    26   13   0    0    37   7    6    5    2    28   15   62   
1st     PAS Giannina                    26   10   2    1    34   10   12   0    1    35   7    68   
1st     PAS Giannina                    26   12   1    0    41   8    11   2    0    30   7    72   
1st     PAS Giannina                    26   11   2    0    31   8    8    3    2    17   9    62   
1st     PAS Giannina                    26   11   1    1    30   6    11   1    1    34   11   68   
1st     PAS Giannina                    26   12   0    1    27   8    10   1    2    32   15   67   
1st     PAS Giannina                    26   11   2    0    27   5    9    1    3    25   9    63   
1st     PAS Giannina                    26   13   0    0    31   5    11   1    1    26   4    73   
1st     PAS Giannina                    26   12   1    0    37   11   10   1    2    32   15   68   
1st     PAS Giannina                    26   10   2    1    24   6    8    4    1    25   16   60   
1st     PAS Giannina                    26   8    4    1    27   8    10   1    2    30   13   59   
1st     PAS Giannina                    26   12   1    0    39   6    10   1    2    24   9    68   
1st     PAS Giannina                    26   10   3    0    36   11   10   1    2    24   11   64   
1st     PAS Giannina                    26   11   2    0    34   10   11   2    0    28   9    70   
1st     PAS Giannina                    26   12   0    1    31   6    9    4    0    30   13   67   
1st     PAS Giannina                    26   12   1    0    35   9    8    2    3    28   12   63   
1st     PAS Giannina                    26   11   2    0    32   6    11   2    0    28   11   70   
1st     PAS Giannina                    26   10   2    1    29   15   10   2    1    23   6    64   
1st     PAS Giannina                    26   10   1    2    34   11   6    5    2    16   10   54   
1st     PAS Giannina                    26   11   2    0    31   11   10   3    0    28   11   68   
1st     PAS Giannina                    26   11   2    0    29   3    9    3    1    25   9    65   
1st     PAS Giannina                    26   11   2    0    30   5    7    5    1    22   10   61   
1st     PAS Giannina                    26   11   2    0    32   9    12   0    1    26   7    71   
1st     PAS Giannina                    26   12   1    0    35   10   10   3    0    33   7    70   
1st     PAS Giannina                    26   10   2    1    28   6    6    5    2    20   9    55   
1st     PAS Giannina                    26   10   2    1    33   9    10   3    0    23   4    65   
1st     PAS Giannina                    26   10   3    0    22   5    7    6    0    16   6    60   
1st     PAS Giannina                    26   9    3    1    24   8    8    2    3    26   14   56   
1st     PAS Giannina                    26   12   1    0    33   11   9    3    1    34   12   67   
1st     PAS Giannina                    26   11   2    0    30   8    9    3    1    27   6    65   
1st     PAS Giannina                    26   11   2    0    27   5    7    2    4    15   9    58   
1st     PAS Giannina                    26   11   1    1    32   8    9    4    0    27   6    65   
1st     PAS Giannina                    26   11   0    2    32   14   7    5    1    25   13   59   
2nd     PAS Giannina                    26   6    5    2    26   13   8    3    2    26   11   50   
1st     PAS Giannina                    26   12   1    0    30   8    8    3    2    24   9    64   
1st     PAS Giannina                    26   10   2    1    28   12   10   2    1    23   6    64   
1st     PAS Giannina                    26   12   0    1    34   7    7    3    3    22   12   60   
2nd     PAS Giannina                    26   9    4    0    29   11   5    5    3    15   10   51   
1st     PAS Giannina                    26   9    3    1    26   10   10   2    1    23   6    62   
1st     PAS Giannina                    26   7    5    1    24   10   11   1    1    26   10   60   
1st     PAS Giannina                    26   10   2    1    36   12   8    4    1    30   7    60   
1st     PAS Giannina                    26   10   3    0    33   9    10   3    0    26   7    66   
1st     PAS Giannina                    26   10   1    2    29   8    10   1    2    28   9    62   
1st     PAS Giannina                    26   9    4    0    35   10   8    3    2    28   12   58   
1st     PAS Giannina                    26   10   3    0    29   12   8    1    4    25   13   58   
1st     PAS Giannina                    26   12   1    0    32   5    11   0    2    27   8    70   
1st     PAS Giannina                    26   9    2    2    24   9    8    3    2    28   16   56   
1st     PAS Giannina                    26   10   1    2    30   14   7    5    1    24   12   57   
1st     PAS Giannina                    26   12   0    1    29   8    9    3    1    33   17   66   
1st     PAS Giannina                    26   13   0    0    34   5    8    4    1    26   7    67   
1st     PAS Giannina                    26   9    2    2    31   9    9    3    1    25   9    59   
1st     PAS Giannina                    26   12   1    0    33   8    10   3    0    30   8    70   
1st     PAS Giannina                    26   9    4    0    27   8    9    2    2    22   12   60   
1st     PAS Giannina                    26   11   2    0    38   11   8    3    2    23   11   62   
1st     PAS Giannina                    26   13   0    0    40   11   11   1    1    25   6    73   
1st     PAS Giannina                    26   12   1    0    33   3    9    4    0    26   8    68   
1st     PAS Giannina                    26   9    3    1    24   6    11   0    2    24   9    63   
1st     PAS Giannina                    26   12   0    1    33   9    9    4    0    27   10   67   
1st     PAS Giannina                    26   12   1    0    36   7    7    4    2    29   18   62   
2nd     PAS Giannina                    26   9    3    1    31   10   7    5    1    22   11   56   
1st     PAS Giannina                    26   10   2    1    30   6    9    2    2    21   7    61   
1st     PAS Giannina                    26   11   1    1    35   15   12   0    1    38   14   70   
1st     PAS Giannina                    26   11   1    1    33   11   7    4    2    27   14   59   
1st     PAS Giannina                    26   12   1    0    41   9    5    6    2    22   10   58   
1st     PAS Giannina                    26   8    4    1    28   11   12   1    0    31   9    65   
1st     PAS Giannina                    26   13   0    0    32   4    8    3    2    26   12   66   
1st     PAS Giannina                    26   10   3    0    30   10   8    5    0    27   7    62   
1st     PAS Giannina                    26   11   2    0    34   11   11   1    1    33   12   69   
1st     PAS Giannina                    26   9    3    1    25   9    9    1    3    22   12   58   
1st     PAS Giannina                    26   11   2    0    32   12   9    3    1    25   7    65   
1st     PAS Giannina                    26   11   2    0    22   4    8    5    0    18   6    64   
1st     PAS Giannina                    26   9    2    2    28   10   9    4    0    26   10   60   
1st     PAS Giannina                    26   12   0    1    37   10   8    3    2    26   10   63   
2nd     PAS Giannina                    26   9    2    2    28   10   8    4    1    28   11   57   
1st     PAS Giannina                    26   10   3    0    26   4    11   1    1    28   9    67   
1st     PAS Giannina                    26   12   1    0    30   6    8    3    2    22   9    64   
1st     PAS Giannina                    26   12   0    1    29   6    10   1    2    26   12   67   
1st     PAS Giannina                    26   10   2    1    26   7    9    2    2    29   11   61   
1st     PAS Giannina                    26   11   2    0    27   8    8    4    1    21   7    63   
1st     PAS Giannina                    26   13   0    0    38   8    7    3    3    26   13   63   
2nd     PAS Giannina                    26   10   2    1    31   13   7    4    2    23   13   57   
1st     PAS Giannina                    26   11   2    0    33   5    9    1    3    28   15   63   