2nd     PAS Giannina            26   8    3    2    18   8    5    4    4    14   14   46
5th     PAS Giannina            26   9    1    3    21   12   3    4    6    13   17   41
7th     PAS Giannina            26   6    2    5    19   13   5    2    6    11   12   37
2nd     PAS Giannina            26   7    3    3    21   14   6    4    3    19   11   46
7th     PAS Giannina            26   6    2    5    12   12   3    5    5    11   13   34
8th     PAS Giannina            26   7    3    3    19   13   3    3    7    8    19   36
7th     PAS Giannina            26   5    3    5    13   11   4    4    5    10   12   34
6th     PAS Giannina            26   6    4    3    21   12   3    6    4    12   12   37
6th     PAS Giannina            26   9    1    3    23   14   3    3    7    12   20   40
3rd     PAS Giannina            26   9    1    3    21   10   6    1    6    17   19   47
7th     PAS Giannina            26   8    3    2    17   10   2    5    6    14   20   38
11th    PAS Giannina            26   5    3    5    18   20   2    6    5    15   18   30
4th     PAS Giannina            26   8    2    3    18   12   5    2    6    17   19   43
4th     PAS Giannina            26   8    2    3    29   15   4    2    7    10   17   40
1st      PAS Giannina            26   9    3    1    28   16   5    3    5    11   13   48
4th     PAS Giannina            26   9    3    1    21   9    2    7    4    12   18   43
7th     PAS Giannina            26   7    2    4    22   10   3    4    6    15   20   36
3rd     PAS Giannina            26   9    1    3    31   11   7    2    4    19   18   51
5th     PAS Giannina            26   7    4    2    20   13   3    6    4    15   21   40
10th    PAS Giannina            26   5    5    3    14   9    1    4    8    12   27   27
3rd     PAS Giannina            26   8    2    3    25   16   5    3    5    11   12   44
4th     PAS Giannina            26   11   0    2    27   11   4    0    9    10   19   45
7th     PAS Giannina            26   6    3    4    17   12   4    2    7    14   20   35
11th    PAS Giannina            26   5    5    3    18   11   1    4    8    6    17   27
7th     PAS Giannina            26   8    2    3    21   11   2    5    6    12   15   37
8th     PAS Giannina            26   8    3    2    19   14   3    3    7    11   16   39
3rd     PAS Giannina            26   7    4    2    20   12   4    3    6    8    12   40
6th     PAS Giannina            26   5    5    3    18   15   5    3    5    11   14   38
2nd     PAS Giannina            26   10   3    0    25   10   5    3    5    13   16   51
10th    PAS Giannina            26   6    3    4    22   17   2    5    6    17   21   32
8th     PAS Giannina            26   5    3    5    17   18   4    3    6    9    12   33
12th    PAS Giannina            26   6    3    4    21   12   0    4    9    6    24   25
8th     PAS Giannina            26   6    3    4    20   16   1    6    6    12   21   30
1st      PAS Giannina            26   9    3    1    22   7    6    3    4    16   15   51
13th     PAS Giannina            26   3    3    7    14   18   2    2    9    12   23   20
3rd     PAS Giannina            26   8    4    1    20   9    5    2    6    15   16   45
7th     PAS Giannina            26   7    1    5    19   13   3    7    3    15   15   38
2nd     PAS Giannina            26   10   2    1    27   14   6    2    5    16   15   52
10th    PAS Giannina            26   6    4    3    19   17   2    3    8    11   18   31
5th     PAS Giannina            26   6    3    4    25   20   4    6    3    16   16   39
3rd     PAS Giannina            26   6    6    1    17   8    5    3    5    15   17   42
6th     PAS Giannina            26   5    3    5    14   15   5    3    5    13   13   36
2nd     PAS Giannina            26   10   1    2    34   14   4    7    2    16   14   50
8th     PAS Giannina            26   8    2    3    21   13   1    5    7    12   22   34
9th     PAS Giannina            26   6    4    3    19   13   3    2    8    13   25   33
14th     PAS Giannina            26   4    5    4    15   13   0    5    8    11   24   22
4th     PAS Giannina            26   8    2    3    23   10   4    3    6    14   18   41
8th     PAS Giannina            26   3    5    5    14   16   5    5    3    17   17   34
3rd     PAS Giannina            26   7    3    3    21   15   3    7    3    13   14   40
7th     PAS Giannina            26   5    3    5    15   11   4    4    5    16   17   34
5th     PAS Giannina            26   5    5    3    20   14   5    4    4    15   14   39
3rd     PAS Giannina            26   7    3    3    23   14   5    2    6    14   20   41
10th    PAS Giannina            26   5    2    6    18   16   3    4    6    14   17   30
3rd     PAS Giannina            26   5    3    5    19   17   7    2    4    18   14   41
12th    PAS Giannina            26   7    1    5    18   15   1    5    7    14   24   30
5th     PAS Giannina            26   8    2    3    19   12   3    6    4    13   14   41
12th    PAS Giannina            26   3    6    4    12   14   2    4    7    13   24   25
7th     PAS Giannina            26   8    4    1    25   13   3    3    7    10   21   40
9th     PAS Giannina            26   6    5    2    15   9    2    5    6    9    15   34
8th     PAS Giannina            26   5    7    1    20   14   3    4    6    16   20   35
10th    PAS Giannina            26   8    2    3    22   11   2    1    10   9    21   33
4th     PAS Giannina            26   7    3    3    20   15   5    5    3    17   14   44
2nd     PAS Giannina            26   7    4    2    21   12   5    3    5    12   14   43
8th     PAS Giannina            26   5    4    4    16   13   4    2    7    15   23   33
3rd     PAS Giannina            26   7    4    2    18   9    7    1    5    20   17   47
9th     PAS Giannina            26   5    3    5    22   21   5    2    6    13   19   35
10th    PAS Giannina            26   6    4    3    19   13   1    3    9    7    24   28
12th    PAS Giannina            26   5    2    6    14   14   2    1    10   12   26   24
7th     PAS Giannina            26   8    2    3    23   13   2    5    6    14   24   37
6th     PAS Giannina            26   8    3    2    21   11   3    3    7    7    14   39
3rd     PAS Giannina            26   9    3    1    24   8    4    3    6    11   12   45
7th     PAS Giannina            26   7    2    4    18   14   3    4    6    8    14   36
6th     PAS Giannina            26   6    4    3    20   14   4    4    5    13   13   38
6th     PAS Giannina            26   10   1    2    26   13   3    2    8    12   23   42
13th     PAS Giannina            26   3    8    2    19   16   2    3    8    12   23   26
10th    PAS Giannina            26   6    5    2    22   15   2    3    8    14   22   32
4th     PAS Giannina            26   8    2    3    17   8    4    3    6    16   20   41
4th     PAS Giannina            26   4    5    4    22   19   7    3    3    16   14   41
4th     PAS Giannina            26   6    4    3    18   13   6    2    5    16   14   42
5th     PAS Giannina            26   7    3    3    22   12   4    3    6    16   20   39
7th     PAS Giannina            26   7    4    2    20   10   4    0    9    18   27   37
8th     PAS Giannina            26   4    4    5    17   14   5    4    4    15   16   35
4th     PAS Giannina            26   7    1    5    16   11   5    4    4    15   14   41
11th    PAS Giannina            26   8    3    2    19   9    1    4    8    12   26   34
2nd     PAS Giannina            26   9    4    0    21   9    7    2    4    16   10   54
6th     PAS Giannina            26   7    2    4    17   11   5    2    6    15   14   40
11th    PAS Giannina            26   7    3    3    25   15   1    3    9    12   22   30
4th     PAS Giannina            26   8    1    4    21   11   5    3    5    17   21   43
8th     PAS Giannina            26   6    6    1    19   9    3    2    8    10   21   35
10th    PAS Giannina            26   5    5    3    11   7    3    3    7    12   21   32
11th    PAS Giannina            26   7    0    6    23   16   1    5    7    9    20   29
5th     PAS Giannina            26   7    5    1    14   7    4    6    3    8    10   44
8th     PAS Giannina            26   7    3    3    25   13   2    4    7    16   17   34
11th    PAS Giannina            26   4    4    5    13   16   2    6    5    7    13   28
6th     PAS Giannina            26   6    4    3    15   11   5    2    6    11   14   39
10th    PAS Giannina            26   5    2    6    13   20   4    3    6    14   15   32
4th     PAS Giannina            26   7    3    3    28   17   6    0    7    16   19   42
3rd     PAS Giannina            26   8    2    3    21   13   5    2    6    14   21   43
10th    PAS Giannina            26   7    3    3    19   12   2    3    8    10   17   33
5th     PAS Giannina            26   7    4    2    21   15   3    3    7    11   18   37