1st     PAS Giannina                    26   11   1    1    33   12   6    2    5    24   18   54   
3rd     PAS Giannina                    26   9    1    3    32   15   5    2    6    24   24   45   
4th     PAS Giannina                    26   6    6    1    27   13   5    3    5    13   19   42   
3rd     PAS Giannina                    26   6    2    5    24   21   7    3    3    21   17   44   
8th     PAS Giannina                    26   8    1    4    28   18   3    3    7    16   23   37   
1st     PAS Giannina                    26   11   1    1    30   14   5    4    4    13   11   53   
1st     PAS Giannina                    26   9    3    1    26   10   7    3    3    25   17   54   
1st     PAS Giannina                    26   9    0    4    32   18   9    4    0    26   10   58   
2nd     PAS Giannina                    26   9    2    2    28   16   4    5    4    13   15   46   
4th     PAS Giannina                    26   6    3    4    23   18   6    2    5    21   17   41   
3rd     PAS Giannina                    26   10   0    3    34   18   5    1    7    18   19   46   
2nd     PAS Giannina                    26   9    3    1    41   16   8    0    5    22   17   54   
2nd     PAS Giannina                    26   9    1    3    27   14   6    3    4    15   17   49   
5th     PAS Giannina                    26   10   1    2    29   12   3    3    7    14   19   43   
3rd     PAS Giannina                    26   10   2    1    32   11   2    6    5    11   16   44   
4th     PAS Giannina                    26   9    3    1    34   16   4    3    6    15   22   45   
1st     PAS Giannina                    26   10   2    1    26   10   6    1    6    16   15   51   
1st     PAS Giannina                    26   10   2    1    31   15   6    0    7    25   20   50   
3rd     PAS Giannina                    26   8    4    1    28   16   6    3    4    11   11   49   
2nd     PAS Giannina                    26   10   2    1    32   15   5    4    4    21   22   51   
2nd     PAS Giannina                    26   8    3    2    31   18   6    2    5    21   18   47   
4th     PAS Giannina                    26   9    2    2    29   15   4    3    6    17   20   44   
1st     PAS Giannina                    26   9    4    0    28   15   7    3    3    24   15   55   
4th     PAS Giannina                    26   8    1    4    31   20   4    6    3    17   15   43   
2nd     PAS Giannina                    26   10   0    3    36   17   6    3    4    26   21   51   
2nd     PAS Giannina                    26   11   1    1    30   11   4    3    6    13   16   49   
1st     PAS Giannina                    26   11   2    0    33   13   7    1    5    18   16   57   
1st     PAS Giannina                    26   7    3    3    21   16   8    2    3    25   17   50   
2nd     PAS Giannina                    26   9    2    2    25   17   5    4    4    18   13   48   
1st     PAS Giannina                    26   10   3    0    34   11   8    2    3    19   13   59   
2nd     PAS Giannina                    26   8    1    4    30   17   8    3    2    24   19   52   
4th     PAS Giannina                    26   8    4    1    30   18   3    5    5    15   18   42   
3rd     PAS Giannina                    26   10   0    3    35   16   3    5    5    12   17   44   
2nd     PAS Giannina                    26   10   1    2    26   11   4    2    7    14   20   45   
5th     PAS Giannina                    26   7    5    1    28   19   5    3    5    16   19   44   
1st     PAS Giannina                    26   11   1    1    31   9    6    3    4    25   19   55   
1st     PAS Giannina                    26   7    5    1    27   15   6    5    2    24   14   49   
1st     PAS Giannina                    26   10   1    2    32   15   4    5    4    16   16   48   
1st     PAS Giannina                    26   8    2    3    27   18   8    3    2    25   14   53   
2nd     PAS Giannina                    26   9    2    2    30   14   4    4    5    22   23   45   
2nd     PAS Giannina                    26   8    2    3    28   14   7    2    4    20   22   49   
5th     PAS Giannina                    26   8    3    2    21   14   4    4    5    21   27   43   
2nd     PAS Giannina                    26   10   2    1    31   18   5    3    5    22   23   50   
1st     PAS Giannina                    26   9    2    2    29   11   6    4    3    20   15   51   
6th     PAS Giannina                    26   6    3    4    26   17   2    7    4    16   20   34   
1st     PAS Giannina                    26   9    2    2    32   16   6    2    5    15   14   49   
2nd     PAS Giannina                    26   9    2    2    30   18   7    3    3    22   15   53   
6th     PAS Giannina                    26   8    3    2    21   9    2    5    6    14   19   38   
6th     PAS Giannina                    26   6    3    4    33   23   4    5    4    17   12   38   
3rd     PAS Giannina                    26   8    2    3    28   16   6    2    5    22   21   46   
3rd     PAS Giannina                    26   10   0    3    29   14   4    5    4    17   15   47   
1st     PAS Giannina                    26   9    1    3    27   15   8    2    3    23   16   54   
3rd     PAS Giannina                    26   7    4    2    26   16   6    3    4    17   17   46   
10th    PAS Giannina                    26   8    1    4    24   14   2    2    9    10   19   33   
6th     PAS Giannina                    26   9    2    2    36   20   2    4    7    16   23   39   
3rd     PAS Giannina                    26   7    3    3    23   13   5    4    4    18   12   43   
1st     PAS Giannina                    26   11   2    0    30   12   6    2    5    24   19   55   
2nd     PAS Giannina                    26   8    2    3    31   19   6    3    4    19   14   47   
2nd     PAS Giannina                    26   12   0    1    32   6    4    1    8    15   16   49   
4th     PAS Giannina                    26   10   0    3    29   16   4    4    5    8    13   46   
1st     PAS Giannina                    26   12   0    1    33   12   3    5    5    19   24   50   
5th     PAS Giannina                    26   9    0    4    27   16   3    3    7    21   25   39   
1st     PAS Giannina                    26   12   1    0    32   13   6    3    4    24   18   58   
9th     PAS Giannina                    26   7    1    5    30   25   3    3    7    14   19   34   
1st     PAS Giannina                    26   10   2    1    30   9    6    4    3    21   16   54   
2nd     PAS Giannina                    26   7    2    4    27   16   6    1    6    24   24   42   
3rd     PAS Giannina                    26   11   1    1    30   13   4    3    6    21   31   49   
1st     PAS Giannina                    26   11   0    2    36   16   8    3    2    25   18   60   
5th     PAS Giannina                    26   8    2    3    32   17   2    7    4    19   18   39   
2nd     PAS Giannina                    26   9    3    1    31   13   4    4    5    15   15   46   
4th     PAS Giannina                    26   7    4    2    23   19   5    1    7    18   18   41   
3rd     PAS Giannina                    26   10   3    0    38   16   1    4    8    13   21   40   
6th     PAS Giannina                    26   8    2    3    25   19   4    2    7    16   18   40   
2nd     PAS Giannina                    26   8    3    2    31   16   6    3    4    19   13   48   
3rd     PAS Giannina                    26   7    4    2    30   16   6    3    4    20   14   46   
2nd     PAS Giannina                    26   8    3    2    26   20   5    4    4    24   22   46   
2nd     PAS Giannina                    26   9    1    3    30   18   7    0    6    20   19   49   
5th     PAS Giannina                    26   9    1    3    29   15   3    3    7    17   20   40   
4th     PAS Giannina                    26   6    3    4    21   14   6    3    4    19   15   42   
1st     PAS Giannina                    26   9    3    1    33   17   7    4    2    25   11   55   
2nd     PAS Giannina                    26   8    3    2    29   16   8    4    1    21   11   55   
4th     PAS Giannina                    26   7    2    4    24   19   6    2    5    21   17   43   
2nd     PAS Giannina                    26   8    3    2    34   18   5    5    3    20   19   47   
2nd     PAS Giannina                    26   11   1    1    35   18   4    5    4    17   14   51   
2nd     PAS Giannina                    26   8    3    2    26   11   8    4    1    23   13   55   
1st     PAS Giannina                    26   10   2    1    31   11   4    7    2    15   8    51   
4th     PAS Giannina                    26   7    2    4    27   19   6    2    5    21   17   43   
2nd     PAS Giannina                    26   10   3    0    28   14   6    3    4    17   15   54   
1st     PAS Giannina                    26   8    4    1    30   14   6    4    3    19   16   50   
7th     PAS Giannina                    26   5    5    3    24   20   5    3    5    18   17   38   
3rd     PAS Giannina                    26   8    3    2    22   12   6    3    4    20   14   48   
1st     PAS Giannina                    26   8    3    2    26   17   10   2    1    25   13   59   
3rd     PAS Giannina                    26   8    3    2    24   14   7    3    3    22   14   51   
4th     PAS Giannina                    26   8    3    2    25   13   4    2    7    16   23   41   
2nd     PAS Giannina                    26   8    3    2    26   16   4    3    6    17   14   42   
6th     PAS Giannina                    26   9    1    3    30   16   3    2    8    12   17   39   
2nd     PAS Giannina                    26   10   2    1    32   13   4    6    3    16   14   50   
2nd     PAS Giannina                    26   9    3    1    28   10   4    6    3    17   14   48   
9th     PAS Giannina                    26   5    4    4    15   11   3    5    5    15   16   33   
6th     PAS Giannina                    26   8    4    1    28   16   3    2    8    16   21   39   