2nd     PAS Giannina                    26   9    4    0    34   11   7    1    5    23   12   53   
1st     PAS Giannina                    26   12   0    1    33   7    7    4    2    25   12   61   
2nd     PAS Giannina                    26   9    3    1    26   8    9    1    3    29   15   58   
1st     PAS Giannina                    26   12   0    1    38   15   6    5    2    26   18   59   
2nd     PAS Giannina                    26   11   0    2    39   16   4    5    4    11   13   50   
2nd     PAS Giannina                    26   8    4    1    31   15   8    3    2    19   10   55   
1st     PAS Giannina                    26   10   2    1    35   13   9    3    1    27   15   62   
2nd     PAS Giannina                    26   10   2    1    26   7    6    4    3    18   12   54   
1st     PAS Giannina                    26   11   2    0    34   13   9    2    2    28   11   64   
1st     PAS Giannina                    26   11   1    1    31   12   8    2    3    29   14   60   
1st     PAS Giannina                    26   10   2    1    34   17   9    4    0    23   9    63   
1st     PAS Giannina                    26   10   3    0    27   10   8    2    3    24   14   59   
2nd     PAS Giannina                    26   9    4    0    29   11   7    1    5    17   18   53   
2nd     PAS Giannina                    26   8    4    1    27   10   8    1    4    31   23   53   
1st     PAS Giannina                    26   10   3    0    35   14   8    1    4    27   18   58   
1st     PAS Giannina                    26   9    1    3    29   17   9    3    1    28   11   58   
2nd     PAS Giannina                    26   10   3    0    32   9    6    2    5    21   19   53   
1st     PAS Giannina                    26   10   1    2    31   12   11   2    0    21   6    66   
1st     PAS Giannina                    26   12   0    1    33   7    8    3    2    24   13   63   
2nd     PAS Giannina                    26   9    1    3    30   15   9    0    4    22   11   55   
1st     PAS Giannina                    26   10   1    2    26   8    6    4    3    17   10   53   
1st     PAS Giannina                    26   8    3    2    29   18   8    5    0    30   14   56   
2nd     PAS Giannina                    26   8    1    4    29   17   7    1    5    21   14   47   
1st     PAS Giannina                    26   11   2    0    33   14   7    2    4    26   19   58   
2nd     PAS Giannina                    26   11   1    1    42   14   7    2    4    21   13   57   
1st     PAS Giannina                    26   11   0    2    29   9    8    3    2    28   14   60   
1st     PAS Giannina                    26   9    3    1    34   14   6    5    2    21   11   53   
1st     PAS Giannina                    26   10   2    1    32   13   3    9    1    20   16   50   
2nd     PAS Giannina                    26   10   3    0    27   12   4    6    3    18   17   51   
1st     PAS Giannina                    26   8    3    2    21   9    7    4    2    24   16   52   
1st     PAS Giannina                    26   9    3    1    26   12   7    4    2    19   11   55   
1st     PAS Giannina                    26   10   2    1    32   11   8    1    4    27   13   57   
2nd     PAS Giannina                    26   10   1    2    30   14   5    3    5    29   19   49   
1st     PAS Giannina                    26   12   1    0    41   10   7    5    1    28   15   63   
2nd     PAS Giannina                    26   11   1    1    29   14   6    4    3    21   15   56   
1st     PAS Giannina                    26   13   0    0    35   11   4    5    4    22   17   56   
1st     PAS Giannina                    26   11   1    1    31   17   10   2    1    25   10   66   
1st     PAS Giannina                    26   8    3    2    31   12   8    2    3    27   16   53   
1st     PAS Giannina                    26   12   0    1    31   8    7    2    4    29   19   59   
2nd     PAS Giannina                    26   10   1    2    29   14   6    3    4    26   19   52   
1st     PAS Giannina                    26   7    5    1    33   17   9    0    4    26   16   53   
1st     PAS Giannina                    26   11   1    1    35   15   8    1    4    28   21   59   
1st     PAS Giannina                    26   10   3    0    30   11   7    3    3    24   15   57   
1st     PAS Giannina                    26   10   1    2    35   18   6    4    3    31   18   53   
1st     PAS Giannina                    26   8    3    2    26   15   8    3    2    21   11   54   
1st     PAS Giannina                    26   10   3    0    30   11   5    5    3    23   15   53   
1st     PAS Giannina                    26   10   2    1    34   12   9    1    3    23   11   60   
1st     PAS Giannina                    26   8    4    1    25   10   8    4    1    25   10   56   
2nd     PAS Giannina                    26   12   1    0    34   9    2    7    4    18   19   50   
1st     PAS Giannina                    26   12   0    1    31   8    7    2    4    21   16   59   
1st     PAS Giannina                    26   11   0    2    30   13   9    1    3    29   19   61   
2nd     PAS Giannina                    26   9    2    2    25   13   5    4    4    19   15   48   
1st     PAS Giannina                    26   10   3    0    27   9    9    3    1    23   13   63   
4th     PAS Giannina                    26   10   3    0    29   12   2    3    8    17   27   42   
2nd     PAS Giannina                    26   9    4    0    30   13   8    1    4    21   13   56   
1st     PAS Giannina                    26   7    4    2    26   15   9    3    1    35   17   55   
2nd     PAS Giannina                    26   8    3    2    32   16   8    2    3    20   9    53   
1st     PAS Giannina                    26   11   2    0    41   13   6    1    6    19   17   54   
4th     PAS Giannina                    26   10   1    2    33   13   3    4    6    16   18   44   
1st     PAS Giannina                    26   9    2    2    32   18   6    5    2    26   17   52   
1st     PAS Giannina                    26   11   1    1    30   10   7    3    3    28   18   58   
1st     PAS Giannina                    26   9    2    2    24   12   10   2    1    28   12   61   
1st     PAS Giannina                    26   10   1    2    35   16   5    3    5    21   19   49   
1st     PAS Giannina                    26   11   2    0    26   11   6    6    1    19   8    59   
1st     PAS Giannina                    26   10   2    1    29   9    8    1    4    17   14   57   
1st     PAS Giannina                    26   12   1    0    38   11   8    3    2    23   12   64   
1st     PAS Giannina                    26   9    3    1    36   16   9    2    2    25   13   59   
1st     PAS Giannina                    26   10   2    1    28   13   9    2    2    24   13   61   
1st     PAS Giannina                    26   11   2    0    33   12   11   1    1    27   5    69   
2nd     PAS Giannina                    26   8    0    5    30   15   7    4    2    26   19   49   
1st     PAS Giannina                    26   10   3    0    28   8    4    6    3    26   19   51   
1st     PAS Giannina                    26   11   1    1    35   10   8    0    5    27   18   58   
3rd     PAS Giannina                    26   9    2    2    27   13   6    1    6    20   18   48   
1st     PAS Giannina                    26   8    5    0    35   16   8    2    3    21   11   55   
1st     PAS Giannina                    26   12   0    1    31   11   4    5    4    21   22   53   
3rd     PAS Giannina                    26   9    3    1    40   17   7    2    4    22   13   53   
2nd     PAS Giannina                    26   10   1    2    32   13   4    4    5    26   24   47   
1st     PAS Giannina                    26   11   2    0    29   9    8    3    2    25   12   62   
1st     PAS Giannina                    26   12   1    0    33   12   8    1    4    21   14   62   
1st     PAS Giannina                    26   11   1    1    35   7    9    2    2    30   11   63   
1st     PAS Giannina                    26   8    2    3    27   18   8    3    2    26   14   53   
1st     PAS Giannina                    26   12   1    0    32   8    8    3    2    26   13   64   
4th     PAS Giannina                    26   9    1    3    37   17   4    3    6    18   15   43   
3rd     PAS Giannina                    26   8    4    1    37   16   5    2    6    17   17   45   
1st     PAS Giannina                    26   11   2    0    31   11   6    6    1    17   12   59   
1st     PAS Giannina                    26   12   1    0    41   13   8    0    5    23   15   61   
2nd     PAS Giannina                    26   12   0    1    35   12   6    5    2    13   8    59   
1st     PAS Giannina                    26   12   0    1    36   10   9    3    1    31   20   66   
1st     PAS Giannina                    26   12   1    0    38   12   7    4    2    28   15   62   
2nd     PAS Giannina                    26   7    5    1    25   13   7    3    3    20   15   50   
2nd     PAS Giannina                    26   12   0    1    35   11   6    3    4    28   14   57   
2nd     PAS Giannina                    26   10   1    2    24   14   7    2    4    22   9    54   
1st     PAS Giannina                    26   10   2    1    35   12   7    5    1    23   11   58   
1st     PAS Giannina                    26   6    5    2    21   15   9    3    1    25   7    53   
1st     PAS Giannina                    26   10   3    0    34   14   9    2    2    23   10   62   
1st     PAS Giannina                    26   10   2    1    32   13   7    2    4    28   19   55   
1st     PAS Giannina                    26   11   0    2    33   13   7    5    1    23   9    59   
1st     PAS Giannina                    26   11   1    1    33   11   5    5    3    26   21   54   
1st     PAS Giannina                    26   10   2    1    31   14   8    3    2    23   14   59   
1st     PAS Giannina                    26   10   3    0    29   13   8    4    1    24   13   61   