2nd     PAS Giannina                    26   10   2    1    36   14   7    5    1    23   12   58   
1st     PAS Giannina                    26   9    3    1    31   14   7    3    3    26   14   54   
2nd     PAS Giannina                    26   10   2    1    28   8    5    4    4    19   17   51   
1st     PAS Giannina                    26   9    3    1    32   15   9    1    3    24   19   58   
2nd     PAS Giannina                    26   9    3    1    28   13   6    5    2    23   14   53   
1st     PAS Giannina                    26   12   0    1    32   12   7    5    1    27   20   62   
1st     PAS Giannina                    26   10   3    0    40   14   8    3    2    27   14   60   
2nd     PAS Giannina                    26   8    4    1    37   19   8    5    0    30   16   57   
1st     PAS Giannina                    26   9    3    1    29   14   9    2    2    29   18   59   
2nd     PAS Giannina                    26   9    3    1    25   15   8    3    2    30   18   57   
2nd     PAS Giannina                    26   9    4    0    29   10   6    1    6    25   19   50   
2nd     PAS Giannina                    26   8    3    2    26   10   5    5    3    22   18   47   
1st     PAS Giannina                    26   9    2    2    30   14   7    3    3    29   19   53   
1st     PAS Giannina                    26   11   1    1    26   10   8    3    2    33   18   61   
3rd     PAS Giannina                    26   8    2    3    24   13   6    1    6    21   21   45   
1st     PAS Giannina                    26   13   0    0    44   4    7    2    4    27   20   62   
2nd     PAS Giannina                    26   9    2    2    28   18   5    5    3    25   18   49   
1st     PAS Giannina                    26   10   3    0    39   12   11   1    1    28   9    67   
1st     PAS Giannina                    26   12   1    0    25   8    7    3    3    24   19   61   
1st     PAS Giannina                    26   8    4    1    34   17   9    1    3    27   19   56   
1st     PAS Giannina                    26   11   0    2    27   10   8    3    2    32   15   60   
1st     PAS Giannina                    26   11   1    1    35   11   10   1    2    30   12   65   
1st     PAS Giannina                    26   11   2    0    32   10   8    4    1    30   14   63   
1st     PAS Giannina                    26   11   1    1    40   14   6    4    3    22   15   56   
2nd     PAS Giannina                    26   9    3    1    36   15   6    4    3    29   23   52   
1st     PAS Giannina                    26   9    2    2    32   15   7    3    3    22   12   53   
1st     PAS Giannina                    26   11   2    0    44   15   6    3    4    27   18   56   
3rd     PAS Giannina                    26   10   2    1    30   14   3    5    5    16   18   46   
1st     PAS Giannina                    26   11   2    0    39   10   9    1    3    26   16   63   
1st     PAS Giannina                    26   11   0    2    41   16   10   0    3    22   6    63   
2nd     PAS Giannina                    26   7    2    4    26   17   8    4    1    23   10   51   
3rd     PAS Giannina                    26   10   1    2    29   13   7    1    5    22   17   53   
1st     PAS Giannina                    26   9    2    2    31   13   7    2    4    19   13   52   
2nd     PAS Giannina                    26   9    3    1    30   12   7    4    2    26   16   55   
1st     PAS Giannina                    26   11   0    2    29   15   8    3    2    27   13   60   
1st     PAS Giannina                    26   10   2    1    30   12   5    5    3    24   17   52   
2nd     PAS Giannina                    26   9    4    0    37   16   9    2    2    27   11   60   
2nd     PAS Giannina                    26   8    3    2    32   13   8    2    3    32   20   53   
1st     PAS Giannina                    26   10   2    1    32   13   7    3    3    25   18   56   
1st     PAS Giannina                    26   11   1    1    37   14   8    2    3    24   15   60   
1st     PAS Giannina                    26   11   2    0    35   12   12   0    1    27   8    71   
1st     PAS Giannina                    26   10   3    0    31   9    9    1    3    25   11   61   
1st     PAS Giannina                    26   10   2    1    33   12   9    3    1    35   14   62   
2nd     PAS Giannina                    26   10   3    0    38   15   6    3    4    27   24   54   
1st     PAS Giannina                    26   11   0    2    31   12   11   1    1    36   8    67   
1st     PAS Giannina                    26   9    3    1    26   13   9    4    0    38   18   61   
1st     PAS Giannina                    26   10   1    2    32   12   7    2    4    19   13   54   
4th     PAS Giannina                    26   7    3    3    31   25   6    2    5    18   17   44   
2nd     PAS Giannina                    26   9    2    2    33   18   5    4    4    24   22   48   
2nd     PAS Giannina                    26   10   2    1    39   16   5    4    4    21   17   51   
1st     PAS Giannina                    26   12   1    0    43   13   9    1    3    24   16   65   
1st     PAS Giannina                    26   11   2    0    36   12   9    2    2    30   18   64   
1st     PAS Giannina                    26   11   2    0    35   11   7    4    2    29   20   60   
1st     PAS Giannina                    26   10   3    0    29   13   8    1    4    24   15   58   
2nd     PAS Giannina                    26   10   2    1    33   13   5    4    4    20   15   51   
2nd     PAS Giannina                    26   9    4    0    36   15   4    5    4    20   19   48   
1st     PAS Giannina                    26   10   1    2    33   15   8    3    2    25   13   58   
1st     PAS Giannina                    26   11   1    1    32   11   8    4    1    29   14   62   
2nd     PAS Giannina                    26   9    3    1    40   22   8    2    3    29   16   56   
2nd     PAS Giannina                    26   9    2    2    24   13   7    3    3    29   18   53   
2nd     PAS Giannina                    26   9    0    4    30   21   6    2    5    25   21   47   
2nd     PAS Giannina                    26   9    3    1    24   12   6    3    4    18   15   51   
1st     PAS Giannina                    26   11   2    0    34   6    6    3    4    20   16   56   
1st     PAS Giannina                    26   8    3    2    26   16   7    1    5    19   17   49   
1st     PAS Giannina                    26   9    4    0    30   13   6    3    4    26   15   52   
2nd     PAS Giannina                    26   10   1    2    25   8    6    4    3    30   20   53   
1st     PAS Giannina                    26   9    1    3    29   15   9    2    2    26   15   57   
1st     PAS Giannina                    26   7    4    2    26   14   10   1    2    31   14   56   
2nd     PAS Giannina                    26   9    3    1    34   16   7    5    1    27   12   56   
1st     PAS Giannina                    26   10   2    1    31   17   7    4    2    27   15   57   
2nd     PAS Giannina                    26   9    2    2    32   13   6    3    4    21   20   50   
1st     PAS Giannina                    26   10   3    0    34   13   7    2    4    19   18   56   
2nd     PAS Giannina                    26   8    4    1    23   12   6    3    4    18   15   49   
1st     PAS Giannina                    26   10   2    1    32   15   7    3    3    25   18   56   
1st     PAS Giannina                    26   10   2    1    33   9    10   1    2    33   15   63   
1st     PAS Giannina                    26   10   3    0    32   13   7    3    3    23   13   57   
2nd     PAS Giannina                    26   10   3    0    35   9    6    1    6    24   18   52   
1st     PAS Giannina                    26   12   0    1    35   7    9    2    2    29   16   65   
1st     PAS Giannina                    26   12   0    1    38   13   7    4    2    28   16   61   
1st     PAS Giannina                    26   12   0    1    35   13   6    4    3    26   20   58   
3rd     PAS Giannina                    26   9    2    2    28   14   4    5    4    17   13   46   
1st     PAS Giannina                    26   11   1    1    38   11   7    3    3    30   18   58   
1st     PAS Giannina                    26   11   2    0    28   12   9    1    3    26   14   63   
1st     PAS Giannina                    26   11   2    0    29   8    7    3    3    22   13   59   
1st     PAS Giannina                    26   12   0    1    33   14   9    1    3    30   14   64   
1st     PAS Giannina                    26   11   2    0    33   13   5    7    1    29   22   57   
1st     PAS Giannina                    26   8    4    1    28   12   6    3    4    24   16   49   
1st     PAS Giannina                    26   12   1    0    36   6    6    3    4    28   20   58   
2nd     PAS Giannina                    26   10   3    0    37   12   7    3    3    18   9    57   
1st     PAS Giannina                    26   9    3    1    29   12   7    4    2    30   20   55   
1st     PAS Giannina                    26   12   1    0    38   10   7    3    3    24   14   61   
1st     PAS Giannina                    26   12   0    1    36   6    9    2    2    29   12   65   
1st     PAS Giannina                    26   9    3    1    31   9    10   3    0    30   11   63   
2nd     PAS Giannina                    26   9    3    1    33   17   8    2    3    24   14   56   
2nd     PAS Giannina                    26   9    3    1    30   14   4    4    5    19   18   46   
2nd     PAS Giannina                    26   11   1    1    36   14   7    5    1    23   13   60   
1st     PAS Giannina                    26   10   3    0    34   14   9    3    1    30   13   63   
1st     PAS Giannina                    26   9    4    0    33   15   8    5    0    26   11   60   
1st     PAS Giannina                    26   10   2    1    30   12   11   2    0    30   8    67   
1st     PAS Giannina                    26   11   1    1    34   16   9    2    2    27   14   63   