1st     PAS Giannina                    26   10   3    0    29   14   11   1    1    37   15   67
1st     PAS Giannina                    26   9    3    1    33   14   8    2    3    24   10   56
1st     PAS Giannina                    26   11   0    2    41   11   11   1    1    30   11   67
1st     PAS Giannina                    26   12   1    0    40   13   8    4    1    37   15   65
1st     PAS Giannina                    26   10   3    0    37   7    10   3    0    32   11   66
1st     PAS Giannina                    26   11   1    1    34   12   9    2    2    29   15   63
1st     PAS Giannina                    26   12   1    0    44   11   8    3    2    35   16   64
1st     PAS Giannina                    26   10   2    1    33   9    11   1    1    40   14   66
1st     PAS Giannina                    26   10   3    0    40   18   10   2    1    39   15   65
1st     PAS Giannina                    26   11   1    1    38   15   9    2    2    27   11   63
1st     PAS Giannina                    26   12   0    1    38   18   7    5    1    34   19   62
1st     PAS Giannina                    26   11   2    0    34   12   8    4    1    29   12   63
2nd     PAS Giannina                    26   7    3    3    24   13   10   2    1    41   14   56
1st     PAS Giannina                    26   10   0    3    33   15   12   1    0    40   12   67
1st     PAS Giannina                    26   11   1    1    39   15   9    2    2    30   15   63
1st     PAS Giannina                    26   11   2    0    42   7    11   2    0    28   11   70
1st     PAS Giannina                    26   8    4    1    34   12   10   0    3    34   15   58
1st     PAS Giannina                    26   10   2    1    37   16   10   2    1    31   8    64
1st     PAS Giannina                    26   12   1    0    34   8    9    3    1    30   15   67
1st     PAS Giannina                    26   11   1    1    35   11   9    1    3    33   14   62
1st     PAS Giannina                    26   7    2    4    34   20   10   2    1    31   11   55
2nd     PAS Giannina                    26   8    3    2    38   24   8    4    1    28   13   55
1st     PAS Giannina                    26   12   1    0    35   9    8    3    2    27   19   64
1st     PAS Giannina                    26   10   2    1    37   17   8    4    1    35   17   60
1st     PAS Giannina                    26   12   1    0    38   10   9    2    2    28   15   66
1st     PAS Giannina                    26   11   1    1    34   12   9    3    1    34   15   64
1st     PAS Giannina                    26   9    4    0    31   12   9    4    0    30   14   62
1st     PAS Giannina                    26   10   1    2    36   13   9    2    2    34   13   60
1st     PAS Giannina                    26   12   0    1    36   8    10   2    1    34   14   68
1st     PAS Giannina                    26   11   1    1    27   7    10   3    0    33   11   67
1st     PAS Giannina                    26   11   2    0    38   10   10   1    2    32   11   66
1st     PAS Giannina                    26   12   1    0    38   13   9    2    2    28   13   66
1st     PAS Giannina                    26   11   2    0    32   12   10   2    1    34   12   67
2nd     PAS Giannina                    26   9    3    1    39   17   8    2    3    29   21   56
1st     PAS Giannina                    26   11   2    0    34   7    8    0    5    27   16   59
1st     PAS Giannina                    26   10   3    0    34   14   8    2    3    25   13   59
1st     PAS Giannina                    26   10   2    1    35   11   9    2    2    27   17   61
2nd     PAS Giannina                    26   8    2    3    29   16   7    5    1    26   18   52
1st     PAS Giannina                    26   12   1    0    33   9    8    1    4    34   20   62
1st     PAS Giannina                    26   11   1    1    42   13   10   1    2    33   12   65
1st     PAS Giannina                    26   13   0    0    43   9    10   0    3    37   14   69
1st     PAS Giannina                    26   11   1    1    42   15   11   1    1    34   11   68
1st     PAS Giannina                    26   11   2    0    34   12   11   1    1    35   13   69
2nd     PAS Giannina                    26   11   1    1    32   10   8    1    4    28   21   59
1st     PAS Giannina                    26   11   1    1    35   8    10   1    2    26   14   65
1st     PAS Giannina                    26   11   1    1    36   13   8    1    4    30   18   59
2nd     PAS Giannina                    26   10   2    1    33   11   7    2    4    24   13   55
1st     PAS Giannina                    26   12   1    0    40   10   9    2    2    34   11   66
1st     PAS Giannina                    26   11   2    0    34   10   10   2    1    37   12   67
1st     PAS Giannina                    26   10   3    0    34   10   10   1    2    36   15   64
1st     PAS Giannina                    26   11   2    0    39   11   11   1    1    41   13   69
2nd     PAS Giannina                    26   7    5    1    32   18   8    2    3    27   14   52
1st     PAS Giannina                    26   13   0    0    41   9    10   2    1    38   14   71
1st     PAS Giannina                    26   12   1    0    37   8    8    3    2    32   19   64
1st     PAS Giannina                    26   10   2    1    41   19   9    3    1    33   12   62
1st     PAS Giannina                    26   12   0    1    35   12   9    3    1    34   13   66
2nd     PAS Giannina                    26   10   2    1    43   12   10   1    2    36   13   63
1st     PAS Giannina                    26   12   1    0    40   11   9    1    3    36   17   65
1st     PAS Giannina                    26   10   1    2    35   10   9    2    2    33   13   60
1st     PAS Giannina                    26   8    4    1    31   15   12   1    0    44   11   65
1st     PAS Giannina                    26   10   2    1    37   18   10   2    1    38   11   64
1st     PAS Giannina                    26   11   1    1    40   12   8    4    1    40   19   62
1st     PAS Giannina                    26   10   2    1    28   11   10   2    1    32   8    64
1st     PAS Giannina                    26   10   2    1    36   14   11   1    1    38   14   66
1st     PAS Giannina                    26   12   1    0    33   12   8    2    3    32   24   63
1st     PAS Giannina                    26   11   2    0    43   10   12   1    0    30   6    72
1st     PAS Giannina                    26   12   1    0    34   8    11   0    2    39   13   70
1st     PAS Giannina                    26   13   0    0    44   9    10   3    0    28   12   72
1st     PAS Giannina                    26   11   2    0    30   15   9    3    1    35   9    65
1st     PAS Giannina                    26   8    3    2    33   19   10   3    0    35   11   60
1st     PAS Giannina                    26   9    1    3    28   16   10   2    1    29   8    60
1st     PAS Giannina                    26   11   1    1    33   11   9    3    1    34   12   64
1st     PAS Giannina                    26   10   2    1    30   8    10   2    1    31   11   64
1st     PAS Giannina                    26   10   2    1    35   14   11   1    1    40   11   66
1st     PAS Giannina                    26   12   1    0    37   7    10   1    2    36   19   68
1st     PAS Giannina                    26   11   1    1    31   9    11   2    0    35   7    69
1st     PAS Giannina                    26   11   2    0    34   14   11   1    1    38   12   69
1st     PAS Giannina                    26   12   0    1    41   12   9    2    2    28   14   65
1st     PAS Giannina                    26   8    4    1    33   13   9    4    0    34   15   59
1st     PAS Giannina                    26   11   1    1    35   11   9    1    3    39   18   62
1st     PAS Giannina                    26   10   3    0    36   11   9    2    2    29   17   62
1st     PAS Giannina                    26   11   1    1    41   18   9    2    2    33   16   63
2nd     PAS Giannina                    26   10   0    3    38   17   6    6    1    24   16   54
1st     PAS Giannina                    26   13   0    0    37   11   10   1    2    35   15   70
1st     PAS Giannina                    26   9    2    2    36   17   12   1    0    35   7    66
1st     PAS Giannina                    26   11   2    0    33   14   11   1    1    38   11   69
1st     PAS Giannina                    26   11   2    0    33   11   9    2    2    34   18   64
1st     PAS Giannina                    26   12   0    1    33   11   9    1    3    29   15   64
3rd     PAS Giannina                    26   5    4    4    23   13   9    2    2    35   13   48
1st     PAS Giannina                    26   9    1    3    27   14   9    3    1    32   15   58
1st     PAS Giannina                    26   12   1    0    41   11   9    2    2    27   9    66
1st     PAS Giannina                    26   10   1    2    29   8    7    5    1    30   13   57
1st     PAS Giannina                    26   11   2    0    33   9    11   1    1    38   17   69
1st     PAS Giannina                    26   10   3    0    29   6    12   0    1    31   9    69
1st     PAS Giannina                    26   12   0    1    42   11   12   0    1    34   11   72
1st     PAS Giannina                    26   11   2    0    33   8    9    2    2    33   17   64
1st     PAS Giannina                    26   11   0    2    40   18   12   1    0    34   7    70
1st     PAS Giannina                    26   10   3    0    35   9    9    4    0    36   14   64
1st     PAS Giannina                    26   12   1    0    40   9    11   0    2    37   12   70
2nd     PAS Giannina                    26   10   2    1    34   8    8    2    3    29   19   58