1st     PAS Giannina                    26   12   0    1    42   14   12   0    1    46   15   72   
1st     PAS Giannina                    26   10   2    1    34   13   12   0    1    39   16   68   
1st     PAS Giannina                    26   8    4    1    40   19   8    5    0    37   13   57   
1st     PAS Giannina                    26   13   0    0    53   14   12   0    1    50   9    75   
1st     PAS Giannina                    26   13   0    0    38   14   8    4    1    46   19   67   
1st     PAS Giannina                    26   12   1    0    50   17   11   1    1    40   14   71   
1st     PAS Giannina                    26   13   0    0    45   14   12   1    0    44   13   76   
1st     PAS Giannina                    26   9    4    0    31   10   11   0    2    36   17   64   
1st     PAS Giannina                    26   12   1    0    43   11   11   1    1    38   17   71   
1st     PAS Giannina                    26   11   2    0    37   14   12   0    1    42   14   71   
1st     PAS Giannina                    26   10   3    0    43   17   10   1    2    46   20   64   
1st     PAS Giannina                    26   12   0    1    42   17   8    1    4    35   17   61   
1st     PAS Giannina                    26   10   3    0    35   16   8    3    2    32   14   60   
1st     PAS Giannina                    26   12   0    1    33   9    11   1    1    44   12   70   
1st     PAS Giannina                    26   11   0    2    39   16   10   1    2    37   13   64   
1st     PAS Giannina                    26   13   0    0    44   18   10   2    1    31   10   71   
1st     PAS Giannina                    26   11   0    2    38   17   9    2    2    42   20   62   
1st     PAS Giannina                    26   12   0    1    45   12   10   2    1    38   20   68   
1st     PAS Giannina                    26   8    2    3    31   15   11   2    0    41   15   61   
2nd     PAS Giannina                    26   8    5    0    36   15   10   2    1    30   9    61   
1st     PAS Giannina                    26   11   2    0    37   12   11   1    1    37   18   69   
1st     PAS Giannina                    26   10   3    0    42   18   10   2    1    34   11   65   
1st     PAS Giannina                    26   12   0    1    46   19   9    3    1    42   17   66   
1st     PAS Giannina                    26   9    2    2    46   24   10   1    2    34   16   60   
1st     PAS Giannina                    26   12   0    1    39   17   10   1    2    39   14   67   
1st     PAS Giannina                    26   11   1    1    41   17   11   1    1    44   10   68   
1st     PAS Giannina                    26   11   2    0    45   19   11   1    1    44   19   69   
1st     PAS Giannina                    26   10   1    2    36   18   11   0    2    41   13   64   
1st     PAS Giannina                    26   11   1    1    41   10   11   1    1    39   14   68   
1st     PAS Giannina                    26   12   0    1    38   13   8    2    3    34   16   62   
1st     PAS Giannina                    26   13   0    0    48   14   11   2    0    43   11   74   
3rd     PAS Giannina                    26   9    2    2    42   15   7    2    4    32   22   52   
2nd     PAS Giannina                    26   11   0    2    40   13   9    2    2    36   18   62   
1st     PAS Giannina                    26   7    6    0    25   12   10   2    1    39   14   59   
1st     PAS Giannina                    26   11   0    2    37   16   9    1    3    34   15   61   
1st     PAS Giannina                    26   10   1    2    29   11   12   1    0    47   19   68   
1st     PAS Giannina                    26   13   0    0    38   9    12   1    0    42   9    76   
1st     PAS Giannina                    26   11   1    1    34   14   11   0    2    38   13   67   
1st     PAS Giannina                    26   13   0    0    43   13   12   0    1    50   16   75   
1st     PAS Giannina                    26   11   1    1    39   15   9    1    3    32   13   62   
1st     PAS Giannina                    26   11   1    1    36   11   10   2    1    42   17   66   
1st     PAS Giannina                    26   12   0    1    32   10   11   0    2    49   23   69   
1st     PAS Giannina                    26   10   3    0    36   13   9    2    2    34   14   62   
1st     PAS Giannina                    26   12   1    0    40   13   9    2    2    36   19   66   
1st     PAS Giannina                    26   12   0    1    42   14   11   0    2    38   10   69   
1st     PAS Giannina                    26   13   0    0    46   13   8    2    3    38   21   65   
1st     PAS Giannina                    26   10   2    1    40   16   13   0    0    46   11   71   
1st     PAS Giannina                    26   12   1    0    40   9    10   1    2    34   14   68   
1st     PAS Giannina                    26   13   0    0    38   6    12   0    1    41   18   75   
1st     PAS Giannina                    26   11   1    1    45   18   11   1    1    41   16   68   
1st     PAS Giannina                    26   11   2    0    37   13   10   2    1    38   14   67   
1st     PAS Giannina                    26   10   1    2    35   13   11   1    1    30   8    65   
1st     PAS Giannina                    26   11   2    0    46   17   10   1    2    35   16   66   
1st     PAS Giannina                    26   12   1    0    36   11   9    3    1    36   15   67   
1st     PAS Giannina                    26   9    3    1    36   16   9    3    1    29   12   60   
1st     PAS Giannina                    26   13   0    0    34   9    11   1    1    36   9    73   
1st     PAS Giannina                    26   11   2    0    46   13   9    2    2    32   17   64   
1st     PAS Giannina                    26   12   1    0    46   11   9    3    1    28   8    67   
1st     PAS Giannina                    26   13   0    0    43   14   11   2    0    40   11   74   
1st     PAS Giannina                    26   10   2    1    40   18   11   0    2    39   16   65   
1st     PAS Giannina                    26   13   0    0    36   8    10   1    2    41   13   70   
1st     PAS Giannina                    26   10   1    2    39   18   11   2    0    42   15   66   
1st     PAS Giannina                    26   11   0    2    34   13   9    2    2    36   14   62   
1st     PAS Giannina                    26   11   2    0    37   16   10   2    1    34   12   67   
1st     PAS Giannina                    26   12   0    1    41   13   12   1    0    39   10   73   
2nd     PAS Giannina                    26   12   0    1    36   12   7    3    3    31   18   60   
1st     PAS Giannina                    26   10   3    0    44   12   10   1    2    39   15   64   
1st     PAS Giannina                    26   10   1    2    44   15   13   0    0    46   10   70   
1st     PAS Giannina                    26   9    3    1    40   16   11   1    1    35   15   64   
1st     PAS Giannina                    26   12   1    0    45   17   12   0    1    35   7    73   
1st     PAS Giannina                    26   11   2    0    41   12   11   1    1    38   13   69   
1st     PAS Giannina                    26   12   0    1    42   19   10   3    0    31   11   69   
1st     PAS Giannina                    26   10   1    2    40   17   8    2    3    36   21   57   
1st     PAS Giannina                    26   10   1    2    48   17   12   1    0    47   9    68   
2nd     PAS Giannina                    26   9    3    1    35   19   8    4    1    37   14   58   
1st     PAS Giannina                    26   12   1    0    38   12   11   1    1    38   8    71   
1st     PAS Giannina                    26   10   2    1    37   13   10   1    2    41   17   63   
1st     PAS Giannina                    26   9    4    0    40   15   11   1    1    37   15   65   
1st     PAS Giannina                    26   11   2    0    42   18   9    1    3    43   19   63   
2nd     PAS Giannina                    26   10   3    0    28   13   9    1    3    40   20   61   
1st     PAS Giannina                    26   10   3    0    34   15   11   2    0    34   14   68   
1st     PAS Giannina                    26   11   1    1    34   12   8    5    0    36   11   63   
1st     PAS Giannina                    26   9    1    3    32   17   11   1    1    47   15   62   
1st     PAS Giannina                    26   12   1    0    43   12   11   0    2    44   16   70   
1st     PAS Giannina                    26   11   2    0    46   13   10   1    2    43   20   66   
1st     PAS Giannina                    26   13   0    0    38   12   10   2    1    36   17   71   
1st     PAS Giannina                    26   12   1    0    41   12   11   1    1    41   15   71   
1st     PAS Giannina                    26   10   2    1    44   14   12   1    0    46   16   69   
1st     PAS Giannina                    26   11   2    0    42   11   9    3    1    33   15   65   
1st     PAS Giannina                    26   12   1    0    44   14   10   2    1    40   18   69   
1st     PAS Giannina                    26   12   1    0    47   14   10   1    2    41   19   68   
1st     PAS Giannina                    26   11   1    1    34   13   11   1    1    39   12   68   
1st     PAS Giannina                    26   10   2    1    38   14   9    3    1    38   15   62   
1st     PAS Giannina                    26   11   2    0    37   15   11   1    1    51   15   69   
1st     PAS Giannina                    26   11   1    1    44   16   10   1    2    37   14   65   
1st     PAS Giannina                    26   12   0    1    46   20   5    3    5    28   23   54   
1st     PAS Giannina                    26   12   0    1    46   12   10   2    1    35   13   68   
1st     PAS Giannina                    26   13   0    0    47   11   11   1    1    37   14   73   
1st     PAS Giannina                    26   10   3    0    36   11   8    2    3    37   17   59   
1st     PAS Giannina                    26   11   2    0    42   12   10   1    2    36   16   66   