1st     PAS Giannina                    26   11   1    1    30   8    10   3    0    33   17   67   
1st     PAS Giannina                    26   8    2    3    22   14   11   1    1    29   9    60   
1st     PAS Giannina                    26   10   3    0    30   10   13   0    0    38   9    72   
2nd     PAS Giannina                    26   11   1    1    38   9    8    2    3    32   16   60   
1st     PAS Giannina                    26   8    3    2    31   14   11   1    1    39   15   61   
1st     PAS Giannina                    26   12   1    0    35   12   11   2    0    31   9    72   
1st     PAS Giannina                    26   11   0    2    32   16   8    4    1    29   14   61   
1st     PAS Giannina                    26   9    3    1    33   13   9    3    1    31   14   60   
2nd     PAS Giannina                    26   9    2    2    26   11   9    1    3    30   16   57   
1st     PAS Giannina                    26   11   1    1    36   14   10   1    2    32   8    65   
1st     PAS Giannina                    26   13   0    0    37   12   11   0    2    35   10   72   
2nd     PAS Giannina                    26   8    4    1    32   13   8    3    2    21   8    55   
1st     PAS Giannina                    26   8    3    2    33   15   10   3    0    39   16   60   
1st     PAS Giannina                    26   11   1    1    32   14   8    4    1    26   11   62   
1st     PAS Giannina                    26   9    1    3    25   11   11   2    0    35   13   63   
1st     PAS Giannina                    26   11   1    1    37   14   11   0    2    32   11   67   
1st     PAS Giannina                    26   9    4    0    37   15   11   1    1    37   16   65   
1st     PAS Giannina                    26   11   1    1    32   9    8    3    2    20   12   61   
1st     PAS Giannina                    26   13   0    0    39   11   11   1    1    31   9    73   
1st     PAS Giannina                    26   10   2    1    37   16   11   0    2    33   10   65   
1st     PAS Giannina                    26   12   0    1    33   9    5    3    5    19   14   54   
1st     PAS Giannina                    26   12   1    0    37   6    8    3    2    30   15   64   
1st     PAS Giannina                    26   11   2    0    29   8    8    4    1    33   11   63   
1st     PAS Giannina                    26   12   1    0    34   11   10   1    2    34   15   68   
1st     PAS Giannina                    26   10   3    0    29   9    7    5    1    26   13   59   
1st     PAS Giannina                    26   9    4    0    40   15   7    6    0    25   14   58   
1st     PAS Giannina                    26   12   1    0    34   9    11   0    2    34   14   70   
1st     PAS Giannina                    26   13   0    0    40   10   9    3    1    31   14   69   
1st     PAS Giannina                    26   13   0    0    39   8    6    3    4    27   20   60   
1st     PAS Giannina                    26   10   1    2    41   15   9    3    1    29   8    61   
1st     PAS Giannina                    26   11   1    1    41   17   8    2    3    29   17   60   
1st     PAS Giannina                    26   12   1    0    41   14   10   1    2    33   14   68   
1st     PAS Giannina                    26   11   1    1    32   11   11   2    0    32   13   69   
1st     PAS Giannina                    26   11   2    0    37   8    8    2    3    24   14   61   
1st     PAS Giannina                    26   9    3    1    36   12   6    5    2    26   17   53   
1st     PAS Giannina                    26   11   1    1    39   17   9    2    2    30   11   63   
1st     PAS Giannina                    26   11   2    0    38   11   10   1    2    35   14   66   
1st     PAS Giannina                    26   11   0    2    27   10   10   2    1    30   15   65   
1st     PAS Giannina                    26   13   0    0    38   10   9    2    2    35   16   68   
2nd     PAS Giannina                    26   10   1    2    33   18   9    2    2    40   25   60   
1st     PAS Giannina                    26   12   1    0    36   12   12   0    1    35   14   73   
1st     PAS Giannina                    26   11   1    1    42   16   9    2    2    37   15   63   
1st     PAS Giannina                    26   13   0    0    40   12   12   0    1    32   12   75   
1st     PAS Giannina                    26   10   2    1    33   12   12   0    1    36   11   68   
2nd     PAS Giannina                    26   10   1    2    37   19   9    2    2    35   19   60   
1st     PAS Giannina                    26   10   1    2    34   18   10   1    2    37   21   62   
2nd     PAS Giannina                    26   11   1    1    31   12   9    2    2    34   17   63   
1st     PAS Giannina                    26   10   2    1    32   11   7    5    1    32   15   58   
2nd     PAS Giannina                    26   11   1    1    32   10   6    3    4    31   19   55   
1st     PAS Giannina                    26   13   0    0    40   11   9    0    4    43   24   66   
1st     PAS Giannina                    26   11   2    0    38   9    9    2    2    27   15   64   
1st     PAS Giannina                    26   11   2    0    31   11   9    2    2    27   12   64   
1st     PAS Giannina                    26   12   0    1    36   5    7    4    2    27   17   61   
2nd     PAS Giannina                    26   9    3    1    31   9    8    3    2    37   15   57   
1st     PAS Giannina                    26   10   3    0    36   10   6    4    3    28   17   55   
3rd     PAS Giannina                    26   10   2    1    31   11   5    3    5    26   20   50   
1st     PAS Giannina                    26   11   1    1    30   9    8    4    1    26   13   62   
2nd     PAS Giannina                    26   9    2    2    34   12   7    5    1    28   19   55   
1st     PAS Giannina                    26   11   1    1    30   9    7    2    4    32   18   57   
1st     PAS Giannina                    26   12   0    1    38   13   9    1    3    34   12   64   
1st     PAS Giannina                    26   11   1    1    36   10   12   0    1    42   8    70   
1st     PAS Giannina                    26   13   0    0    44   7    10   2    1    32   5    71   
1st     PAS Giannina                    26   11   1    1    36   14   10   2    1    31   12   66   
1st     PAS Giannina                    26   13   0    0    40   12   9    1    3    29   17   67   
1st     PAS Giannina                    26   10   2    1    38   14   11   2    0    35   13   67   
1st     PAS Giannina                    26   8    4    1    27   16   9    4    0    34   11   59   
2nd     PAS Giannina                    26   9    2    2    27   14   7    4    2    31   17   54   
1st     PAS Giannina                    26   11   2    0    30   7    11   1    1    36   11   69   
1st     PAS Giannina                    26   12   1    0    41   12   9    2    2    29   15   66   
1st     PAS Giannina                    26   13   0    0    39   13   10   0    3    29   9    69   
1st     PAS Giannina                    26   12   0    1    44   17   9    3    1    30   19   66   
1st     PAS Giannina                    26   6    5    2    29   14   8    5    0    30   10   52   
1st     PAS Giannina                    26   10   3    0    27   9    11   2    0    40   14   68   
1st     PAS Giannina                    26   11   1    1    34   13   9    3    1    37   15   64   
1st     PAS Giannina                    26   10   1    2    42   18   12   1    0    35   5    68   
1st     PAS Giannina                    26   12   1    0    40   7    10   1    2    30   10   68   
1st     PAS Giannina                    26   12   1    0    42   18   6    4    3    23   16   59   
1st     PAS Giannina                    26   12   1    0    35   9    10   2    1    33   12   69   
1st     PAS Giannina                    26   9    3    1    35   12   8    1    4    27   19   55   
1st     PAS Giannina                    26   10   3    0    33   10   8    2    3    29   18   59   
1st     PAS Giannina                    26   10   2    1    34   15   8    2    3    26   14   58   
1st     PAS Giannina                    26   11   0    2    35   8    5    5    3    28   20   53   
1st     PAS Giannina                    26   11   2    0    33   14   9    4    0    28   13   66   
1st     PAS Giannina                    26   11   1    1    34   16   10   3    0    33   13   67   
3rd     PAS Giannina                    26   7    1    5    33   26   6    5    2    23   15   45   
1st     PAS Giannina                    26   8    1    4    27   14   11   2    0    32   6    60   
1st     PAS Giannina                    26   8    4    1    32   14   8    5    0    30   13   57   
1st     PAS Giannina                    26   12   0    1    41   13   8    4    1    33   16   64   
1st     PAS Giannina                    26   12   1    0    33   9    10   3    0    40   17   70   
1st     PAS Giannina                    26   12   0    1    41   18   9    2    2    29   18   65   
1st     PAS Giannina                    26   11   2    0    35   9    9    1    3    31   14   63   
1st     PAS Giannina                    26   12   1    0    40   10   11   1    1    35   12   71   
1st     PAS Giannina                    26   11   0    2    41   16   9    3    1    34   13   63   
1st     PAS Giannina                    26   10   3    0    34   17   10   1    2    35   11   64   
1st     PAS Giannina                    26   11   1    1    38   11   8    5    0    37   19   63   
1st     PAS Giannina                    26   9    2    2    37   18   9    2    2    36   22   58   
1st     PAS Giannina                    26   11   1    1    41   13   9    1    3    32   13   62   
1st     PAS Giannina                    26   10   3    0    36   10   10   2    1    40   11   65   
1st     PAS Giannina                    26   12   0    1    34   10   12   0    1    40   18   72   
2nd     PAS Giannina                    26   9    1    3    31   14   8    3    2    29   15   55   