12th    PAS Giannina                    26   5    8    0    18   8    0    2    11   7    26   25   
13th    PAS Giannina                    26   5    2    6    21   20   0    5    8    7    22   22   
10th    PAS Giannina                    26   7    3    3    17   12   2    3    8    11   22   33   
11th    PAS Giannina                    26   6    3    4    24   15   1    5    7    14   26   29   
7th     PAS Giannina                    26   7    3    3    26   14   1    6    6    13   20   33   
4th     PAS Giannina                    26   9    3    1    20   8    2    5    6    9    17   41   
9th     PAS Giannina                    26   8    1    4    18   11   1    5    7    10   24   33   
12th    PAS Giannina                    26   5    3    5    21   15   2    3    8    13   24   27   
7th     PAS Giannina                    26   6    2    5    14   12   4    3    6    12   16   35   
3rd     PAS Giannina                    26   8    3    2    26   9    5    2    6    14   20   44   
11th    PAS Giannina                    26   5    4    4    22   20   1    5    7    8    16   27   
9th     PAS Giannina                    26   8    3    2    26   19   2    0    11   5    20   33   
10th    PAS Giannina                    26   7    4    2    17   8    1    4    8    11   26   32   
9th     PAS Giannina                    26   7    3    3    21   11   1    4    8    16   28   31   
9th     PAS Giannina                    26   7    3    3    25   18   1    4    8    5    18   31   
9th     PAS Giannina                    26   6    3    4    19   15   3    2    8    10   19   32   
12th    PAS Giannina                    26   5    4    4    16   14   2    2    9    10   23   27   
13th    PAS Giannina                    26   3    6    4    17   16   1    5    7    12   24   23   
9th     PAS Giannina                    26   7    2    4    23   17   2    4    7    10   20   33   
3rd     PAS Giannina                    26   8    2    3    22   12   4    4    5    12   16   42   
11th    PAS Giannina                    26   5    4    4    15   14   2    4    7    14   23   29   
7th     PAS Giannina                    26   7    3    3    25   19   3    3    7    18   25   36   
8th     PAS Giannina                    26   6    4    3    24   16   2    4    7    13   21   32   
8th     PAS Giannina                    26   6    4    3    21   19   4    2    7    17   22   36   
9th     PAS Giannina                    26   4    7    2    18   14   3    2    8    9    14   30   
14th    PAS Giannina                    26   4    5    4    13   13   0    5    8    8    18   22   
7th     PAS Giannina                    26   7    2    4    19   12   3    2    8    8    19   34   
10th    PAS Giannina                    26   8    1    4    20   12   1    4    8    16   26   32   
6th     PAS Giannina                    26   8    1    4    19   12   4    2    7    11   23   39   
4th     PAS Giannina                    26   9    2    2    25   14   3    1    9    16   19   39   
13th    PAS Giannina                    26   6    3    4    19   15   2    0    11   14   30   27   
12th    PAS Giannina                    26   3    4    6    13   17   4    2    7    10   14   27   
13th    PAS Giannina                    26   5    5    3    12   8    2    2    9    13   24   28   
3rd     PAS Giannina                    26   8    1    4    19   10   6    2    5    20   21   45   
11th    PAS Giannina                    26   6    2    5    16   12   3    2    8    6    21   31   
5th     PAS Giannina                    26   5    3    5    21   16   5    5    3    15   13   38   
9th     PAS Giannina                    26   8    2    3    21   13   3    0    10   9    22   35   
13th    PAS Giannina                    26   5    2    6    16   19   2    1    10   6    22   24   
6th     PAS Giannina                    26   7    4    2    22   14   3    1    9    9    24   35   
8th     PAS Giannina                    26   5    5    3    21   20   4    3    6    12   16   35   
9th     PAS Giannina                    26   7    3    3    23   15   2    3    8    18   27   33   
12th    PAS Giannina                    26   5    5    3    22   21   3    2    8    8    19   31   
7th     PAS Giannina                    26   7    4    2    18   15   2    3    8    11   25   34   
8th     PAS Giannina                    26   7    5    1    22   15   2    4    7    12   23   36   
7th     PAS Giannina                    26   7    3    3    22   16   2    5    6    7    14   35   
8th     PAS Giannina                    26   5    4    4    21   18   4    3    6    17   23   34   
11th    PAS Giannina                    26   5    4    4    20   20   3    3    7    15   22   31   
13th    PAS Giannina                    26   4    1    8    19   24   2    5    6    6    18   24   
14th    PAS Giannina                    26   3    3    7    15   20   2    1    10   12   23   19   
9th     PAS Giannina                    26   8    1    4    20   15   2    3    8    11   20   34   
6th     PAS Giannina                    26   8    3    2    20   12   3    4    6    15   18   40   
4th     PAS Giannina                    26   6    4    3    24   16   4    3    6    15   22   37   
11th    PAS Giannina                    26   3    5    5    18   16   2    4    7    16   23   24   
5th     PAS Giannina                    26   7    3    3    22   15   4    4    5    14   19   40   
5th     PAS Giannina                    26   6    1    6    23   15   5    4    4    15   15   38   
11th    PAS Giannina                    26   5    4    4    14   11   3    1    9    13   25   29   
13th    PAS Giannina                    26   2    8    3    16   19   3    3    7    10   19   26   
4th     PAS Giannina                    26   6    7    0    21   11   5    1    7    12   19   41   
10th    PAS Giannina                    26   5    2    6    18   14   4    2    7    13   16   31   
10th    PAS Giannina                    26   7    2    4    19   13   2    4    7    14   21   33   
13th    PAS Giannina                    26   4    3    6    15   14   0    6    7    10   20   21   
6th     PAS Giannina                    26   7    4    2    21   15   3    3    7    13   26   37   
11th    PAS Giannina                    26   7    1    5    21   19   2    2    9    11   27   30   
12th    PAS Giannina                    26   4    4    5    21   21   2    1    10   9    23   23   
14th    PAS Giannina                    26   4    3    6    16   17   2    2    9    7    23   23   
11th    PAS Giannina                    26   4    5    4    25   20   3    5    5    13   20   31   
2nd     PAS Giannina                    26   7    5    1    19   11   6    2    5    22   24   46   
8th     PAS Giannina                    26   6    3    4    24   15   3    3    7    8    18   33   
10th    PAS Giannina                    26   6    3    4    22   12   2    4    7    9    15   31   
12th    PAS Giannina                    26   6    3    4    24   20   3    2    8    6    18   32   
10th    PAS Giannina                    26   7    4    2    24   12   1    3    9    6    26   31   
9th     PAS Giannina                    26   8    4    1    21   11   1    1    11   12   27   32   
10th    PAS Giannina                    26   5    6    2    22   15   3    2    8    15   25   32   
10th    PAS Giannina                    26   5    4    4    21   14   2    3    8    10   19   28   
9th     PAS Giannina                    26   6    3    4    24   18   2    3    8    11   25   30   
7th     PAS Giannina                    26   5    2    6    20   16   5    2    6    17   20   34   
5th     PAS Giannina                    26   7    4    2    22   15   5    1    7    15   25   41   
8th     PAS Giannina                    26   8    1    4    25   16   2    1    10   10   23   32   
5th     PAS Giannina                    26   7    5    1    22   9    4    3    6    15   19   41   
14th    PAS Giannina                    26   6    4    3    18   17   1    1    11   6    27   26   
4th     PAS Giannina                    26   8    1    4    22   15   4    4    5    16   20   41   
12th    PAS Giannina                    26   4    5    4    18   18   1    4    8    10   24   24   
13th    PAS Giannina                    26   5    4    4    16   15   1    4    8    12   20   26   
6th     PAS Giannina                    26   5    8    0    16   7    3    7    3    16   17   39   
11th    PAS Giannina                    26   5    4    4    17   13   2    2    9    11   19   27   
11th    PAS Giannina                    26   5    2    6    20   25   1    3    9    9    21   23   
10th    PAS Giannina                    26   5    3    5    14   14   4    1    8    13   23   31   
9th     PAS Giannina                    26   5    5    3    26   19   4    1    8    6    13   33   
11th    PAS Giannina                    26   5    3    5    22   21   4    3    6    15   18   33   
10th    PAS Giannina                    26   6    3    4    15   14   3    1    9    13   18   31   
12th    PAS Giannina                    26   3    6    4    16   19   3    3    7    12   18   27   
10th    PAS Giannina                    26   8    2    3    22   13   0    5    8    9    25   31   
10th    PAS Giannina                    26   6    4    3    22   19   2    4    7    12   19   32   
5th     PAS Giannina                    26   10   1    2    20   10   2    2    9    8    19   39   
10th    PAS Giannina                    26   4    2    7    18   21   4    4    5    9    15   30   
11th    PAS Giannina                    26   6    5    2    12   10   2    2    9    9    21   31   
7th     PAS Giannina                    26   9    2    2    24   12   1    3    9    10   28   35   
10th    PAS Giannina                    26   6    4    3    17   14   2    4    7    11   19   32   
12th    PAS Giannina                    26   4    6    3    17   15   2    1    10   9    21   25   
10th    PAS Giannina                    26   6    2    5    21   15   4    1    8    9    18   33   