1st     PAS Giannina                    26   10   3    0    51   19   12   1    0    36   10   70   
1st     PAS Giannina                    26   9    4    0    40   16   9    1    3    32   14   59   
1st     PAS Giannina                    26   10   3    0    36   11   8    2    3    33   21   59   
1st     PAS Giannina                    26   11   2    0    26   6    12   1    0    30   7    72   
1st     PAS Giannina                    26   11   1    1    34   9    12   0    1    34   13   70   
1st     PAS Giannina                    26   8    4    1    31   16   10   1    2    31   13   59   
1st     PAS Giannina                    26   12   0    1    42   20   6    6    1    28   18   60   
1st     PAS Giannina                    26   13   0    0    46   5    6    4    3    25   17   61   
1st     PAS Giannina                    26   11   2    0    31   9    11   2    0    43   12   70   
1st     PAS Giannina                    26   12   1    0    35   7    9    2    2    30   16   66   
1st     PAS Giannina                    26   11   2    0    36   12   10   3    0    36   12   68   
1st     PAS Giannina                    26   12   0    1    46   14   7    5    1    35   17   62   
1st     PAS Giannina                    26   11   0    2    35   14   9    2    2    38   19   62   
1st     PAS Giannina                    26   10   3    0    34   7    8    4    1    29   11   61   
1st     PAS Giannina                    26   10   1    2    35   15   10   2    1    32   9    63   
1st     PAS Giannina                    26   10   3    0    41   17   9    2    2    34   9    62   
1st     PAS Giannina                    26   11   1    1    44   14   8    5    0    27   16   63   
1st     PAS Giannina                    26   9    4    0    38   15   10   1    2    40   18   62   
1st     PAS Giannina                    26   11   1    1    41   11   7    2    4    28   20   57   
1st     PAS Giannina                    26   11   2    0    35   5    8    2    3    32   22   61   
1st     PAS Giannina                    26   11   1    1    41   12   9    2    2    30   16   63   
1st     PAS Giannina                    26   9    4    0    37   16   8    3    2    26   15   58   
1st     PAS Giannina                    26   9    3    1    37   17   7    4    2    29   19   55   
1st     PAS Giannina                    26   11   2    0    37   14   10   3    0    33   13   68   
1st     PAS Giannina                    26   11   1    1    31   14   6    3    4    26   20   55   
1st     PAS Giannina                    26   10   1    2    32   9    10   3    0    36   12   64   
1st     PAS Giannina                    26   12   1    0    40   12   8    3    2    27   14   64   
2nd     PAS Giannina                    26   9    2    2    24   11   9    3    1    34   18   59   
1st     PAS Giannina                    26   11   1    1    33   15   10   1    2    31   15   65   
1st     PAS Giannina                    26   11   2    0    37   8    10   2    1    36   11   67   
2nd     PAS Giannina                    26   11   1    1    43   17   7    5    1    20   13   60   
1st     PAS Giannina                    26   11   1    1    35   12   10   1    2    37   14   65   
1st     PAS Giannina                    26   12   0    1    42   16   11   1    1    31   10   70   
1st     PAS Giannina                    26   11   0    2    31   14   8    4    1    31   12   61   
1st     PAS Giannina                    26   11   1    1    46   13   9    2    2    27   11   63   
1st     PAS Giannina                    26   13   0    0    51   16   10   2    1    35   11   71   
3rd     PAS Giannina                    26   8    4    1    37   16   8    2    3    33   15   54   
1st     PAS Giannina                    26   12   1    0    37   12   8    3    2    38   20   64   
1st     PAS Giannina                    26   11   1    1    32   9    9    3    1    36   11   64   
1st     PAS Giannina                    26   12   0    1    34   11   10   1    2    33   16   67   
1st     PAS Giannina                    26   12   1    0    40   16   9    3    1    34   13   67   
1st     PAS Giannina                    26   11   1    1    36   16   10   1    2    35   20   65   
1st     PAS Giannina                    26   10   1    2    43   23   10   2    1    36   12   63   
2nd     PAS Giannina                    26   8    3    2    32   14   6    5    2    29   17   50   
1st     PAS Giannina                    26   9    3    1    32   13   8    3    2    25   12   57   
1st     PAS Giannina                    26   12   1    0    36   6    9    3    1    35   22   67   
1st     PAS Giannina                    26   11   1    1    40   16   12   0    1    46   16   70   
1st     PAS Giannina                    26   10   2    1    30   14   8    1    4    23   17   57   
1st     PAS Giannina                    26   10   1    2    33   12   11   1    1    29   10   65   
1st     PAS Giannina                    26   12   0    1    27   9    8    4    1    22   8    64   
1st     PAS Giannina                    26   9    2    2    35   14   10   1    2    35   16   60   
1st     PAS Giannina                    26   11   1    1    31   13   12   1    0    29   8    71   
1st     PAS Giannina                    26   12   1    0    38   12   11   1    1    34   9    71   
1st     PAS Giannina                    26   10   2    1    34   17   6    4    3    23   17   54   
2nd     PAS Giannina                    26   9    2    2    34   15   10   1    2    31   16   60   
1st     PAS Giannina                    26   12   1    0    39   15   10   0    3    35   8    67   
1st     PAS Giannina                    26   11   1    1    45   17   8    3    2    27   14   61   
1st     PAS Giannina                    26   12   1    0    37   11   7    5    1    23   12   63   
1st     PAS Giannina                    26   10   1    2    30   13   9    0    4    32   15   58   
1st     PAS Giannina                    26   10   2    1    31   9    7    4    2    27   11   57   
1st     PAS Giannina                    26   12   1    0    31   11   8    2    3    29   13   63   
1st     PAS Giannina                    26   12   1    0    42   11   9    2    2    33   18   66   
1st     PAS Giannina                    26   11   1    1    38   16   9    2    2    38   17   63   
1st     PAS Giannina                    26   12   1    0    34   8    5    4    4    22   18   56   
1st     PAS Giannina                    26   10   3    0    34   8    6    3    4    23   17   54   
1st     PAS Giannina                    26   10   2    1    37   16   11   1    1    29   15   66   
1st     PAS Giannina                    26   9    2    2    34   10   8    2    3    22   12   55   
1st     PAS Giannina                    26   11   2    0    36   6    5    5    3    26   18   55   
1st     PAS Giannina                    26   8    3    2    24   12   11   1    1    33   8    61   
2nd     PAS Giannina                    26   9    2    2    31   19   8    4    1    36   21   57   
2nd     PAS Giannina                    26   9    3    1    37   14   9    1    3    21   10   58   
1st     PAS Giannina                    26   9    3    1    32   16   8    1    4    27   14   55   
1st     PAS Giannina                    26   10   0    3    30   12   10   0    3    30   15   60   
1st     PAS Giannina                    26   12   1    0    35   10   10   1    2    29   10   68   
1st     PAS Giannina                    26   11   2    0    32   12   11   1    1    37   10   69   
1st     PAS Giannina                    26   10   2    1    40   19   9    2    2    34   14   61   
1st     PAS Giannina                    26   10   2    1    36   14   6    4    3    27   18   54   
1st     PAS Giannina                    26   11   2    0    35   13   8    4    1    34   17   63   
1st     PAS Giannina                    26   11   1    1    40   12   9    3    1    34   22   64   
1st     PAS Giannina                    26   13   0    0    40   8    8    1    4    33   18   64   
1st     PAS Giannina                    26   11   1    1    35   11   9    1    3    30   14   62   
2nd     PAS Giannina                    26   7    3    3    33   21   9    1    3    28   15   52   
2nd     PAS Giannina                    26   11   0    2    39   11   6    4    3    30   23   55   
1st     PAS Giannina                    26   11   0    2    43   15   9    1    3    40   18   61   
1st     PAS Giannina                    26   13   0    0    43   13   8    3    2    31   15   66   
1st     PAS Giannina                    26   12   1    0    50   15   9    2    2    31   15   66   
2nd     PAS Giannina                    26   11   1    1    28   9    10   1    2    32   13   65   
1st     PAS Giannina                    26   9    3    1    25   8    8    4    1    31   16   58   
1st     PAS Giannina                    26   12   1    0    39   12   7    2    4    31   21   60   
1st     PAS Giannina                    26   11   2    0    35   8    8    0    5    33   17   59   
1st     PAS Giannina                    26   10   2    1    32   12   8    3    2    31   19   59   
1st     PAS Giannina                    26   11   0    2    32   15   8    3    2    31   19   60   
1st     PAS Giannina                    26   9    3    1    33   12   9    2    2    34   16   59   
1st     PAS Giannina                    26   10   3    0    33   9    8    4    1    36   16   61   
1st     PAS Giannina                    26   13   0    0    40   9    11   2    0    33   9    74   
1st     PAS Giannina                    26   10   0    3    39   12   7    3    3    37   24   54   
1st     PAS Giannina                    26   10   2    1    31   13   11   1    1    32   13   66   
5th     PAS Giannina                    26   6    5    2    29   18   5    4    4    23   20   42   
1st     PAS Giannina                    26   10   3    0    37   14   7    2    4    27   16   56   
1st     PAS Giannina                    26   12   0    1    44   13   11   0    2    33   13   69   