2nd     PAS Giannina                    26   9    1    3    28   12   8    0    5    26   17   52   
3rd     PAS Giannina                    26   8    1    4    26   15   5    5    3    22   14   45   
2nd     PAS Giannina                    26   12   0    1    32   13   5    3    5    22   18   54   
2nd     PAS Giannina                    26   9    3    1    23   8    6    4    3    23   15   52   
1st     PAS Giannina                    26   10   1    2    28   15   7    3    3    31   14   55   
2nd     PAS Giannina                    26   9    2    2    34   17   5    4    4    23   17   48   
1st     PAS Giannina                    26   10   2    1    28   9    5    4    4    22   15   51   
1st     PAS Giannina                    26   11   1    1    30   13   6    5    2    19   14   57   
2nd     PAS Giannina                    26   6    7    0    26   14   9    2    2    26   9    54   
3rd     PAS Giannina                    26   11   1    1    31   11   3    4    6    16   17   47   
1st     PAS Giannina                    26   9    1    3    33   17   7    3    3    22   12   52   
2nd     PAS Giannina                    26   11   1    1    34   13   4    7    2    22   18   53   
1st     PAS Giannina                    26   11   2    0    33   14   7    3    3    24   18   59   
1st     PAS Giannina                    26   8    3    2    35   17   11   1    1    33   10   61   
3rd     PAS Giannina                    26   8    2    3    27   10   4    5    4    19   14   43   
1st     PAS Giannina                    26   12   0    1    32   15   8    3    2    23   7    63   
3rd     PAS Giannina                    26   7    3    3    29   17   8    2    3    20   10   50   
1st     PAS Giannina                    26   12   1    0    37   11   6    3    4    22   17   58   
1st     PAS Giannina                    26   12   1    0    28   10   6    3    4    19   14   58   
1st     PAS Giannina                    26   8    0    5    28   16   8    3    2    24   12   51   
1st     PAS Giannina                    26   12   1    0    38   12   7    1    5    24   17   59   
2nd     PAS Giannina                    26   8    5    0    32   16   7    5    1    27   16   55   
2nd     PAS Giannina                    26   10   2    1    36   17   7    2    4    23   11   55   
1st     PAS Giannina                    26   10   2    1    30   9    10   1    2    29   13   63   
1st     PAS Giannina                    26   11   0    2    34   10   9    0    4    31   20   60   
1st     PAS Giannina                    26   8    4    1    29   11   8    1    4    20   13   53   
1st     PAS Giannina                    26   12   0    1    33   12   5    5    3    16   10   56   
1st     PAS Giannina                    26   9    2    2    32   10   6    4    3    21   12   51   
1st     PAS Giannina                    26   12   0    1    41   16   9    2    2    26   13   65   
2nd     PAS Giannina                    26   7    3    3    22   9    8    3    2    25   11   51   
5th     PAS Giannina                    26   9    2    2    31   13   2    5    6    10   19   40   
1st     PAS Giannina                    26   10   3    0    29   8    8    2    3    21   14   59   
1st     PAS Giannina                    26   9    2    2    29   12   7    3    3    30   18   53   
1st     PAS Giannina                    26   9    2    2    31   18   9    2    2    26   14   58   
2nd     PAS Giannina                    26   10   0    3    30   11   6    1    6    18   14   49   
1st     PAS Giannina                    26   8    1    4    29   15   6    6    1    21   12   49   
2nd     PAS Giannina                    26   10   3    0    39   12   5    2    6    22   20   50   
1st     PAS Giannina                    26   10   2    1    36   10   6    3    4    23   19   53   
1st     PAS Giannina                    26   11   2    0    29   9    9    3    1    28   8    65   
2nd     PAS Giannina                    26   8    4    1    29   15   6    2    5    21   16   48   
1st     PAS Giannina                    26   11   1    1    30   12   12   1    0    34   7    71   
1st     PAS Giannina                    26   10   3    0    33   7    12   1    0    36   12   70   
4th     PAS Giannina                    26   10   1    2    30   13   4    5    4    17   13   48   
3rd     PAS Giannina                    26   9    2    2    27   13   5    2    6    19   16   46   
1st     PAS Giannina                    26   9    4    0    27   7    10   3    0    32   12   64   
2nd     PAS Giannina                    26   10   2    1    30   10   6    6    1    24   13   56   
2nd     PAS Giannina                    26   10   2    1    32   11   4    6    3    14   11   50   
1st     PAS Giannina                    26   12   1    0    28   11   12   1    0    33   9    74   
1st     PAS Giannina                    26   10   1    2    34   11   9    1    3    33   18   59   
3rd     PAS Giannina                    26   8    4    1    27   11   7    2    4    29   16   51   
1st     PAS Giannina                    26   12   1    0    36   7    9    3    1    26   11   67   
2nd     PAS Giannina                    26   9    3    1    33   16   7    3    3    25   13   54   
1st     PAS Giannina                    26   11   1    1    35   13   7    5    1    28   18   60   
1st     PAS Giannina                    26   9    2    2    34   14   7    4    2    22   12   54   
1st     PAS Giannina                    26   11   2    0    39   11   8    2    3    23   13   61   
1st     PAS Giannina                    26   11   2    0    35   16   9    2    2    29   13   64   
1st     PAS Giannina                    26   12   1    0    40   7    8    2    3    31   16   63   
1st     PAS Giannina                    26   11   1    1    35   12   11   0    2    30   18   67   
1st     PAS Giannina                    26   10   2    1    32   11   7    5    1    24   16   58   
1st     PAS Giannina                    26   11   2    0    34   12   11   2    0    32   9    70   
1st     PAS Giannina                    26   13   0    0    39   10   5    6    2    16   16   60   
1st     PAS Giannina                    26   12   1    0    30   9    7    4    2    27   15   62   
1st     PAS Giannina                    26   10   2    1    30   12   7    4    2    24   14   57   
1st     PAS Giannina                    26   11   1    1    38   14   8    1    4    20   11   59   
1st     PAS Giannina                    26   11   1    1    29   7    9    2    2    26   11   63   
2nd     PAS Giannina                    26   7    4    2    28   16   9    1    3    22   11   53   
1st     PAS Giannina                    26   10   3    0    30   12   10   2    1    32   12   65   
2nd     PAS Giannina                    26   10   1    2    32   15   5    4    4    21   18   50   
2nd     PAS Giannina                    26   10   1    2    33   10   8    4    1    21   13   59   
1st     PAS Giannina                    26   8    3    2    33   17   9    2    2    23   9    56   
2nd     PAS Giannina                    26   6    5    2    24   14   8    1    4    24   15   48   
1st     PAS Giannina                    26   9    2    2    32   16   7    5    1    25   12   55   
3rd     PAS Giannina                    26   10   1    2    32   16   7    3    3    24   14   55   
1st     PAS Giannina                    26   11   2    0    34   14   9    2    2    26   12   64   
1st     PAS Giannina                    26   9    3    1    26   12   9    3    1    26   10   60   
2nd     PAS Giannina                    26   10   1    2    34   13   7    2    4    21   18   54   
1st     PAS Giannina                    26   10   1    2    28   10   8    2    3    24   16   57   
1st     PAS Giannina                    26   12   1    0    41   14   8    3    2    25   12   64   
2nd     PAS Giannina                    26   8    4    1    29   11   6    3    4    23   16   49   
1st     PAS Giannina                    26   11   1    1    27   7    9    4    0    29   13   65   
2nd     PAS Giannina                    26   10   2    1    34   15   6    5    2    22   14   55   
1st     PAS Giannina                    26   11   1    1    30   7    7    3    3    22   13   58   
1st     PAS Giannina                    26   11   0    2    33   13   7    1    5    19   12   55   
1st     PAS Giannina                    26   9    4    0    30   10   8    1    4    28   19   56   
3rd     PAS Giannina                    26   9    3    1    31   8    6    0    7    23   17   48   
1st     PAS Giannina                    26   11   1    1    32   10   9    3    1    30   14   64   
1st     PAS Giannina                    26   9    4    0    35   16   10   1    2    25   7    62   
1st     PAS Giannina                    26   11   1    1    42   15   9    3    1    32   13   64   
1st     PAS Giannina                    26   11   1    1    38   14   9    3    1    29   11   64   
1st     PAS Giannina                    26   12   0    1    36   14   7    4    2    27   15   61   
2nd     PAS Giannina                    26   9    3    1    26   10   8    2    3    33   22   56   
1st     PAS Giannina                    26   12   1    0    38   10   9    2    2    25   10   66   
1st     PAS Giannina                    26   12   0    1    35   11   10   2    1    27   6    68   
2nd     PAS Giannina                    26   9    2    2    28   14   7    4    2    24   11   54   
1st     PAS Giannina                    26   10   2    1    34   14   10   2    1    27   10   64   
2nd     PAS Giannina                    26   8    2    3    34   14   8    2    3    28   18   52   
1st     PAS Giannina                    26   12   0    1    38   8    9    4    0    28   13   67   
1st     PAS Giannina                    26   11   1    1    32   9    6    3    4    27   23   55   
1st     PAS Giannina                    26   9    2    2    25   8    8    3    2    25   12   56   
1st     PAS Giannina                    26   11   1    1    39   13   9    2    2    27   12   63   