2nd     PAS Giannina                    26   6    3    4    19   14   8    3    2    22   10   48   
1st     PAS Giannina                    26   9    3    1    26   16   7    5    1    19   10   56   
6th     PAS Giannina                    26   6    2    5    19   16   3    6    4    18   15   35   
8th     PAS Giannina                    26   4    6    3    20   16   5    3    5    12   10   36   
3rd     PAS Giannina                    26   7    2    4    17   12   6    3    4    21   15   44   
2nd     PAS Giannina                    26   8    3    2    28   16   7    3    3    23   17   51   
4th     PAS Giannina                    26   8    0    5    21   16   6    3    4    20   13   45   
2nd     PAS Giannina                    26   9    2    2    31   9    6    3    4    14   11   50   
2nd     PAS Giannina                    26   8    3    2    28   16   6    4    3    25   17   49   
6th     PAS Giannina                    26   5    5    3    20   17   5    4    4    15   14   39   
5th     PAS Giannina                    26   6    6    1    25   16   4    2    7    16   19   38   
2nd     PAS Giannina                    26   8    0    5    20   14   6    5    2    16   11   47   
5th     PAS Giannina                    26   7    4    2    26   15   5    2    6    15   19   42   
3rd     PAS Giannina                    26   6    2    5    20   11   7    2    4    19   12   43   
1st     PAS Giannina                    26   11   0    2    29   11   7    3    3    17   10   57   
1st     PAS Giannina                    26   11   1    1    25   8    6    4    3    16   13   56   
2nd     PAS Giannina                    26   8    4    1    20   9    6    2    5    18   18   48   
5th     PAS Giannina                    26   8    2    3    22   14   4    3    6    16   17   41   
1st     PAS Giannina                    26   10   1    2    28   9    8    5    0    27   11   60   
3rd     PAS Giannina                    26   8    4    1    26   11   7    3    3    18   12   52   
4th     PAS Giannina                    26   5    4    4    17   13   7    3    3    18   13   43   
1st     PAS Giannina                    26   11   2    0    35   15   6    4    3    22   14   57   
2nd     PAS Giannina                    26   10   2    1    31   8    5    5    3    19   17   52   
2nd     PAS Giannina                    26   6    5    2    22   13   9    4    0    25   9    54   
2nd     PAS Giannina                    26   8    2    3    21   16   10   2    1    21   4    58   
6th     PAS Giannina                    26   7    2    4    20   20   4    4    5    9    12   39   
8th     PAS Giannina                    26   6    5    2    21   12   1    5    7    10   16   31   
4th     PAS Giannina                    26   8    4    1    28   13   4    3    6    16   17   43   
4th     PAS Giannina                    26   6    4    3    24   16   7    2    4    20   12   45   
1st     PAS Giannina                    26   9    2    2    25   10   12   0    1    23   5    65   
1st     PAS Giannina                    26   10   2    1    29   12   7    3    3    15   8    56   
7th     PAS Giannina                    26   5    4    4    20   17   4    4    5    18   15   35   
1st     PAS Giannina                    26   9    2    2    27   11   8    5    0    19   6    58   
2nd     PAS Giannina                    26   9    1    3    28   14   4    4    5    11   16   44   
2nd     PAS Giannina                    26   8    5    0    24   7    6    1    6    17   13   48   
2nd     PAS Giannina                    26   10   1    2    30   15   4    5    4    13   14   48   
3rd     PAS Giannina                    26   7    3    3    23   19   5    3    5    23   18   42   
4th     PAS Giannina                    26   5    8    0    23   15   7    3    3    23   15   47   
1st     PAS Giannina                    26   9    2    2    25   12   6    3    4    20   15   50   
2nd     PAS Giannina                    26   9    2    2    25   13   6    6    1    16   9    53   
6th     PAS Giannina                    26   8    4    1    27   11   3    2    8    10   19   39   
1st     PAS Giannina                    26   10   3    0    32   15   7    1    5    18   17   55   
2nd     PAS Giannina                    26   8    2    3    25   17   8    4    1    25   14   54   
2nd     PAS Giannina                    26   9    2    2    26   9    7    2    4    17   16   52   
2nd     PAS Giannina                    26   6    4    3    20   12   8    3    2    19   10   49   
1st     PAS Giannina                    26   11   1    1    29   11   8    3    2    23   9    61   
4th     PAS Giannina                    26   10   1    2    28   12   3    5    5    14   17   45   
2nd     PAS Giannina                    26   7    5    1    30   16   7    4    2    18   9    51   
3rd     PAS Giannina                    26   10   1    2    28   12   5    3    5    14   11   49   
1st     PAS Giannina                    26   10   2    1    25   8    4    5    4    14   13   49   
1st     PAS Giannina                    26   11   2    0    24   7    5    3    5    19   19   53   
2nd     PAS Giannina                    26   9    2    2    25   10   6    3    4    16   11   50   
1st     PAS Giannina                    26   9    3    1    22   9    5    5    3    19   20   50   
8th     PAS Giannina                    26   7    1    5    20   13   2    4    7    12   21   32   
1st     PAS Giannina                    26   10   2    1    27   10   4    6    3    15   12   50   
1st     PAS Giannina                    26   10   1    2    26   11   9    1    3    19   9    59   
3rd     PAS Giannina                    26   8    3    2    20   13   5    4    4    17   16   46   
3rd     PAS Giannina                    26   10   2    1    26   7    5    1    7    16   14   48   
1st     PAS Giannina                    26   8    3    2    27   18   5    6    2    17   12   48   
2nd     PAS Giannina                    26   10   0    3    24   8    6    5    2    17   8    53   
3rd     PAS Giannina                    26   11   1    1    24   10   3    4    6    9    15   47   
1st     PAS Giannina                    26   9    2    2    24   10   9    2    2    22   11   58   
3rd     PAS Giannina                    26   8    4    1    28   9    4    4    5    18   18   44   
2nd     PAS Giannina                    26   9    2    2    27   14   5    3    5    18   17   47   
1st     PAS Giannina                    26   10   2    1    26   6    6    3    4    18   14   53   
1st     PAS Giannina                    26   10   2    1    28   11   6    4    3    24   14   54   
4th     PAS Giannina                    26   7    2    4    22   18   4    6    3    17   17   41   
2nd     PAS Giannina                    26   10   1    2    23   10   3    5    5    10   16   45   
2nd     PAS Giannina                    26   11   1    1    25   13   2    7    4    9    12   47   
2nd     PAS Giannina                    26   9    2    2    33   12   4    4    5    11   12   45   
1st     PAS Giannina                    26   11   2    0    32   8    11   0    2    27   9    68   
2nd     PAS Giannina                    26   6    5    2    16   8    8    3    2    18   6    50   
2nd     PAS Giannina                    26   8    3    2    19   11   4    5    4    15   15   44   
3rd     PAS Giannina                    26   9    2    2    26   12   4    3    6    14   16   44   
1st     PAS Giannina                    26   10   2    1    23   11   7    4    2    17   10   57   
2nd     PAS Giannina                    26   10   3    0    29   10   6    2    5    14   11   53   
2nd     PAS Giannina                    26   8    2    3    20   11   8    2    3    22   13   52   
6th     PAS Giannina                    26   4    6    3    13   10   5    3    5    14   14   36   
4th     PAS Giannina                    26   6    3    4    25   16   6    4    3    13   9    43   
6th     PAS Giannina                    26   7    5    1    22   10   2    5    6    17   21   37   
3rd     PAS Giannina                    26   8    2    3    23   19   5    4    4    18   14   45   
3rd     PAS Giannina                    26   8    3    2    24   12   4    6    3    16   10   45   
1st     PAS Giannina                    26   10   3    0    25   9    7    3    3    21   13   57   
3rd     PAS Giannina                    26   11   0    2    34   14   2    5    6    13   17   44   
5th     PAS Giannina                    26   7    2    4    21   13   5    3    5    18   17   41   
1st     PAS Giannina                    26   10   2    1    28   7    7    4    2    22   11   57   
2nd     PAS Giannina                    26   9    2    2    32   15   5    4    4    18   16   48   
1st     PAS Giannina                    26   9    1    3    30   15   8    1    4    17   11   53   
1st     PAS Giannina                    26   10   2    1    24   11   5    4    4    19   19   51   
1st     PAS Giannina                    26   9    3    1    30   11   5    5    3    17   12   50   
5th     PAS Giannina                    26   5    5    3    26   16   5    4    4    13   11   39   
1st     PAS Giannina                    26   10   1    2    24   10   6    4    3    19   11   53   
1st     PAS Giannina                    26   8    3    2    24   12   4    6    3    19   11   45   
2nd     PAS Giannina                    26   10   3    0    26   9    4    3    6    16   17   48   
1st     PAS Giannina                    26   9    3    1    29   15   8    1    4    20   13   55   
2nd     PAS Giannina                    26   8    4    1    23   9    6    5    2    14   9    51   
4th     PAS Giannina                    26   8    4    1    27   16   3    5    5    12   17   42   
1st     PAS Giannina                    26   8    2    3    27   14   7    3    3    24   14   50   
3rd     PAS Giannina                    26   8    5    0    20   9    4    3    6    16   21   44   
5th     PAS Giannina                    26   8    3    2    24   13   2    6    5    11   15   39   