1st     PAS Giannina                    26   10   3    0    29   13   8    1    4    27   20   58   
2nd     PAS Giannina                    26   7    4    2    21   17   8    4    1    26   10   53   
1st     PAS Giannina                    26   7    4    2    31   20   7    2    4    29   19   48   
2nd     PAS Giannina                    26   10   3    0    26   8    6    3    4    24   21   54   
2nd     PAS Giannina                    26   6    3    4    25   19   9    3    1    34   19   51   
2nd     PAS Giannina                    26   10   1    2    34   19   5    1    7    17   19   47   
3rd     PAS Giannina                    26   9    2    2    32   15   4    3    6    16   19   44   
2nd     PAS Giannina                    26   6    5    2    25   16   6    4    3    23   15   45   
2nd     PAS Giannina                    26   9    2    2    37   21   4    5    4    25   22   46   
2nd     PAS Giannina                    26   9    3    1    40   22   6    5    2    17   10   53   
2nd     PAS Giannina                    26   11   1    1    44   21   4    2    7    25   24   48   
1st     PAS Giannina                    26   9    4    0    35   15   5    6    2    23   14   52   
2nd     PAS Giannina                    26   8    3    2    28   15   5    3    5    29   31   45   
4th     PAS Giannina                    26   8    3    2    28   17   5    3    5    20   24   45   
7th     PAS Giannina                    26   4    7    2    25   23   4    4    5    19   23   35   
1st     PAS Giannina                    26   8    2    3    28   15   6    5    2    26   18   49   
3rd     PAS Giannina                    26   11   0    2    29   11   3    3    7    17   20   45   
3rd     PAS Giannina                    26   9    1    3    30   12   5    4    4    20   17   47   
2nd     PAS Giannina                    26   10   2    1    28   12   6    4    3    22   17   54   
1st     PAS Giannina                    26   11   1    1    32   15   9    2    2    30   19   63   
2nd     PAS Giannina                    26   9    4    0    33   14   7    3    3    24   19   55   
1st     PAS Giannina                    26   10   1    2    33   13   8    2    3    32   17   57   
10th    PAS Giannina                    26   4    4    5    28   26   4    4    5    22   23   32   
2nd     PAS Giannina                    26   10   0    3    38   18   6    3    4    23   18   51   
2nd     PAS Giannina                    26   7    4    2    27   15   8    3    2    31   15   52   
3rd     PAS Giannina                    26   10   2    1    36   18   3    6    4    20   23   47   
2nd     PAS Giannina                    26   8    2    3    34   18   6    3    4    23   17   47   
3rd     PAS Giannina                    26   6    3    4    23   15   7    2    4    28   20   44   
6th     PAS Giannina                    26   7    3    3    23   18   4    4    5    19   19   40   
2nd     PAS Giannina                    26   9    3    1    30   15   5    4    4    22   22   49   
2nd     PAS Giannina                    26   11   0    2    33   10   4    3    6    16   19   48   
3rd     PAS Giannina                    26   9    1    3    27   15   6    2    5    22   19   48   
4th     PAS Giannina                    26   7    3    3    23   14   5    4    4    18   14   43   
2nd     PAS Giannina                    26   8    4    1    31   16   7    6    0    25   13   55   
3rd     PAS Giannina                    26   5    6    2    23   14   6    3    4    20   15   42   
3rd     PAS Giannina                    26   10   1    2    34   15   5    0    8    19   24   46   
2nd     PAS Giannina                    26   10   2    1    31   11   4    5    4    22   23   49   
6th     PAS Giannina                    26   8    1    4    30   19   4    3    6    26   26   40   
1st     PAS Giannina                    26   7    4    2    28   17   7    2    4    26   16   48   
2nd     PAS Giannina                    26   10   1    2    23   6    5    4    4    24   24   50   
2nd     PAS Giannina                    26   10   1    2    31   12   6    4    3    21   16   53   
1st     PAS Giannina                    26   6    5    2    29   20   8    3    2    30   17   50   
1st     PAS Giannina                    26   9    2    2    33   17   9    2    2    27   13   58   
2nd     PAS Giannina                    26   8    4    1    29   16   6    3    4    23   21   49   
4th     PAS Giannina                    26   9    1    3    36   17   6    2    5    29   24   48   
1st     PAS Giannina                    26   8    3    2    31   16   5    5    3    25   14   47   
2nd     PAS Giannina                    26   7    6    0    29   17   8    3    2    29   14   54   
2nd     PAS Giannina                    26   8    4    1    35   18   6    2    5    21   22   48   
2nd     PAS Giannina                    26   9    4    0    32   14   6    4    3    29   25   53   
2nd     PAS Giannina                    26   10   1    2    32   18   7    3    3    26   18   55   
3rd     PAS Giannina                    26   7    5    1    23   14   6    1    6    24   25   45   
7th     PAS Giannina                    26   8    1    4    25   20   3    1    9    18   27   35   
4th     PAS Giannina                    26   8    3    2    28   16   3    5    5    27   28   41   
2nd     PAS Giannina                    26   9    0    4    34   15   6    3    4    23   22   48   
2nd     PAS Giannina                    26   10   1    2    29   10   7    3    3    30   19   55   
1st     PAS Giannina                    26   10   2    1    37   18   3    8    2    23   20   49   
1st     PAS Giannina                    26   11   1    1    37   13   5    5    3    21   18   54   
2nd     PAS Giannina                    26   9    2    2    30   16   7    2    4    18   13   52   
1st     PAS Giannina                    26   10   3    0    37   18   5    6    2    23   16   54   
2nd     PAS Giannina                    26   11   2    0    40   14   4    4    5    15   16   51   
2nd     PAS Giannina                    26   8    3    2    34   20   9    1    3    25   14   55   
2nd     PAS Giannina                    26   9    2    2    27   14   8    4    1    24   13   57   
3rd     PAS Giannina                    26   8    3    2    31   15   5    5    3    25   19   47   
2nd     PAS Giannina                    26   7    1    5    23   19   6    5    2    24   14   45   
3rd     PAS Giannina                    26   9    2    2    31   16   4    7    2    20   21   48   
1st     PAS Giannina                    26   9    3    1    30   12   8    1    4    26   20   55   
1st     PAS Giannina                    26   10   3    0    30   11   7    2    4    25   18   56   
4th     PAS Giannina                    26   5    2    6    25   25   7    3    3    29   18   41   
1st     PAS Giannina                    26   9    3    1    31   18   11   2    0    37   17   65   
2nd     PAS Giannina                    26   11   0    2    33   14   6    3    4    25   18   54   
5th     PAS Giannina                    26   9    2    2    33   17   4    2    7    20   22   43   
6th     PAS Giannina                    26   5    3    5    25   23   6    4    3    22   18   40   
5th     PAS Giannina                    26   8    2    3    32   20   4    2    7    22   23   40   
1st     PAS Giannina                    26   11   2    0    37   12   8    1    4    25   16   60   
3rd     PAS Giannina                    26   7    5    1    29   16   4    4    5    22   24   42   
6th     PAS Giannina                    26   8    2    3    30   15   2    6    5    17   24   38   
7th     PAS Giannina                    26   6    4    3    26   16   4    3    6    25   21   37   
3rd     PAS Giannina                    26   7    3    3    31   17   5    1    7    20   21   40   
1st     PAS Giannina                    26   10   1    2    32   14   6    2    5    27   20   51   
3rd     PAS Giannina                    26   8    4    1    34   18   5    3    5    22   22   46   
1st     PAS Giannina                    26   10   2    1    31   14   7    2    4    23   15   55   
2nd     PAS Giannina                    26   9    3    1    30   12   7    3    3    26   18   54   
2nd     PAS Giannina                    26   9    2    2    34   12   6    3    4    23   22   50   
2nd     PAS Giannina                    26   7    1    5    25   20   8    4    1    24   9    50   
4th     PAS Giannina                    26   7    4    2    36   24   5    3    5    19   17   43   
2nd     PAS Giannina                    26   8    2    3    32   23   6    3    4    21   17   47   
3rd     PAS Giannina                    26   7    4    2    27   12   4    4    5    22   25   41   
1st     PAS Giannina                    26   9    2    2    34   17   5    5    3    21   16   49   
3rd     PAS Giannina                    26   9    1    3    30   14   5    3    5    19   21   46   
2nd     PAS Giannina                    26   10   1    2    40   17   4    3    6    21   22   46   
1st     PAS Giannina                    26   8    3    2    25   11   7    3    3    28   15   51   
2nd     PAS Giannina                    26   7    2    4    23   18   7    5    1    22   15   49   
2nd     PAS Giannina                    26   9    3    1    37   19   6    4    3    24   15   52   
2nd     PAS Giannina                    26   8    5    0    30   12   5    6    2    26   20   50   
2nd     PAS Giannina                    26   11   0    2    30   9    6    1    6    22   20   52   
3rd     PAS Giannina                    26   8    1    4    29   15   5    1    7    20   21   41   
3rd     PAS Giannina                    26   7    2    4    31   25   6    5    2    25   14   46   
3rd     PAS Giannina                    26   7    4    2    26   13   6    1    6    18   16   44   
1st     PAS Giannina                    26   10   2    1    33   15   9    2    2    31   13   61   
1st     PAS Giannina                    26   10   1    2    33   12   6    0    7    23   26   49   