1st     PAS Giannina                    26   10   3    0    30   6    8    5    0    28   13   62   
2nd     PAS Giannina                    26   12   0    1    31   10   6    3    4    21   19   57   
2nd     PAS Giannina                    26   10   2    1    30   14   7    5    1    23   13   58   
1st     PAS Giannina                    26   11   1    1    37   10   6    4    3    19   13   56   
1st     PAS Giannina                    26   10   1    2    30   13   9    4    0    28   10   62   
1st     PAS Giannina                    26   10   2    1    37   13   11   1    1    31   8    66   
1st     PAS Giannina                    26   12   1    0    38   12   10   3    0    28   5    70   
1st     PAS Giannina                    26   9    3    1    32   10   7    6    0    31   16   57   
1st     PAS Giannina                    26   11   2    0    37   8    9    2    2    25   12   64   
1st     PAS Giannina                    26   12   1    0    35   9    6    4    3    22   15   59   
2nd     PAS Giannina                    26   10   1    2    28   11   7    4    2    21   11   56   
1st     PAS Giannina                    26   12   1    0    28   7    10   1    2    41   13   68   
1st     PAS Giannina                    26   10   1    2    30   12   6    4    3    20   15   53   
1st     PAS Giannina                    26   9    2    2    30   15   10   1    2    28   7    60   
1st     PAS Giannina                    26   12   0    1    34   12   7    4    2    23   17   61   
2nd     PAS Giannina                    26   11   1    1    35   11   3    3    7    10   17   46   
2nd     PAS Giannina                    26   8    4    1    27   12   5    3    5    19   15   46   
2nd     PAS Giannina                    26   7    3    3    29   18   9    3    1    34   14   54   
1st     PAS Giannina                    26   12   1    0    40   10   10   0    3    36   11   67   
1st     PAS Giannina                    26   10   2    1    30   5    9    1    3    23   14   60   
1st     PAS Giannina                    26   12   1    0    35   10   6    5    2    23   12   60   
2nd     PAS Giannina                    26   10   2    1    31   5    6    3    4    23   14   53   
1st     PAS Giannina                    26   10   1    2    30   13   9    3    1    23   11   61   
1st     PAS Giannina                    26   12   1    0    27   4    7    2    4    23   16   60   
1st     PAS Giannina                    26   10   1    2    27   12   9    3    1    29   13   61   
1st     PAS Giannina                    26   12   1    0    28   8    7    3    3    22   16   61   
1st     PAS Giannina                    26   10   2    1    33   11   6    2    5    16   10   52   
1st     PAS Giannina                    26   10   1    2    25   9    6    5    2    20   12   54   
2nd     PAS Giannina                    26   7    3    3    27   14   8    4    1    21   7    52   
1st     PAS Giannina                    26   11   2    0    30   9    8    3    2    29   18   62   
3rd     PAS Giannina                    26   9    4    0    32   12   6    1    6    22   15   50   
1st     PAS Giannina                    26   10   3    0    39   14   7    6    0    29   17   60   
1st     PAS Giannina                    26   10   3    0    34   13   5    4    4    23   11   52   
2nd     PAS Giannina                    26   9    0    4    29   12   7    3    3    26   17   51   
1st     PAS Giannina                    26   10   2    1    28   9    9    1    3    22   13   60   
1st     PAS Giannina                    26   8    4    1    23   7    9    3    1    28   12   58   
1st     PAS Giannina                    26   9    4    0    26   9    9    2    2    33   16   60   
1st     PAS Giannina                    26   13   0    0    28   5    8    2    3    22   9    65   
1st     PAS Giannina                    26   11   0    2    27   12   8    1    4    26   11   58   
1st     PAS Giannina                    26   10   2    1    33   15   8    4    1    26   12   60   
1st     PAS Giannina                    26   11   2    0    38   9    8    4    1    27   11   63   
1st     PAS Giannina                    26   9    1    3    28   10   8    3    2    27   11   55   
1st     PAS Giannina                    26   10   1    2    20   7    9    3    1    25   15   61   
1st     PAS Giannina                    26   11   2    0    41   13   6    6    1    19   9    59   
2nd     PAS Giannina                    26   11   2    0    34   7    5    2    6    20   19   52   
1st     PAS Giannina                    26   10   3    0    30   9    10   1    2    27   9    64   
3rd     PAS Giannina                    26   9    1    3    25   8    5    3    5    19   16   46   
1st     PAS Giannina                    26   10   2    1    31   11   10   2    1    29   7    64   
1st     PAS Giannina                    26   13   0    0    41   8    9    3    1    25   8    69   
1st     PAS Giannina                    26   12   1    0    29   9    6    5    2    31   17   60   
1st     PAS Giannina                    26   10   3    0    35   9    8    3    2    27   9    60   
2nd     PAS Giannina                    26   9    3    1    31   11   8    2    3    27   14   56   
1st     PAS Giannina                    26   10   2    1    33   10   7    3    3    30   15   56   
1st     PAS Giannina                    26   10   3    0    31   9    11   1    1    22   7    67   
1st     PAS Giannina                    26   10   1    2    32   14   11   1    1    27   6    65   
1st     PAS Giannina                    26   11   2    0    37   6    8    2    3    28   13   61   
4th     PAS Giannina                    26   8    4    1    26   8    4    5    4    15   12   45   
1st     PAS Giannina                    26   8    5    0    33   14   9    3    1    20   8    59   
1st     PAS Giannina                    26   10   3    0    28   9    10   2    1    29   9    65   
1st     PAS Giannina                    26   11   1    1    26   11   7    4    2    18   9    59   
1st     PAS Giannina                    26   12   1    0    33   9    8    4    1    25   11   65   
1st     PAS Giannina                    26   8    3    2    31   13   8    3    2    18   8    54   
1st     PAS Giannina                    26   10   1    2    32   15   10   2    1    32   9    63   
1st     PAS Giannina                    26   12   0    1    33   8    8    3    2    23   15   63   
1st     PAS Giannina                    26   9    2    2    32   11   7    4    2    19   11   54   
1st     PAS Giannina                    26   11   2    0    29   5    9    3    1    31   13   65   
1st     PAS Giannina                    26   9    4    0    35   13   7    3    3    22   15   55   
1st     PAS Giannina                    26   10   3    0    30   10   9    1    3    25   12   61   
2nd     PAS Giannina                    26   9    2    2    31   11   5    6    2    24   15   50   
2nd     PAS Giannina                    26   11   1    1    28   6    8    2    3    22   10   60   
1st     PAS Giannina                    26   10   3    0    32   13   8    3    2    25   12   60   
1st     PAS Giannina                    26   11   2    0    37   11   9    1    3    19   13   63   
1st     PAS Giannina                    26   8    3    2    28   12   11   1    1    37   11   61   
1st     PAS Giannina                    26   11   1    1    37   12   10   2    1    26   8    66   
1st     PAS Giannina                    26   12   0    1    34   9    8    2    3    28   13   62   
2nd     PAS Giannina                    26   9    2    2    26   16   6    3    4    19   12   50   
1st     PAS Giannina                    26   11   1    1    24   8    7    3    3    21   11   58   
1st     PAS Giannina                    26   11   2    0    44   14   6    6    1    23   14   59   
1st     PAS Giannina                    26   12   0    1    28   6    7    5    1    23   13   62   
1st     PAS Giannina                    26   11   1    1    39   15   9    2    2    30   10   63   
1st     PAS Giannina                    26   10   3    0    32   15   10   3    0    27   4    66   
1st     PAS Giannina                    26   12   0    1    33   11   8    4    1    28   15   64   
1st     PAS Giannina                    26   9    4    0    30   14   5    4    4    23   16   50   
1st     PAS Giannina                    26   12   1    0    38   8    7    4    2    24   13   62   
2nd     PAS Giannina                    26   12   0    1    32   7    7    3    3    22   13   60   
1st     PAS Giannina                    26   9    2    2    32   16   10   1    2    30   13   60   
1st     PAS Giannina                    26   9    4    0    30   6    5    4    4    22   13   50   
1st     PAS Giannina                    26   9    2    2    31   14   8    3    2    21   11   56   
1st     PAS Giannina                    26   11   2    0    39   13   9    3    1    23   9    65   
1st     PAS Giannina                    26   11   1    1    36   13   8    1    4    30   19   59   
1st     PAS Giannina                    26   10   2    1    30   8    5    6    2    20   13   53   
1st     PAS Giannina                    26   9    2    2    33   13   8    3    2    23   14   56   
1st     PAS Giannina                    26   10   3    0    40   16   8    2    3    27   17   59   
1st     PAS Giannina                    26   11   1    1    32   4    7    2    4    25   15   57   
1st     PAS Giannina                    26   12   0    1    37   10   8    2    3    17   12   62   
1st     PAS Giannina                    26   12   1    0    39   11   6    4    3    19   11   59   
1st     PAS Giannina                    26   12   1    0    36   10   7    2    4    16   13   60   
2nd     PAS Giannina                    26   11   1    1    30   8    8    3    2    23   9    61   
1st     PAS Giannina                    26   10   2    1    33   16   9    2    2    26   13   61   
1st     PAS Giannina                    26   10   1    2    28   9    9    2    2    24   12   60   