1st     PAS Giannina                    26   10   0    3    29   16   4    6    3    27   22   48   
2nd     PAS Giannina                    26   10   1    2    32   10   5    2    6    19   20   48   
1st     PAS Giannina                    26   9    1    3    27   13   6    5    2    24   18   51   
4th     PAS Giannina                    26   6    3    4    20   18   5    4    4    26   21   40   
6th     PAS Giannina                    26   8    1    4    26   14   3    5    5    19   20   39   
2nd     PAS Giannina                    26   11   0    2    28   12   4    4    5    15   12   49   
1st     PAS Giannina                    26   10   0    3    28   12   7    2    4    27   23   53   
1st     PAS Giannina                    26   10   1    2    26   11   7    3    3    32   19   55   
1st     PAS Giannina                    26   11   1    1    31   15   6    4    3    22   17   56   
2nd     PAS Giannina                    26   11   0    2    30   16   5    4    4    18   14   52   
4th     PAS Giannina                    26   8    3    2    27   14   4    2    7    14   18   41   
4th     PAS Giannina                    26   6    5    2    22   14   5    2    6    16   20   40   
2nd     PAS Giannina                    26   8    2    3    33   21   8    2    3    28   18   52   
2nd     PAS Giannina                    26   10   3    0    25   6    4    3    6    24   25   48   
2nd     PAS Giannina                    26   9    2    2    24   8    7    1    5    22   17   51   
2nd     PAS Giannina                    26   10   1    2    31   10   7    2    4    24   17   54   
2nd     PAS Giannina                    26   9    3    1    30   11   5    3    5    25   18   48   
1st     PAS Giannina                    26   13   0    0    34   10   8    1    4    27   21   64   
1st     PAS Giannina                    26   10   1    2    25   12   9    1    3    31   15   59   
2nd     PAS Giannina                    26   9    2    2    33   13   6    4    3    22   15   51   
1st     PAS Giannina                    26   9    3    1    25   16   10   2    1    25   12   62   
8th     PAS Giannina                    26   6    6    1    27   13   2    4    7    16   23   34   
1st     PAS Giannina                    26   9    3    1    31   12   6    4    3    21   14   52   
1st     PAS Giannina                    26   10   2    1    29   8    9    2    2    25   14   61   
1st     PAS Giannina                    26   10   1    2    34   15   7    5    1    29   16   57   
2nd     PAS Giannina                    26   9    3    1    30   10   5    4    4    16   13   49   
3rd     PAS Giannina                    26   7    4    2    24   15   4    4    5    22   21   41   
3rd     PAS Giannina                    26   9    1    3    25   10   5    5    3    22   21   48   
3rd     PAS Giannina                    26   9    2    2    22   10   6    2    5    20   21   49   
1st     PAS Giannina                    26   8    3    2    25   11   6    5    2    26   17   50   
4th     PAS Giannina                    26   9    3    1    29   8    5    1    7    21   21   46   
2nd     PAS Giannina                    26   7    2    4    30   17   5    5    3    25   19   43   
2nd     PAS Giannina                    26   8    2    3    31   15   7    4    2    28   22   51   
2nd     PAS Giannina                    26   10   2    1    25   7    5    4    4    21   22   51   
2nd     PAS Giannina                    26   9    4    0    27   11   7    5    1    22   13   57   
2nd     PAS Giannina                    26   10   2    1    31   12   5    3    5    22   18   50   
3rd     PAS Giannina                    26   9    1    3    29   18   5    3    5    21   21   46   
1st     PAS Giannina                    26   11   1    1    35   12   8    1    4    22   18   59   
2nd     PAS Giannina                    26   9    4    0    25   13   4    4    5    17   18   47   
1st     PAS Giannina                    26   11   2    0    28   9    8    1    4    28   21   60   
2nd     PAS Giannina                    26   10   3    0    24   9    4    6    3    26   22   51   
1st     PAS Giannina                    26   9    3    1    36   16   7    4    2    25   19   55   
1st     PAS Giannina                    26   8    3    2    21   14   10   1    2    35   15   58   
3rd     PAS Giannina                    26   7    6    0    23   10   5    4    4    21   19   46   
2nd     PAS Giannina                    26   10   2    1    32   11   6    2    5    20   18   52   
2nd     PAS Giannina                    26   9    3    1    30   10   7    1    5    26   14   52   
3rd     PAS Giannina                    26   9    3    1    28   9    6    3    4    23   18   51   
3rd     PAS Giannina                    26   9    1    3    25   12   4    4    5    23   26   44   
1st     PAS Giannina                    26   11   2    0    29   10   5    3    5    20   19   53   
1st     PAS Giannina                    26   10   3    0    31   7    4    5    4    16   17   50   
1st     PAS Giannina                    26   10   2    1    29   9    5    3    5    15   19   50   
4th     PAS Giannina                    26   6    6    1    21   13   4    3    6    21   21   39   
3rd     PAS Giannina                    26   9    3    1    24   10   4    4    5    17   15   46   
2nd     PAS Giannina                    26   11   2    0    28   10   7    1    5    21   14   57   
4th     PAS Giannina                    26   8    2    3    24   17   5    3    5    16   16   44   
1st     PAS Giannina                    26   13   0    0    37   11   8    1    4    20   13   64   
1st     PAS Giannina                    26   13   0    0    32   7    5    5    3    27   25   59   
2nd     PAS Giannina                    26   8    3    2    27   12   7    2    4    33   16   50   
2nd     PAS Giannina                    26   10   1    2    32   15   7    3    3    22   18   55   
4th     PAS Giannina                    26   6    2    5    19   12   4    4    5    16   18   36   
2nd     PAS Giannina                    26   12   1    0    31   12   4    3    6    13   14   52   
2nd     PAS Giannina                    26   11   2    0    33   10   7    3    3    26   17   59   
2nd     PAS Giannina                    26   6    4    3    21   12   9    2    2    28   9    51   
3rd     PAS Giannina                    26   10   1    2    32   10   5    1    7    21   21   47   
2nd     PAS Giannina                    26   10   3    0    26   7    3    4    6    18   26   46   
1st     PAS Giannina                    26   13   0    0    28   7    6    5    2    26   22   62   
3rd     PAS Giannina                    26   8    1    4    23   14   4    4    5    23   22   41   
5th     PAS Giannina                    26   6    4    3    24   14   6    4    3    22   14   44   
1st     PAS Giannina                    26   11   1    1    30   9    7    2    4    21   16   57   
1st     PAS Giannina                    26   11   2    0    30   9    6    4    3    28   16   57   
1st     PAS Giannina                    26   10   2    1    26   9    5    5    3    24   18   52   
2nd     PAS Giannina                    26   10   2    1    27   10   7    0    6    21   20   53   
3rd     PAS Giannina                    26   7    1    5    21   16   6    4    3    25   18   44   
1st     PAS Giannina                    26   12   0    1    38   15   7    1    5    25   18   58   
4th     PAS Giannina                    26   6    4    3    27   21   5    6    2    27   22   43   
3rd     PAS Giannina                    26   7    3    3    21   13   4    5    4    20   19   41   
3rd     PAS Giannina                    26   11   0    2    37   16   3    3    7    14   21   45   
2nd     PAS Giannina                    26   8    3    2    26   11   6    3    4    20   19   48   
2nd     PAS Giannina                    26   11   0    2    29   12   7    3    3    24   17   57   
3rd     PAS Giannina                    26   9    1    3    31   10   5    1    7    23   25   44   
3rd     PAS Giannina                    26   6    3    4    20   16   5    2    6    16   18   38   
5th     PAS Giannina                    26   6    3    4    26   22   6    2    5    21   23   41   
1st     PAS Giannina                    26   11   1    1    34   18   6    5    2    25   18   57   
3rd     PAS Giannina                    26   9    2    2    26   13   4    5    4    27   22   46   
4th     PAS Giannina                    26   9    2    2    22   10   4    5    4    21   19   46   
3rd     PAS Giannina                    26   9    2    2    25   12   3    4    6    11   16   42   
4th     PAS Giannina                    26   7    5    1    16   5    5    3    5    15   10   44   
2nd     PAS Giannina                    26   10   1    2    35   11   4    3    6    18   20   46   
2nd     PAS Giannina                    26   7    4    2    26   16   6    4    3    22   18   47   
2nd     PAS Giannina                    26   8    3    2    34   15   6    3    4    27   22   48   
1st     PAS Giannina                    26   10   1    2    32   12   6    5    2    25   16   54   
2nd     PAS Giannina                    26   7    6    0    29   10   5    3    5    23   23   45   
2nd     PAS Giannina                    26   9    2    2    28   13   6    1    6    21   16   48   
2nd     PAS Giannina                    26   10   2    1    30   12   6    6    1    25   15   56   
2nd     PAS Giannina                    26   7    5    1    27   14   9    2    2    32   20   55   
3rd     PAS Giannina                    26   7    4    2    31   15   4    5    4    25   22   42   
2nd     PAS Giannina                    26   9    3    1    27   12   6    2    5    21   21   50   
1st     PAS Giannina                    26   12   1    0    35   12   5    3    5    24   19   55   
6th     PAS Giannina                    26   8    2    3    24   12   4    0    9    17   23   38   
1st     PAS Giannina                    26   11   1    1    40   11   8    3    2    34   16   61   