1st     PAS Giannina                    26   11   2    0    34   10   7    4    2    21   14   60   
2nd     PAS Giannina                    26   11   1    1    33   14   5    4    4    21   18   53   
2nd     PAS Giannina                    26   10   1    2    33   18   7    4    2    26   16   56   
2nd     PAS Giannina                    26   8    4    1    25   12   7    4    2    21   14   53   
1st     PAS Giannina                    26   10   2    1    33   13   9    2    2    24   14   61   
1st     PAS Giannina                    26   9    4    0    31   12   8    3    2    28   14   58   
1st     PAS Giannina                    26   10   2    1    28   12   9    0    4    26   17   59   
2nd     PAS Giannina                    26   11   1    1    37   17   9    2    2    22   10   63   
1st     PAS Giannina                    26   7    4    2    30   19   7    5    1    28   9    51   
1st     PAS Giannina                    26   10   2    1    24   7    8    4    1    25   12   60   
1st     PAS Giannina                    26   11   1    1    42   12   9    3    1    25   12   64   
1st     PAS Giannina                    26   8    3    2    23   10   6    5    2    24   16   50   
1st     PAS Giannina                    26   11   1    1    37   12   7    4    2    23   14   59   
1st     PAS Giannina                    26   12   1    0    36   9    7    3    3    27   18   61   
1st     PAS Giannina                    26   10   2    1    30   12   7    4    2    26   13   57   
1st     PAS Giannina                    26   10   2    1    38   14   6    4    3    22   14   54   
1st     PAS Giannina                    26   11   0    2    32   10   5    5    3    26   18   53   
1st     PAS Giannina                    26   12   1    0    29   7    6    4    3    25   18   59   
2nd     PAS Giannina                    26   10   1    2    34   10   6    3    4    18   15   52   
1st     PAS Giannina                    26   11   2    0    38   7    10   1    2    28   14   66   
2nd     PAS Giannina                    26   8    3    2    26   14   5    4    4    28   21   46   
2nd     PAS Giannina                    26   12   1    0    40   12   6    3    4    17   12   58   
1st     PAS Giannina                    26   12   1    0    41   11   7    2    4    24   18   60   
2nd     PAS Giannina                    26   8    2    3    26   14   7    3    3    29   20   50   
1st     PAS Giannina                    26   12   0    1    30   12   13   0    0    30   6    75   
1st     PAS Giannina                    26   8    4    1    24   12   8    4    1    23   8    56   
1st     PAS Giannina                    26   9    3    1    31   16   9    2    2    23   13   59   
1st     PAS Giannina                    26   10   3    0    34   18   8    2    3    27   16   59   
1st     PAS Giannina                    26   9    3    1    35   13   10   0    3    34   18   60   
2nd     PAS Giannina                    26   8    1    4    24   14   7    1    5    21   18   47   
2nd     PAS Giannina                    26   9    2    2    24   12   7    1    5    27   19   51   
2nd     PAS Giannina                    26   12   1    0    26   7    8    2    3    24   15   63   
2nd     PAS Giannina                    26   10   1    2    36   12   6    5    2    21   12   54   
2nd     PAS Giannina                    26   9    2    2    25   12   5    3    5    17   14   47   
1st     PAS Giannina                    26   6    5    2    27   13   9    3    1    29   10   53   
1st     PAS Giannina                    26   11   2    0    34   9    8    3    2    29   13   62   
1st     PAS Giannina                    26   11   1    1    34   10   11   2    0    29   7    69   
2nd     PAS Giannina                    26   10   2    1    30   8    6    4    3    15   12   54   
1st     PAS Giannina                    26   11   1    1    28   11   9    2    2    27   13   63   
1st     PAS Giannina                    26   9    2    2    32   17   5    5    3    17   9    49   
3rd     PAS Giannina                    26   7    5    1    25   11   5    4    4    27   20   45   
2nd     PAS Giannina                    26   9    3    1    29   15   7    4    2    21   14   55   
1st     PAS Giannina                    26   12   1    0    34   11   7    2    4    20   10   60   
1st     PAS Giannina                    26   11   1    1    33   15   10   0    3    35   18   64   
2nd     PAS Giannina                    26   9    4    0    32   15   6    6    1    22   9    55   
1st     PAS Giannina                    26   10   3    0    32   12   8    3    2    31   15   60   
1st     PAS Giannina                    26   11   2    0    34   12   8    5    0    26   9    64   
1st     PAS Giannina                    26   11   2    0    41   11   9    2    2    23   8    64   
2nd     PAS Giannina                    26   6    5    2    24   15   8    3    2    32   14   50   
1st     PAS Giannina                    26   9    2    2    30   14   7    3    3    26   22   53   
1st     PAS Giannina                    26   11   2    0    36   9    6    4    3    23   14   57   
1st     PAS Giannina                    26   8    4    1    26   11   10   3    0    30   10   61   
3rd     PAS Giannina                    26   7    1    5    26   19   8    3    2    26   13   49   
1st     PAS Giannina                    26   10   2    1    29   8    6    2    5    23   15   52   
1st     PAS Giannina                    26   8    3    2    30   14   7    3    3    31   16   51   
1st     PAS Giannina                    26   10   1    2    28   10   8    3    2    26   15   58   
1st     PAS Giannina                    26   6    6    1    22   10   9    2    2    28   12   53   
1st     PAS Giannina                    26   8    2    3    31   17   6    6    1    16   6    50   
1st     PAS Giannina                    26   11   2    0    38   17   8    3    2    29   13   62   
1st     PAS Giannina                    26   10   1    2    35   12   9    3    1    23   5    61   
1st     PAS Giannina                    26   8    5    0    32   11   9    1    3    27   13   57   
1st     PAS Giannina                    26   9    1    3    30   22   8    3    2    23   11   55   
1st     PAS Giannina                    26   10   1    2    27   7    7    4    2    19   11   56   
1st     PAS Giannina                    26   9    2    2    36   14   7    2    4    25   16   52   
2nd     PAS Giannina                    26   9    3    1    33   13   6    3    4    18   16   51   
2nd     PAS Giannina                    26   9    4    0    35   17   7    4    2    22   12   56   
1st     PAS Giannina                    26   9    1    3    33   16   9    2    2    31   17   57   
2nd     PAS Giannina                    26   9    3    1    30   12   6    3    4    24   17   51   
3rd     PAS Giannina                    26   9    1    3    26   14   6    4    3    25   19   50   
3rd     PAS Giannina                    26   7    3    3    16   7    7    4    2    24   13   49   
1st     PAS Giannina                    26   11   2    0    34   10   10   2    1    30   15   67   
1st     PAS Giannina                    26   12   0    1    37   8    6    4    3    24   17   58   
1st     PAS Giannina                    26   11   2    0    35   6    8    1    4    34   18   60   
3rd     PAS Giannina                    26   7    5    1    29   15   5    4    4    20   17   45   
1st     PAS Giannina                    26   11   1    1    29   15   10   1    2    35   13   65   
1st     PAS Giannina                    26   10   3    0    33   11   5    5    3    22   20   53   
1st     PAS Giannina                    26   7    5    1    19   15   8    0    5    20   16   50   
1st     PAS Giannina                    26   11   2    0    34   11   7    4    2    23   12   60   
2nd     PAS Giannina                    26   11   1    1    35   13   8    3    2    30   14   61   
1st     PAS Giannina                    26   8    1    4    31   18   8    3    2    26   11   52   
1st     PAS Giannina                    26   11   2    0    29   9    6    4    3    20   11   57   
1st     PAS Giannina                    26   9    4    0    26   8    8    2    3    21   13   57   
2nd     PAS Giannina                    26   5    4    4    27   18   8    2    3    25   14   45   
1st     PAS Giannina                    26   11   0    2    34   10   9    3    1    28   9    63   
3rd     PAS Giannina                    26   8    4    1    20   11   6    2    5    14   13   48   
1st     PAS Giannina                    26   9    3    1    29   10   8    2    3    23   15   56   
1st     PAS Giannina                    26   10   3    0    32   11   4    5    4    23   19   50   
2nd     PAS Giannina                    26   10   2    1    34   15   7    2    4    23   17   55   
1st     PAS Giannina                    26   9    1    3    30   16   10   2    1    23   10   60   
2nd     PAS Giannina                    26   10   1    2    20   8    7    2    4    24   16   54   
1st     PAS Giannina                    26   8    2    3    25   9    6    5    2    24   15   49   
1st     PAS Giannina                    26   11   2    0    32   5    8    2    3    28   12   61   
2nd     PAS Giannina                    26   9    3    1    29   9    8    2    3    23   13   56   
1st     PAS Giannina                    26   9    2    2    23   10   10   2    1    32   13   61   
1st     PAS Giannina                    26   11   1    1    24   7    11   0    2    39   17   67   
2nd     PAS Giannina                    26   10   1    2    27   12   8    4    1    26   11   59   
1st     PAS Giannina                    26   9    3    1    29   13   6    6    1    26   14   54   
1st     PAS Giannina                    26   10   2    1    32   14   9    2    2    24   13   61   
1st     PAS Giannina                    26   8    3    2    25   11   9    3    1    26   10   57   
1st     PAS Giannina                    26   11   1    1    36   11   7    1    5    20   18   56   