2nd     PAS Giannina                    26   9    2    2    35   13   6    0    7    14   16   47   
2nd     PAS Giannina                    26   8    4    1    26   12   5    1    7    15   15   44   
2nd     PAS Giannina                    26   8    4    1    24   10   5    3    5    18   18   46   
4th     PAS Giannina                    26   10   2    1    29   11   3    2    8    13   23   43   
1st     PAS Giannina                    26   10   3    0    35   15   5    6    2    21   16   54   
3rd     PAS Giannina                    26   9    3    1    25   7    5    2    6    14   18   47   
3rd     PAS Giannina                    26   8    2    3    25   15   3    6    4    16   18   41   
1st     PAS Giannina                    26   11   1    1    29   14   6    4    3    16   11   56   
2nd     PAS Giannina                    26   10   1    2    25   9    6    2    5    14   15   51   
1st     PAS Giannina                    26   10   2    1    31   13   8    2    3    25   14   58   
2nd     PAS Giannina                    26   10   1    2    27   7    5    4    4    19   19   50   
4th     PAS Giannina                    26   9    1    3    25   16   5    2    6    17   19   45   
1st     PAS Giannina                    26   9    2    2    34   18   7    3    3    26   17   53   
3rd     PAS Giannina                    26   7    5    1    30   14   5    4    4    21   14   45   
2nd     PAS Giannina                    26   10   3    0    33   13   4    2    7    10   13   47   
1st     PAS Giannina                    26   9    4    0    35   12   6    5    2    22   12   54   
4th     PAS Giannina                    26   8    4    1    35   19   4    2    7    13   17   42   
1st     PAS Giannina                    26   9    2    2    27   15   6    3    4    25   16   50   
1st     PAS Giannina                    26   11   2    0    29   8    4    3    6    18   23   50   
5th     PAS Giannina                    26   9    1    3    31   14   3    3    7    12   15   40   
2nd     PAS Giannina                    26   9    3    1    24   16   3    8    2    19   19   47   
3rd     PAS Giannina                    26   10   3    0    30   13   3    2    8    14   24   44   
2nd     PAS Giannina                    26   8    3    2    26   16   5    6    2    22   14   48   
2nd     PAS Giannina                    26   9    3    1    30   11   5    4    4    17   18   49   
5th     PAS Giannina                    26   6    4    3    24   20   5    4    4    15   11   41   
1st     PAS Giannina                    26   9    1    3    26   13   8    4    1    23   12   56   
3rd     PAS Giannina                    26   6    5    2    20   12   6    2    5    13   13   43   
2nd     PAS Giannina                    26   9    4    0    33   15   5    5    3    21   15   51   
2nd     PAS Giannina                    26   6    6    1    20   16   6    3    4    21   16   45   
3rd     PAS Giannina                    26   10   1    2    25   11   4    5    4    19   18   48   
2nd     PAS Giannina                    26   7    4    2    29   14   6    2    5    21   18   45   
3rd     PAS Giannina                    26   10   1    2    32   16   3    3    7    15   18   43   
4th     PAS Giannina                    26   8    1    4    25   14   5    4    4    15   14   44   
4th     PAS Giannina                    26   8    2    3    29   18   4    4    5    9    10   42   
6th     PAS Giannina                    26   8    4    1    22   10   4    2    7    15   18   42   
1st     PAS Giannina                    26   9    3    1    30   12   10   1    2    19   9    61   
9th     PAS Giannina                    26   4    4    5    17   16   4    3    6    20   24   31   
5th     PAS Giannina                    26   8    3    2    21   12   3    3    7    16   21   39   
3rd     PAS Giannina                    26   8    3    2    27   14   5    1    7    18   20   43   
1st     PAS Giannina                    26   9    1    3    27   11   7    3    3    21   13   52   
2nd     PAS Giannina                    26   8    4    1    34   14   5    1    7    20   21   44   
3rd     PAS Giannina                    26   8    4    1    28   15   4    6    3    15   14   46   
1st     PAS Giannina                    26   12   1    0    35   15   7    4    2    21   12   62   
9th     PAS Giannina                    26   5    6    2    23   16   5    1    7    14   17   37   
4th     PAS Giannina                    26   8    5    0    33   13   5    1    7    14   19   45   
3rd     PAS Giannina                    26   9    1    3    28   11   4    4    5    19   21   44   
3rd     PAS Giannina                    26   8    1    4    29   18   5    5    3    25   18   45   
1st     PAS Giannina                    26   11   1    1    28   13   6    1    6    22   21   53   
2nd     PAS Giannina                    26   9    4    0    37   14   4    5    4    11   10   48   
5th     PAS Giannina                    26   6    4    3    23   15   4    5    4    13   13   39   
2nd     PAS Giannina                    26   9    2    2    30   16   4    5    4    17   16   46   
2nd     PAS Giannina                    26   9    3    1    31   12   6    2    5    21   21   50   
2nd     PAS Giannina                    26   10   3    0    31   13   6    2    5    17   13   53   
10th    PAS Giannina                    26   6    2    5    18   17   2    4    7    9    17   30   
3rd     PAS Giannina                    26   9    4    0    28   11   4    4    5    16   18   47   
3rd     PAS Giannina                    26   9    3    1    26   12   4    3    6    19   19   45   
5th     PAS Giannina                    26   8    2    3    25   11   3    4    6    18   20   39   
1st     PAS Giannina                    26   10   2    1    31   16   4    6    3    17   12   50   
1st     PAS Giannina                    26   10   3    0    26   7    6    2    5    23   21   53   
4th     PAS Giannina                    26   7    5    1    25   14   4    4    5    12   14   42   
2nd     PAS Giannina                    26   11   1    1    27   7    5    3    5    21   20   52   
6th     PAS Giannina                    26   7    3    3    27   14   5    2    6    11   19   41   
2nd     PAS Giannina                    26   10   3    0    29   14   5    5    3    23   18   53   
5th     PAS Giannina                    26   7    5    1    27   14   5    2    6    21   17   43   
2nd     PAS Giannina                    26   6    4    3    22   16   8    3    2    19   11   49   
1st     PAS Giannina                    26   9    4    0    29   12   5    3    5    16   15   49   
1st     PAS Giannina                    26   10   3    0    30   7    3    5    5    16   18   47   
3rd     PAS Giannina                    26   7    3    3    25   10   5    4    4    17   14   43   
3rd     PAS Giannina                    26   10   1    2    23   9    4    7    2    21   18   50   
2nd     PAS Giannina                    26   8    4    1    25   15   7    3    3    28   19   52   
3rd     PAS Giannina                    26   7    5    1    22   9    5    3    5    15   16   44   
1st     PAS Giannina                    26   11   2    0    41   15   3    6    4    16   20   50   
9th     PAS Giannina                    26   5    5    3    21   16   2    4    7    15   24   30   
1st     PAS Giannina                    26   8    3    2    25   12   5    3    5    14   16   45   
2nd     PAS Giannina                    26   9    4    0    34   22   7    3    3    21   14   55   
2nd     PAS Giannina                    26   8    3    2    26   13   5    5    3    20   15   47   
3rd     PAS Giannina                    26   11   1    1    31   14   5    2    6    18   25   51   
1st     PAS Giannina                    26   9    3    1    24   12   7    1    5    23   18   52   
2nd     PAS Giannina                    26   10   1    2    25   12   6    3    4    24   18   52   
7th     PAS Giannina                    26   6    1    6    15   14   4    5    4    15   17   36   
3rd     PAS Giannina                    26   9    2    2    26   14   3    5    5    17   21   43   
3rd     PAS Giannina                    26   8    4    1    24   11   4    4    5    17   17   44   
2nd     PAS Giannina                    26   8    3    2    33   20   7    4    2    20   11   52   
6th     PAS Giannina                    26   9    2    2    22   13   3    3    7    15   18   41   
1st     PAS Giannina                    26   11   1    1    29   10   4    4    5    18   22   50   
2nd     PAS Giannina                    26   9    3    1    26   11   6    6    1    27   15   54   
3rd     PAS Giannina                    26   8    1    4    22   12   5    3    5    17   17   43   
10th    PAS Giannina                    26   6    2    5    26   16   3    3    7    18   21   32   
1st     PAS Giannina                    26   13   0    0    34   10   5    4    4    24   20   58   
4th     PAS Giannina                    26   7    0    6    30   17   5    4    4    18   18   40   
1st     PAS Giannina                    26   9    4    0    31   11   3    4    6    20   25   44   
5th     PAS Giannina                    26   7    1    5    21   15   5    2    6    17   15   39   
2nd     PAS Giannina                    26   9    1    3    28   14   5    4    4    15   14   47   
4th     PAS Giannina                    26   10   1    2    28   9    3    6    4    19   19   46   
4th     PAS Giannina                    26   9    1    3    31   12   3    6    4    14   16   43   
2nd     PAS Giannina                    26   9    4    0    26   8    7    2    4    20   15   54   
2nd     PAS Giannina                    26   9    4    0    32   15   5    3    5    20   19   49   
7th     PAS Giannina                    26   6    7    0    28   17   2    4    7    13   20   35   
1st     PAS Giannina                    26   6    5    2    23   17   11   1    1    25   11   57   
5th     PAS Giannina                    26   7    4    2    25   17   5    2    6    14   15   42   