1st      PAS Giannina                    26   12   1    0    36   8    11   1    1    28   10   71
1st      PAS Giannina                    26   10   2    1    37   15   9    3    1    34   15   62
1st      PAS Giannina                    26   10   2    1    30   12   11   1    1    38   10   66
1st      PAS Giannina                    26   8    3    2    34   17   7    2    4    21   13   50
1st      PAS Giannina                    26   11   2    0    38   12   10   2    1    31   11   67
1st      PAS Giannina                    26   8    4    1    32   17   9    1    3    27   16   56
1st      PAS Giannina                    26   10   3    0    33   13   9    3    1    32   9    63
1st      PAS Giannina                    26   12   1    0    38   13   8    3    2    29   16   64
1st      PAS Giannina                    26   12   0    1    39   8    10   0    3    30   15   66
1st      PAS Giannina                    26   11   1    1    37   11   9    2    2    34   19   63
1st      PAS Giannina                    26   11   2    0    38   11   8    1    4    28   19   60
1st      PAS Giannina                    26   9    2    2    32   12   10   2    1    30   8    61
1st      PAS Giannina                    26   13   0    0    44   9    9    2    2    34   13   68
1st      PAS Giannina                    26   12   1    0    42   10   6    5    2    26   15   60
2nd     PAS Giannina                    26   11   1    1    33   10   8    1    4    27   16   59
1st      PAS Giannina                    26   12   1    0    34   8    8    4    1    30   12   65
1st      PAS Giannina                    26   11   1    1    30   9    10   3    0    23   8    67
1st      PAS Giannina                    26   8    5    0    32   11   9    2    2    35   19   58
2nd     PAS Giannina                    26   9    2    2    31   14   6    4    3    30   22   51
1st      PAS Giannina                    26   11   2    0    33   8    11   2    0    30   10   70
2nd     PAS Giannina                    26   11   2    0    37   15   7    3    3    28   16   59
1st      PAS Giannina                    26   10   2    1    33   12   8    3    2    27   13   59
1st      PAS Giannina                    26   11   0    2    35   14   8    2    3    22   10   59
1st      PAS Giannina                    26   10   2    1    23   4    9    2    2    28   14   61
1st      PAS Giannina                    26   11   0    2    34   12   6    4    3    20   11   55
1st      PAS Giannina                    26   9    2    2    35   11   9    3    1    24   11   59
3rd     PAS Giannina                    26   7    2    4    25   10   5    6    2    23   15   44
2nd     PAS Giannina                    26   12   1    0    40   15   7    1    5    31   17   59
1st      PAS Giannina                    26   8    2    3    27   13   12   0    1    39   12   62
1st      PAS Giannina                    26   11   2    0    39   10   9    3    1    35   15   65
1st      PAS Giannina                    26   11   1    1    29   7    10   2    1    37   10   66
1st      PAS Giannina                    26   12   0    1    35   13   9    3    1    26   9    66
1st      PAS Giannina                    26   13   0    0    39   9    9    3    1    26   7    69
1st      PAS Giannina                    26   10   2    1    34   13   9    2    2    35   18   61
1st      PAS Giannina                    26   13   0    0    35   7    9    3    1    33   13   69
2nd     PAS Giannina                    26   10   3    0    36   10   5    2    6    26   19   50
1st      PAS Giannina                    26   10   2    1    35   13   10   3    0    29   7    65
1st      PAS Giannina                    26   10   2    1    32   12   11   2    0    28   7    67
1st      PAS Giannina                    26   12   1    0    32   4    9    1    3    24   8    65
1st      PAS Giannina                    26   11   1    1    33   12   10   2    1    39   13   66
1st      PAS Giannina                    26   11   1    1    37   17   8    3    2    36   14   61
1st      PAS Giannina                    26   13   0    0    39   7    5    8    0    25   14   62
1st      PAS Giannina                    26   11   1    1    34   10   8    2    3    35   16   60
1st      PAS Giannina                    26   12   1    0    41   10   7    5    1    28   14   63
1st      PAS Giannina                    26   13   0    0    38   11   10   3    0    29   6    72
1st      PAS Giannina                    26   13   0    0    40   10   8    3    2    39   17   66
1st      PAS Giannina                    26   13   0    0    35   4    8    5    0    34   16   68
1st      PAS Giannina                    26   12   0    1    39   10   8    3    2    23   16   63
1st      PAS Giannina                    26   9    3    1    35   13   10   2    1    38   12   62
1st      PAS Giannina                    26   11   2    0    30   5    10   2    1    28   8    67
1st      PAS Giannina                    26   11   1    1    36   10   7    3    3    32   16   58
1st      PAS Giannina                    26   10   1    2    35   11   7    3    3    25   14   55
1st      PAS Giannina                    26   11   2    0    35   15   9    2    2    32   14   64
1st      PAS Giannina                    26   11   1    1    44   18   9    3    1    30   17   64
2nd     PAS Giannina                    26   12   1    0    39   10   10   0    3    39   18   67
1st      PAS Giannina                    26   11   1    1    38   11   10   3    0    31   11   67
1st      PAS Giannina                    26   12   1    0    37   10   7    4    2    23   9    62
1st      PAS Giannina                    26   12   1    0    47   13   7    4    2    26   16   62
2nd     PAS Giannina                    26   8    5    0    31   15   8    2    3    22   15   55
1st      PAS Giannina                    26   9    1    3    25   12   9    3    1    25   10   58
1st      PAS Giannina                    26   11   2    0    34   11   10   2    1    32   10   67
1st      PAS Giannina                    26   12   0    1    35   13   9    3    1    30   13   66
1st      PAS Giannina                    26   10   1    2    29   12   7    3    3    25   16   55
1st      PAS Giannina                    26   11   0    2    35   10   9    2    2    32   11   62
1st      PAS Giannina                    26   11   2    0    26   6    8    2    3    27   16   61
2nd     PAS Giannina                    26   9    3    1    30   15   6    4    3    27   22   52
1st      PAS Giannina                    26   11   2    0    36   8    5    6    2    24   16   56
1st      PAS Giannina                    26   12   1    0    38   16   10   1    2    28   14   68
1st      PAS Giannina                    26   11   2    0    33   9    6    3    4    23   17   56
1st      PAS Giannina                    26   11   1    1    36   7    10   0    3    28   13   64
1st      PAS Giannina                    26   12   1    0    36   13   7    4    2    25   13   62
1st      PAS Giannina                    26   11   1    1    39   17   12   0    1    34   6    70
1st      PAS Giannina                    26   12   1    0    44   11   8    3    2    37   17   64
1st      PAS Giannina                    26   11   1    1    34   10   11   1    1    34   10   68
1st      PAS Giannina                    26   11   2    0    38   11   10   2    1    25   9    67
1st      PAS Giannina                    26   8    5    0    35   18   7    4    2    30   14   54
1st      PAS Giannina                    26   13   0    0    38   13   6    4    3    28   18   61
1st      PAS Giannina                    26   13   0    0    38   6    7    4    2    26   15   64
1st      PAS Giannina                    26   12   1    0    39   12   11   1    1    35   12   71
1st      PAS Giannina                    26   13   0    0    36   5    6    3    4    23   20   60
1st      PAS Giannina                    26   9    3    1    27   7    10   2    1    30   12   62
1st      PAS Giannina                    26   11   2    0    39   15   8    1    4    29   16   60
1st      PAS Giannina                    26   7    3    3    33   16   10   1    2    26   12   55
1st      PAS Giannina                    26   10   3    0    29   12   8    4    1    26   12   61
2nd     PAS Giannina                    26   10   2    1    31   8    9    1    3    25   12   60
1st      PAS Giannina                    26   10   3    0    39   10   11   0    2    30   11   66
1st      PAS Giannina                    26   11   1    1    36   12   9    4    0    26   9    65
1st      PAS Giannina                    26   12   1    0    43   18   9    3    1    32   15   67
1st      PAS Giannina                    26   13   0    0    36   8    8    4    1    31   10   67
2nd     PAS Giannina                    26   10   3    0    38   12   8    3    2    28   15   60
1st      PAS Giannina                    26   11   2    0    38   12   10   2    1    29   14   67
1st      PAS Giannina                    26   12   1    0    42   12   7    4    2    30   18   62
1st      PAS Giannina                    26   12   1    0    35   15   8    3    2    26   14   64
1st      PAS Giannina                    26   13   0    0    46   15   11   1    1    31   12   73
1st      PAS Giannina                    26   11   1    1    41   15   7    6    0    29   19   61
1st      PAS Giannina                    26   10   1    2    37   12   8    2    3    32   19   57
1st      PAS Giannina                    26   13   0    0    40   8    9    2    2    31   21   68
1st      PAS Giannina                    26   12   0    1    34   8    5    6    2    27   17   57
1st      PAS Giannina                    26   11   1    1    35   10   8    2    3    24   17   60
1st      PAS Giannina                    26   13   0    0    43   11   10   0    3    29   13   69