1st     PAS Giannina                    26   8    4    1    27   12   11   0    2    29   18   61
2nd     PAS Giannina                    26   9    1    3    33   19   7    3    3    25   18   52
1st     PAS Giannina                    26   11   0    2    34   17   7    2    4    23   17   56
2nd     PAS Giannina                    26   8    3    2    24   9    8    0    5    28   17   51
1st     PAS Giannina                    26   9    3    1    29   17   7    5    1    29   15   56
1st     PAS Giannina                    26   9    4    0    29   9    9    1    3    26   12   59
2nd     PAS Giannina                    26   9    1    3    33   21   7    3    3    22   14   52
1st     PAS Giannina                    26   10   2    1    38   18   6    3    4    24   18   53
1st     PAS Giannina                    26   10   3    0    27   12   8    3    2    25   17   60
1st     PAS Giannina                    26   8    4    1    37   16   7    4    2    23   7    53
1st     PAS Giannina                    26   12   1    0    33   8    10   1    2    27   9    68
2nd     PAS Giannina                    26   11   1    1    30   10   7    4    2    20   12   59
1st     PAS Giannina                    26   12   1    0    33   11   10   1    2    28   10   68
2nd     PAS Giannina                    26   7    4    2    25   12   7    3    3    29   15   49
1st     PAS Giannina                    26   11   1    1    29   11   8    3    2    24   12   61
1st     PAS Giannina                    26   13   0    0    39   9    5    4    4    25   19   58
2nd     PAS Giannina                    26   10   2    1    35   15   5    5    3    25   16   52
3rd     PAS Giannina                    26   12   1    0    34   13   4    5    4    14   14   54
2nd     PAS Giannina                    26   8    2    3    23   11   8    2    3    25   14   52
2nd     PAS Giannina                    26   9    3    1    28   14   8    1    4    28   17   55
1st     PAS Giannina                    26   12   0    1    30   9    10   1    2    25   12   67
1st     PAS Giannina                    26   11   1    1    32   13   6    3    4    23   18   55
1st     PAS Giannina                    26   10   2    1    32   12   7    1    5    22   13   54
4th     PAS Giannina                    26   9    4    0    24   8    5    1    7    18   19   47
1st     PAS Giannina                    26   9    2    2    35   17   5    3    5    21   20   47
1st     PAS Giannina                    26   10   3    0    40   15   6    3    4    24   17   54
1st     PAS Giannina                    26   9    2    2    29   11   8    4    1    30   18   57
1st     PAS Giannina                    26   10   3    0    34   13   10   1    2    34   13   64
2nd     PAS Giannina                    26   10   1    2    33   14   5    3    5    27   18   49
1st     PAS Giannina                    26   10   3    0    31   10   7    3    3    33   18   57
1st     PAS Giannina                    26   10   1    2    34   10   7    4    2    24   15   56
1st     PAS Giannina                    26   9    3    1    23   11   6    3    4    20   16   51
3rd     PAS Giannina                    26   10   3    0    33   15   5    3    5    21   14   51
4th     PAS Giannina                    26   7    3    3    24   10   4    5    4    22   18   41
4th     PAS Giannina                    26   7    2    4    25   16   6    3    4    21   14   44
1st     PAS Giannina                    26   6    5    2    27   15   9    2    2    27   13   52
3rd     PAS Giannina                    26   10   1    2    37   14   7    5    1    31   16   57
1st     PAS Giannina                    26   7    5    1    30   16   8    5    0    29   11   55
1st     PAS Giannina                    26   11   1    1    29   11   4    4    5    21   24   50
2nd     PAS Giannina                    26   10   1    2    26   13   7    3    3    26   19   55
1st     PAS Giannina                    26   10   3    0    28   10   8    1    4    30   17   58
1st     PAS Giannina                    26   10   3    0    41   16   8    3    2    29   14   60
2nd     PAS Giannina                    26   10   2    1    27   12   8    2    3    24   16   58
2nd     PAS Giannina                    26   8    2    3    30   15   8    1    4    23   17   51
2nd     PAS Giannina                    26   9    2    2    30   14   6    3    4    21   17   50
1st     PAS Giannina                    26   13   0    0    31   6    8    4    1    32   17   67
1st     PAS Giannina                    26   6    4    3    19   13   11   0    2    24   11   55
1st     PAS Giannina                    26   12   1    0    32   13   8    3    2    29   14   64
1st     PAS Giannina                    26   9    3    1    32   15   9    2    2    31   14   59
3rd     PAS Giannina                    26   7    1    5    17   9    6    4    3    27   17   44
1st     PAS Giannina                    26   11   0    2    32   13   11   0    2    31   15   66
1st     PAS Giannina                    26   11   1    1    34   10   9    2    2    25   10   63
1st     PAS Giannina                    26   12   1    0    33   7    4    6    3    21   18   55
2nd     PAS Giannina                    26   10   3    0    38   11   7    2    4    23   19   56
3rd     PAS Giannina                    26   10   2    1    33   14   3    4    6    22   27   45
1st     PAS Giannina                    26   10   2    1    32   15   7    2    4    26   18   55
1st     PAS Giannina                    26   8    2    3    30   17   9    3    1    34   15   56
1st     PAS Giannina                    26   8    4    1    28   17   11   1    1    32   15   62
2nd     PAS Giannina                    26   8    4    1    28   15   8    1    4    17   14   53
1st     PAS Giannina                    26   11   0    2    33   10   9    2    2    29   18   62
2nd     PAS Giannina                    26   9    2    2    35   18   5    3    5    20   22   47
2nd     PAS Giannina                    26   9    3    1    31   13   9    2    2    27   11   59
2nd     PAS Giannina                    26   11   1    1    30   9    6    3    4    24   22   55
1st     PAS Giannina                    26   9    2    2    35   13   10   2    1    27   11   61
3rd     PAS Giannina                    26   7    5    1    24   12   5    3    5    21   18   44
1st     PAS Giannina                    26   8    3    2    27   14   8    3    2    27   16   54
3rd     PAS Giannina                    26   7    4    2    21   9    5    1    7    18   19   41
2nd     PAS Giannina                    26   10   2    1    27   10   7    3    3    21   16   56
2nd     PAS Giannina                    26   9    1    3    25   12   8    2    3    32   16   54
1st     PAS Giannina                    26   10   2    1    34   15   10   1    2    29   13   63
1st     PAS Giannina                    26   10   3    0    29   11   10   1    2    29   9    64
2nd     PAS Giannina                    26   10   3    0    29   12   3    6    4    24   18   48
2nd     PAS Giannina                    26   10   2    1    25   10   7    2    4    27   17   55
1st     PAS Giannina                    26   10   2    1    26   9    10   0    3    33   17   62
1st     PAS Giannina                    26   9    2    2    27   18   9    3    1    29   12   59
3rd     PAS Giannina                    26   6    2    5    22   14   7    3    3    22   14   44
1st     PAS Giannina                    26   10   1    2    32   14   11   1    1    26   7    65
1st     PAS Giannina                    26   10   3    0    31   12   7    1    5    25   18   55
1st     PAS Giannina                    26   12   0    1    34   12   7    2    4    22   13   59
1st     PAS Giannina                    26   11   1    1    44   15   9    2    2    30   18   63
2nd     PAS Giannina                    26   7    3    3    30   14   7    4    2    23   14   49
1st     PAS Giannina                    26   12   1    0    38   14   9    2    2    28   18   66
1st     PAS Giannina                    26   12   0    1    34   12   8    3    2    28   12   63
1st     PAS Giannina                    26   10   0    3    28   15   9    3    1    31   21   60
1st     PAS Giannina                    26   10   1    2    27   11   7    3    3    22   13   55
1st     PAS Giannina                    26   10   3    0    31   14   9    3    1    27   12   63
2nd     PAS Giannina                    26   8    4    1    24   8    7    2    4    25   16   51
1st     PAS Giannina                    26   11   1    1    34   17   8    3    2    30   20   61
2nd     PAS Giannina                    26   9    2    2    26   12   8    0    5    23   15   53
2nd     PAS Giannina                    26   7    3    3    23   17   7    4    2    25   15   49
1st     PAS Giannina                    26   10   2    1    32   11   10   0    3    33   15   62
1st     PAS Giannina                    26   9    3    1    34   16   8    5    0    31   15   59
3rd     PAS Giannina                    26   9    4    0    33   13   5    5    3    22   18   51
2nd     PAS Giannina                    26   10   2    1    31   13   6    3    4    18   15   53
1st     PAS Giannina                    26   12   1    0    34   10   4    6    3    15   12   55
2nd     PAS Giannina                    26   6    3    4    21   16   10   2    1    30   14   53
1st     PAS Giannina                    26   12   1    0    33   12   9    4    0    29   13   68
1st     PAS Giannina                    26   9    3    1    26   11   9    1    3    27   14   58
2nd     PAS Giannina                    26   11   2    0    34   14   4    4    5    20   19   51
3rd     PAS Giannina                    26   8    3    2    29   18   8    3    2    32   18   54