1st     PAS Giannina                    26   9    4    0    32   13   10   1    2    29   13   62   
1st     PAS Giannina                    26   10   2    1    36   11   9    2    2    28   13   61   
1st     PAS Giannina                    26   9    3    1    29   15   9    3    1    28   14   60   
1st     PAS Giannina                    26   10   3    0    35   12   8    3    2    24   13   60   
1st     PAS Giannina                    26   10   0    3    32   14   8    2    3    30   18   56   
1st     PAS Giannina                    26   12   0    1    41   10   11   1    1    38   12   70   
1st     PAS Giannina                    26   11   1    1    37   14   9    4    0    34   9    65   
1st     PAS Giannina                    26   8    3    2    26   13   10   1    2    31   13   58   
1st     PAS Giannina                    26   13   0    0    40   12   8    2    3    27   14   65   
1st     PAS Giannina                    26   11   1    1    41   12   11   2    0    33   8    69   
1st     PAS Giannina                    26   12   0    1    46   15   10   2    1    37   15   68   
1st     PAS Giannina                    26   11   2    0    40   15   7    3    3    26   13   59   
1st     PAS Giannina                    26   12   1    0    35   7    8    1    4    26   14   62   
2nd     PAS Giannina                    26   10   1    2    39   15   9    3    1    25   10   61   
2nd     PAS Giannina                    26   11   2    0    39   13   6    3    4    25   16   56   
1st     PAS Giannina                    26   12   0    1    35   9    11   2    0    27   9    71   
1st     PAS Giannina                    26   13   0    0    47   10   7    3    3    22   15   63   
1st     PAS Giannina                    26   11   2    0    40   13   12   1    0    30   10   72   
1st     PAS Giannina                    26   11   2    0    40   10   10   2    1    37   13   67   
1st     PAS Giannina                    26   11   2    0    38   12   10   2    1    33   12   67   
1st     PAS Giannina                    26   12   1    0    46   17   10   2    1    34   14   69   
1st     PAS Giannina                    26   13   0    0    37   8    10   3    0    32   11   72   
1st     PAS Giannina                    26   8    5    0    29   13   8    3    2    26   13   56   
1st     PAS Giannina                    26   11   1    1    35   7    8    4    1    25   7    62   
1st     PAS Giannina                    26   11   1    1    39   10   11   0    2    23   6    67   
1st     PAS Giannina                    26   12   0    1    35   8    12   1    0    35   10   73   
1st     PAS Giannina                    26   10   3    0    40   15   8    4    1    29   15   61   
1st     PAS Giannina                    26   12   0    1    41   9    9    2    2    33   14   65   
1st     PAS Giannina                    26   12   1    0    41   12   7    5    1    33   18   63   
1st     PAS Giannina                    26   11   2    0    37   14   11   1    1    29   9    69   
1st     PAS Giannina                    26   11   2    0    35   12   8    4    1    27   14   63   
1st     PAS Giannina                    26   12   1    0    38   9    7    4    2    28   13   62   
1st     PAS Giannina                    26   11   2    0    38   13   11   2    0    31   12   70   
1st     PAS Giannina                    26   12   0    1    41   14   12   1    0    36   12   73   
1st     PAS Giannina                    26   10   2    1    41   12   9    3    1    31   11   62   
1st     PAS Giannina                    26   12   1    0    38   9    9    2    2    28   13   66   
1st     PAS Giannina                    26   12   1    0    40   16   12   1    0    39   11   74   
1st     PAS Giannina                    26   10   3    0    37   15   7    4    2    31   17   58   
1st     PAS Giannina                    26   12   0    1    35   13   12   1    0    34   8    73   
1st     PAS Giannina                    26   10   3    0    43   10   4    7    2    22   15   52   
1st     PAS Giannina                    26   9    4    0    44   17   8    1    4    24   18   56   
1st     PAS Giannina                    26   12   1    0    43   18   8    4    1    31   13   65   
1st     PAS Giannina                    26   11   1    1    46   17   10   2    1    37   11   66   
1st     PAS Giannina                    26   11   2    0    42   14   9    2    2    29   13   64   
1st     PAS Giannina                    26   9    4    0    41   16   10   3    0    37   11   64   
1st     PAS Giannina                    26   10   3    0    45   15   8    1    4    22   15   58   
1st     PAS Giannina                    26   13   0    0    49   11   10   2    1    37   14   71   
1st     PAS Giannina                    26   11   2    0    35   7    10   2    1    31   7    67   
1st     PAS Giannina                    26   11   2    0    48   13   12   0    1    39   10   71   
1st     PAS Giannina                    26   8    5    0    28   9    9    3    1    28   12   59   
1st     PAS Giannina                    26   12   1    0    41   12   9    3    1    32   12   67   
1st     PAS Giannina                    26   13   0    0    40   14   11   1    1    37   12   73   
1st     PAS Giannina                    26   9    3    1    35   14   8    3    2    32   15   57   
1st     PAS Giannina                    26   13   0    0    46   15   11   1    1    28   10   73   
1st     PAS Giannina                    26   11   1    1    42   15   11   1    1    40   14   68   
1st     PAS Giannina                    26   11   2    0    44   15   7    2    4    30   17   58   
1st     PAS Giannina                    26   10   3    0    36   13   9    1    3    33   14   61   
1st     PAS Giannina                    26   11   1    1    38   9    5    4    4    21   15   53   
1st     PAS Giannina                    26   10   1    2    32   11   11   2    0    37   6    66   
1st     PAS Giannina                    26   12   0    1    41   9    11   1    1    32   11   70   
1st     PAS Giannina                    26   11   1    1    37   13   10   1    2    24   9    65   
1st     PAS Giannina                    26   11   2    0    34   12   11   2    0    33   13   70   
1st     PAS Giannina                    26   12   0    1    41   9    7    3    3    25   16   60   
1st     PAS Giannina                    26   11   1    1    35   12   11   1    1    33   10   68   
1st     PAS Giannina                    26   11   2    0    40   17   9    3    1    23   10   65   
1st     PAS Giannina                    26   9    2    2    36   12   9    3    1    27   12   59   
1st     PAS Giannina                    26   11   1    1    39   13   7    1    5    27   15   56   
1st     PAS Giannina                    26   10   3    0    44   18   10   2    1    24   9    65   
1st     PAS Giannina                    26   11   2    0    37   14   10   3    0    33   9    68   
1st     PAS Giannina                    26   12   1    0    36   8    10   2    1    35   10   69   
1st     PAS Giannina                    26   11   1    1    37   7    8    3    2    24   10   61   
1st     PAS Giannina                    26   11   2    0    36   11   9    3    1    30   12   65   
1st     PAS Giannina                    26   10   2    1    38   16   8    3    2    30   13   59   
2nd     PAS Giannina                    26   12   1    0    36   8    6    3    4    26   19   58   
1st     PAS Giannina                    26   9    2    2    34   16   9    2    2    25   15   58   
1st     PAS Giannina                    26   12   1    0    31   10   11   1    1    38   13   71   
2nd     PAS Giannina                    26   8    3    2    41   18   5    5    3    23   15   47   
1st     PAS Giannina                    26   12   1    0    42   11   9    2    2    33   17   66   
1st     PAS Giannina                    26   13   0    0    48   11   8    5    0    23   10   68   
1st     PAS Giannina                    26   12   1    0    39   11   8    4    1    26   12   65   
2nd     PAS Giannina                    26   11   1    1    41   15   5    5    3    27   22   54   
1st     PAS Giannina                    26   11   2    0    37   14   9    3    1    36   13   65   
1st     PAS Giannina                    26   12   0    1    43   11   6    4    3    28   23   58   
1st     PAS Giannina                    26   12   0    1    38   13   9    2    2    27   14   65   
1st     PAS Giannina                    26   11   2    0    38   8    8    2    3    29   17   61   
1st     PAS Giannina                    26   11   2    0    43   13   11   2    0    30   11   70   
1st     PAS Giannina                    26   11   1    1    40   15   11   2    0    29   9    69   
1st     PAS Giannina                    26   13   0    0    39   7    12   1    0    34   12   76   
1st     PAS Giannina                    26   11   2    0    38   13   9    2    2    24   13   64   
1st     PAS Giannina                    26   11   2    0    37   10   10   2    1    32   18   67   
1st     PAS Giannina                    26   13   0    0    36   6    10   2    1    34   15   71   
1st     PAS Giannina                    26   10   3    0    37   14   10   1    2    39   20   64   
1st     PAS Giannina                    26   12   0    1    43   14   8    4    1    33   12   64   
1st     PAS Giannina                    26   10   3    0    34   6    10   2    1    35   14   65   
1st     PAS Giannina                    26   12   1    0    33   12   10   2    1    32   11   69   
1st     PAS Giannina                    26   11   2    0    42   12   9    2    2    24   6    64   
1st     PAS Giannina                    26   11   1    1    43   15   8    3    2    23   13   61   
1st     PAS Giannina                    26   12   1    0    37   14   8    4    1    35   12   65   
1st     PAS Giannina                    26   10   1    2    35   16   10   1    2    28   12   62   
1st     PAS Giannina                    26   10   2    1    34   12   10   3    0    41   16   65   