2nd     PAS Giannina                    26   7    4    2    22   12   6    4    3    14   12   47   
1st     PAS Giannina                    26   10   3    0    23   8    6    3    4    18   17   54   
3rd     PAS Giannina                    26   9    2    2    28   11   3    6    4    10   16   44   
1st     PAS Giannina                    26   9    2    2    29   13   8    5    0    21   7    58   
3rd     PAS Giannina                    26   9    3    1    23   8    5    3    5    15   17   48   
2nd     PAS Giannina                    26   10   0    3    28   14   4    6    3    15   15   48   
2nd     PAS Giannina                    26   10   1    2    27   9    6    2    5    21   14   51   
1st     PAS Giannina                    26   8    2    3    24   13   9    2    2    19   6    55   
2nd     PAS Giannina                    26   9    4    0    26   9    7    2    4    15   11   54   
2nd     PAS Giannina                    26   8    0    5    19   10   8    3    2    21   9    51   
3rd     PAS Giannina                    26   9    3    1    25   9    3    7    3    14   13   46   
2nd     PAS Giannina                    26   10   3    0    24   12   4    3    6    14   15   48   
1st     PAS Giannina                    26   12   1    0    39   10   4    5    4    17   17   54   
2nd     PAS Giannina                    26   9    3    1    35   14   6    3    4    17   11   51   
3rd     PAS Giannina                    26   9    1    3    28   16   4    6    3    19   17   46   
1st     PAS Giannina                    26   9    3    1    27   9    7    4    2    18   11   55   
1st     PAS Giannina                    26   9    2    2    21   7    10   1    2    26   11   60   
2nd     PAS Giannina                    26   8    2    3    21   11   5    4    4    17   15   45   
1st     PAS Giannina                    26   10   1    2    29   8    5    3    5    15   15   49   
3rd     PAS Giannina                    26   8    2    3    23   9    5    5    3    16   16   46   
1st     PAS Giannina                    26   7    4    2    25   12   7    3    3    22   12   49   
6th     PAS Giannina                    26   8    1    4    25   14   5    1    7    15   14   41   
1st     PAS Giannina                    26   10   2    1    25   11   7    1    5    19   16   54   
1st     PAS Giannina                    26   11   2    0    34   12   7    5    1    19   8    61   
2nd     PAS Giannina                    26   10   1    2    25   10   7    2    4    23   13   54   
2nd     PAS Giannina                    26   7    4    2    25   12   7    2    4    17   12   48   
2nd     PAS Giannina                    26   8    4    1    23   9    7    1    5    19   13   50   
1st     PAS Giannina                    26   12   0    1    29   9    6    4    3    14   10   58   
2nd     PAS Giannina                    26   11   1    1    30   12   6    3    4    15   11   55   
3rd     PAS Giannina                    26   7    3    3    31   22   6    3    4    17   12   45   
3rd     PAS Giannina                    26   9    3    1    26   11   5    3    5    16   12   48   
2nd     PAS Giannina                    26   9    2    2    29   13   7    3    3    18   8    53   
1st     PAS Giannina                    26   8    5    0    29   13   8    3    2    19   10   56   
5th     PAS Giannina                    26   8    2    3    19   14   4    5    4    16   16   43   
4th     PAS Giannina                    26   6    3    4    25   14   6    3    4    17   11   42   
2nd     PAS Giannina                    26   9    3    1    31   15   5    4    4    17   12   49   
1st     PAS Giannina                    26   12   1    0    35   10   7    2    4    20   13   60   
3rd     PAS Giannina                    26   9    3    1    21   6    6    2    5    19   15   50   
1st     PAS Giannina                    26   9    2    2    29   17   6    6    1    19   13   53   
2nd     PAS Giannina                    26   11   1    1    28   9    6    4    3    18   13   56   
2nd     PAS Giannina                    26   9    3    1    33   13   6    4    3    14   11   52   
2nd     PAS Giannina                    26   9    3    1    29   8    6    4    3    23   18   52   
2nd     PAS Giannina                    26   11   1    1    31   10   4    6    3    12   11   52   
1st     PAS Giannina                    26   11   2    0    28   11   7    5    1    17   13   61   
2nd     PAS Giannina                    26   8    4    1    16   6    8    3    2    27   13   55   
4th     PAS Giannina                    26   8    4    1    28   16   5    2    6    15   16   45   
3rd     PAS Giannina                    26   9    1    3    23   13   4    4    5    16   17   44   
2nd     PAS Giannina                    26   9    2    2    24   10   5    4    4    15   16   48   
3rd     PAS Giannina                    26   10   1    2    27   13   5    2    6    13   15   48   
2nd     PAS Giannina                    26   10   1    2    25   13   5    4    4    14   12   50   
1st     PAS Giannina                    26   11   2    0    26   10   5    3    5    13   15   53   
1st     PAS Giannina                    26   13   0    0    33   11   8    1    4    17   12   64   
1st     PAS Giannina                    26   9    2    2    31   16   7    3    3    21   13   53   
1st     PAS Giannina                    26   10   2    1    20   6    8    2    3    20   11   58   
1st     PAS Giannina                    26   9    3    1    28   15   7    2    4    26   19   53   
2nd     PAS Giannina                    26   8    4    1    33   14   8    1    4    19   10   53   
1st     PAS Giannina                    26   8    3    2    27   12   6    5    2    16   8    50   
1st     PAS Giannina                    26   11   1    1    35   13   5    3    5    14   20   52   
2nd     PAS Giannina                    26   11   1    1    29   10   4    5    4    19   19   51   
2nd     PAS Giannina                    26   9    4    0    29   11   6    3    4    19   17   52   
2nd     PAS Giannina                    26   10   2    1    26   8    6    4    3    21   17   54   
2nd     PAS Giannina                    26   11   1    1    30   14   4    6    3    17   13   52   
1st     PAS Giannina                    26   9    4    0    28   10   6    6    1    17   8    55   
2nd     PAS Giannina                    26   8    4    1    25   15   4    8    1    16   10   48   
3rd     PAS Giannina                    26   7    4    2    26   18   6    4    3    20   17   47   
1st     PAS Giannina                    26   12   0    1    28   6    6    4    3    18   12   58   
2nd     PAS Giannina                    26   8    2    3    22   11   7    2    4    16   11   49   
1st     PAS Giannina                    26   8    4    1    27   14   3    8    2    18   15   45   
1st     PAS Giannina                    26   9    3    1    29   12   4    5    4    17   14   47   
5th     PAS Giannina                    26   8    2    3    21   13   4    2    7    13   15   40   
1st     PAS Giannina                    26   10   3    0    34   12   9    2    2    27   10   62   
1st     PAS Giannina                    26   10   2    1    38   15   10   0    3    19   10   62   
2nd     PAS Giannina                    26   10   3    0    30   7    5    4    4    19   13   52   
2nd     PAS Giannina                    26   9    4    0    26   9    6    4    3    19   16   53   
2nd     PAS Giannina                    26   7    2    4    22   16   7    5    1    21   13   49   
2nd     PAS Giannina                    26   9    4    0    24   6    8    3    2    19   7    58   
1st     PAS Giannina                    26   10   1    2    27   10   3    7    3    16   15   47   
2nd     PAS Giannina                    26   8    3    2    23   9    8    1    4    18   13   52   
1st     PAS Giannina                    26   10   2    1    36   11   5    5    3    14   12   52   
1st     PAS Giannina                    26   10   1    2    33   12   8    2    3    25   17   57   
2nd     PAS Giannina                    26   11   1    1    28   6    5    4    4    19   12   53   
1st     PAS Giannina                    26   9    3    1    28   13   7    3    3    18   14   54   
2nd     PAS Giannina                    26   9    2    2    22   8    5    3    5    17   17   47   
2nd     PAS Giannina                    26   10   2    1    31   11   6    3    4    16   15   53   
2nd     PAS Giannina                    26   7    5    1    30   16   5    2    6    22   20   43   
3rd     PAS Giannina                    26   8    3    2    24   14   7    2    4    22   13   50   
1st     PAS Giannina                    26   9    2    2    34   15   7    4    2    22   9    54   
3rd     PAS Giannina                    26   8    4    1    25   10   3    6    4    17   15   43   
1st     PAS Giannina                    26   12   1    0    33   9    6    4    3    20   15   59   
2nd     PAS Giannina                    26   9    1    3    20   11   8    2    3    15   7    54   
1st     PAS Giannina                    26   9    3    1    24   12   5    4    4    21   15   49   
1st     PAS Giannina                    26   10   3    0    23   7    7    3    3    23   15   57   
2nd     PAS Giannina                    26   9    4    0    22   6    4    5    4    13   12   48   
1st     PAS Giannina                    26   11   0    2    26   7    7    2    4    19   11   56   
4th     PAS Giannina                    26   7    4    2    23   12   3    7    3    19   19   41   
2nd     PAS Giannina                    26   11   0    2    34   10   6    4    3    15   11   55   
2nd     PAS Giannina                    26   12   1    0    34   8    4    5    4    15   17   54   
1st     PAS Giannina                    26   9    3    1    28   13   5    5    3    15   11   50   
1st     PAS Giannina                    26   10   3    0    31   13   8    0    5    20   14   57   
7th     PAS Giannina                    26   7    2    4    22   13   3    7    3    18   15   39   