9th     PAS Giannina                    26   7    2    4    28   17   3    1    9    18   30   33   
5th     PAS Giannina                    26   7    3    3    28   20   5    1    7    16   22   40   
7th     PAS Giannina                    26   9    2    2    29   13   3    2    8    10   24   40   
9th     PAS Giannina                    26   7    3    3    27   17   3    3    7    25   28   36   
3rd     PAS Giannina                    26   9    2    2    25   14   5    3    5    19   23   47   
2nd     PAS Giannina                    26   12   0    1    39   11   3    3    7    16   24   48   
4th     PAS Giannina                    26   9    3    1    29   14   3    2    8    22   35   41   
11th    PAS Giannina                    26   8    3    2    29   16   0    3    10   16   30   30   
12th    PAS Giannina                    26   6    4    3    17   16   1    5    7    17   23   30   
8th     PAS Giannina                    26   6    4    3    26   18   4    2    7    15   23   36   
8th     PAS Giannina                    26   6    6    1    29   18   3    3    7    18   26   36   
2nd     PAS Giannina                    26   11   2    0    33   12   4    3    6    19   22   50   
9th     PAS Giannina                    26   8    3    2    30   16   1    2    10   19   29   32   
11th    PAS Giannina                    26   7    0    6    21   22   3    3    7    19   31   33   
11th    PAS Giannina                    26   7    3    3    18   14   1    3    9    11   28   30   
3rd     PAS Giannina                    26   10   1    2    27   11   1    6    6    19   23   40   
8th     PAS Giannina                    26   5    4    4    22   17   3    0    10   17   29   28   
2nd     PAS Giannina                    26   11   2    0    34   15   4    2    7    16   18   49   
2nd     PAS Giannina                    26   12   1    0    30   10   3    2    8    19   21   48   
8th     PAS Giannina                    26   8    2    3    30   15   2    3    8    13   29   35   
3rd     PAS Giannina                    26   10   2    1    32   13   3    4    6    15   18   45   
1st     PAS Giannina                    26   12   1    0    34   10   4    3    6    15   17   52   
3rd     PAS Giannina                    26   11   1    1    35   12   4    1    8    17   22   47   
5th     PAS Giannina                    26   9    1    3    27   17   3    2    8    14   21   39   
8th     PAS Giannina                    26   8    3    2    28   15   3    1    9    13   27   37   
4th     PAS Giannina                    26   6    5    2    25   14   4    4    5    18   22   39   
2nd     PAS Giannina                    26   11   1    1    32   14   2    7    4    14   20   47   
2nd     PAS Giannina                    26   10   1    2    28   12   4    5    4    20   20   48   
6th     PAS Giannina                    26   5    5    3    28   26   4    4    5    17   19   36   
9th     PAS Giannina                    26   9    1    3    28   18   2    2    9    16   27   36   
5th     PAS Giannina                    26   8    2    3    29   20   4    3    6    16   20   41   
9th     PAS Giannina                    26   3    8    2    24   21   5    2    6    17   20   34   
9th     PAS Giannina                    26   5    6    2    26   21   3    2    8    12   18   32   
4th     PAS Giannina                    26   9    2    2    30   19   4    2    7    16   21   43   
8th     PAS Giannina                    26   9    2    2    30   20   2    1    10   9    25   36   
13th    PAS Giannina                    26   4    3    6    17   19   3    2    8    16   23   26   
5th     PAS Giannina                    26   8    1    4    29   19   3    3    7    12   23   37   
4th     PAS Giannina                    26   9    3    1    27   12   4    0    9    15   22   42   
3rd     PAS Giannina                    26   7    4    2    21   14   4    6    3    21   23   43   
4th     PAS Giannina                    26   8    2    3    28   18   4    2    7    21   25   40   
14th    PAS Giannina                    26   5    4    4    17   19   2    2    9    12   23   27   
4th     PAS Giannina                    26   10   2    1    27   10   3    1    9    15   28   42   
3rd     PAS Giannina                    26   10   1    2    33   15   5    0    8    17   26   46   
4th     PAS Giannina                    26   8    2    3    32   19   3    3    7    20   28   38   
6th     PAS Giannina                    26   7    3    3    26   16   2    4    7    16   25   34   
7th     PAS Giannina                    26   9    2    2    28   14   2    2    9    11   23   37   
9th     PAS Giannina                    26   8    1    4    28   15   3    2    8    22   27   36   
7th     PAS Giannina                    26   8    1    4    23   15   2    4    7    15   21   35   
7th     PAS Giannina                    26   9    4    0    36   17   2    0    11   15   29   37   
8th     PAS Giannina                    26   8    1    4    23   17   3    1    9    15   25   35   
3rd     PAS Giannina                    26   8    2    3    27   16   4    7    2    21   16   45   
4th     PAS Giannina                    26   7    2    4    22   17   5    5    3    19   17   43   
3rd     PAS Giannina                    26   7    6    0    27   16   5    4    4    21   17   46   
5th     PAS Giannina                    26   7    3    3    32   18   6    0    7    18   21   42   
2nd     PAS Giannina                    26   7    3    3    28   20   5    2    6    22   21   41   
3rd     PAS Giannina                    26   9    1    3    27   14   2    4    7    17   23   38   
6th     PAS Giannina                    26   8    2    3    31   20   3    6    4    17   20   41   
6th     PAS Giannina                    26   6    4    3    28   18   3    4    6    18   22   35   
7th     PAS Giannina                    26   7    3    3    21   16   3    3    7    20   26   36   
2nd     PAS Giannina                    26   11   1    1    34   17   2    4    7    17   27   44   
5th     PAS Giannina                    26   10   0    3    29   16   0    4    9    13   24   34   
4th     PAS Giannina                    26   8    4    1    30   18   2    6    5    15   23   40   
7th     PAS Giannina                    26   10   1    2    31   19   1    3    9    11   29   37   
2nd     PAS Giannina                    26   11   0    2    30   12   4    2    7    17   28   47   
4th     PAS Giannina                    26   10   2    1    31   12   1    7    5    18   24   42   
11th    PAS Giannina                    26   7    1    5    24   18   1    2    10   10   33   27   
7th     PAS Giannina                    26   7    3    3    23   12   3    4    6    18   26   37   
10th    PAS Giannina                    26   4    7    2    21   20   3    3    7    12   18   31   
10th    PAS Giannina                    26   8    3    2    20   10   1    2    10   12   30   32   
9th     PAS Giannina                    26   7    4    2    32   21   1    5    7    13   25   33   
10th    PAS Giannina                    26   4    3    6    22   22   4    5    4    15   15   32   
3rd     PAS Giannina                    26   9    3    1    31   19   3    5    5    15   22   44   
2nd     PAS Giannina                    26   9    1    3    28   18   3    5    5    14   21   42   
3rd     PAS Giannina                    26   9    3    1    30   19   3    3    7    17   21   42   
2nd     PAS Giannina                    26   8    3    2    28   19   5    1    7    18   21   43   
11th    PAS Giannina                    26   4    4    5    21   19   4    1    8    21   26   29   
8th     PAS Giannina                    26   7    4    2    28   21   3    2    8    16   25   36   
6th     PAS Giannina                    26   7    4    2    24   17   2    6    5    18   25   37   
9th     PAS Giannina                    26   7    3    3    26   21   2    2    9    14   28   32   
5th     PAS Giannina                    26   9    2    2    35   18   4    1    8    24   32   42   
2nd     PAS Giannina                    26   8    5    0    26   14   5    1    7    18   27   45   
4th     PAS Giannina                    26   7    2    4    21   18   6    2    5    26   23   43   
5th     PAS Giannina                    26   7    2    4    27   17   5    2    6    18   19   40   
7th     PAS Giannina                    26   7    4    2    31   20   2    3    8    14   22   34   
7th     PAS Giannina                    26   9    1    3    34   19   1    4    8    12   24   35   
6th     PAS Giannina                    26   8    3    2    32   16   3    4    6    20   21   40   
3rd     PAS Giannina                    26   9    2    2    27   17   3    3    7    19   22   41   
3rd     PAS Giannina                    26   10   2    1    25   10   3    2    8    12   22   43   
13th    PAS Giannina                    26   6    5    2    24   18   1    2    10   15   31   28   
7th     PAS Giannina                    26   9    2    2    31   16   2    1    10   12   29   36   
2nd     PAS Giannina                    26   10   1    2    32   18   4    3    6    20   25   46   
7th     PAS Giannina                    26   7    4    2    27   15   2    3    8    15   29   34   
12th    PAS Giannina                    26   6    3    4    26   21   1    4    8    18   28   28   
9th     PAS Giannina                    26   7    3    3    27   15   3    3    7    19   28   36   
6th     PAS Giannina                    26   6    4    3    27   20   3    5    5    23   27   36   
6th     PAS Giannina                    26   8    1    4    29   23   4    3    6    18   25   40   
10th    PAS Giannina                    26   4    3    6    19   21   5    2    6    15   18   32   
11th    PAS Giannina                    26   5    5    3    21   17   2    4    7    19   27   30   
4th     PAS Giannina                    26   9    1    3    32   20   3    4    6    25   29   41   
4th     PAS Giannina                    26   8    2    3    24   14   5    3    5    15   17   44   