1st     PAS Giannina                    26   10   2    1    25   11   9    1    3    29   13   60   
1st     PAS Giannina                    26   13   0    0    30   10   8    3    2    37   19   66   
1st     PAS Giannina                    26   12   0    1    36   11   7    5    1    29   19   62   
1st     PAS Giannina                    26   9    4    0    26   11   9    4    0    36   10   62   
1st     PAS Giannina                    26   11   1    1    32   12   10   2    1    31   15   66   
2nd     PAS Giannina                    26   8    3    2    28   7    7    5    1    24   8    53   
1st     PAS Giannina                    26   13   0    0    32   6    5    3    5    26   18   57   
1st     PAS Giannina                    26   10   3    0    33   11   9    3    1    31   17   63   
1st     PAS Giannina                    26   12   0    1    38   11   9    3    1    25   13   66   
1st     PAS Giannina                    26   12   1    0    32   8    9    2    2    25   11   66   
1st     PAS Giannina                    26   11   0    2    28   8    7    6    0    26   10   60   
1st     PAS Giannina                    26   10   0    3    29   12   10   2    1    29   11   62   
1st     PAS Giannina                    26   11   2    0    32   12   8    5    0    29   15   64   
1st     PAS Giannina                    26   11   1    1    34   10   10   0    3    29   10   64   
1st     PAS Giannina                    26   10   3    0    28   8    9    3    1    30   8    63   
1st     PAS Giannina                    26   12   1    0    26   9    8    1    4    25   14   62   
1st     PAS Giannina                    26   12   1    0    31   5    12   1    0    32   7    74   
2nd     PAS Giannina                    26   8    3    2    28   11   7    4    2    20   6    52   
1st     PAS Giannina                    26   11   0    2    30   9    8    3    2    32   17   60   
1st     PAS Giannina                    26   7    5    1    25   11   8    3    2    25   15   53   
1st     PAS Giannina                    26   13   0    0    34   12   8    4    1    36   18   67   
1st     PAS Giannina                    26   7    4    2    21   10   8    3    2    25   13   52   
1st     PAS Giannina                    26   11   2    0    30   10   10   3    0    29   11   68   
1st     PAS Giannina                    26   11   2    0    33   7    10   2    1    32   16   67   
1st     PAS Giannina                    26   11   1    1    37   9    9    3    1    22   8    64   
1st     PAS Giannina                    26   11   1    1    37   12   9    3    1    21   6    64   
1st     PAS Giannina                    26   10   2    1    29   8    5    2    6    23   20   49   
2nd     PAS Giannina                    26   8    3    2    23   11   8    4    1    30   9    55   
1st     PAS Giannina                    26   10   2    1    30   13   8    3    2    30   14   59   
1st     PAS Giannina                    26   11   2    0    40   8    7    2    4    31   19   58   
1st     PAS Giannina                    26   9    3    1    28   14   11   2    0    30   9    65   
1st     PAS Giannina                    26   12   1    0    36   10   10   3    0    36   12   70   
1st     PAS Giannina                    26   12   1    0    40   10   11   0    2    36   11   70   
1st     PAS Giannina                    26   11   2    0    36   11   7    2    4    23   13   58   
1st     PAS Giannina                    26   12   1    0    29   7    11   0    2    26   9    70   
1st     PAS Giannina                    26   10   2    1    28   7    10   3    0    34   9    65   
1st     PAS Giannina                    26   11   1    1    31   8    8    2    3    21   12   60   
1st     PAS Giannina                    26   12   1    0    32   5    12   0    1    39   16   73   
1st     PAS Giannina                    26   11   2    0    30   10   9    4    0    29   12   66   
1st     PAS Giannina                    26   10   2    1    30   11   8    4    1    23   10   60   
1st     PAS Giannina                    26   10   1    2    24   11   9    3    1    28   8    61   
2nd     PAS Giannina                    26   11   2    0    35   8    7    4    2    21   11   60   
1st     PAS Giannina                    26   9    2    2    30   19   10   3    0    31   10   62   
1st     PAS Giannina                    26   11   1    1    33   10   7    4    2    28   12   59   
1st     PAS Giannina                    26   10   1    2    26   11   11   1    1    32   8    65   
1st     PAS Giannina                    26   8    5    0    31   15   11   2    0    27   7    64   
1st     PAS Giannina                    26   10   1    2    28   11   9    0    4    21   11   58   
1st     PAS Giannina                    26   13   0    0    36   8    11   2    0    30   11   74   
1st     PAS Giannina                    26   12   1    0    34   9    9    4    0    32   5    68   
1st     PAS Giannina                    26   10   3    0    34   12   9    2    2    31   15   62   
1st     PAS Giannina                    26   12   1    0    34   9    8    4    1    24   9    65   
1st     PAS Giannina                    26   10   3    0    33   13   11   2    0    31   12   68   
1st     PAS Giannina                    26   10   2    1    29   11   10   2    1    33   13   64   
2nd     PAS Giannina                    26   9    4    0    21   5    7    3    3    28   21   55   
1st     PAS Giannina                    26   10   2    1    25   9    10   2    1    26   11   64   
1st     PAS Giannina                    26   12   1    0    35   9    8    4    1    34   10   65   
1st     PAS Giannina                    26   10   1    2    26   9    8    4    1    30   8    59   
1st     PAS Giannina                    26   11   1    1    31   6    8    3    2    26   12   61   
2nd     PAS Giannina                    26   12   1    0    29   6    8    3    2    25   12   64   
1st     PAS Giannina                    26   10   1    2    33   14   11   1    1    37   10   65   
1st     PAS Giannina                    26   12   1    0    37   7    8    4    1    31   15   65   
1st     PAS Giannina                    26   11   2    0    32   4    8    4    1    27   10   63   
1st     PAS Giannina                    26   10   2    1    31   9    9    1    3    26   15   60   
1st     PAS Giannina                    26   12   1    0    36   10   9    2    2    23   10   66   
1st     PAS Giannina                    26   11   1    1    33   8    11   1    1    37   15   68   
1st     PAS Giannina                    26   11   1    1    32   7    10   2    1    25   9    66   
1st     PAS Giannina                    26   8    4    1    35   15   10   2    1    31   10   60   
1st     PAS Giannina                    26   11   1    1    37   11   10   1    2    30   8    65   
1st     PAS Giannina                    26   10   3    0    35   8    10   3    0    31   11   66   
1st     PAS Giannina                    26   9    3    1    29   11   10   2    1    43   9    62   
1st     PAS Giannina                    26   11   2    0    37   8    11   1    1    29   8    69   
1st     PAS Giannina                    26   9    4    0    26   11   7    2    4    27   13   54   
1st     PAS Giannina                    26   12   0    1    28   6    7    4    2    27   14   61   
1st     PAS Giannina                    26   9    3    1    27   13   11   2    0    25   11   65   
1st     PAS Giannina                    26   11   2    0    31   13   10   2    1    28   10   67   
1st     PAS Giannina                    26   12   1    0    37   12   8    3    2    30   12   64   
1st     PAS Giannina                    26   11   1    1    35   13   9    3    1    31   14   64   
2nd     PAS Giannina                    26   11   1    1    32   11   5    4    4    22   19   53   
1st     PAS Giannina                    26   11   2    0    39   13   8    2    3    29   14   61   
1st     PAS Giannina                    26   10   1    2    29   15   10   2    1    21   5    63   
1st     PAS Giannina                    26   10   2    1    37   13   9    2    2    27   6    61   
1st     PAS Giannina                    26   12   0    1    33   11   9    3    1    20   9    66   
1st     PAS Giannina                    26   10   3    0    33   11   9    2    2    26   19   62   
2nd     PAS Giannina                    26   9    2    2    28   11   7    1    5    24   13   51   
1st     PAS Giannina                    26   10   3    0    35   10   10   2    1    32   12   65   
2nd     PAS Giannina                    26   11   2    0    31   8    5    4    4    18   18   54   
1st     PAS Giannina                    26   12   0    1    28   8    10   2    1    28   12   68   
1st     PAS Giannina                    26   9    2    2    29   13   9    3    1    27   11   59   
2nd     PAS Giannina                    26   9    3    1    24   10   7    3    3    32   20   54   
1st     PAS Giannina                    26   12   0    1    42   8    9    3    1    35   12   66   
2nd     PAS Giannina                    26   10   3    0    30   7    6    3    4    25   16   54   
1st     PAS Giannina                    26   12   1    0    37   12   8    3    2    24   12   64   
1st     PAS Giannina                    26   13   0    0    38   8    9    3    1    26   14   69   
1st     PAS Giannina                    26   8    5    0    29   12   11   1    1    27   9    63   
1st     PAS Giannina                    26   10   3    0    25   5    9    1    3    32   17   61   
1st     PAS Giannina                    26   11   2    0    35   9    11   1    1    31   11   69   
1st     PAS Giannina                    26   12   1    0    48   11   11   0    2    38   21   70   
1st     PAS Giannina                    26   10   1    2    31   12   10   1    2    33   13   62   
1st     PAS Giannina                    26   11   1    1    28   10   9    2    2    36   11   63   
1st     PAS Giannina                    26   9    3    1    30   12   6    4    3    25   16   52   