1st     PAS Giannina                    26   9    4    0    28   14   9    1    3    24   11   59   
1st     PAS Giannina                    26   10   2    1    37   7    9    2    2    22   7    61   
1st     PAS Giannina                    26   9    1    3    22   12   11   2    0    25   5    63   
1st     PAS Giannina                    26   10   2    1    29   8    9    4    0    26   10   63   
1st     PAS Giannina                    26   12   0    1    30   4    9    2    2    30   12   65   
1st     PAS Giannina                    26   11   1    1    33   9    11   2    0    31   7    69   
1st     PAS Giannina                    26   10   2    1    31   13   11   2    0    36   8    67   
1st     PAS Giannina                    26   12   0    1    38   9    10   2    1    29   8    68   
1st     PAS Giannina                    26   11   1    1    30   5    11   1    1    27   9    68   
1st     PAS Giannina                    26   10   2    1    32   6    8    2    3    28   14   58   
1st     PAS Giannina                    26   9    3    1    31   10   11   1    1    26   9    64   
1st     PAS Giannina                    26   11   0    2    28   7    12   1    0    31   7    70   
1st     PAS Giannina                    26   11   1    1    29   4    6    5    2    21   14   57   
1st     PAS Giannina                    26   12   1    0    30   6    6    6    1    24   12   61   
1st     PAS Giannina                    26   10   2    1    27   10   9    3    1    20   8    62   
1st     PAS Giannina                    26   11   1    1    30   8    8    3    2    23   12   61   
1st     PAS Giannina                    26   11   2    0    43   10   9    1    3    26   12   63   
1st     PAS Giannina                    26   11   2    0    33   7    10   0    3    30   9    65   
1st     PAS Giannina                    26   13   0    0    33   5    9    2    2    27   10   68   
1st     PAS Giannina                    26   11   1    1    29   11   8    4    1    23   10   62   
1st     PAS Giannina                    26   12   1    0    37   6    7    3    3    21   13   61   
1st     PAS Giannina                    26   10   3    0    28   7    11   1    1    27   7    67   
1st     PAS Giannina                    26   12   1    0    39   6    9    3    1    28   11   67   
1st     PAS Giannina                    26   10   2    1    31   11   10   2    1    17   3    64   
1st     PAS Giannina                    26   10   2    1    36   11   9    0    4    24   12   59   
1st     PAS Giannina                    26   9    3    1    31   9    8    3    2    24   10   57   
1st     PAS Giannina                    26   12   1    0    34   11   9    2    2    22   7    66   
1st     PAS Giannina                    26   12   1    0    31   8    7    2    4    21   14   60   
1st     PAS Giannina                    26   11   1    1    35   11   10   0    3    25   9    64   
1st     PAS Giannina                    26   9    4    0    27   13   6    5    2    21   16   54   
2nd     PAS Giannina                    26   9    2    2    30   13   8    2    3    26   13   55   
1st     PAS Giannina                    26   12   1    0    38   8    12   1    0    32   7    74   
1st     PAS Giannina                    26   11   2    0    30   6    9    3    1    28   9    65   
1st     PAS Giannina                    26   12   0    1    31   6    9    3    1    24   6    66   
2nd     PAS Giannina                    26   12   0    1    32   8    6    3    4    22   15   57   
1st     PAS Giannina                    26   9    3    1    33   15   11   1    1    31   11   64   
1st     PAS Giannina                    26   9    3    1    30   12   9    4    0    31   12   61   
1st     PAS Giannina                    26   10   2    1    31   11   11   0    2    37   9    65   
1st     PAS Giannina                    26   11   2    0    38   14   10   3    0    23   10   68   
1st     PAS Giannina                    26   10   3    0    31   6    11   1    1    32   6    67   
1st     PAS Giannina                    26   12   1    0    30   9    9    4    0    27   9    68   
1st     PAS Giannina                    26   11   0    2    33   13   8    2    3    22   9    59   
1st     PAS Giannina                    26   12   0    1    31   10   9    2    2    24   14   65   
1st     PAS Giannina                    26   13   0    0    32   3    10   3    0    27   9    72   
1st     PAS Giannina                    26   12   0    1    37   10   8    3    2    30   12   63   
1st     PAS Giannina                    26   11   1    1    29   10   8    2    3    24   17   60   
1st     PAS Giannina                    26   10   2    1    31   8    7    4    2    30   20   57   
1st     PAS Giannina                    26   8    4    1    26   9    7    4    2    19   10   53   
1st     PAS Giannina                    26   12   1    0    33   5    10   2    1    23   6    69   
1st     PAS Giannina                    26   10   2    1    35   8    6    5    2    16   12   55   
1st     PAS Giannina                    26   9    3    1    36   13   11   0    2    32   9    63   
1st     PAS Giannina                    26   10   3    0    32   13   8    3    2    24   11   60   
1st     PAS Giannina                    26   11   1    1    33   9    7    3    3    27   14   58   
1st     PAS Giannina                    26   12   0    1    33   5    9    1    3    29   13   64   
2nd     PAS Giannina                    26   9    3    1    35   9    10   2    1    25   4    62   
1st     PAS Giannina                    26   11   1    1    34   10   10   0    3    27   8    64   
1st     PAS Giannina                    26   8    4    1    29   10   11   0    2    31   9    61   
1st     PAS Giannina                    26   10   2    1    27   9    8    3    2    21   10   59   
1st     PAS Giannina                    26   11   1    1    24   7    9    2    2    32   15   63   
1st     PAS Giannina                    26   12   0    1    34   11   10   0    3    27   10   66   
1st     PAS Giannina                    26   10   1    2    34   12   8    2    3    23   12   57   
1st     PAS Giannina                    26   10   2    1    36   17   11   2    0    27   7    67   
2nd     PAS Giannina                    26   11   1    1    28   8    6    3    4    17   12   55   
1st     PAS Giannina                    26   10   2    1    28   11   7    5    1    26   10   58   
1st     PAS Giannina                    26   9    2    2    23   10   9    4    0    30   13   60   
1st     PAS Giannina                    26   10   2    1    33   11   12   1    0    27   7    69   
1st     PAS Giannina                    26   11   0    2    31   11   9    2    2    18   6    62   
1st     PAS Giannina                    26   10   2    1    24   10   9    4    0    19   7    63   
1st     PAS Giannina                    26   13   0    0    31   4    12   1    0    29   5    76   
1st     PAS Giannina                    26   11   0    2    38   13   12   1    0    31   8    70   
1st     PAS Giannina                    26   11   1    1    32   5    9    1    3    36   16   62   
1st     PAS Giannina                    26   11   1    1    35   9    10   1    2    22   10   65   
1st     PAS Giannina                    26   12   1    0    34   8    10   2    1    27   9    69   
1st     PAS Giannina                    26   10   3    0    33   8    12   1    0    29   5    70   
1st     PAS Giannina                    26   10   2    1    22   7    10   2    1    26   7    64   
1st     PAS Giannina                    26   11   1    1    28   6    10   1    2    26   10   65   
1st     PAS Giannina                    26   10   3    0    33   8    8    4    1    20   7    61   
1st     PAS Giannina                    26   10   2    1    24   9    8    4    1    25   11   60   
1st     PAS Giannina                    26   12   1    0    33   9    9    2    2    32   14   66   
1st     PAS Giannina                    26   11   2    0    30   8    8    4    1    26   13   63   
1st     PAS Giannina                    26   10   3    0    32   8    6    5    2    28   13   56   
1st     PAS Giannina                    26   12   1    0    41   11   10   1    2    30   10   68   
1st     PAS Giannina                    26   13   0    0    34   10   11   2    0    33   6    74   
1st     PAS Giannina                    26   11   1    1    36   11   6    4    3    25   12   56   
1st     PAS Giannina                    26   11   1    1    27   6    6    3    4    24   13   55   
1st     PAS Giannina                    26   9    3    1    25   11   11   1    1    28   10   64   
1st     PAS Giannina                    26   10   3    0    30   8    10   2    1    29   6    65   
1st     PAS Giannina                    26   10   3    0    32   9    9    2    2    28   13   62   
1st     PAS Giannina                    26   12   1    0    38   10   10   3    0    34   8    70   
1st     PAS Giannina                    26   9    4    0    29   14   9    3    1    26   10   61   
1st     PAS Giannina                    26   12   1    0    35   6    7    3    3    18   10   61   
1st     PAS Giannina                    26   13   0    0    35   8    11   2    0    26   8    74   
1st     PAS Giannina                    26   11   2    0    25   6    7    2    4    24   18   58   
1st     PAS Giannina                    26   10   3    0    27   10   11   2    0    26   5    68   
1st     PAS Giannina                    26   10   3    0    32   8    7    2    4    22   11   56   
2nd     PAS Giannina                    26   12   1    0    38   13   7    4    2    28   15   62   
1st     PAS Giannina                    26   11   1    1    32   13   9    3    1    33   13   64   
1st     PAS Giannina                    26   11   1    1    28   8    9    4    0    23   5    65   
1st     PAS Giannina                    26   11   0    2    37   10   7    5    1    25   12   59   
1st     PAS Giannina                    26   11   1    1    26   7    9    2    2    29   14   63   