2nd     PAS Giannina                    26   11   0    2    32   15   6    2    5    15   18   53   
2nd     PAS Giannina                    26   8    3    2    26   11   8    2    3    26   15   53   
1st     PAS Giannina                    26   11   2    0    33   14   6    4    3    21   15   57   
1st     PAS Giannina                    26   11   0    2    36   7    9    3    1    24   8    63   
2nd     PAS Giannina                    26   10   3    0    31   12   7    4    2    21   13   58   
1st     PAS Giannina                    26   10   1    2    29   11   7    1    5    21   18   53   
2nd     PAS Giannina                    26   10   0    3    29   12   5    5    3    14   12   50   
2nd     PAS Giannina                    26   7    4    2    25   12   7    3    3    29   18   49   
2nd     PAS Giannina                    26   9    4    0    29   11   4    3    6    16   16   46   
3rd     PAS Giannina                    26   9    2    2    25   15   5    2    6    19   20   46   
1st     PAS Giannina                    26   13   0    0    31   11   7    3    3    23   12   63   
1st     PAS Giannina                    26   9    3    1    29   10   6    3    4    19   17   51   
2nd     PAS Giannina                    26   10   1    2    29   13   5    2    6    17   13   48   
1st     PAS Giannina                    26   9    2    2    31   11   8    2    3    23   19   55   
1st     PAS Giannina                    26   11   2    0    33   14   6    2    5    15   16   55   
2nd     PAS Giannina                    26   11   1    1    32   12   5    5    3    18   16   54   
2nd     PAS Giannina                    26   9    3    1    33   14   4    5    4    15   14   47   
2nd     PAS Giannina                    26   7    6    0    25   10   6    3    4    15   13   48   
1st     PAS Giannina                    26   10   3    0    36   11   11   2    0    27   7    68   
2nd     PAS Giannina                    26   11   1    1    32   9    6    1    6    19   20   53   
2nd     PAS Giannina                    26   9    2    2    24   16   5    1    7    12   15   45   
1st     PAS Giannina                    26   10   2    1    33   14   6    4    3    15   8    54   
1st     PAS Giannina                    26   10   2    1    29   7    6    4    3    20   13   54   
1st     PAS Giannina                    26   9    2    2    31   16   6    2    5    21   18   49   
1st     PAS Giannina                    26   10   1    2    31   12   7    4    2    23   14   56   
5th     PAS Giannina                    26   7    3    3    27   15   4    5    4    22   19   41   
2nd     PAS Giannina                    26   10   2    1    32   11   6    5    2    21   17   55   
2nd     PAS Giannina                    26   10   2    1    30   12   4    4    5    19   13   48   
3rd     PAS Giannina                    26   9    2    2    28   10   5    3    5    16   15   47   
2nd     PAS Giannina                    26   7    4    2    26   13   7    1    5    21   17   47   
2nd     PAS Giannina                    26   11   1    1    33   12   5    4    4    21   20   53   
2nd     PAS Giannina                    26   10   0    3    28   13   5    3    5    13   14   48   
1st     PAS Giannina                    26   12   0    1    40   16   6    1    6    16   15   55   
1st     PAS Giannina                    26   11   0    2    29   9    9    2    2    22   7    62   
2nd     PAS Giannina                    26   9    2    2    22   12   5    5    3    19   12   49   
2nd     PAS Giannina                    26   8    4    1    30   12   6    3    4    21   19   49   
1st     PAS Giannina                    26   11   0    2    25   7    8    4    1    20   7    61   
1st     PAS Giannina                    26   12   0    1    34   14   6    6    1    20   10   60   
1st     PAS Giannina                    26   8    4    1    22   10   6    5    2    21   12   51   
1st     PAS Giannina                    26   12   1    0    36   12   8    2    3    20   14   63   
3rd     PAS Giannina                    26   9    1    3    29   10   6    2    5    16   15   48   
1st     PAS Giannina                    26   10   0    3    29   16   6    5    2    25   15   53   
1st     PAS Giannina                    26   12   0    1    29   8    7    2    4    25   19   59   
1st     PAS Giannina                    26   8    3    2    29   18   8    3    2    28   17   54   
1st     PAS Giannina                    26   10   0    3    30   11   6    4    3    21   16   52   
1st     PAS Giannina                    26   11   1    1    33   10   8    4    1    25   12   62   
7th     PAS Giannina                    26   5    5    3    23   21   5    3    5    21   21   38   
1st     PAS Giannina                    26   10   2    1    39   17   11   0    2    20   5    65   
1st     PAS Giannina                    26   11   0    2    29   11   6    3    4    22   18   54   
2nd     PAS Giannina                    26   12   1    0    33   12   6    4    3    18   10   59   
1st     PAS Giannina                    26   8    2    3    24   13   7    3    3    17   12   50   
3rd     PAS Giannina                    26   8    3    2    30   16   4    2    7    14   18   41   
2nd     PAS Giannina                    26   8    3    2    32   15   6    1    6    17   14   46   
2nd     PAS Giannina                    26   9    2    2    30   14   3    5    5    14   19   43   
1st     PAS Giannina                    26   11   2    0    33   9    9    4    0    25   11   66   
2nd     PAS Giannina                    26   11   1    1    31   10   4    5    4    19   20   51   
2nd     PAS Giannina                    26   9    3    1    32   14   5    6    2    17   16   51   
1st     PAS Giannina                    26   11   2    0    30   12   6    2    5    22   19   55   
2nd     PAS Giannina                    26   10   2    1    36   17   5    3    5    27   20   50   
2nd     PAS Giannina                    26   9    1    3    31   16   9    0    4    17   8    55   
1st     PAS Giannina                    26   10   2    1    31   9    9    2    2    28   11   61   
2nd     PAS Giannina                    26   10   1    2    36   20   6    3    4    20   16   52   
2nd     PAS Giannina                    26   8    1    4    28   12   7    2    4    19   13   48   
2nd     PAS Giannina                    26   8    3    2    34   23   6    5    2    18   12   50   
1st     PAS Giannina                    26   10   3    0    25   9    7    3    3    20   12   57   
1st     PAS Giannina                    26   7    3    3    31   16   8    4    1    20   9    52   
1st     PAS Giannina                    26   12   1    0    30   6    4    4    5    13   12   53   
2nd     PAS Giannina                    26   9    3    1    23   12   7    2    4    16   11   53   
1st     PAS Giannina                    26   11   2    0    30   6    6    3    4    24   15   56   
1st     PAS Giannina                    26   12   1    0    27   5    5    4    4    24   19   56   
3rd     PAS Giannina                    26   9    4    0    30   12   3    4    6    11   15   44   
1st     PAS Giannina                    26   9    3    1    30   12   8    3    2    22   13   57   
1st     PAS Giannina                    26   11   2    0    37   8    5    6    2    20   16   56   
1st     PAS Giannina                    26   8    2    3    32   12   7    4    2    24   13   51   
1st     PAS Giannina                    26   12   1    0    35   8    7    4    2    24   13   62   
1st     PAS Giannina                    26   9    3    1    28   12   7    5    1    23   14   56   
1st     PAS Giannina                    26   13   0    0    29   5    5    5    3    19   19   59   
4th     PAS Giannina                    26   9    3    1    32   13   3    4    6    14   16   43   
1st     PAS Giannina                    26   10   2    1    30   9    7    1    5    22   14   54   
5th     PAS Giannina                    26   8    2    3    34   17   4    5    4    21   19   43   
2nd     PAS Giannina                    26   9    2    2    30   11   7    4    2    18   9    54   
4th     PAS Giannina                    26   8    3    2    27   17   3    3    7    13   16   39   
1st     PAS Giannina                    26   11   2    0    34   12   6    4    3    21   13   57   
3rd     PAS Giannina                    26   8    4    1    25   11   5    3    5    19   16   46   
1st     PAS Giannina                    26   12   1    0    35   11   7    3    3    26   18   61   
1st     PAS Giannina                    26   10   2    1    31   9    8    2    3    26   12   58   
3rd     PAS Giannina                    26   11   1    1    40   10   4    4    5    16   17   50   
2nd     PAS Giannina                    26   9    1    3    29   11   5    4    4    21   15   47   
2nd     PAS Giannina                    26   10   3    0    35   14   6    4    3    21   14   55   
2nd     PAS Giannina                    26   11   0    2    32   14   5    2    6    14   16   50   
1st     PAS Giannina                    26   10   2    1    30   10   5    5    3    18   11   52   
2nd     PAS Giannina                    26   8    2    3    24   15   5    5    3    19   14   46   
1st     PAS Giannina                    26   9    4    0    32   11   7    2    4    20   11   54   
1st     PAS Giannina                    26   11   2    0    33   17   6    4    3    18   10   57   
1st     PAS Giannina                    26   11   2    0    34   13   10   1    2    28   15   66   
1st     PAS Giannina                    26   9    4    0    29   11   8    3    2    24   13   58   
1st     PAS Giannina                    26   11   1    1    30   10   10   1    2    25   11   65   
1st     PAS Giannina                    26   10   3    0    34   13   6    2    5    18   17   53   
2nd     PAS Giannina                    26   10   3    0    32   15   5    3    5    18   21   51   
1st     PAS Giannina                    26   11   1    1    26   5    6    2    5    24   20   54   