1st     PAS Giannina                    26   9    2    2    28   13   11   2    0    33   10   64   
1st     PAS Giannina                    26   10   2    1    25   13   6    4    3    27   15   54   
2nd     PAS Giannina                    26   11   2    0    34   9    6    2    5    26   22   55   
1st     PAS Giannina                    26   10   2    1    29   13   6    5    2    20   13   55   
2nd     PAS Giannina                    26   11   0    2    26   7    7    5    1    21   10   59   
1st     PAS Giannina                    26   10   3    0    30   12   9    2    2    26   12   62   
1st     PAS Giannina                    26   9    3    1    31   14   8    4    1    24   10   58   
1st     PAS Giannina                    26   11   0    2    30   13   8    1    4    22   11   58   
8th     PAS Giannina                    26   6    4    3    30   17   3    7    3    18   14   38   
1st     PAS Giannina                    26   9    2    2    24   8    9    2    2    31   12   58   
1st     PAS Giannina                    26   12   1    0    26   5    9    3    1    23   11   67   
2nd     PAS Giannina                    26   10   3    0    30   12   9    2    2    16   10   62   
1st     PAS Giannina                    26   9    1    3    23   15   7    4    2    24   13   53   
1st     PAS Giannina                    26   10   2    1    31   9    6    6    1    24   14   56   
1st     PAS Giannina                    26   9    3    1    18   2    8    1    4    23   12   55   
1st     PAS Giannina                    26   10   3    0    30   11   8    2    3    27   14   59   
1st     PAS Giannina                    26   10   2    1    30   9    9    1    3    25   10   60   
2nd     PAS Giannina                    26   10   1    2    25   11   7    4    2    25   8    56   
1st     PAS Giannina                    26   11   1    1    33   9    7    4    2    23   14   59   
1st     PAS Giannina                    26   11   1    1    22   3    9    1    3    22   10   62   
2nd     PAS Giannina                    26   9    1    3    30   11   7    4    2    21   11   53   
1st     PAS Giannina                    26   11   1    1    34   11   8    3    2    25   12   61   
1st     PAS Giannina                    26   10   3    0    31   10   7    3    3    20   9    57   
2nd     PAS Giannina                    26   11   1    1    31   14   8    3    2    21   9    61   
2nd     PAS Giannina                    26   7    5    1    26   12   5    6    2    24   19   47   
3rd     PAS Giannina                    26   8    5    0    28   10   4    3    6    14   15   44   
3rd     PAS Giannina                    26   7    1    5    32   18   7    4    2    19   11   47   
1st     PAS Giannina                    26   10   2    1    23   8    6    5    2    29   13   55   
1st     PAS Giannina                    26   11   1    1    31   8    7    4    2    22   11   59   
1st     PAS Giannina                    26   9    3    1    24   8    11   1    1    21   2    64   
1st     PAS Giannina                    26   12   1    0    40   14   9    2    2    28   14   66   
2nd     PAS Giannina                    26   6    4    3    22   9    9    1    3    19   13   50   
2nd     PAS Giannina                    26   9    1    3    31   13   6    3    4    23   15   49   
1st     PAS Giannina                    26   11   0    2    27   10   7    3    3    23   14   57   
1st     PAS Giannina                    26   9    2    2    23   11   10   1    2    32   13   60   
1st     PAS Giannina                    26   11   2    0    30   7    9    3    1    29   10   65   
1st     PAS Giannina                    26   10   3    0    28   9    7    2    4    23   13   56   
1st     PAS Giannina                    26   11   2    0    29   13   5    6    2    16   7    56   
3rd     PAS Giannina                    26   7    3    3    22   15   6    2    5    23   16   44   
2nd     PAS Giannina                    26   11   1    1    26   10   6    5    2    22   14   57   
1st     PAS Giannina                    26   10   1    2    33   13   5    5    3    25   16   51   
2nd     PAS Giannina                    26   7    3    3    22   15   7    3    3    15   6    48   
1st     PAS Giannina                    26   11   2    0    27   7    8    4    1    24   15   63   
1st     PAS Giannina                    26   9    2    2    22   10   7    5    1    27   14   55   
1st     PAS Giannina                    26   9    3    1    29   8    8    1    4    28   16   55   
1st     PAS Giannina                    26   10   1    2    34   15   9    3    1    27   12   61   
1st     PAS Giannina                    26   12   1    0    34   11   7    4    2    25   12   62   
1st     PAS Giannina                    26   11   2    0    33   11   8    2    3    22   12   61   
1st     PAS Giannina                    26   9    2    2    30   8    6    3    4    24   14   50   
1st     PAS Giannina                    26   10   2    1    27   7    8    3    2    29   17   59   
3rd     PAS Giannina                    26   8    3    2    28   14   6    3    4    22   16   48   
2nd     PAS Giannina                    26   9    1    3    28   11   4    7    2    19   17   47   
1st     PAS Giannina                    26   9    3    1    23   8    9    0    4    21   14   57   
2nd     PAS Giannina                    26   9    2    2    26   9    6    6    1    19   10   53   
1st     PAS Giannina                    26   10   2    1    35   10   8    4    1    25   14   60   
2nd     PAS Giannina                    26   11   2    0    30   5    7    2    4    20   13   58   
1st     PAS Giannina                    26   10   2    1    27   9    10   1    2    22   11   63   
3rd     PAS Giannina                    26   7    4    2    21   11   5    3    5    11   11   43   
3rd     PAS Giannina                    26   7    6    0    32   16   6    3    4    18   13   48   
1st     PAS Giannina                    26   10   2    1    32   11   7    4    2    15   9    57   
1st     PAS Giannina                    26   11   1    1    26   7    6    5    2    22   11   57   
1st     PAS Giannina                    26   10   1    2    29   14   8    3    2    26   13   58   
4th     PAS Giannina                    26   8    2    3    23   14   3    4    6    15   16   39   
1st     PAS Giannina                    26   10   3    0    32   8    6    4    3    23   16   55   
1st     PAS Giannina                    26   11   2    0    32   9    9    1    3    21   12   63   
1st     PAS Giannina                    26   11   1    1    29   10   10   2    1    23   9    66   
2nd     PAS Giannina                    26   10   1    2    27   10   4    6    3    14   12   49   
1st     PAS Giannina                    26   10   2    1    31   12   12   0    1    26   9    68   
1st     PAS Giannina                    26   8    3    2    25   14   9    2    2    23   8    56   
1st     PAS Giannina                    26   10   2    1    29   10   10   3    0    31   8    65   
2nd     PAS Giannina                    26   10   2    1    29   13   6    2    5    15   12   52   
2nd     PAS Giannina                    26   10   1    2    23   7    7    2    4    17   10   54   
1st     PAS Giannina                    26   10   2    1    29   14   7    3    3    20   13   56   
1st     PAS Giannina                    26   11   2    0    41   14   5    5    3    21   15   55   
2nd     PAS Giannina                    26   8    5    0    27   8    6    4    3    23   16   51   
2nd     PAS Giannina                    26   8    4    1    27   11   6    3    4    15   10   49   
1st     PAS Giannina                    26   12   0    1    31   8    6    4    3    19   14   58   
2nd     PAS Giannina                    26   11   1    1    26   7    7    1    5    19   13   56   
2nd     PAS Giannina                    26   10   1    2    23   10   8    3    2    27   13   58   
1st     PAS Giannina                    26   11   1    1    32   11   9    2    2    22   10   63   
2nd     PAS Giannina                    26   9    2    2    26   8    10   2    1    22   7    61   
1st     PAS Giannina                    26   11   2    0    30   12   8    4    1    20   7    63   
1st     PAS Giannina                    26   9    4    0    30   12   7    4    2    25   12   56   
2nd     PAS Giannina                    26   9    4    0    25   7    5    1    7    20   20   47   
1st     PAS Giannina                    26   9    3    1    30   14   10   2    1    26   5    62   
2nd     PAS Giannina                    26   8    1    4    28   16   8    1    4    23   14   50   
1st     PAS Giannina                    26   12   1    0    28   7    6    4    3    24   14   59   
1st     PAS Giannina                    26   10   3    0    31   14   10   1    2    28   8    64   
1st     PAS Giannina                    26   10   1    2    33   9    7    6    0    23   11   58   
2nd     PAS Giannina                    26   8    4    1    26   13   7    4    2    18   10   53   
2nd     PAS Giannina                    26   9    4    0    27   10   7    3    3    21   13   55   
1st     PAS Giannina                    26   12   1    0    32   11   8    3    2    28   17   64   
3rd     PAS Giannina                    26   9    2    2    24   5    5    4    4    16   12   48   
1st     PAS Giannina                    26   10   3    0    28   10   6    4    3    21   13   55   
1st     PAS Giannina                    26   10   2    1    27   10   6    3    4    24   14   53   
1st     PAS Giannina                    26   11   1    1    28   10   9    1    3    19   9    62   
1st     PAS Giannina                    26   11   0    2    26   10   6    2    5    22   15   53   
1st     PAS Giannina                    26   12   1    0    30   8    8    3    2    26   12   64   
1st     PAS Giannina                    26   12   1    0    30   6    7    3    3    23   15   61   
1st     PAS Giannina                    26   11   2    0    28   9    9    4    0    20   8    66   