1st     PAS Giannina                    26   10   2    1    38   13   8    4    1    30   11   60
1st     PAS Giannina                    26   10   2    1    36   15   10   2    1    29   15   64
1st     PAS Giannina                    26   10   1    2    28   7    6    4    3    28   19   53
2nd     PAS Giannina                    26   7    5    1    32   12   8    3    2    32   20   53
1st     PAS Giannina                    26   13   0    0    42   15   11   1    1    36   19   73
1st     PAS Giannina                    26   10   3    0    43   19   8    1    4    27   18   58
1st     PAS Giannina                    26   12   1    0    41   12   10   1    2    29   14   68
1st     PAS Giannina                    26   10   3    0    36   13   11   1    1    42   15   67
1st     PAS Giannina                    26   10   3    0    41   21   8    4    1    27   14   61
1st     PAS Giannina                    26   10   1    2    40   14   10   3    0    29   9    64
1st     PAS Giannina                    26   13   0    0    40   17   10   2    1    29   12   71
1st     PAS Giannina                    26   10   1    2    38   16   9    2    2    37   20   60
1st     PAS Giannina                    26   13   0    0    43   8    5    6    2    27   23   60
1st     PAS Giannina                    26   12   1    0    40   16   9    1    3    35   15   65
1st     PAS Giannina                    26   12   0    1    34   10   9    3    1    36   13   66
1st     PAS Giannina                    26   11   1    1    42   14   10   2    1    33   14   66
1st     PAS Giannina                    26   12   1    0    37   12   9    2    2    29   6    66
2nd     PAS Giannina                    26   10   1    2    38   15   7    3    3    28   13   55
1st     PAS Giannina                    26   12   1    0    36   12   10   2    1    32   13   69
1st     PAS Giannina                    26   9    4    0    40   18   9    3    1    30   11   61
1st     PAS Giannina                    26   12   1    0    40   15   9    4    0    30   16   68
1st     PAS Giannina                    26   13   0    0    49   16   6    3    4    25   21   60
1st     PAS Giannina                    26   13   0    0    52   16   7    2    4    22   15   62
1st     PAS Giannina                    26   10   2    1    36   12   8    4    1    27   13   60
1st     PAS Giannina                    26   11   2    0    41   12   8    4    1    34   18   63
1st     PAS Giannina                    26   12   0    1    41   14   10   2    1    32   11   68
1st     PAS Giannina                    26   11   2    0    40   11   12   1    0    36   11   72
1st     PAS Giannina                    26   11   2    0    42   16   12   1    0    43   17   72
1st     PAS Giannina                    26   12   0    1    41   13   10   1    2    34   18   67
1st     PAS Giannina                    26   12   1    0    48   21   8    2    3    31   20   63
1st     PAS Giannina                    26   11   1    1    41   13   9    0    4    29   14   61
1st     PAS Giannina                    26   13   0    0    38   10   7    4    2    30   19   64
1st     PAS Giannina                    26   11   1    1    42   14   10   2    1    32   18   66
1st     PAS Giannina                    26   10   3    0    38   14   11   2    0    32   8    68
1st     PAS Giannina                    26   13   0    0    38   13   9    3    1    36   22   69
1st     PAS Giannina                    26   11   2    0    40   14   11   2    0    38   9    70
1st     PAS Giannina                    26   10   2    1    38   13   9    2    2    32   15   61
1st     PAS Giannina                    26   11   0    2    36   13   10   1    2    37   17   64
1st     PAS Giannina                    26   10   3    0    39   14   10   2    1    34   18   65
1st     PAS Giannina                    26   11   1    1    32   11   8    4    1    38   19   62
1st     PAS Giannina                    26   12   1    0    52   15   7    2    4    26   19   60
1st     PAS Giannina                    26   10   2    1    42   13   9    1    3    34   15   60
1st     PAS Giannina                    26   12   1    0    47   12   10   1    2    33   10   68
1st     PAS Giannina                    26   12   1    0    36   10   11   1    1    30   10   71
1st     PAS Giannina                    26   11   2    0    46   15   9    2    2    33   12   64
1st     PAS Giannina                    26   9    3    1    38   16   11   0    2    38   20   63
1st     PAS Giannina                    26   12   1    0    34   9    12   0    1    33   9    73
1st     PAS Giannina                    26   10   3    0    37   19   11   2    0    30   12   68
2nd     PAS Giannina                    26   11   2    0    36   13   7    4    2    31   17   60
1st     PAS Giannina                    26   9    3    1    36   18   9    3    1    33   16   60
1st     PAS Giannina                    26   11   0    2    38   12   8    2    3    29   17   59
1st     PAS Giannina                    26   13   0    0    43   12   10   2    1    37   18   71
1st     PAS Giannina                    26   12   1    0    35   7    9    2    2    33   12   66
1st     PAS Giannina                    26   12   1    0    40   13   10   2    1    36   11   69
1st     PAS Giannina                    26   10   2    1    34   15   8    3    2    32   17   59
1st     PAS Giannina                    26   9    1    3    35   19   12   0    1    39   15   64
1st     PAS Giannina                    26   10   2    1    38   11   8    3    2    28   14   59
1st     PAS Giannina                    26   12   1    0    44   15   11   2    0    33   11   72
1st     PAS Giannina                    26   11   2    0    38   13   9    3    1    38   18   65
1st     PAS Giannina                    26   11   1    1    31   11   8    4    1    36   18   62
1st     PAS Giannina                    26   8    2    3    28   15   11   1    1    30   8    60
1st     PAS Giannina                    26   12   1    0    42   13   5    3    5    28   23   55
1st     PAS Giannina                    26   8    4    1    37   15   10   1    2    40   18   59
1st     PAS Giannina                    26   10   1    2    35   11   7    2    4    22   12   54
1st     PAS Giannina                    26   11   1    1    43   23   5    4    4    22   17   53
1st     PAS Giannina                    26   10   2    1    38   20   12   0    1    37   18   68
1st     PAS Giannina                    26   12   1    0    43   18   8    1    4    29   21   62
1st     PAS Giannina                    26   10   3    0    40   13   9    2    2    31   18   62
2nd     PAS Giannina                    26   9    3    1    37   17   7    3    3    29   15   54
1st     PAS Giannina                    26   11   1    1    35   12   11   0    2    34   14   67
1st     PAS Giannina                    26   8    4    1    36   16   9    1    3    33   17   56
1st     PAS Giannina                    26   13   0    0    46   17   10   2    1    41   20   71
2nd     PAS Giannina                    26   9    0    4    28   21   5    4    4    23   19   46
1st     PAS Giannina                    26   11   1    1    40   13   9    2    2    28   12   63
1st     PAS Giannina                    26   11   1    1    43   15   9    2    2    28   14   63
1st     PAS Giannina                    26   12   0    1    43   10   7    3    3    27   17   60
1st     PAS Giannina                    26   12   0    1    36   9    6    3    4    27   19   57
1st     PAS Giannina                    26   9    3    1    36   16   10   2    1    34   14   62
1st     PAS Giannina                    26   10   3    0    42   10   7    4    2    27   19   58
1st     PAS Giannina                    26   10   3    0    40   15   9    3    1    33   16   63
1st     PAS Giannina                    26   12   0    1    42   15   12   0    1    45   16   72
2nd     PAS Giannina                    26   8    3    2    34   17   9    3    1    28   12   57
1st     PAS Giannina                    26   12   1    0    45   16   8    3    2    32   16   64
1st     PAS Giannina                    26   12   0    1    42   15   8    3    2    27   13   63
1st     PAS Giannina                    26   11   2    0    37   18   6    5    2    32   27   58
2nd     PAS Giannina                    26   9    1    3    37   17   8    3    2    36   16   55
1st     PAS Giannina                    26   10   3    0    37   13   8    3    2    27   11   60
2nd     PAS Giannina                    26   8    2    3    31   20   8    5    0    34   18   55
1st     PAS Giannina                    26   11   1    1    42   19   7    3    3    22   17   58
1st     PAS Giannina                    26   10   2    1    42   17   10   3    0    34   14   65
1st     PAS Giannina                    26   11   1    1    38   14   9    2    2    32   11   63
1st     PAS Giannina                    26   10   1    2    40   21   9    4    0    34   19   62
1st     PAS Giannina                    26   12   1    0    42   15   8    1    4    28   15   62
1st     PAS Giannina                    26   13   0    0    37   14   8    4    1    31   14   67
1st     PAS Giannina                    26   11   2    0    43   16   10   2    1    30   10   67
1st     PAS Giannina                    26   12   0    1    36   12   9    4    0    31   12   67
1st     PAS Giannina                    26   10   2    1    38   16   8    3    2    29   19   59
1st     PAS Giannina                    26   11   2    0    41   15   9    3    1    35   20   65
1st     PAS Giannina                    26   11   1    1    36   14   9    2    2    35   22   63
1st     PAS Giannina                    26   13   0    0    50   17   9    2    2    37   15   68