8th     PAS Giannina                    26   5    4    4    19   21   3    4    6    15   25   32
9th     PAS Giannina                    26   8    2    3    25   17   2    1    10   9    24   33
9th     PAS Giannina                    26   6    3    4    24   19   3    3    7    15   26   33
13th     PAS Giannina                    26   4    6    3    23   22   1    2    10   9    24   23
11th    PAS Giannina                    26   5    4    4    29   24   3    2    8    13   28   30
7th     PAS Giannina                    26   7    3    3    22   12   3    2    8    17   25   35
10th    PAS Giannina                    26   6    5    2    27   21   2    1    10   18   32   30
9th     PAS Giannina                    26   6    2    5    26   20   2    3    8    14   32   29
12th    PAS Giannina                    26   5    3    5    23   25   2    4    7    14   25   28
13th     PAS Giannina                    26   6    4    3    25   21   1    2    10   9    27   27
8th     PAS Giannina                    26   7    3    3    20   13   1    3    9    15   33   30
9th     PAS Giannina                    26   7    3    3    22   16   2    2    9    15   28   32
8th     PAS Giannina                    26   7    3    3    28   21   4    2    7    13   22   38
14th     PAS Giannina                    26   6    5    2    29   21   0    4    9    12   30   27
7th     PAS Giannina                    26   4    6    3    21   21   5    2    6    19   25   35
4th     PAS Giannina                    26   8    2    3    25   16   5    1    7    22   27   42
8th     PAS Giannina                    26   5    4    4    19   16   5    3    5    19   25   37
12th    PAS Giannina                    26   6    1    6    20   23   2    2    9    15   28   27
11th    PAS Giannina                    26   7    2    4    18   18   2    2    9    15   33   31
13th     PAS Giannina                    26   4    4    5    30   26   1    3    9    17   38   22
12th    PAS Giannina                    26   4    5    4    23   22   1    5    7    16   28   25
14th     PAS Giannina                    26   1    4    8    15   27   2    1    10   13   30   14
10th    PAS Giannina                    26   5    4    4    14   18   3    2    8    13   27   30
10th    PAS Giannina                    26   6    2    5    20   14   4    0    9    15   30   32
14th     PAS Giannina                    26   3    4    6    22   24   2    1    10   15   32   20
12th    PAS Giannina                    26   5    3    5    17   15   1    1    11   11   30   22
13th     PAS Giannina                    26   5    2    6    21   21   1    4    8    14   27   24
11th    PAS Giannina                    26   2    5    6    19   25   6    2    5    16   19   31
11th    PAS Giannina                    26   5    2    6    22   26   4    1    8    18   22   30
5th     PAS Giannina                    26   8    2    3    26   18   3    4    6    15   22   39
11th    PAS Giannina                    26   6    4    3    30   21   1    2    10   11   27   27
10th    PAS Giannina                    26   6    5    2    22   17   3    1    9    23   32   33
8th     PAS Giannina                    26   7    4    2    23   14   2    3    8    13   21   34
11th    PAS Giannina                    26   7    3    3    26   16   1    2    10   10   27   29
6th     PAS Giannina                    26   6    4    3    26   20   5    1    7    14   23   38
11th    PAS Giannina                    26   6    2    5    18   18   4    1    8    13   22   33
13th     PAS Giannina                    26   4    3    6    19   24   2    3    8    14   30   24
7th     PAS Giannina                    26   8    2    3    25   15   1    3    9    12   24   32
11th    PAS Giannina                    26   5    2    6    20   24   3    2    8    19   31   28
4th     PAS Giannina                    26   9    2    2    26   11   3    2    8    18   33   40
14th     PAS Giannina                    26   5    2    6    20   23   0    2    11   11   31   19
11th    PAS Giannina                    26   5    4    4    18   17   3    0    10   12   33   28
7th     PAS Giannina                    26   5    6    2    23   18   2    5    6    17   26   32
13th     PAS Giannina                    26   6    3    4    19   16   2    1    10   10   26   28
8th     PAS Giannina                    26   7    3    3    24   15   3    2    8    16   27   35
10th    PAS Giannina                    26   8    3    2    31   17   0    4    9    16   32   31
14th     PAS Giannina                    26   3    6    4    20   22   1    3    9    12   25   21
7th     PAS Giannina                    26   6    0    7    19   23   4    2    7    19   22   32
14th     PAS Giannina                    26   6    4    3    18   13   1    0    12   9    35   25
12th    PAS Giannina                    26   7    1    5    29   21   1    3    9    13   28   28
13th     PAS Giannina                    26   5    1    7    22   23   1    1    11   8    27   20
9th     PAS Giannina                    26   6    5    2    23   18   1    5    7    17   28   31
13th     PAS Giannina                    26   4    4    5    23   22   1    2    10   13   30   21
12th    PAS Giannina                    26   3    6    4    19   20   3    2    8    18   24   26
11th    PAS Giannina                    26   7    4    2    30   18   0    4    9    12   32   29
4th     PAS Giannina                    26   10   1    2    26   12   1    6    6    16   22   40
14th     PAS Giannina                    26   3    3    7    21   28   2    3    8    16   28   21
9th     PAS Giannina                    26   7    4    2    26   14   3    1    9    9    28   35
14th     PAS Giannina                    26   5    4    4    24   20   0    3    10   16   35   22
9th     PAS Giannina                    26   6    3    4    24   19   3    2    8    15   26   32
13th     PAS Giannina                    26   4    2    7    17   21   2    1    10   13   31   21
12th    PAS Giannina                    26   4    1    8    26   25   4    1    8    14   25   26
9th     PAS Giannina                    26   7    2    4    29   21   3    3    7    20   28   35
12th    PAS Giannina                    26   5    5    3    24   22   1    3    9    16   31   26
11th    PAS Giannina                    26   6    1    6    25   22   3    3    7    19   28   31
10th    PAS Giannina                    26   7    4    2    23   15   1    2    10   12   26   30
9th     PAS Giannina                    26   6    1    6    19   16   4    1    8    18   25   32
11th    PAS Giannina                    26   5    5    3    21   19   2    3    8    16   27   29
9th     PAS Giannina                    26   6    4    3    21   14   3    3    7    19   23   34
12th    PAS Giannina                    26   7    3    3    25   15   1    1    11   18   36   28
9th     PAS Giannina                    26   5    3    5    23   22   4    1    8    16   25   31
13th     PAS Giannina                    26   6    3    4    24   20   0    3    10   14   27   24
7th     PAS Giannina                    26   7    2    4    25   16   4    1    8    15   30   36
14th     PAS Giannina                    26   3    3    7    16   24   3    2    8    15   28   23
3rd     PAS Giannina                    26   8    1    4    24   20   5    2    6    19   24   42
14th     PAS Giannina                    26   4    1    8    15   27   1    2    10   14   33   18
9th     PAS Giannina                    26   5    3    5    23   22   5    2    6    21   28   35
4th     PAS Giannina                    26   8    1    4    29   22   5    2    6    12   16   42
9th     PAS Giannina                    26   6    5    2    29   22   2    3    8    18   28   32
13th     PAS Giannina                    26   4    5    4    26   23   1    4    8    9    20   24
14th     PAS Giannina                    26   3    3    7    19   24   2    1    10   12   30   19
6th     PAS Giannina                    26   9    1    3    27   18   3    2    8    20   29   39
8th     PAS Giannina                    26   6    2    5    22   19   4    2    7    17   27   34
12th    PAS Giannina                    26   3    1    9    13   21   4    2    7    14   22   24
13th     PAS Giannina                    26   5    4    4    21   17   0    2    11   12   27   21
3rd     PAS Giannina                    26   8    2    3    27   16   6    1    6    18   23   45
12th    PAS Giannina                    26   4    7    2    25   19   2    1    10   14   35   26
7th     PAS Giannina                    26   5    2    6    16   19   5    1    7    23   30   33
3rd     PAS Giannina                    26   8    3    2    27   14   4    3    6    17   24   42
7th     PAS Giannina                    26   8    2    3    23   16   3    2    8    18   31   37
13th     PAS Giannina                    26   5    4    4    22   18   1    2    10   11   29   24
13th     PAS Giannina                    26   4    4    5    27   25   3    0    10   11   29   25
7th     PAS Giannina                    26   6    2    5    22   16   3    4    6    16   24   33
10th    PAS Giannina                    26   6    4    3    28   21   2    2    9    14   25   30
7th     PAS Giannina                    26   8    3    2    25   10   3    1    9    18   24   37
13th     PAS Giannina                    26   4    4    5    18   20   2    2    9    12   29   24
11th    PAS Giannina                    26   6    2    5    24   19   1    5    7    9    24   28
13th     PAS Giannina                    26   6    2    5    21   21   1    4    8    13   27   27
13th     PAS Giannina                    26   3    6    4    21   24   2    3    8    21   30   24
11th    PAS Giannina                    26   5    4    4    22   19   2    2    9    14   24   27