1st     PAS Giannina                    26   12   1    0    33   11   12   0    1    34   14   73   
2nd     PAS Giannina                    26   8    3    2    35   17   7    4    2    31   20   52   
1st     PAS Giannina                    26   9    3    1    27   10   8    1    4    27   15   55   
1st     PAS Giannina                    26   9    3    1    33   13   8    4    1    22   10   58   
1st     PAS Giannina                    26   9    4    0    35   14   8    1    4    27   15   56   
1st     PAS Giannina                    26   12   1    0    38   9    10   1    2    29   10   68   
1st     PAS Giannina                    26   10   2    1    36   13   8    3    2    27   12   59   
1st     PAS Giannina                    26   10   2    1    33   12   6    3    4    29   17   53   
1st     PAS Giannina                    26   10   1    2    34   13   8    3    2    32   17   58   
1st     PAS Giannina                    26   9    2    2    25   7    8    3    2    21   10   56   
2nd     PAS Giannina                    26   9    2    2    29   14   6    5    2    23   12   52   
2nd     PAS Giannina                    26   11   2    0    33   11   7    1    5    24   14   57   
1st     PAS Giannina                    26   9    2    2    27   11   8    2    3    24   12   55   
1st     PAS Giannina                    26   10   3    0    24   7    7    4    2    31   15   58   
2nd     PAS Giannina                    26   9    2    2    29   13   7    3    3    25   15   53   
1st     PAS Giannina                    26   9    1    3    30   15   7    3    3    19   9    52   
1st     PAS Giannina                    26   9    2    2    29   15   8    5    0    26   10   58   
2nd     PAS Giannina                    26   9    2    2    34   17   8    3    2    22   13   56   
1st     PAS Giannina                    26   11   1    1    37   11   7    2    4    24   17   57   
1st     PAS Giannina                    26   9    1    3    29   13   9    0    4    33   18   55   
1st     PAS Giannina                    26   10   2    1    34   10   8    3    2    26   13   59   
1st     PAS Giannina                    26   11   1    1    28   8    9    2    2    27   9    63   
1st     PAS Giannina                    26   11   1    1    29   8    7    4    2    23   9    59   
1st     PAS Giannina                    26   11   2    0    32   8    10   2    1    31   11   67   
1st     PAS Giannina                    26   12   0    1    34   11   10   2    1    21   7    68   
1st     PAS Giannina                    26   11   0    2    40   8    9    1    3    27   13   61   
1st     PAS Giannina                    26   10   2    1    30   6    8    4    1    25   7    60   
1st     PAS Giannina                    26   13   0    0    32   7    7    3    3    23   14   63   
1st     PAS Giannina                    26   11   0    2    37   14   9    2    2    32   17   62   
1st     PAS Giannina                    26   11   1    1    35   10   10   1    2    27   13   65   
1st     PAS Giannina                    26   13   0    0    41   10   8    3    2    25   11   66   
1st     PAS Giannina                    26   10   3    0    37   9    11   0    2    32   9    66   
1st     PAS Giannina                    26   9    3    1    31   12   9    2    2    31   14   59   
1st     PAS Giannina                    26   12   1    0    35   10   10   2    1    34   19   69   
1st     PAS Giannina                    26   10   2    1    34   9    9    2    2    29   12   61   
1st     PAS Giannina                    26   10   2    1    28   11   8    4    1    29   11   60   
1st     PAS Giannina                    26   12   1    0    35   9    6    5    2    26   15   60   
1st     PAS Giannina                    26   10   3    0    30   9    9    1    3    21   11   61   
1st     PAS Giannina                    26   9    1    3    33   15   8    2    3    30   17   54   
1st     PAS Giannina                    26   8    3    2    27   12   6    5    2    26   15   50   
1st     PAS Giannina                    26   10   3    0    35   11   7    5    1    30   13   59   
1st     PAS Giannina                    26   11   2    0    27   5    8    4    1    33   17   63   
1st     PAS Giannina                    26   11   2    0    33   14   8    3    2    29   15   62   
1st     PAS Giannina                    26   12   1    0    32   6    9    0    4    23   10   64   
1st     PAS Giannina                    26   10   1    2    28   8    8    4    1    30   9    59   
1st     PAS Giannina                    26   9    2    2    25   12   9    3    1    30   15   59   
1st     PAS Giannina                    26   11   1    1    32   9    9    2    2    32   13   63   
1st     PAS Giannina                    26   10   3    0    30   6    8    5    0    21   9    62   
1st     PAS Giannina                    26   11   0    2    37   15   9    2    2    32   13   62   
1st     PAS Giannina                    26   9    2    2    28   11   9    2    2    26   14   58   
1st     PAS Giannina                    26   13   0    0    39   5    7    3    3    19   16   63   
1st     PAS Giannina                    26   9    3    1    36   15   9    2    2    19   8    59   
1st     PAS Giannina                    26   11   2    0    35   5    6    4    3    31   19   57   
1st     PAS Giannina                    26   11   1    1    35   12   9    2    2    27   10   63   
2nd     PAS Giannina                    26   7    4    2    32   19   8    3    2    27   14   52   
2nd     PAS Giannina                    26   8    4    1    28   14   8    1    4    21   14   53   
1st     PAS Giannina                    26   12   1    0    30   6    9    4    0    23   7    68   
1st     PAS Giannina                    26   10   1    2    37   14   7    3    3    26   11   55   
1st     PAS Giannina                    26   10   2    1    27   9    8    4    1    24   14   60   
1st     PAS Giannina                    26   11   2    0    33   9    9    3    1    30   12   65   
2nd     PAS Giannina                    26   11   0    2    32   12   6    3    4    21   20   54   
2nd     PAS Giannina                    26   10   2    1    32   9    7    3    3    23   18   56   
1st     PAS Giannina                    26   10   3    0    32   10   7    2    4    26   20   56   
1st     PAS Giannina                    26   9    2    2    33   14   6    5    2    30   21   52   
1st     PAS Giannina                    26   8    3    2    30   17   9    1    3    30   14   55   
1st     PAS Giannina                    26   10   2    1    35   13   8    3    2    20   13   59   
1st     PAS Giannina                    26   10   1    2    28   9    8    4    1    36   16   59   
1st     PAS Giannina                    26   11   1    1    36   11   7    2    4    24   20   57   
2nd     PAS Giannina                    26   10   3    0    37   11   7    2    4    25   13   56   
2nd     PAS Giannina                    26   9    3    1    32   10   7    3    3    23   13   54   
1st     PAS Giannina                    26   10   2    1    40   13   9    2    2    30   16   61   
1st     PAS Giannina                    26   8    3    2    22   12   6    3    4    23   17   48   
1st     PAS Giannina                    26   12   0    1    32   8    10   2    1    25   8    68   
1st     PAS Giannina                    26   12   1    0    38   10   8    2    3    27   12   63   
1st     PAS Giannina                    26   9    3    1    31   13   10   2    1    31   11   62   
1st     PAS Giannina                    26   10   2    1    30   12   10   2    1    27   11   64   
1st     PAS Giannina                    26   12   1    0    31   7    10   1    2    36   13   68   
1st     PAS Giannina                    26   9    3    1    23   11   10   3    0    28   10   63   
1st     PAS Giannina                    26   8    3    2    26   15   11   1    1    34   13   61   
1st     PAS Giannina                    26   10   1    2    37   11   8    4    1    29   12   59   
1st     PAS Giannina                    26   11   1    1    37   14   8    2    3    30   15   60   
2nd     PAS Giannina                    26   8    3    2    27   13   8    2    3    23   17   53   
1st     PAS Giannina                    26   10   3    0    34   12   9    3    1    29   14   63   
1st     PAS Giannina                    26   11   1    1    30   8    8    4    1    28   11   62   
1st     PAS Giannina                    26   13   0    0    34   8    10   2    1    31   14   71   
1st     PAS Giannina                    26   7    4    2    26   13   8    3    2    25   12   52   
1st     PAS Giannina                    26   10   1    2    33   13   9    3    1    25   12   61   
1st     PAS Giannina                    26   9    3    1    24   10   8    3    2    25   11   57   
2nd     PAS Giannina                    26   8    3    2    26   13   8    2    3    30   14   53   
1st     PAS Giannina                    26   10   3    0    30   13   6    5    2    28   13   56   
1st     PAS Giannina                    26   10   2    1    26   10   10   3    0    31   11   65   
1st     PAS Giannina                    26   11   1    1    29   7    8    3    2    31   17   61   
1st     PAS Giannina                    26   12   0    1    26   7    8    3    2    35   13   63   
1st     PAS Giannina                    26   8    4    1    33   14   9    3    1    25   9    58   
1st     PAS Giannina                    26   11   1    1    30   12   9    3    1    23   10   64   
1st     PAS Giannina                    26   11   1    1    29   11   5    4    4    21   17   53   
2nd     PAS Giannina                    26   9    4    0    28   12   8    2    3    25   12   57   
1st     PAS Giannina                    26   11   1    1    27   13   6    3    4    19   16   55   
2nd     PAS Giannina                    26   8    4    1    25   7    8    2    3    24   14   54   
1st     PAS Giannina                    26   9    1    3    31   15   8    3    2    28   14   55   