1st      PAS Giannina                    26   10   3    0    34   13   9    2    2    27   14   62
1st      PAS Giannina                    26   10   2    1    32   15   7    4    2    24   14   57
2nd     PAS Giannina                    26   10   2    1    28   9    8    1    4    21   13   57
2nd     PAS Giannina                    26   11   0    2    32   8    6    2    5    22   22   53
1st      PAS Giannina                    26   11   0    2    25   10   9    2    2    29   15   62
1st      PAS Giannina                    26   12   1    0    37   8    7    3    3    27   17   61
1st      PAS Giannina                    26   11   1    1    29   7    8    4    1    26   10   62
2nd     PAS Giannina                    26   10   2    1    28   10   7    2    4    28   17   55
1st      PAS Giannina                    26   8    4    1    28   13   10   3    0    29   10   61
1st      PAS Giannina                    26   13   0    0    35   8    6    3    4    26   17   60
1st      PAS Giannina                    26   11   1    1    34   12   11   2    0    37   14   69
1st      PAS Giannina                    26   11   2    0    30   6    7    3    3    29   16   59
2nd     PAS Giannina                    26   8    3    2    27   14   4    5    4    17   17   44
1st      PAS Giannina                    26   10   2    1    30   10   9    1    3    26   15   60
1st      PAS Giannina                    26   10   1    2    33   12   9    2    2    29   15   60
1st      PAS Giannina                    26   10   1    2    26   10   9    4    0    33   12   62
1st      PAS Giannina                    26   7    3    3    32   20   6    6    1    25   11   48
1st      PAS Giannina                    26   8    2    3    33   20   9    3    1    36   19   56
2nd     PAS Giannina                    26   8    3    2    29   13   9    2    2    21   11   56
1st      PAS Giannina                    26   11   2    0    29   8    8    2    3    34   16   61
1st      PAS Giannina                    26   12   1    0    33   9    8    3    2    33   18   64
1st      PAS Giannina                    26   7    4    2    27   18   11   2    0    31   11   60
1st      PAS Giannina                    26   11   1    1    36   12   7    4    2    27   19   59
2nd     PAS Giannina                    26   12   0    1    30   6    6    5    2    23   17   59
1st      PAS Giannina                    26   10   1    2    33   13   11   1    1    33   16   65
3rd     PAS Giannina                    26   4    8    1    26   18   7    2    4    29   17   43
1st      PAS Giannina                    26   10   2    1    37   15   10   3    0    30   12   65
1st      PAS Giannina                    26   13   0    0    44   7    7    4    2    33   19   64
1st      PAS Giannina                    26   11   2    0    37   14   6    5    2    26   10   58
2nd     PAS Giannina                    26   8    4    1    29   13   6    3    4    16   12   49
4th     PAS Giannina                    26   6    5    2    27   18   6    2    5    20   19   43
1st      PAS Giannina                    26   9    4    0    31   12   6    4    3    19   11   53
1st      PAS Giannina                    26   8    2    3    29   17   11   2    0    36   13   61
3rd     PAS Giannina                    26   5    3    5    22   17   7    2    4    18   10   41
1st      PAS Giannina                    26   10   1    2    34   10   11   2    0    41   16   66
1st      PAS Giannina                    26   9    0    4    28   21   12   1    0    37   13   64
1st      PAS Giannina                    26   12   0    1    37   12   7    1    5    30   19   58
1st      PAS Giannina                    26   12   1    0    36   9    9    2    2    28   13   66
1st      PAS Giannina                    26   9    4    0    32   12   10   3    0    31   10   64
1st      PAS Giannina                    26   9    3    1    32   15   8    3    2    33   18   57
1st      PAS Giannina                    26   9    4    0    32   11   8    1    4    31   20   56
1st      PAS Giannina                    26   9    2    2    33   15   10   1    2    28   15   60
1st      PAS Giannina                    26   8    4    1    20   11   10   0    3    36   15   58
1st      PAS Giannina                    26   12   0    1    33   5    8    2    3    27   20   62
1st      PAS Giannina                    26   9    3    1    26   10   10   2    1    35   12   62
1st      PAS Giannina                    26   10   2    1    32   14   9    1    3    23   15   60
1st      PAS Giannina                    26   8    5    0    25   12   8    2    3    25   9    55
1st      PAS Giannina                    26   9    3    1    33   17   8    4    1    30   14   58
1st      PAS Giannina                    26   11   0    2    36   13   12   0    1    35   15   69
1st      PAS Giannina                    26   11   0    2    37   17   9    2    2    24   10   62
1st      PAS Giannina                    26   9    3    1    30   13   10   3    0    30   9    63
1st      PAS Giannina                    26   10   0    3    32   12   10   1    2    30   14   61
1st      PAS Giannina                    26   10   1    2    36   17   10   2    1    39   18   63
1st      PAS Giannina                    26   9    3    1    36   18   9    2    2    26   11   59
2nd     PAS Giannina                    26   8    2    3    28   13   7    3    3    31   21   50
1st      PAS Giannina                    26   9    4    0    28   11   11   2    0    39   14   66
1st      PAS Giannina                    26   7    4    2    22   13   8    3    2    34   11   52
1st      PAS Giannina                    26   9    3    1    31   15   10   1    2    31   16   61
1st      PAS Giannina                    26   9    1    3    30   11   11   0    2    28   7    61
1st      PAS Giannina                    26   9    3    1    29   16   7    3    3    22   12   54
2nd     PAS Giannina                    26   8    2    3    30   15   8    2    3    27   13   52
3rd     PAS Giannina                    26   8    2    3    29   17   5    3    5    23   14   44
1st      PAS Giannina                    26   11   1    1    38   9    8    3    2    23   13   61
1st      PAS Giannina                    26   10   2    1    33   10   7    3    3    22   15   56
2nd     PAS Giannina                    26   10   1    2    34   13   8    1    4    30   14   56
1st      PAS Giannina                    26   8    4    1    27   15   8    2    3    27   11   54
1st      PAS Giannina                    26   9    2    2    28   12   10   3    0    35   10   62
1st      PAS Giannina                    26   10   3    0    36   12   7    4    2    22   14   58
1st      PAS Giannina                    26   11   1    1    34   12   8    4    1    31   11   62
2nd     PAS Giannina                    26   8    2    3    25   11   8    3    2    32   15   53
1st      PAS Giannina                    26   11   1    1    38   11   7    3    3    27   16   58
1st      PAS Giannina                    26   10   2    1    24   7    9    3    1    27   13   62
1st      PAS Giannina                    26   11   2    0    40   9    7    3    3    23   12   59
1st      PAS Giannina                    26   9    4    0    34   14   9    3    1    33   15   61
1st      PAS Giannina                    26   9    3    1    33   9    9    2    2    28   17   59
1st      PAS Giannina                    26   11   0    2    33   11   10   3    0    29   10   66
1st      PAS Giannina                    26   9    2    2    28   8    11   2    0    34   14   64
1st      PAS Giannina                    26   11   2    0    31   8    9    2    2    32   12   64
1st      PAS Giannina                    26   9    3    1    36   10   10   2    1    28   15   62
1st      PAS Giannina                    26   12   1    0    35   12   9    1    3    25   13   65
1st      PAS Giannina                    26   12   1    0    36   9    7    6    0    31   11   64
1st      PAS Giannina                    26   10   3    0    34   13   11   1    1    43   10   67
1st      PAS Giannina                    26   11   2    0    31   10   9    3    1    28   14   65
1st      PAS Giannina                    26   8    5    0    29   7    11   1    1    31   12   63
1st      PAS Giannina                    26   10   3    0    36   16   7    4    2    29   17   58
2nd     PAS Giannina                    26   6    3    4    18   11   11   2    0    30   15   56
1st      PAS Giannina                    26   12   1    0    34   12   11   1    1    34   12   71
2nd     PAS Giannina                    26   8    3    2    25   12   5    6    2    19   13   48
2nd     PAS Giannina                    26   7    3    3    22   11   8    2    3    26   12   50
1st      PAS Giannina                    26   11   0    2    33   7    10   1    2    28   10   64
1st      PAS Giannina                    26   9    2    2    28   10   11   1    1    31   9    63
1st      PAS Giannina                    26   12   0    1    33   13   12   1    0    36   14   73
1st      PAS Giannina                    26   12   1    0    32   8    9    0    4    36   16   64
1st      PAS Giannina                    26   10   0    3    27   12   7    1    5    30   16   52
1st      PAS Giannina                    26   12   1    0    40   8    9    2    2    28   13   66
1st      PAS Giannina                    26   12   1    0    34   8    9    1    3    36   17   65
1st      PAS Giannina                    26   11   2    0    36   15   9    2    2    30   12   64
1st      PAS Giannina                    26   11   2    0    33   12   8    1    4    30   16   60
1st      PAS Giannina                    26   8    0    5    32   20   9    4    0    34   17   55
1st      PAS Giannina                    26   12   1    0    30   8    5    4    4    26   19   56