4th     PAS Giannina                    26   8    4    1    16   9    3    4    6    14   14   41   
3rd     PAS Giannina                    26   9    2    2    23   12   2    4    7    8    17   39   
6th     PAS Giannina                    26   7    3    3    18   13   3    3    7    14   19   36   
4th     PAS Giannina                    26   8    4    1    23   10   4    2    7    9    17   42   
3rd     PAS Giannina                    26   8    2    3    20   12   3    6    4    12   16   41   
2nd     PAS Giannina                    26   8    5    0    18   8    4    3    6    15   14   44   
5th     PAS Giannina                    26   8    4    1    27   12   4    2    7    10   19   42   
6th     PAS Giannina                    26   4    6    3    20   15   6    2    5    10   11   38   
5th     PAS Giannina                    26   8    3    2    20   12   2    5    6    16   19   38   
2nd     PAS Giannina                    26   10   2    1    22   7    4    5    4    13   13   49   
9th     PAS Giannina                    26   8    3    2    22   9    1    4    8    6    19   34   
5th     PAS Giannina                    26   7    4    2    19   12   3    4    6    17   22   38   
4th     PAS Giannina                    26   8    3    2    20   9    2    6    5    12   17   39   
3rd     PAS Giannina                    26   11   2    0    24   6    2    4    7    10   16   45   
3rd     PAS Giannina                    26   9    1    3    21   12   4    4    5    15   18   44   
4th     PAS Giannina                    26   7    4    2    19   10   4    5    4    12   13   42   
3rd     PAS Giannina                    26   11   2    0    31   9    3    5    5    13   18   49   
8th     PAS Giannina                    26   8    2    3    21   12   2    4    7    9    17   36   
7th     PAS Giannina                    26   6    5    2    19   9    4    4    5    14   16   39   
4th     PAS Giannina                    26   9    4    0    24   6    3    4    6    8    15   44   
4th     PAS Giannina                    26   4    7    2    10   7    5    7    1    15   9    41   
6th     PAS Giannina                    26   8    3    2    22   12   4    2    7    9    18   41   
5th     PAS Giannina                    26   6    2    5    15   11   5    4    4    10   14   39   
12th    PAS Giannina                    26   7    2    4    17   12   1    4    8    9    20   30   
7th     PAS Giannina                    26   7    3    3    20   11   3    2    8    7    21   35   
4th     PAS Giannina                    26   7    3    3    20   12   4    5    4    14   18   41   
6th     PAS Giannina                    26   7    4    2    16   8    3    4    6    12   14   38   
11th    PAS Giannina                    26   5    3    5    13   12   3    4    6    10   14   31   
6th     PAS Giannina                    26   7    4    2    15   8    2    6    5    6    11   37   
6th     PAS Giannina                    26   7    4    2    12   8    3    2    8    9    17   36   
4th     PAS Giannina                    26   6    6    1    22   13   5    3    5    11   13   42   
6th     PAS Giannina                    26   8    2    3    19   9    3    2    8    10   20   37   
1st     PAS Giannina                    26   8    5    0    30   13   7    1    5    22   17   51   
10th    PAS Giannina                    26   4    5    4    14   11   3    5    5    9    12   31   
9th     PAS Giannina                    26   6    3    4    15   13   4    4    5    12   15   37   
13th    PAS Giannina                    26   3    2    8    16   21   1    6    6    8    20   20   
9th     PAS Giannina                    26   6    4    3    22   13   3    4    6    12   18   35   
7th     PAS Giannina                    26   7    1    5    17   14   3    3    7    13   16   34   
5th     PAS Giannina                    26   8    4    1    25   11   4    2    7    14   20   42   
3rd     PAS Giannina                    26   7    5    1    22   9    6    2    5    13   14   46   
3rd     PAS Giannina                    26   7    3    3    16   9    5    4    4    14   16   43   
5th     PAS Giannina                    26   7    3    3    20   11   4    4    5    16   18   40   
4th     PAS Giannina                    26   7    2    4    21   14   4    5    4    10   14   40   
7th     PAS Giannina                    26   8    4    1    20   13   3    3    7    9    17   40   
2nd     PAS Giannina                    26   8    3    2    20   12   5    4    4    12   14   46   
3rd     PAS Giannina                    26   8    2    3    23   11   5    3    5    10   11   44   
2nd     PAS Giannina                    26   9    2    2    26   11   7    3    3    17   11   53   
8th     PAS Giannina                    26   6    2    5    17   19   5    2    6    14   18   37   
3rd     PAS Giannina                    26   8    3    2    26   13   6    2    5    19   16   47   
2nd     PAS Giannina                    26   10   2    1    22   7    4    5    4    16   16   49   
3rd     PAS Giannina                    26   8    5    0    27   11   4    6    3    19   15   47   
10th    PAS Giannina                    26   5    4    4    18   14   2    3    8    10   19   28   
6th     PAS Giannina                    26   9    3    1    21   9    1    4    8    8    21   37   
10th    PAS Giannina                    26   5    2    6    15   15   3    4    6    12   18   30   
5th     PAS Giannina                    26   7    3    3    23   17   4    3    6    13   19   39   
1st     PAS Giannina                    26   7    5    1    24   11   4    2    7    14   15   40   
2nd     PAS Giannina                    26   9    1    3    19   11   6    2    5    14   10   48   
5th     PAS Giannina                    26   6    5    2    17   9    4    4    5    14   20   39   
3rd     PAS Giannina                    26   6    4    3    26   18   7    2    4    13   11   45   
5th     PAS Giannina                    26   7    4    2    17   12   3    4    6    13   16   38   
5th     PAS Giannina                    26   6    3    4    22   12   4    4    5    14   16   37   
7th     PAS Giannina                    26   6    3    4    16   12   3    4    6    14   19   34   
5th     PAS Giannina                    26   7    4    2    18   10   5    3    5    17   20   43   
4th     PAS Giannina                    26   9    2    2    19   9    3    1    9    14   24   39   
7th     PAS Giannina                    26   7    4    2    17   8    3    5    5    14   17   39   
3rd     PAS Giannina                    26   8    4    1    27   15   3    7    3    15   14   44   
9th     PAS Giannina                    26   6    4    3    17   14   2    5    6    11   17   33   
3rd     PAS Giannina                    26   8    4    1    25   14   5    4    4    17   16   47   
10th    PAS Giannina                    26   4    6    3    20   18   5    1    7    16   18   34   
4th     PAS Giannina                    26   8    3    2    18   8    3    4    6    15   18   40   
5th     PAS Giannina                    26   7    4    2    22   14   4    4    5    16   20   41   
4th     PAS Giannina                    26   8    3    2    22   13   5    1    7    15   24   43   
8th     PAS Giannina                    26   5    6    2    20   15   2    6    5    11   17   33   
13th    PAS Giannina                    26   4    5    4    14   13   1    6    6    6    16   26   
6th     PAS Giannina                    26   6    5    2    17   12   5    2    6    14   18   40   
5th     PAS Giannina                    26   7    5    1    12   6    4    3    6    9    14   41   
8th     PAS Giannina                    26   8    2    3    19   13   1    6    6    11   19   35   
10th    PAS Giannina                    26   4    4    5    15   12   4    3    6    14   17   31   
5th     PAS Giannina                    26   7    2    4    20   12   3    6    4    13   13   38   
5th     PAS Giannina                    26   9    3    1    22   8    2    3    8    14   20   39   
4th     PAS Giannina                    26   8    4    1    21   9    4    5    4    13   13   45   
5th     PAS Giannina                    26   8    5    0    21   9    3    2    8    7    14   40   
7th     PAS Giannina                    26   10   2    1    26   9    0    3    10   8    25   35   
2nd     PAS Giannina                    26   8    4    1    16   8    5    5    3    11   11   48   
6th     PAS Giannina                    26   8    3    2    20   10   3    3    7    12   18   39   
4th     PAS Giannina                    26   8    1    4    20   13   6    1    6    12   14   44   
12th    PAS Giannina                    26   4    2    7    14   17   2    7    4    7    10   27   
11th    PAS Giannina                    26   4    2    7    15   13   4    3    6    16   18   29   
6th     PAS Giannina                    26   8    3    2    20   11   2    5    6    15   19   38   
7th     PAS Giannina                    26   7    4    2    20   10   3    4    6    14   22   38   
5th     PAS Giannina                    26   9    3    1    20   6    2    2    9    11   21   38   
14th    PAS Giannina                    26   8    2    3    21   14   0    2    11   10   23   28   
2nd     PAS Giannina                    26   9    1    3    26   11   4    5    4    14   16   45   
2nd     PAS Giannina                    26   8    3    2    21   13   6    2    5    16   17   47   
2nd     PAS Giannina                    26   11   1    1    22   9    4    4    5    14   18   50   
11th    PAS Giannina                    26   4    4    5    13   14   4    3    6    10   16   31   
11th    PAS Giannina                    26   6    3    4    15   13   2    3    8    8    19   30   
5th     PAS Giannina                    26   7    4    2    15   8    4    4    5    12   16   41   
7th     PAS Giannina                    26   7    2    4    15   10   4    2    7    12   15   37   
6th     PAS Giannina                    26   7    4    2    16   9    2    7    4    9    10   38   