1st     PAS Giannina                    26   9    2    2    29   15   6    2    5    15   16   49   
3rd     PAS Giannina                    26   8    4    1    24   10   5    4    4    15   12   47   
1st     PAS Giannina                    26   9    3    1    22   11   6    2    5    18   17   50   
4th     PAS Giannina                    26   9    3    1    26   8    3    3    7    8    15   42   
1st     PAS Giannina                    26   12   1    0    31   5    6    1    6    14   16   56   
5th     PAS Giannina                    26   8    4    1    32   13   3    3    7    8    15   40   
6th     PAS Giannina                    26   6    6    1    17   12   5    1    7    14   18   40   
3rd     PAS Giannina                    26   8    3    2    23   12   5    3    5    12   11   45   
3rd     PAS Giannina                    26   9    3    1    22   12   5    3    5    16   16   48   
1st     PAS Giannina                    26   11   1    1    30   12   6    2    5    14   12   54   
1st     PAS Giannina                    26   8    3    2    24   16   5    4    4    13   17   46   
2nd     PAS Giannina                    26   9    1    3    20   9    6    3    4    17   14   49   
2nd     PAS Giannina                    26   11   1    1    22   7    6    4    3    20   18   56   
1st     PAS Giannina                    26   8    2    3    23   10   7    4    2    23   12   51   
1st     PAS Giannina                    26   10   1    2    19   5    6    1    6    17   18   50   
2nd     PAS Giannina                    26   8    5    0    24   12   6    2    5    14   12   49   
6th     PAS Giannina                    26   7    5    1    27   14   4    4    5    13   15   42   
9th     PAS Giannina                    26   6    5    2    23   12   2    3    8    8    17   32   
4th     PAS Giannina                    26   9    3    1    17   5    4    0    9    11   13   42   
3rd     PAS Giannina                    26   9    3    1    19   6    3    5    5    16   17   44   
4th     PAS Giannina                    26   10   2    1    31   12   1    6    6    8    16   41   
2nd     PAS Giannina                    26   8    5    0    20   6    5    6    2    13   11   50   
7th     PAS Giannina                    26   4    6    3    21   17   4    4    5    18   21   34   
3rd     PAS Giannina                    26   5    6    2    14   11   8    4    1    23   13   49   
1st     PAS Giannina                    26   10   2    1    29   8    4    3    6    14   21   47   
3rd     PAS Giannina                    26   8    3    2    28   9    6    3    4    18   17   48   
4th     PAS Giannina                    26   9    2    2    29   16   5    1    7    12   17   45   
2nd     PAS Giannina                    26   10   1    2    22   9    6    4    3    13   12   53   
1st     PAS Giannina                    26   10   3    0    21   6    5    3    5    15   22   51   
2nd     PAS Giannina                    26   8    5    0    22   11   6    6    1    20   13   53   
2nd     PAS Giannina                    26   9    2    2    22   10   7    4    2    18   12   54   
3rd     PAS Giannina                    26   8    3    2    26   10   9    1    3    20   14   55   
1st     PAS Giannina                    26   7    4    2    16   7    7    5    1    21   10   51   
5th     PAS Giannina                    26   10   0    3    25   8    3    4    6    9    13   43   
7th     PAS Giannina                    26   9    2    2    24   9    2    2    9    10   22   37   
4th     PAS Giannina                    26   9    3    1    24   10   3    3    7    12   18   42   
2nd     PAS Giannina                    26   10   2    1    29   8    5    2    6    18   18   49   
3rd     PAS Giannina                    26   8    2    3    19   8    4    6    3    13   15   44   
1st     PAS Giannina                    26   9    4    0    25   8    5    3    5    19   16   49   
1st     PAS Giannina                    26   11   1    1    26   10   4    4    5    16   18   50   
3rd     PAS Giannina                    26   8    3    2    20   12   4    4    5    19   19   43   
1st     PAS Giannina                    26   8    3    2    24   13   5    4    4    17   15   46   
3rd     PAS Giannina                    26   8    3    2    17   6    4    4    5    14   18   43   
3rd     PAS Giannina                    26   5    5    3    21   19   6    4    3    19   18   42   
6th     PAS Giannina                    26   9    2    2    25   12   4    2    7    16   20   43   
1st     PAS Giannina                    26   11   2    0    35   15   6    3    4    20   17   56   
5th     PAS Giannina                    26   7    4    2    19   10   2    6    5    7    8    37   
3rd     PAS Giannina                    26   8    4    1    22   10   3    4    6    13   16   41   
4th     PAS Giannina                    26   6    4    3    21   14   5    2    6    17   12   39   
2nd     PAS Giannina                    26   8    3    2    23   10   6    2    5    15   11   47   
2nd     PAS Giannina                    26   8    4    1    24   10   7    2    4    18   14   51   
4th     PAS Giannina                    26   7    4    2    19   12   4    5    4    10   9    42   
2nd     PAS Giannina                    26   8    4    1    24   10   5    3    5    20   23   46   
6th     PAS Giannina                    26   7    2    4    24   14   4    3    6    16   16   38   
2nd     PAS Giannina                    26   10   2    1    21   5    4    4    5    13   18   48   
2nd     PAS Giannina                    26   10   1    2    20   8    4    4    5    17   12   47   
3rd     PAS Giannina                    26   10   3    0    24   7    4    4    5    14   19   49   
3rd     PAS Giannina                    26   8    2    3    24   13   2    6    5    11   12   38   
2nd     PAS Giannina                    26   8    5    0    23   11   7    1    5    15   9    51   
7th     PAS Giannina                    26   6    4    3    16   11   4    3    6    14   20   37   
1st     PAS Giannina                    26   10   2    1    27   9    9    3    1    26   7    62   
3rd     PAS Giannina                    26   9    4    0    24   8    4    2    7    15   18   45   
4th     PAS Giannina                    26   9    0    4    22   14   3    4    6    15   20   40   
2nd     PAS Giannina                    26   12   1    0    28   5    3    5    5    15   18   51   
6th     PAS Giannina                    26   5    4    4    18   14   5    1    7    15   18   35   
4th     PAS Giannina                    26   8    2    3    29   17   5    4    4    12   11   45   
2nd     PAS Giannina                    26   6    4    3    12   8    7    2    4    20   16   45   
4th     PAS Giannina                    26   5    6    2    13   5    6    2    5    12   10   41   
1st     PAS Giannina                    26   11   2    0    37   12   3    5    5    14   22   49   
12th    PAS Giannina                    26   6    5    2    19   9    1    5    7    6    14   31   
5th     PAS Giannina                    26   8    2    3    29   17   3    5    5    14   14   40   
3rd     PAS Giannina                    26   9    3    1    19   7    2    8    3    12   13   44   
5th     PAS Giannina                    26   7    4    2    21   13   2    5    6    10   15   36   
3rd     PAS Giannina                    26   9    3    1    23   9    3    5    5    14   18   44   
2nd     PAS Giannina                    26   7    2    4    21   14   6    5    2    19   11   46   
2nd     PAS Giannina                    26   8    5    0    29   15   8    3    2    21   8    56   
2nd     PAS Giannina                    26   9    2    2    21   5    6    4    3    18   14   51   
7th     PAS Giannina                    26   7    2    4    20   13   3    4    6    15   17   36   
1st     PAS Giannina                    26   10   1    2    25   11   7    4    2    23   16   56   
2nd     PAS Giannina                    26   10   1    2    28   11   4    4    5    16   15   47   
2nd     PAS Giannina                    26   9    1    3    25   8    5    7    1    16   11   50   
3rd     PAS Giannina                    26   9    3    1    23   10   4    3    6    15   17   45   
9th     PAS Giannina                    26   7    5    1    23   9    2    3    8    11   20   35   
9th     PAS Giannina                    26   6    7    0    20   11   2    3    8    10   19   34   
4th     PAS Giannina                    26   7    3    3    21   11   3    5    5    14   16   38   
3rd     PAS Giannina                    26   9    3    1    32   11   4    2    7    22   20   44   
4th     PAS Giannina                    26   7    5    1    24   10   4    2    7    13   17   40   
10th    PAS Giannina                    26   5    2    6    19   20   3    4    6    9    14   30   
2nd     PAS Giannina                    26   11   1    1    24   9    3    2    8    10   18   45   
4th     PAS Giannina                    26   7    3    3    18   11   6    2    5    16   14   44   
4th     PAS Giannina                    26   11   1    1    28   9    3    3    7    13   21   46   
3rd     PAS Giannina                    26   9    1    3    27   13   3    6    4    12   15   43   
2nd     PAS Giannina                    26   12   0    1    31   2    3    2    8    12   24   47   
2nd     PAS Giannina                    26   6    5    2    24   14   6    3    4    19   14   44   
8th     PAS Giannina                    26   8    2    3    22   11   2    5    6    10   19   37   
6th     PAS Giannina                    26   8    3    2    19   9    4    1    8    16   21   40   
2nd     PAS Giannina                    26   10   2    1    26   8    6    4    3    21   14   54   
1st     PAS Giannina                    26   10   2    1    18   2    7    2    4    16   13   55   
2nd     PAS Giannina                    26   7    5    1    21   10   6    3    4    18   16   47   
3rd     PAS Giannina                    26   8    2    3    25   12   6    2    5    29   21   46   