Pos,Team, ,Pld,Won,Drn,Lst,For,Ag,Won,Drn,Lst,For,Ag,Pts, ,tactic_name, scored-conceded, points, games, wins_draws_losses
1st,PAS,Giannina,26,11,1,1,28,14,10,1,2,28,12,65,,4141 Medium pressing,2828-1412,65,26,1110_11_12
1st,PAS,Giannina,26,12,1,0,30,7,10,2,1,20,8,69,,4141 Medium pressing,3020-78,69,26,1210_12_01
1st,PAS,Giannina,26,12,1,0,33,12,10,1,2,28,12,68,,4141 Medium pressing,3328-1212,68,26,1210_11_02
1st,PAS,Giannina,26,8,5,0,21,4,8,1,4,20,14,54,,4141 Medium pressing,2120-414,54,26,88_51_04
1st,PAS,Giannina,26,12,1,0,27,7,10,2,1,25,9,69,,4141 Medium pressing,2725-79,69,26,1210_12_01
1st,PAS,Giannina,26,10,2,1,26,9,8,3,2,24,14,59,,4141 Medium pressing,2624-914,59,26,108_23_12
2nd,PAS,Giannina,26,8,5,0,28,14,7,2,4,18,15,52,,4141 Medium pressing,2818-1415,52,26,87_52_04
2nd,PAS,Giannina,26,7,4,2,20,11,7,3,3,22,10,49,,4141 Medium pressing,2022-1110,49,26,77_43_23
2nd,PAS,Giannina,26,9,2,2,23,12,6,4,3,22,17,51,,4141 Medium pressing,2322-1217,51,26,96_24_23
2nd,PAS,Giannina,26,9,4,0,28,11,5,4,4,21,17,50,,4141 Medium pressing,2821-1117,50,26,95_44_04
1st,PAS,Giannina,26,13,0,0,28,7,10,2,1,21,7,71,,4141 Medium pressing,2821-77,71,26,1310_02_01
1st,PAS,Giannina,26,12,0,1,28,7,7,1,5,20,18,58,,4141 Medium pressing,2820-718,58,26,127_01_15
3rd,PAS,Giannina,26,7,4,2,25,13,5,5,3,19,15,45,,4141 Medium pressing,2519-1315,45,26,75_45_23
1st,PAS,Giannina,26,12,1,0,33,5,8,3,2,17,12,64,,4141 Medium pressing,3317-512,64,26,128_13_02
1st,PAS,Giannina,26,9,2,2,25,13,8,4,1,22,10,57,,4141 Medium pressing,2522-1310,57,26,98_24_21
1st,PAS,Giannina,26,10,3,0,32,11,9,1,3,24,13,61,,4141 Medium pressing,3224-1113,61,26,109_31_03
1st,PAS,Giannina,26,7,5,1,27,15,11,2,0,28,6,61,,4141 Medium pressing,2728-156,61,26,711_52_10
1st,PAS,Giannina,26,11,1,1,28,6,6,2,5,18,14,54,,4141 Medium pressing,2818-614,54,26,116_12_15
1st,PAS,Giannina,26,11,2,0,26,11,9,1,3,23,10,63,,4141 Medium pressing,2623-1110,63,26,119_21_03
1st,PAS,Giannina,26,10,1,2,29,11,9,2,2,20,8,60,,4141 Medium pressing,2920-118,60,26,109_12_22
1st,PAS,Giannina,26,12,1,0,31,6,5,5,3,19,18,57,,4141 Medium pressing,3119-618,57,26,125_15_03
2nd,PAS,Giannina,26,10,1,2,27,11,4,5,4,23,19,48,,4141 Medium pressing,2723-1119,48,26,104_15_24
4th,PAS,Giannina,26,7,4,2,27,10,6,3,4,17,13,46,,4141 Medium pressing,2717-1013,46,26,76_43_24
2nd,PAS,Giannina,26,10,1,2,32,13,8,2,3,20,12,57,,4141 Medium pressing,3220-1312,57,26,108_12_23
1st,PAS,Giannina,26,10,2,1,27,7,7,4,2,24,12,57,,4141 Medium pressing,2724-712,57,26,107_24_12
2nd,PAS,Giannina,26,9,1,3,24,10,4,5,4,18,16,45,,4141 Medium pressing,2418-1016,45,26,94_15_34
2nd,PAS,Giannina,26,7,6,0,29,10,9,1,3,21,12,55,,4141 Medium pressing,2921-1012,55,26,79_61_03
1st,PAS,Giannina,26,7,3,3,23,12,8,4,1,33,16,52,,4141 Medium pressing,2333-1216,52,26,78_34_31
1st,PAS,Giannina,26,10,3,0,26,5,9,2,2,25,13,62,,4141 Medium pressing,2625-513,62,26,109_32_02
1st,PAS,Giannina,26,10,1,2,24,11,8,5,0,20,8,60,,4141 Medium pressing,2420-118,60,26,108_15_20
1st,PAS,Giannina,26,11,2,0,35,9,8,4,1,25,9,63,,4141 Medium pressing,3525-99,63,26,118_24_01
1st,PAS,Giannina,26,9,4,0,25,8,8,1,4,18,10,56,,4141 Medium pressing,2518-810,56,26,98_41_04
2nd,PAS,Giannina,26,11,2,0,32,10,4,4,5,14,11,51,,4141 Medium pressing,3214-1011,51,26,114_24_05
3rd,PAS,Giannina,26,8,3,2,31,11,5,6,2,20,11,48,,4141 Medium pressing,3120-1111,48,26,85_36_22
3rd,PAS,Giannina,26,10,1,2,31,11,3,6,4,17,19,46,,4141 Medium pressing,3117-1119,46,26,103_16_24
7th,PAS,Giannina,26,6,3,4,28,21,6,2,5,17,12,41,,4141 Medium pressing,2817-2112,41,26,66_32_45
1st,PAS,Giannina,26,11,2,0,29,10,10,1,2,22,16,66,,4141 Medium pressing,2922-1016,66,26,1110_21_02
1st,PAS,Giannina,26,10,3,0,30,13,9,2,2,25,9,62,,4141 Medium pressing,3025-139,62,26,109_32_02
1st,PAS,Giannina,26,12,0,1,28,7,6,4,3,18,10,58,,4141 Medium pressing,2818-710,58,26,126_04_13
1st,PAS,Giannina,26,10,2,1,22,6,10,1,2,19,6,63,,4141 Medium pressing,2219-66,63,26,1010_21_12
1st,PAS,Giannina,26,10,1,2,30,14,9,3,1,25,14,61,,4141 Medium pressing,3025-1414,61,26,109_13_21
1st,PAS,Giannina,26,11,1,1,32,12,10,3,0,23,7,67,,4141 Medium pressing,3223-127,67,26,1110_13_10
1st,PAS,Giannina,26,8,2,3,25,11,6,6,1,20,7,50,,4141 Medium pressing,2520-117,50,26,86_26_31
1st,PAS,Giannina,26,11,2,0,31,8,9,3,1,25,12,65,,4141 Medium pressing,3125-812,65,26,119_23_01
1st,PAS,Giannina,26,9,3,1,22,10,9,1,3,22,12,58,,4141 Medium pressing,2222-1012,58,26,99_31_13
1st,PAS,Giannina,26,8,4,1,24,11,6,5,2,27,15,51,,4141 Medium pressing,2427-1115,51,26,86_45_12
1st,PAS,Giannina,26,11,2,0,26,9,5,6,2,18,11,56,,4141 Medium pressing,2618-911,56,26,115_26_02
1st,PAS,Giannina,26,10,3,0,26,8,8,3,2,24,9,60,,4141 Medium pressing,2624-89,60,26,108_33_02
1st,PAS,Giannina,26,12,1,0,29,8,8,5,0,23,13,66,,4141 Medium pressing,2923-813,66,26,128_15_00
1st,PAS,Giannina,26,8,4,1,19,7,7,4,2,18,9,53,,4141 Medium pressing,1918-79,53,26,87_44_12
1st,PAS,Giannina,26,9,2,2,34,16,9,2,2,30,15,58,,4141 Medium pressing,3430-1615,58,26,99_22_22
1st,PAS,Giannina,26,11,2,0,28,11,11,1,1,24,5,69,,4141 Medium pressing,2824-115,69,26,1111_21_01
1st,PAS,Giannina,26,11,2,0,28,7,8,2,3,21,13,61,,4141 Medium pressing,2821-713,61,26,118_22_03
2nd,PAS,Giannina,26,10,1,2,26,11,6,5,2,24,17,54,,4141 Medium pressing,2624-1117,54,26,106_15_22
2nd,PAS,Giannina,26,11,1,1,28,6,5,4,4,17,11,53,,4141 Medium pressing,2817-611,53,26,115_14_14
1st,PAS,Giannina,26,10,3,0,25,12,8,4,1,17,4,61,,4141 Medium pressing,2517-124,61,26,108_34_01
7th,PAS,Giannina,26,6,5,2,28,14,3,7,3,13,14,39,,4141 Medium pressing,2813-1414,39,26,63_57_23
1st,PAS,Giannina,26,11,1,1,32,9,10,1,2,26,10,65,,4141 Medium pressing,3226-910,65,26,1110_11_12
3rd,PAS,Giannina,26,10,0,3,29,8,6,5,2,26,18,53,,4141 Medium pressing,2926-818,53,26,106_05_32
1st,PAS,Giannina,26,11,2,0,33,10,9,3,1,24,8,65,,4141 Medium pressing,3324-108,65,26,119_23_01
1st,PAS,Giannina,26,10,1,2,25,11,7,3,3,21,14,55,,4141 Medium pressing,2521-1114,55,26,107_13_23
1st,PAS,Giannina,26,13,0,0,31,9,7,4,2,20,13,64,,4141 Medium pressing,3120-913,64,26,137_04_02
4th,PAS,Giannina,26,7,3,3,20,12,5,4,4,15,14,43,,4141 Medium pressing,2015-1214,43,26,75_34_34
1st,PAS,Giannina,26,10,2,1,28,9,9,3,1,22,11,62,,4141 Medium pressing,2822-911,62,26,109_23_11
1st,PAS,Giannina,26,10,2,1,24,8,8,4,1,22,12,60,,4141 Medium pressing,2422-812,60,26,108_24_11
1st,PAS,Giannina,26,11,2,0,29,5,6,5,2,23,15,58,,4141 Medium pressing,2923-515,58,26,116_25_02
1st,PAS,Giannina,26,12,1,0,34,7,6,4,3,18,14,59,,4141 Medium pressing,3418-714,59,26,126_14_03
4th,PAS,Giannina,26,8,3,2,26,13,5,2,6,20,16,44,,4141 Medium pressing,2620-1316,44,26,85_32_26
1st,PAS,Giannina,26,7,4,2,29,19,6,6,1,19,14,49,,4141 Medium pressing,2919-1914,49,26,76_46_21
2nd,PAS,Giannina,26,11,1,1,32,10,3,8,2,19,19,51,,4141 Medium pressing,3219-1019,51,26,113_18_12
1st,PAS,Giannina,26,10,3,0,31,9,8,3,2,19,9,60,,4141 Medium pressing,3119-99,60,26,108_33_02
2nd,PAS,Giannina,26,11,1,1,30,11,4,4,5,14,19,50,,4141 Medium pressing,3014-1119,50,26,114_14_15
1st,PAS,Giannina,26,11,2,0,30,10,9,3,1,20,9,65,,4141 Medium pressing,3020-109,65,26,119_23_01
3rd,PAS,Giannina,26,7,4,2,19,10,6,2,5,27,17,45,,4141 Medium pressing,1927-1017,45,26,76_42_25
3rd,PAS,Giannina,26,10,1,2,29,10,5,3,5,17,17,49,,4141 Medium pressing,2917-1017,49,26,105_13_25
1st,PAS,Giannina,26,11,2,0,28,7,10,1,2,23,12,66,,4141 Medium pressing,2823-712,66,26,1110_21_02
1st,PAS,Giannina,26,10,2,1,28,15,7,3,3,21,13,56,,4141 Medium pressing,2821-1513,56,26,107_23_13
3rd,PAS,Giannina,26,9,4,0,28,13,4,6,3,18,15,49,,4141 Medium pressing,2818-1315,49,26,94_46_03
2nd,PAS,Giannina,26,8,3,2,21,10,8,1,4,26,16,52,,4141 Medium pressing,2126-1016,52,26,88_31_24
1st,PAS,Giannina,26,11,1,1,31,10,5,4,4,17,12,53,,4141 Medium pressing,3117-1012,53,26,115_14_14
1st,PAS,Giannina,26,7,2,4,20,16,7,5,1,21,9,49,,4141 Medium pressing,2021-169,49,26,77_25_41
1st,PAS,Giannina,26,10,1,2,34,12,10,1,2,25,12,62,,4141 Medium pressing,3425-1212,62,26,1010_11_22
1st,PAS,Giannina,26,11,1,1,29,14,10,2,1,26,10,66,,4141 Medium pressing,2926-1410,66,26,1110_12_11
1st,PAS,Giannina,26,10,2,1,30,8,8,3,2,22,8,59,,4141 Medium pressing,3022-88,59,26,108_23_12
2nd,PAS,Giannina,26,10,2,1,26,7,3,7,3,21,21,48,,4141 Medium pressing,2621-721,48,26,103_27_13
1st,PAS,Giannina,26,8,3,2,23,11,8,3,2,21,9,54,,4141 Medium pressing,2321-119,54,26,88_33_22
3rd,PAS,Giannina,26,8,1,4,23,14,5,4,4,15,13,44,,4141 Medium pressing,2315-1413,44,26,85_14_44
1st,PAS,Giannina,26,8,4,1,26,13,6,4,3,20,16,50,,4141 Medium pressing,2620-1316,50,26,86_44_13
2nd,PAS,Giannina,26,9,3,1,24,10,6,4,3,20,14,52,,4141 Medium pressing,2420-1014,52,26,96_34_13
3rd,PAS,Giannina,26,7,5,1,25,16,7,1,5,18,14,48,,4141 Medium pressing,2518-1614,48,26,77_51_15
2nd,PAS,Giannina,26,8,4,1,25,12,5,3,5,23,19,46,,4141 Medium pressing,2523-1219,46,26,85_43_15
1st,PAS,Giannina,26,10,3,0,33,14,6,3,4,19,13,54,,4141 Medium pressing,3319-1413,54,26,106_33_04
4th,PAS,Giannina,26,7,5,1,18,7,5,2,6,21,16,43,,4141 Medium pressing,1821-716,43,26,75_52_16
2nd,PAS,Giannina,26,7,3,3,25,16,7,4,2,23,12,49,,4141 Medium pressing,2523-1612,49,26,77_34_32
1st,PAS,Giannina,26,11,1,1,27,8,5,3,5,22,17,52,,4141 Medium pressing,2722-817,52,26,115_13_15
1st,PAS,Giannina,26,10,1,2,31,12,9,2,2,34,14,60,,4141 Medium pressing,3134-1214,60,26,109_12_22
1st,PAS,Giannina,26,11,0,2,27,9,8,5,0,24,7,62,,4141 Medium pressing,2724-97,62,26,118_05_20
6th,PAS,Giannina,26,7,2,4,22,14,4,4,5,10,13,39,,4141 Medium pressing,2210-1413,39,26,74_24_45
1st,PAS,Giannina,26,12,1,0,34,10,9,1,3,20,13,65,,4141 Medium pressing,3420-1013,65,26,129_11_03
1st,PAS,Giannina,26,10,2,1,25,7,6,4,3,18,14,54,,4141 Medium pressing,2518-714,54,26,106_24_13
Total,PAS,Giannina,2600,966,220,114,2741,1041,714,324,262,2126,1262,5584, ,4141 Medium pressing,48,67-23,03,55,84,26,16,8_5,44_3,76
