1st     PAS Giannina                    26   9    2    2    34   16   8    2    3    23   14   55   
1st     PAS Giannina                    26   9    2    2    30   15   11   2    0    33   8    64   
1st     PAS Giannina                    26   9    1    3    20   10   7    3    3    22   16   52   
1st     PAS Giannina                    26   11   2    0    32   13   10   1    2    33   10   66   
1st     PAS Giannina                    26   13   0    0    35   9    6    4    3    19   14   61   
1st     PAS Giannina                    26   13   0    0    40   11   10   2    1    29   9    71   
1st     PAS Giannina                    26   10   2    1    37   14   10   2    1    37   13   64   
1st     PAS Giannina                    26   11   2    0    38   15   10   1    2    39   16   66   
1st     PAS Giannina                    26   10   0    3    23   9    10   1    2    29   12   61   
1st     PAS Giannina                    26   10   1    2    28   10   7    3    3    26   19   55   
1st     PAS Giannina                    26   11   1    1    33   13   8    2    3    27   14   60   
1st     PAS Giannina                    26   10   0    3    34   14   6    4    3    23   14   52   
1st     PAS Giannina                    26   11   1    1    31   12   7    5    1    30   15   60   
1st     PAS Giannina                    26   9    3    1    34   13   7    4    2    27   13   55   
1st     PAS Giannina                    26   11   2    0    34   11   10   2    1    32   16   67   
2nd     PAS Giannina                    26   7    3    3    24   11   9    3    1    26   12   54   
1st     PAS Giannina                    26   9    2    2    25   8    9    1    3    27   12   57   
1st     PAS Giannina                    26   10   2    1    30   9    10   1    2    30   11   63   
1st     PAS Giannina                    26   10   2    1    38   18   9    2    2    25   11   61   
1st     PAS Giannina                    26   9    2    2    27   14   8    4    1    29   15   57   
1st     PAS Giannina                    26   13   0    0    46   8    12   0    1    31   9    75   
1st     PAS Giannina                    26   9    4    0    36   16   4    7    2    28   24   50   
1st     PAS Giannina                    26   12   0    1    36   14   11   2    0    37   8    71   
3rd     PAS Giannina                    26   8    3    2    32   15   5    3    5    30   17   45   
2nd     PAS Giannina                    26   10   1    2    32   13   8    3    2    30   15   58   
1st     PAS Giannina                    26   10   2    1    33   15   9    1    3    23   11   60   
1st     PAS Giannina                    26   12   1    0    35   10   10   2    1    32   10   69   
1st     PAS Giannina                    26   10   2    1    33   11   8    1    4    31   16   57   
2nd     PAS Giannina                    26   9    2    2    33   14   10   0    3    31   11   59   
1st     PAS Giannina                    26   8    4    1    27   12   11   1    1    26   7    62   
1st     PAS Giannina                    26   11   0    2    34   12   8    3    2    25   14   60   
1st     PAS Giannina                    26   9    3    1    27   12   11   2    0    30   8    65   
1st     PAS Giannina                    26   11   2    0    33   11   6    7    0    27   8    60   
1st     PAS Giannina                    26   10   1    2    34   16   9    0    4    30   23   58   
1st     PAS Giannina                    26   12   1    0    39   15   8    4    1    20   9    65   
1st     PAS Giannina                    26   10   3    0    31   12   8    4    1    32   17   61   
1st     PAS Giannina                    26   11   1    1    33   13   9    1    3    23   9    62   
1st     PAS Giannina                    26   11   2    0    29   7    7    4    2    27   15   60   
1st     PAS Giannina                    26   12   0    1    34   11   7    3    3    27   18   60   
1st     PAS Giannina                    26   11   2    0    41   15   10   2    1    37   15   67   
1st     PAS Giannina                    26   9    4    0    27   7    8    2    3    23   14   57   
1st     PAS Giannina                    26   10   2    1    36   12   8    2    3    27   12   58   
1st     PAS Giannina                    26   10   2    1    27   10   10   2    1    35   14   64   
2nd     PAS Giannina                    26   9    0    4    31   15   8    0    5    27   19   51   
2nd     PAS Giannina                    26   10   3    0    37   15   5    4    4    25   18   52   
1st     PAS Giannina                    26   9    3    1    37   13   8    4    1    31   16   58   
1st     PAS Giannina                    26   9    3    1    24   9    10   2    1    31   11   62   
1st     PAS Giannina                    26   12   0    1    38   14   10   3    0    31   7    69   
1st     PAS Giannina                    26   8    2    3    29   21   10   1    2    34   15   57   
1st     PAS Giannina                    26   9    3    1    28   14   9    2    2    24   11   59   
2nd     PAS Giannina                    26   8    2    3    31   17   8    2    3    28   13   52   
1st     PAS Giannina                    26   8    3    2    31   11   7    3    3    23   15   51   
4th     PAS Giannina                    26   8    3    2    27   11   4    5    4    19   19   44   
1st     PAS Giannina                    26   11   2    0    34   6    8    3    2    31   13   62   
2nd     PAS Giannina                    26   10   1    2    38   13   9    1    3    27   13   59   
1st     PAS Giannina                    26   12   1    0    33   10   6    4    3    28   22   59   
1st     PAS Giannina                    26   12   0    1    36   7    8    3    2    27   13   63   
1st     PAS Giannina                    26   11   2    0    34   7    6    2    5    24   17   55   
1st     PAS Giannina                    26   12   1    0    36   11   6    2    5    23   19   57   
1st     PAS Giannina                    26   11   1    1    34   14   7    3    3    28   18   58   
1st     PAS Giannina                    26   11   1    1    34   10   8    2    3    22   9    60   
1st     PAS Giannina                    26   10   3    0    33   11   7    2    4    23   11   56   
2nd     PAS Giannina                    26   10   2    1    30   8    6    3    4    27   23   53   
1st     PAS Giannina                    26   12   1    0    35   10   5    1    7    19   19   53   
1st     PAS Giannina                    26   10   2    1    36   16   9    0    4    27   15   59   
2nd     PAS Giannina                    26   9    3    1    28   15   9    3    1    25   7    60   
1st     PAS Giannina                    26   8    3    2    28   12   10   1    2    26   13   58   
2nd     PAS Giannina                    26   9    3    1    31   15   8    3    2    30   17   57   
1st     PAS Giannina                    26   11   2    0    39   8    8    2    3    27   17   61   
2nd     PAS Giannina                    26   8    1    4    28   18   7    3    3    25   16   49   
2nd     PAS Giannina                    26   9    2    2    29   14   6    3    4    21   14   50   
2nd     PAS Giannina                    26   12   1    0    35   7    5    2    6    18   18   54   
1st     PAS Giannina                    26   11   2    0    30   10   7    4    2    24   16   60   
1st     PAS Giannina                    26   9    4    0    31   12   6    3    4    27   18   52   
2nd     PAS Giannina                    26   8    3    2    30   14   8    1    4    29   18   52   
1st     PAS Giannina                    26   11   1    1    37   16   9    3    1    32   14   64   
1st     PAS Giannina                    26   12   1    0    40   11   9    3    1    29   12   67   
1st     PAS Giannina                    26   12   1    0    38   10   10   1    2    26   10   68   
2nd     PAS Giannina                    26   10   2    1    40   9    7    3    3    28   16   56   
1st     PAS Giannina                    26   9    2    2    25   11   9    2    2    33   11   58   
1st     PAS Giannina                    26   11   1    1    35   14   9    3    1    28   12   64   
2nd     PAS Giannina                    26   10   3    0    33   12   5    5    3    20   14   53   
1st     PAS Giannina                    26   12   1    0    40   10   8    3    2    29   19   64   
2nd     PAS Giannina                    26   11   2    0    31   11   7    3    3    22   17   59   
1st     PAS Giannina                    26   11   1    1    35   18   9    4    0    33   12   65   
2nd     PAS Giannina                    26   9    3    1    24   8    8    1    4    33   22   55   
1st     PAS Giannina                    26   12   1    0    32   8    5    5    3    23   18   57   
1st     PAS Giannina                    26   11   2    0    31   7    10   2    1    27   14   67   
1st     PAS Giannina                    26   10   1    2    30   14   5    4    4    24   23   50   
1st     PAS Giannina                    26   11   0    2    34   13   6    5    2    26   15   56   
1st     PAS Giannina                    26   10   3    0    46   16   10   1    2    31   10   64   
1st     PAS Giannina                    26   9    3    1    38   20   9    3    1    32   14   60   
1st     PAS Giannina                    26   13   0    0    36   10   9    3    1    35   17   69   
1st     PAS Giannina                    26   11   1    1    39   14   8    3    2    28   15   61   
1st     PAS Giannina                    26   8    4    1    32   14   7    3    3    21   19   52   
1st     PAS Giannina                    26   10   1    2    29   11   7    3    3    27   18   55   
1st     PAS Giannina                    26   10   1    2    34   11   7    3    3    25   14   55   
1st     PAS Giannina                    26   9    3    1    25   5    9    3    1    32   13   60   
1st     PAS Giannina                    26   12   1    0    34   8    8    2    3    34   20   63   
1st     PAS Giannina                    26   12   0    1    33   9    6    4    3    24   13   58   