1st     PAS Giannina                    26   11   1    1    41   15   10   1    2    30   11   65   
1st     PAS Giannina                    26   10   3    0    30   7    10   0    3    24   13   63   
1st     PAS Giannina                    26   12   1    0    39   15   10   1    2    25   14   68   
1st     PAS Giannina                    26   12   1    0    40   13   10   2    1    30   10   69   
1st     PAS Giannina                    26   9    3    1    36   12   11   2    0    32   9    65   
1st     PAS Giannina                    26   13   0    0    41   12   8    2    3    30   16   65   
1st     PAS Giannina                    26   10   3    0    40   16   7    6    0    28   11   60   
1st     PAS Giannina                    26   11   2    0    37   12   10   2    1    34   16   67   
1st     PAS Giannina                    26   11   2    0    37   6    10   2    1    35   15   67   
1st     PAS Giannina                    26   11   0    2    39   14   10   2    1    30   8    65   
1st     PAS Giannina                    26   12   0    1    36   10   10   2    1    29   7    68   
1st     PAS Giannina                    26   11   1    1    41   18   9    3    1    36   14   64   
1st     PAS Giannina                    26   13   0    0    38   11   11   0    2    37   12   72   
1st     PAS Giannina                    26   11   2    0    36   15   11   2    0    28   9    70   
1st     PAS Giannina                    26   10   3    0    39   17   11   1    1    36   13   67   
1st     PAS Giannina                    26   12   1    0    35   11   12   1    0    40   10   74   
1st     PAS Giannina                    26   11   2    0    39   5    10   1    2    28   13   66   
1st     PAS Giannina                    26   11   1    1    35   10   8    4    1    32   15   62   
1st     PAS Giannina                    26   13   0    0    49   10   8    1    4    21   14   64   
2nd     PAS Giannina                    26   11   0    2    38   16   10   2    1    30   7    65   
1st     PAS Giannina                    26   12   1    0    38   13   10   3    0    34   9    70   
1st     PAS Giannina                    26   12   0    1    47   14   9    2    2    28   15   65   
1st     PAS Giannina                    26   9    3    1    41   14   9    1    3    31   16   58   
1st     PAS Giannina                    26   11   1    1    36   13   9    1    3    31   17   62   
1st     PAS Giannina                    26   10   2    1    36   14   8    4    1    27   13   60   
1st     PAS Giannina                    26   10   1    2    37   12   9    3    1    25   11   61   
1st     PAS Giannina                    26   12   1    0    36   9    7    4    2    30   15   62   
1st     PAS Giannina                    26   10   3    0    38   17   11   1    1    39   16   67   
1st     PAS Giannina                    26   12   1    0    33   13   9    3    1    32   12   67   
1st     PAS Giannina                    26   13   0    0    33   8    11   1    1    31   9    73   
1st     PAS Giannina                    26   11   1    1    40   12   9    1    3    30   17   62   
1st     PAS Giannina                    26   10   2    1    36   12   11   1    1    34   11   66   
1st     PAS Giannina                    26   13   0    0    43   13   10   2    1    33   10   71   
1st     PAS Giannina                    26   12   0    1    38   11   10   2    1    33   10   68   
1st     PAS Giannina                    26   11   1    1    39   17   13   0    0    31   6    73   
1st     PAS Giannina                    26   13   0    0    34   10   9    3    1    34   14   69   
1st     PAS Giannina                    26   12   1    0    49   13   10   2    1    34   12   69   
1st     PAS Giannina                    26   12   0    1    46   17   6    6    1    28   15   60   
1st     PAS Giannina                    26   12   1    0    38   8    10   2    1    30   8    69   
1st     PAS Giannina                    26   10   2    1    38   17   10   3    0    27   9    65   
1st     PAS Giannina                    26   10   3    0    37   17   10   1    2    31   14   64   
1st     PAS Giannina                    26   12   1    0    36   10   11   1    1    31   14   71   
1st     PAS Giannina                    26   11   1    1    37   14   11   1    1    32   9    68   
1st     PAS Giannina                    26   10   1    2    36   11   12   0    1    43   13   67   
1st     PAS Giannina                    26   12   0    1    33   8    11   1    1    30   10   70   
1st     PAS Giannina                    26   10   2    1    35   15   11   1    1    46   15   66   
1st     PAS Giannina                    26   13   0    0    42   8    12   1    0    38   12   76   
1st     PAS Giannina                    26   10   1    2    38   12   10   1    2    29   9    62   
1st     PAS Giannina                    26   10   1    2    46   20   11   1    1    29   8    65   
1st     PAS Giannina                    26   9    3    1    26   12   9    4    0    29   10   61   
1st     PAS Giannina                    26   12   1    0    42   13   7    4    2    29   17   62   
1st     PAS Giannina                    26   12   1    0    29   8    10   2    1    26   10   69   
1st     PAS Giannina                    26   13   0    0    44   14   8    3    2    29   11   66   
1st     PAS Giannina                    26   11   1    1    37   11   8    3    2    27   16   61   
1st     PAS Giannina                    26   12   0    1    42   10   10   2    1    35   13   68   
1st     PAS Giannina                    26   11   1    1    35   11   10   2    1    39   21   66   
1st     PAS Giannina                    26   11   0    2    39   13   8    3    2    23   8    60   
1st     PAS Giannina                    26   13   0    0    38   9    8    4    1    28   10   67   
1st     PAS Giannina                    26   11   1    1    44   17   9    4    0    26   10   65   
1st     PAS Giannina                    26   10   2    1    37   15   10   1    2    36   15   63   
1st     PAS Giannina                    26   10   2    1    43   17   11   1    1    35   12   66   
1st     PAS Giannina                    26   9    3    1    33   15   8    3    2    30   14   57   
1st     PAS Giannina                    26   11   1    1    46   11   12   1    0    46   15   71   
1st     PAS Giannina                    26   11   1    1    36   12   9    2    2    33   14   63   
1st     PAS Giannina                    26   11   2    0    39   13   10   1    2    34   11   66   
1st     PAS Giannina                    26   12   1    0    40   10   8    4    1    31   12   65   
1st     PAS Giannina                    26   11   1    1    39   13   11   2    0    36   11   69   
1st     PAS Giannina                    26   11   2    0    44   14   8    3    2    31   12   62   
1st     PAS Giannina                    26   10   2    1    32   11   12   1    0    31   13   69   
1st     PAS Giannina                    26   11   2    0    39   9    10   3    0    31   11   68   
1st     PAS Giannina                    26   11   2    0    37   14   12   0    1    31   11   71   
1st     PAS Giannina                    26   12   0    1    39   12   11   0    2    34   10   69   
1st     PAS Giannina                    26   12   1    0    38   9    8    3    2    30   14   64   
1st     PAS Giannina                    26   12   0    1    38   12   9    2    2    34   14   65   
1st     PAS Giannina                    26   11   1    1    44   17   9    3    1    34   11   64   
1st     PAS Giannina                    26   11   2    0    38   12   10   3    0    30   8    68   
1st     PAS Giannina                    26   11   2    0    35   8    12   0    1    35   5    71   
1st     PAS Giannina                    26   11   1    1    41   8    10   2    1    38   9    66   
1st     PAS Giannina                    26   11   1    1    43   20   11   1    1    37   16   68   
1st     PAS Giannina                    26   11   2    0    37   15   11   1    1    42   13   69   
1st     PAS Giannina                    26   11   2    0    40   13   12   1    0    32   3    72   
1st     PAS Giannina                    26   11   1    1    36   13   12   1    0    31   9    71   
1st     PAS Giannina                    26   10   1    2    41   12   10   1    2    34   13   62   
1st     PAS Giannina                    26   13   0    0    42   7    11   1    1    31   7    73   
1st     PAS Giannina                    26   11   1    1    38   12   12   0    1    33   10   70   
2nd     PAS Giannina                    26   12   1    0    38   11   6    4    3    25   16   59   
1st     PAS Giannina                    26   12   1    0    30   7    10   0    3    33   7    67   
2nd     PAS Giannina                    26   11   2    0    38   15   8    3    2    32   18   62   
1st     PAS Giannina                    26   9    3    1    36   13   12   1    0    38   12   67   
1st     PAS Giannina                    26   11   1    1    40   10   11   0    2    34   12   67   
1st     PAS Giannina                    26   12   0    1    35   7    9    0    4    32   15   63   
1st     PAS Giannina                    26   10   3    0    40   14   12   1    0    36   9    70   
1st     PAS Giannina                    26   11   0    2    45   15   7    4    2    28   14   58   
1st     PAS Giannina                    26   8    3    2    27   12   9    2    2    33   12   56   
1st     PAS Giannina                    26   10   1    2    33   17   10   2    1    28   10   63   
1st     PAS Giannina                    26   12   1    0    46   19   9    3    1    30   21   67   
1st     PAS Giannina                    26   12   1    0    36   9    9    3    1    30   19   67   
1st     PAS Giannina                    26   13   0    0    41   9    11   1    1    31   9    73   
1st     PAS Giannina                    26   10   3    0    28   8    9    3    1    28   13   63   
1st     PAS Giannina                    26   12   1    0    41   15   11   0    2    36   13   70   