12th    PAS Giannina                    26   3    5    5    21   20   4    0    9    25   32   26
10th    PAS Giannina                    26   5    4    4    23   17   4    2    7    15   22   33
10th    PAS Giannina                    26   6    2    5    28   23   3    1    9    14   26   30
8th     PAS Giannina                    26   6    4    3    22   14   4    3    6    19   16   37
7th     PAS Giannina                    26   6    3    4    21   15   3    5    5    25   26   35
8th     PAS Giannina                    26   7    2    4    26   14   3    2    8    11   20   34
5th     PAS Giannina                    26   6    4    3    23   17   4    4    5    20   22   38
6th     PAS Giannina                    26   6    6    1    25   16   4    4    5    17   20   40
10th    PAS Giannina                    26   4    5    4    21   17   2    3    8    14   27   26
7th     PAS Giannina                    26   5    5    3    26   16   5    2    6    20   24   37
10th    PAS Giannina                    26   8    3    2    28   16   1    2    10   14   33   32
5th     PAS Giannina                    26   9    1    3    26   16   4    1    8    14   27   41
9th     PAS Giannina                    26   6    2    5    13   14   3    4    6    16   21   33
10th    PAS Giannina                    26   6    2    5    25   22   3    3    7    13   22   32
10th    PAS Giannina                    26   6    2    5    23   20   3    3    7    14   24   32
5th     PAS Giannina                    26   6    2    5    26   19   7    0    6    21   23   41
12th    PAS Giannina                    26   5    4    4    21   15   1    6    6    17   24   28
10th    PAS Giannina                    26   6    2    5    23   18   2    4    7    18   27   30
5th     PAS Giannina                    26   7    2    4    25   18   4    2    7    20   22   37
4th     PAS Giannina                    26   6    6    1    26   17   5    3    5    19   22   42
3rd     PAS Giannina                    26   8    1    4    26   19   4    3    6    21   24   40
9th     PAS Giannina                    26   7    2    4    24   13   3    1    9    12   24   33
9th     PAS Giannina                    26   7    5    1    23   16   2    4    7    20   29   36
3rd     PAS Giannina                    26   7    3    3    26   17   4    3    6    17   22   39
12th    PAS Giannina                    26   5    3    5    22   20   2    3    8    12   23   27
3rd     PAS Giannina                    26   9    3    1    24   10   5    4    4    22   19   49
7th     PAS Giannina                    26   6    4    3    18   16   3    5    5    16   22   36
6th     PAS Giannina                    26   8    1    4    22   18   2    6    5    23   27   37
9th     PAS Giannina                    26   6    4    3    17   12   3    2    8    13   22   33
4th     PAS Giannina                    26   5    4    4    20   16   6    5    2    22   16   42
13th    PAS Giannina                    26   2    5    6    22   28   5    3    5    16   17   29
9th     PAS Giannina                    26   5    4    4    23   20   4    4    5    22   25   35
7th     PAS Giannina                    26   7    1    5    28   23   4    3    6    15   21   37
13th    PAS Giannina                    26   6    3    4    18   14   0    6    7    10   21   27
11th    PAS Giannina                    26   5    1    7    15   21   4    2    7    18   26   30
2nd     PAS Giannina                    26   9    2    2    30   15   7    2    4    22   14   52
8th     PAS Giannina                    26   6    4    3    21   15   3    4    6    21   26   35
7th     PAS Giannina                    26   7    3    3    26   16   3    2    8    16   23   35
2nd     PAS Giannina                    26   9    3    1    25   10   3    6    4    18   20   45
3rd     PAS Giannina                    26   8    2    3    25   13   4    5    4    23   21   43
4th     PAS Giannina                    26   6    5    2    25   18   5    3    5    22   22   41
6th     PAS Giannina                    26   9    3    1    24   11   3    2    8    21   30   41
10th    PAS Giannina                    26   7    2    4    30   23   2    4    7    16   26   33
7th     PAS Giannina                    26   7    3    3    20   11   3    5    5    24   23   38
7th     PAS Giannina                    26   6    3    4    25   20   4    3    6    21   28   36
4th     PAS Giannina                    26   9    1    3    31   17   3    6    4    18   20   43
2nd     PAS Giannina                    26   7    5    1    24   13   5    3    5    20   19   44
4th     PAS Giannina                    26   8    3    2    27   15   4    4    5    23   23   43
12th    PAS Giannina                    26   4    5    4    16   16   3    5    5    26   29   31
5th     PAS Giannina                    26   8    0    5    23   15   4    5    4    15   14   41
5th     PAS Giannina                    26   7    3    3    25   16   4    1    8    16   29   37
5th     PAS Giannina                    26   6    4    3    22   19   4    3    6    19   27   37
12th    PAS Giannina                    26   5    4    4    19   20   3    3    7    12   20   31
9th     PAS Giannina                    26   8    1    4    24   13   1    5    7    13   21   33
6th     PAS Giannina                    26   5    3    5    20   17   6    2    5    21   20   38
4th     PAS Giannina                    26   7    2    4    18   12   6    2    5    20   19   43
4th     PAS Giannina                    26   8    3    2    26   18   4    2    7    21   22   41
5th     PAS Giannina                    26   7    3    3    30   20   4    3    6    23   27   39
7th     PAS Giannina                    26   9    1    3    22   14   2    2    9    11   21   36
9th     PAS Giannina                    26   6    3    4    24   21   1    5    7    13   22   29
2nd     PAS Giannina                    26   6    4    3    33   20   6    3    4    22   22   43
7th     PAS Giannina                    26   3    4    6    19   21   6    3    4    25   22   34
12th    PAS Giannina                    26   3    6    4    21   16   0    9    4    11   21   24
5th     PAS Giannina                    26   8    3    2    28   20   3    4    6    17   23   40
8th     PAS Giannina                    26   7    4    2    30   20   2    4    7    14   25   35
4th     PAS Giannina                    26   6    4    3    23   16   6    3    4    26   18   43
1st      PAS Giannina                    26   10   1    2    31   16   6    4    3    23   19   53
10th    PAS Giannina                    26   3    5    5    19   18   3    6    4    20   25   29
3rd     PAS Giannina                    26   8    2    3    27   21   6    2    5    21   20   46
1st      PAS Giannina                    26   6    3    4    35   30   8    1    4    26   21   46
9th     PAS Giannina                    26   5    3    5    22   21   3    4    6    15   19   31
3rd     PAS Giannina                    26   10   1    2    30   14   3    4    6    19   32   44
6th     PAS Giannina                    26   7    3    3    27   18   4    3    6    15   24   39
11th    PAS Giannina                    26   7    1    5    25   19   1    2    10   9    28   27
8th     PAS Giannina                    26   6    4    3    24   17   3    4    6    16   21   35
8th     PAS Giannina                    26   5    5    3    22   19   4    3    6    22   25   35
8th     PAS Giannina                    26   7    2    4    20   16   3    2    8    15   19   34
4th     PAS Giannina                    26   8    1    4    21   15   5    5    3    17   17   45
13th    PAS Giannina                    26   3    3    7    18   25   3    1    9    14   26   22
8th     PAS Giannina                    26   7    1    5    22   21   2    4    7    14   22   32
14th    PAS Giannina                    26   5    3    5    25   19   2    0    11   10   29   24
11th    PAS Giannina                    26   5    4    4    21   18   3    1    9    17   24   29
11th    PAS Giannina                    26   6    2    5    21   19   2    5    6    16   23   31
1st      PAS Giannina                    26   10   2    1    32   12   5    5    3    19   18   52
12th    PAS Giannina                    26   5    4    4    21   18   2    1    10   13   25   26
8th     PAS Giannina                    26   6    4    3    23   17   3    4    6    20   26   35
11th    PAS Giannina                    26   4    3    6    19   23   4    1    8    14   23   28
5th     PAS Giannina                    26   5    3    5    21   19   6    4    3    14   13   40
7th     PAS Giannina                    26   8    2    3    24   16   2    4    7    17   30   36
6th     PAS Giannina                    26   8    2    3    22   11   3    3    7    11   21   38
8th     PAS Giannina                    26   6    4    3    26   17   3    5    5    20   24   36
7th     PAS Giannina                    26   6    4    3    28   21   2    5    6    17   26   33
5th     PAS Giannina                    26   5    4    4    24   18   5    3    5    24   21   37
5th     PAS Giannina                    26   7    2    4    20   16   4    2    7    11   20   37
7th     PAS Giannina                    26   7    4    2    32   22   4    1    8    21   23   38
3rd     PAS Giannina                    26   7    3    3    19   16   4    5    4    22   19   41
2nd     PAS Giannina                    26   9    1    3    27   13   5    1    7    26   28   44
10th    PAS Giannina                    26   4    4    5    21   19   4    2    7    16   27   30
8th     PAS Giannina                    26   6    5    2    26   18   3    4    6    14   18   36
7th     PAS Giannina                    26   7    2    4    26   15   2    6    5    13   17   35