2nd     PAS Giannina                    26   10   1    2    26   12   6    3    4    17   15   52   
3rd     PAS Giannina                    26   6    3    4    23   17   8    2    3    18   10   47   
3rd     PAS Giannina                    26   8    3    2    24   15   4    4    5    17   19   43   
2nd     PAS Giannina                    26   9    3    1    29   11   7    3    3    21   13   54   
1st     PAS Giannina                    26   9    2    2    22   8    8    2    3    19   12   55   
1st     PAS Giannina                    26   8    3    2    21   9    8    2    3    20   9    53   
2nd     PAS Giannina                    26   9    2    2    22   10   7    1    5    18   17   51   
2nd     PAS Giannina                    26   8    2    3    18   14   8    1    4    19   10   51   
2nd     PAS Giannina                    26   9    3    1    31   9    5    4    4    19   18   49   
1st     PAS Giannina                    26   12   0    1    30   6    6    5    2    26   14   59   
1st     PAS Giannina                    26   12   0    1    31   7    9    1    3    24   13   64   
1st     PAS Giannina                    26   11   2    0    30   11   6    3    4    16   14   56   
2nd     PAS Giannina                    26   9    3    1    24   8    6    5    2    27   16   53   
1st     PAS Giannina                    26   9    4    0    27   8    6    2    5    18   13   51   
1st     PAS Giannina                    26   11   1    1    26   10   8    4    1    29   11   62   
6th     PAS Giannina                    26   6    3    4    20   14   4    4    5    18   16   37   
4th     PAS Giannina                    26   9    3    1    32   10   4    5    4    18   16   47   
2nd     PAS Giannina                    26   7    3    3    31   20   8    2    3    27   17   50   
7th     PAS Giannina                    26   6    6    1    20   9    3    4    6    14   17   37   
2nd     PAS Giannina                    26   9    3    1    24   9    5    3    5    22   18   48   
3rd     PAS Giannina                    26   7    3    3    27   18   5    6    2    16   10   45   
10th    PAS Giannina                    26   4    1    8    13   14   5    5    3    17   9    33   
1st     PAS Giannina                    26   13   0    0    32   9    6    4    3    22   17   61   
1st     PAS Giannina                    26   8    3    2    25   11   6    3    4    17   10   48   
3rd     PAS Giannina                    26   7    4    2    26   10   6    3    4    21   16   46   
2nd     PAS Giannina                    26   7    3    3    28   18   7    4    2    19   11   49   
4th     PAS Giannina                    26   8    4    1    27   15   2    5    6    14   19   39   
1st     PAS Giannina                    26   10   1    2    30   11   6    5    2    16   8    54   
1st     PAS Giannina                    26   9    1    3    27   10   8    1    4    19   11   53   
1st     PAS Giannina                    26   9    4    0    26   13   9    1    3    22   11   59   
1st     PAS Giannina                    26   7    5    1    18   9    5    5    3    20   16   46   
3rd     PAS Giannina                    26   8    3    2    28   15   5    2    6    22   20   44   
2nd     PAS Giannina                    26   9    3    1    30   9    9    3    1    25   8    60   
1st     PAS Giannina                    26   8    2    3    19   9    7    4    2    23   14   51   
1st     PAS Giannina                    26   9    3    1    28   12   8    4    1    26   12   58   
1st     PAS Giannina                    26   9    3    1    23   9    5    3    5    17   15   48   
5th     PAS Giannina                    26   9    2    2    26   12   4    2    7    15   21   43   
4th     PAS Giannina                    26   8    2    3    30   18   4    4    5    18   17   42   
2nd     PAS Giannina                    26   9    3    1    27   8    6    3    4    23   18   51   
1st     PAS Giannina                    26   9    3    1    35   19   7    4    2    22   11   55   
1st     PAS Giannina                    26   9    2    2    24   12   5    4    4    17   15   48   
1st     PAS Giannina                    26   12   1    0    35   10   5    3    5    19   16   55   
1st     PAS Giannina                    26   10   1    2    27   13   5    5    3    20   12   51   
1st     PAS Giannina                    26   10   2    1    29   10   10   3    0    28   6    65   
2nd     PAS Giannina                    26   9    1    3    27   17   4    6    3    18   15   46   
2nd     PAS Giannina                    26   7    4    2    22   10   6    3    4    21   15   46   
7th     PAS Giannina                    26   9    2    2    27   14   1    4    8    12   25   36   
1st     PAS Giannina                    26   11   1    1    27   11   7    4    2    19   10   59   
1st     PAS Giannina                    26   9    2    2    25   10   8    3    2    24   15   56   
5th     PAS Giannina                    26   6    4    3    20   10   4    5    4    20   15   39   
1st     PAS Giannina                    26   12   0    1    33   9    6    5    2    21   13   59   
4th     PAS Giannina                    26   8    3    2    25   13   3    3    7    17   18   39   
4th     PAS Giannina                    26   7    3    3    22   13   5    3    5    14   14   42   
3rd     PAS Giannina                    26   10   1    2    30   15   5    4    4    20   19   50   
1st     PAS Giannina                    26   6    5    2    29   20   9    3    1    23   12   53   
2nd     PAS Giannina                    26   7    3    3    22   11   6    5    2    24   14   47   
1st     PAS Giannina                    26   9    2    2    30   15   8    4    1    24   10   57   
1st     PAS Giannina                    26   11   0    2    30   12   6    5    2    18   10   56   
2nd     PAS Giannina                    26   7    4    2    22   12   6    5    2    20   14   48   
2nd     PAS Giannina                    26   11   1    1    24   8    3    4    6    13   18   47   
1st     PAS Giannina                    26   10   1    2    26   10   7    4    2    20   12   56   
3rd     PAS Giannina                    26   8    4    1    28   11   5    4    4    17   13   47   
3rd     PAS Giannina                    26   8    4    1    21   10   3    6    4    17   19   43   
1st     PAS Giannina                    26   11   2    0    33   9    6    5    2    17   11   58   
1st     PAS Giannina                    26   9    2    2    21   11   7    2    4    14   16   52   
3rd     PAS Giannina                    26   8    4    1    28   12   3    7    3    12   13   44   
3rd     PAS Giannina                    26   9    2    2    33   12   5    0    8    17   18   44   
2nd     PAS Giannina                    26   7    5    1    27   15   6    5    2    25   15   49   
1st     PAS Giannina                    26   9    2    2    25   8    5    5    3    23   16   49   
1st     PAS Giannina                    26   9    2    2    26   12   8    3    2    17   9    56   
3rd     PAS Giannina                    26   8    2    3    35   17   6    2    5    18   21   46   
2nd     PAS Giannina                    26   9    4    0    23   8    7    2    4    20   11   54   
1st     PAS Giannina                    26   11   2    0    31   12   9    0    4    25   16   62   
1st     PAS Giannina                    26   9    2    2    23   9    7    5    1    19   9    55   
3rd     PAS Giannina                    26   10   1    2    26   6    6    3    4    24   17   52   
1st     PAS Giannina                    26   11   0    2    33   9    5    1    7    15   13   49   
2nd     PAS Giannina                    26   8    2    3    22   9    7    3    3    19   12   50   
3rd     PAS Giannina                    26   8    3    2    23   10   7    2    4    19   14   50   
3rd     PAS Giannina                    26   8    5    0    27   11   5    5    3    15   9    49   
1st     PAS Giannina                    26   10   2    1    33   10   6    4    3    17   11   54   
1st     PAS Giannina                    26   11   1    1    29   8    6    5    2    15   9    57   
1st     PAS Giannina                    26   10   3    0    25   6    6    4    3    21   10   55   
2nd     PAS Giannina                    26   9    4    0    25   9    4    3    6    18   18   46   
2nd     PAS Giannina                    26   8    3    2    27   14   7    3    3    19   11   51   
1st     PAS Giannina                    26   9    4    0    32   17   6    2    5    17   16   51   
2nd     PAS Giannina                    26   11   1    1    30   8    4    3    6    16   17   49   
2nd     PAS Giannina                    26   10   3    0    27   8    5    3    5    17   17   51   
1st     PAS Giannina                    26   11   1    1    36   12   6    5    2    19   13   57   
1st     PAS Giannina                    26   8    2    3    27   21   7    2    4    21   17   49   
1st     PAS Giannina                    26   10   2    1    27   11   7    4    2    24   13   57   
1st     PAS Giannina                    26   12   1    0    30   12   4    4    5    21   21   53   
2nd     PAS Giannina                    26   10   1    2    23   8    6    3    4    20   12   52   
2nd     PAS Giannina                    26   9    2    2    27   14   5    4    4    19   13   48   
1st     PAS Giannina                    26   8    4    1    19   8    6    4    3    23   16   50   
10th    PAS Giannina                    26   6    4    3    24   18   3    4    6    14   17   35   
2nd     PAS Giannina                    26   10   2    1    23   8    9    4    0    20   8    63   
1st     PAS Giannina                    26   10   2    1    30   17   8    3    2    25   9    59   
4th     PAS Giannina                    26   7    4    2    32   13   5    3    5    14   10   43   
5th     PAS Giannina                    26   6    4    3    17   12   5    5    3    19   16   42   
1st     PAS Giannina                    26   9    1    3    27   13   11   2    0    29   11   63   