1st     PAS Giannina                    26   9    2    2    24   15   7    4    2    26   18   54   
3rd     PAS Giannina                    26   7    4    2    23   12   6    3    4    19   16   46   
2nd     PAS Giannina                    26   12   1    0    33   10   4    3    6    9    10   52   
2nd     PAS Giannina                    26   12   0    1    31   10   3    7    3    16   11   52   
2nd     PAS Giannina                    26   9    3    1    29   10   4    5    4    20   18   47   
1st     PAS Giannina                    26   10   1    2    34   19   10   0    3    23   13   61   
1st     PAS Giannina                    26   10   1    2    35   9    7    3    3    25   15   55   
2nd     PAS Giannina                    26   11   0    2    31   12   8    3    2    28   17   60   
3rd     PAS Giannina                    26   7    4    2    20   10   7    1    5    22   19   47   
1st     PAS Giannina                    26   9    1    3    28   11   9    1    3    24   13   56   
1st     PAS Giannina                    26   10   2    1    29   10   5    4    4    13   12   51   
4th     PAS Giannina                    26   5    7    1    23   13   4    6    3    24   20   40   
3rd     PAS Giannina                    26   8    2    3    30   14   4    5    4    22   20   43   
1st     PAS Giannina                    26   11   2    0    27   8    5    3    5    13   15   53   
1st     PAS Giannina                    26   9    3    1    27   12   9    4    0    33   14   61   
1st     PAS Giannina                    26   7    2    4    18   11   7    4    2    23   15   48   
1st     PAS Giannina                    26   11   2    0    37   10   4    4    5    20   23   51   
2nd     PAS Giannina                    26   8    3    2    32   14   6    3    4    21   14   48   
1st     PAS Giannina                    26   12   1    0    40   12   6    4    3    22   13   59   
1st     PAS Giannina                    26   11   1    1    35   12   6    1    6    23   17   53   
4th     PAS Giannina                    26   7    3    3    25   14   5    4    4    19   19   43   
1st     PAS Giannina                    26   10   3    0    29   7    6    4    3    16   10   55   
1st     PAS Giannina                    26   10   3    0    35   17   8    2    3    25   18   59   
1st     PAS Giannina                    26   11   2    0    32   11   4    5    4    24   17   52   
1st     PAS Giannina                    26   9    2    2    27   14   6    2    5    19   18   49   
1st     PAS Giannina                    26   11   2    0    29   10   7    4    2    22   13   60   
1st     PAS Giannina                    26   11   2    0    33   15   4    6    3    19   17   53   
2nd     PAS Giannina                    26   7    3    3    23   15   11   2    0    28   12   59   
1st     PAS Giannina                    26   9    1    3    28   16   8    3    2    30   18   55   
3rd     PAS Giannina                    26   6    4    3    26   19   5    5    3    22   18   42   
1st     PAS Giannina                    26   9    2    2    22   8    9    4    0    26   7    60   
1st     PAS Giannina                    26   10   2    1    30   12   9    2    2    17   8    61   
1st     PAS Giannina                    26   12   1    0    28   10   8    2    3    28   16   63   
2nd     PAS Giannina                    26   7    5    1    22   8    8    4    1    30   15   54   
2nd     PAS Giannina                    26   5    7    1    27   16   8    3    2    21   8    49   
1st     PAS Giannina                    26   7    5    1    20   9    7    4    2    23   14   51   
1st     PAS Giannina                    26   11   2    0    30   10   8    3    2    18   9    62   
2nd     PAS Giannina                    26   9    4    0    29   12   6    1    6    19   16   50   
1st     PAS Giannina                    26   10   1    2    28   10   7    3    3    20   10   55   
2nd     PAS Giannina                    26   10   2    1    28   9    6    4    3    19   12   54   
2nd     PAS Giannina                    26   10   2    1    32   11   8    3    2    22   7    59   
1st     PAS Giannina                    26   10   3    0    30   11   7    4    2    24   12   58   
3rd     PAS Giannina                    26   7    4    2    24   12   5    4    4    23   18   44   
1st     PAS Giannina                    26   11   2    0    33   11   5    7    1    19   11   57   
2nd     PAS Giannina                    26   10   3    0    31   9    7    1    5    27   19   55   
3rd     PAS Giannina                    26   10   2    1    27   14   4    4    5    14   19   48   
1st     PAS Giannina                    26   10   1    2    32   13   6    5    2    29   17   54   
1st     PAS Giannina                    26   11   2    0    36   12   5    5    3    22   13   55   
1st     PAS Giannina                    26   12   1    0    45   13   7    3    3    25   10   61   
5th     PAS Giannina                    26   7    3    3    26   17   4    1    8    17   19   37   
2nd     PAS Giannina                    26   9    1    3    33   17   7    4    2    21   9    53   
5th     PAS Giannina                    26   8    2    3    28   13   5    4    4    20   15   45   
2nd     PAS Giannina                    26   9    2    2    30   16   6    1    6    26   20   48   
1st     PAS Giannina                    26   9    1    3    27   9    10   2    1    25   12   60   
2nd     PAS Giannina                    26   9    4    0    29   11   7    0    6    22   14   52   
1st     PAS Giannina                    26   11   0    2    26   9    6    3    4    25   16   54   
1st     PAS Giannina                    26   9    3    1    26   14   9    4    0    33   15   61   
2nd     PAS Giannina                    26   6    5    2    22   12   7    4    2    23   15   48   
1st     PAS Giannina                    26   10   2    1    33   13   9    3    1    32   11   62   
1st     PAS Giannina                    26   11   2    0    36   12   8    2    3    26   16   61   
1st     PAS Giannina                    26   7    5    1    29   10   8    2    3    19   12   52   
1st     PAS Giannina                    26   12   0    1    37   9    5    4    4    23   21   55   
1st     PAS Giannina                    26   9    3    1    32   10   5    3    5    20   20   48   
1st     PAS Giannina                    26   10   1    2    36   13   7    3    3    26   15   55   
1st     PAS Giannina                    26   11   2    0    24   4    7    2    4    22   15   58   
1st     PAS Giannina                    26   9    3    1    22   8    5    6    2    17   13   51   
1st     PAS Giannina                    26   12   0    1    35   10   7    3    3    23   13   60   
1st     PAS Giannina                    26   10   1    2    32   14   8    2    3    20   10   57   
3rd     PAS Giannina                    26   9    0    4    27   14   6    2    5    14   17   47   
1st     PAS Giannina                    26   10   2    1    32   14   4    7    2    19   10   51   
1st     PAS Giannina                    26   10   3    0    29   10   8    5    0    25   12   62   
2nd     PAS Giannina                    26   12   1    0    38   11   7    3    3    22   15   61   
1st     PAS Giannina                    26   9    4    0    36   19   6    6    1    31   21   55   
1st     PAS Giannina                    26   9    4    0    31   13   8    0    5    22   16   55   
1st     PAS Giannina                    26   11   2    0    34   10   8    2    3    25   16   61   
2nd     PAS Giannina                    26   10   0    3    29   14   9    1    3    22   8    58   
2nd     PAS Giannina                    26   8    4    1    34   15   6    2    5    20   14   48   
3rd     PAS Giannina                    26   10   2    1    27   12   4    3    6    17   22   47   
7th     PAS Giannina                    26   6    3    4    20   16   4    5    4    17   13   38   
2nd     PAS Giannina                    26   10   0    3    35   14   6    3    4    22   16   51   
1st     PAS Giannina                    26   12   1    0    31   6    7    4    2    20   9    62   
1st     PAS Giannina                    26   13   0    0    25   5    6    2    5    21   15   59   
1st     PAS Giannina                    26   10   2    1    38   14   8    4    1    28   14   60   
2nd     PAS Giannina                    26   9    3    1    27   14   8    2    3    34   22   56   
1st     PAS Giannina                    26   8    4    1    32   18   6    3    4    21   22   49   
1st     PAS Giannina                    26   11   2    0    40   18   8    2    3    24   14   61   
1st     PAS Giannina                    26   9    2    2    30   13   10   2    1    36   18   61   
1st     PAS Giannina                    26   11   2    0    35   13   7    2    4    20   10   58   
6th     PAS Giannina                    26   6    4    3    23   14   5    2    6    19   20   39   
1st     PAS Giannina                    26   9    2    2    28   10   7    4    2    22   11   54   
1st     PAS Giannina                    26   9    3    1    29   14   8    0    5    17   11   54   
1st     PAS Giannina                    26   12   1    0    37   10   9    2    2    23   12   66   
1st     PAS Giannina                    26   8    3    2    25   12   6    5    2    22   20   50   
2nd     PAS Giannina                    26   10   1    2    29   9    4    7    2    14   11   50   
1st     PAS Giannina                    26   11   1    1    34   18   5    2    6    14   18   51   
1st     PAS Giannina                    26   6    7    0    24   11   6    5    2    20   9    48   
1st     PAS Giannina                    26   12   0    1    32   10   8    3    2    21   10   63   
5th     PAS Giannina                    26   6    5    2    25   16   5    5    3    21   14   43   
2nd     PAS Giannina                    26   8    2    3    22   11   8    3    2    28   15   53   
3rd     PAS Giannina                    26   8    3    2    27   16   6    3    4    16   14   48   