4th     PAS Giannina                    26   5    5    3    15   16   7    3    3    25   18   44
6th     PAS Giannina                    26   6    3    4    22   20   4    3    6    15   24   36
8th     PAS Giannina                    26   6    2    5    24   16   3    3    7    20   28   32
9th     PAS Giannina                    26   6    3    4    23   18   4    1    8    13   20   34
8th     PAS Giannina                    26   6    4    3    20   14   4    1    8    12   22   35
3rd     PAS Giannina                    26   8    3    2    29   14   3    5    5    23   24   41
4th     PAS Giannina                    26   9    1    3    25   13   2    7    4    22   26   41
7th     PAS Giannina                    26   6    3    4    24   23   3    3    7    16   24   33
6th     PAS Giannina                    26   8    3    2    27   15   5    0    8    19   27   42
3rd     PAS Giannina                    26   9    2    2    23   15   3    5    5    18   19   43
4th     PAS Giannina                    26   7    2    4    22   19   6    2    5    23   23   43
6th     PAS Giannina                    26   6    3    4    25   19   4    4    5    25   26   37
8th     PAS Giannina                    26   5    3    5    18   16   4    3    6    21   23   33
6th     PAS Giannina                    26   7    3    3    18   14   4    4    5    14   17   40
4th     PAS Giannina                    26   7    3    3    25   19   5    4    4    27   24   43
7th     PAS Giannina                    26   3    6    4    19   19   4    6    3    18   14   33
5th     PAS Giannina                    26   7    2    4    22   17   4    4    5    18   21   39
3rd     PAS Giannina                    26   6    5    2    28   18   5    5    3    25   21   43
6th     PAS Giannina                    26   7    4    2    28   18   3    5    5    19   23   39
4th     PAS Giannina                    26   8    3    2    28   14   4    3    6    11   19   42
4th     PAS Giannina                    26   8    4    1    31   18   3    4    6    16   20   41
12th    PAS Giannina                    26   5    3    5    23   22   1    5    7    12   25   26
9th     PAS Giannina                    26   8    3    2    20   13   1    3    9    12   29   33
3rd     PAS Giannina                    26   9    2    2    26   16   5    1    7    22   24   45
10th    PAS Giannina                    26   6    0    7    16   16   3    3    7    16   27   30
5th     PAS Giannina                    26   6    5    2    17   13   6    1    6    22   22   42
6th     PAS Giannina                    26   6    1    6    27   19   5    4    4    18   19   38
5th     PAS Giannina                    26   9    2    2    35   20   4    2    7    16   21   43
10th    PAS Giannina                    26   8    2    3    22   11   1    5    7    10   22   34
5th     PAS Giannina                    26   7    3    3    25   19   4    2    7    17   24   38
4th     PAS Giannina                    26   11   1    1    35   19   3    4    6    18   25   47
5th     PAS Giannina                    26   9    3    1    26   12   3    3    7    13   22   42
3rd     PAS Giannina                    26   8    2    3    21   13   4    5    4    18   18   43
12th    PAS Giannina                    26   3    6    4    16   14   3    3    7    15   24   27
7th     PAS Giannina                    26   7    4    2    23   11   4    2    7    18   22   39
2nd     PAS Giannina                    26   9    3    1    29   13   3    4    6    21   23   43
5th     PAS Giannina                    26   6    2    5    27   18   5    7    1    22   16   42
4th     PAS Giannina                    26   10   1    2    28   12   3    4    6    16   20   44
3rd     PAS Giannina                    26   5    5    3    28   21   6    2    5    26   21   40
6th     PAS Giannina                    26   6    2    5    26   22   5    3    5    22   17   38
10th    PAS Giannina                    26   4    3    6    15   15   4    4    5    13   20   31
8th     PAS Giannina                    26   4    4    5    25   28   7    1    5    22   18   38
4th     PAS Giannina                    26   7    3    3    24   17   6    0    7    20   21   42
4th     PAS Giannina                    26   8    2    3    31   20   4    1    8    18   27   39
9th     PAS Giannina                    26   9    1    3    28   16   0    6    7    16   27   34
3rd     PAS Giannina                    26   8    3    2    25   14   4    4    5    17   17   43
9th     PAS Giannina                    26   9    1    3    29   22   1    3    9    7    21   34
3rd     PAS Giannina                    26   5    3    5    28   25   5    6    2    19   19   39
9th     PAS Giannina                    26   7    2    4    28   15   2    4    7    17   24   33
13th     PAS Giannina                    26   5    3    5    17   18   1    6    6    19   25   27
8th     PAS Giannina                    26   6    4    3    27   15   4    2    7    20   26   36
4th     PAS Giannina                    26   7    6    0    25   14   2    6    5    18   22   39
7th     PAS Giannina                    26   5    6    2    22   20   4    2    7    21   28   35
14th     PAS Giannina                    26   1    4    8    10   21   1    4    8    14   33   14
3rd     PAS Giannina                    26   6    6    1    28   17   4    7    2    23   20   43
8th     PAS Giannina                    26   6    4    3    23   13   4    1    8    18   22   35
8th     PAS Giannina                    26   4    5    4    20   19   5    2    6    19   22   34
9th     PAS Giannina                    26   3    6    4    22   23   3    6    4    18   24   30
6th     PAS Giannina                    26   9    1    3    30   14   1    4    8    16   30   35
3rd     PAS Giannina                    26   8    2    3    32   17   3    6    4    21   22   41
8th     PAS Giannina                    26   7    3    3    24   17   4    2    7    16   19   38
8th     PAS Giannina                    26   8    3    2    25   15   2    3    8    13   23   36
10th    PAS Giannina                    26   6    4    3    20   16   2    4    7    18   28   32
5th     PAS Giannina                    26   8    1    4    30   18   4    3    6    24   29   40
11th    PAS Giannina                    26   5    3    5    16   17   4    1    8    18   23   31
10th    PAS Giannina                    26   7    2    4    23   20   4    0    9    17   20   35
7th     PAS Giannina                    26   6    4    3    23   16   5    1    7    15   18   38
8th     PAS Giannina                    26   7    3    3    27   14   1    6    6    14   26   33
2nd     PAS Giannina                    26   10   2    1    29   12   3    5    5    19   19   46
4th     PAS Giannina                    26   7    4    2    27   13   6    1    6    19   23   44
8th     PAS Giannina                    26   8    4    1    25   12   2    1    10   16   30   35
7th     PAS Giannina                    26   5    5    3    21   13   4    4    5    19   18   36
4th     PAS Giannina                    26   6    5    2    26   16   5    4    4    17   16   42
8th     PAS Giannina                    26   6    4    3    21   15   3    3    7    12   17   34
13th     PAS Giannina                    26   5    1    7    19   23   2    3    8    19   28   25
5th     PAS Giannina                    26   9    3    1    28   9    2    4    7    14   25   40
8th     PAS Giannina                    26   7    4    2    25   14   1    5    7    17   30   33
2nd     PAS Giannina                    26   7    5    1    22   14   6    4    3    23   16   48
3rd     PAS Giannina                    26   9    2    2    26   14   4    4    5    14   17   45
7th     PAS Giannina                    26   7    2    4    25   18   4    2    7    16   23   37
6th     PAS Giannina                    26   7    4    2    23   13   3    3    7    21   34   37
9th     PAS Giannina                    26   7    4    2    22   12   2    1    10   23   39   32
9th     PAS Giannina                    26   7    3    3    27   19   2    2    9    14   29   32
6th     PAS Giannina                    26   7    3    3    28   21   4    2    7    16   24   38
3rd     PAS Giannina                    26   8    3    2    29   17   4    2    7    21   24   41
4th     PAS Giannina                    26   7    3    3    28   18   3    6    4    19   21   39
2nd     PAS Giannina                    26   9    1    3    28   14   5    1    7    17   25   44
12th    PAS Giannina                    26   2    2    9    16   27   5    4    4    19   22   27
11th    PAS Giannina                    26   7    2    4    21   16   1    4    8    14   29   30
1st     PAS Giannina                    26   9    2    2    30   15   7    3    3    19   12   53
2nd     PAS Giannina                    26   11   0    2    32   18   5    4    4    20   21   52
8th     PAS Giannina                    26   5    5    3    16   13   4    2    7    20   28   34
3rd     PAS Giannina                    26   7    2    4    26   21   5    3    5    18   18   41
14th     PAS Giannina                    26   2    6    5    22   25   2    4    7    15   24   22
8th     PAS Giannina                    26   7    2    4    27   20   2    4    7    14   24   33
12th    PAS Giannina                    26   7    3    3    22   15   1    1    11   6    24   28
11th    PAS Giannina                    26   8    1    4    31   19   1    2    10   14   25   30
6th     PAS Giannina                    26   7    2    4    23   17   4    3    6    23   25   38
8th     PAS Giannina                    26   6    5    2    29   19   2    5    6    16   22   34
9th     PAS Giannina                    26   7    4    2    21   11   2    2    9    15   30   33