4th     PAS Giannina                    26   9    2    2    31   15   3    3    7    18   22   41   
4th     PAS Giannina                    26   8    2    3    37   20   4    5    4    25   22   43   
3rd     PAS Giannina                    26   11   1    1    37   18   2    3    8    15   23   43   
2nd     PAS Giannina                    26   7    4    2    32   18   6    2    5    22   21   45   
1st     PAS Giannina                    26   11   2    0    39   11   6    1    6    30   25   54   
3rd     PAS Giannina                    26   10   0    3    39   18   3    5    5    21   21   44   
4th     PAS Giannina                    26   8    3    2    27   15   4    4    5    21   23   43   
4th     PAS Giannina                    26   7    5    1    27   14   5    2    6    21   23   43   
5th     PAS Giannina                    26   8    5    0    31   18   3    4    6    23   26   42   
2nd     PAS Giannina                    26   9    3    1    33   15   5    3    5    25   25   48   
3rd     PAS Giannina                    26   10   2    1    30   12   2    5    6    21   29   43   
2nd     PAS Giannina                    26   7    5    1    21   11   7    3    3    21   18   50   
4th     PAS Giannina                    26   7    2    4    22   14   5    3    5    21   19   41   
3rd     PAS Giannina                    26   8    1    4    26   15   5    3    5    22   25   43   
1st     PAS Giannina                    26   12   1    0    38   18   4    1    8    23   28   50   
12th    PAS Giannina                    26   5    5    3    23   22   2    4    7    16   28   30   
7th     PAS Giannina                    26   7    3    3    21   14   2    3    8    15   33   33   
3rd     PAS Giannina                    26   10   1    2    33   14   2    6    5    26   30   43   
4th     PAS Giannina                    26   8    3    2    27   14   3    6    4    20   23   42   
11th    PAS Giannina                    26   5    3    5    22   23   1    6    6    19   26   27   
3rd     PAS Giannina                    26   9    2    2    29   13   4    6    3    23   18   47   
3rd     PAS Giannina                    26   8    2    3    25   17   6    2    5    23   22   46   
3rd     PAS Giannina                    26   10   2    1    36   13   3    3    7    17   24   44   
1st     PAS Giannina                    26   9    2    2    24   12   8    0    5    21   17   53   
2nd     PAS Giannina                    26   8    2    3    29   17   5    2    6    22   24   43   
5th     PAS Giannina                    26   11   0    2    29   16   2    1    10   17   29   40   
4th     PAS Giannina                    26   9    2    2    32   19   4    1    8    21   23   42   
3rd     PAS Giannina                    26   9    3    1    29   14   6    3    4    19   16   51   
7th     PAS Giannina                    26   6    4    3    25   15   4    2    7    19   24   36   
2nd     PAS Giannina                    26   8    1    4    25   18   6    2    5    24   20   45   
5th     PAS Giannina                    26   6    4    3    25   18   4    3    6    20   23   37   
4th     PAS Giannina                    26   5    5    3    18   15   5    3    5    27   25   38   
2nd     PAS Giannina                    26   10   2    1    28   15   8    0    5    29   15   56   
2nd     PAS Giannina                    26   11   0    2    32   15   3    4    6    22   28   46   
4th     PAS Giannina                    26   5    4    4    22   18   7    3    3    28   23   43   
2nd     PAS Giannina                    26   10   3    0    32   13   5    2    6    20   22   50   
12th    PAS Giannina                    26   7    1    5    23   19   2    2    9    14   21   30   
4th     PAS Giannina                    26   7    4    2    29   14   3    5    5    20   25   39   
5th     PAS Giannina                    26   9    3    1    31   16   4    1    8    26   25   43   
5th     PAS Giannina                    26   9    3    1    27   11   2    3    8    16   24   39   
6th     PAS Giannina                    26   8    3    2    29   16   3    2    8    22   31   38   
8th     PAS Giannina                    26   7    1    5    26   22   3    1    9    16   22   32   
8th     PAS Giannina                    26   9    1    3    27   13   1    5    7    11   19   36   
2nd     PAS Giannina                    26   9    3    1    33   17   5    2    6    24   26   47   
10th    PAS Giannina                    26   7    4    2    24   14   1    5    7    15   27   33   
8th     PAS Giannina                    26   6    5    2    28   20   2    5    6    15   24   34   
4th     PAS Giannina                    26   8    3    2    29   17   5    3    5    21   17   45   
1st     PAS Giannina                    26   10   1    2    25   10   6    2    5    18   20   51   
7th     PAS Giannina                    26   7    1    5    22   17   4    2    7    18   28   36   
1st     PAS Giannina                    26   9    3    1    30   16   6    4    3    29   22   52   
5th     PAS Giannina                    26   9    2    2    32   18   3    1    9    26   36   39   
3rd     PAS Giannina                    26   10   3    0    34   16   4    4    5    22   26   49   
8th     PAS Giannina                    26   8    3    2    24   16   0    7    6    14   22   34   
7th     PAS Giannina                    26   7    1    5    21   17   4    3    6    21   23   37   
9th     PAS Giannina                    26   8    2    3    29   14   1    3    9    19   31   32   
4th     PAS Giannina                    26   6    2    5    22   20   6    3    4    29   22   41   
8th     PAS Giannina                    26   7    1    5    25   17   4    2    7    25   29   36   
4th     PAS Giannina                    26   7    2    4    24   19   6    3    4    29   23   44   
5th     PAS Giannina                    26   9    2    2    28   12   2    4    7    19   29   39   
3rd     PAS Giannina                    26   7    4    2    28   18   6    4    3    24   19   47   
2nd     PAS Giannina                    26   8    4    1    34   17   4    4    5    24   28   44   
3rd     PAS Giannina                    26   10   2    1    27   12   4    0    9    22   28   44   
11th    PAS Giannina                    26   5    4    4    25   19   2    4    7    17   27   29   
1st     PAS Giannina                    26   8    3    2    31   18   6    2    5    25   21   47   
3rd     PAS Giannina                    26   7    3    3    26   20   6    2    5    28   25   44   
2nd     PAS Giannina                    26   8    4    1    29   16   7    3    3    23   18   52   
10th    PAS Giannina                    26   5    3    5    20   19   3    4    6    17   20   31   
8th     PAS Giannina                    26   5    6    2    26   20   2    6    5    25   27   33   
3rd     PAS Giannina                    26   8    2    3    31   14   5    3    5    20   21   44   
3rd     PAS Giannina                    26   12   1    0    38   14   2    3    8    20   30   46   
4th     PAS Giannina                    26   8    3    2    27   14   3    4    6    16   22   40   
6th     PAS Giannina                    26   7    4    2    31   16   4    4    5    23   20   41   
7th     PAS Giannina                    26   10   0    3    32   16   1    3    9    13   24   36   
3rd     PAS Giannina                    26   10   0    3    28   16   3    5    5    18   19   44   
6th     PAS Giannina                    26   7    5    1    30   15   3    6    4    17   17   41   
9th     PAS Giannina                    26   7    3    3    27   18   4    2    7    15   20   38   
6th     PAS Giannina                    26   7    3    3    27   17   4    3    6    23   25   39   
4th     PAS Giannina                    26   8    2    3    32   20   4    1    8    27   29   39   
6th     PAS Giannina                    26   8    3    2    32   18   2    4    7    18   29   37   
4th     PAS Giannina                    26   9    2    2    32   19   3    1    9    15   24   39   
5th     PAS Giannina                    26   8    4    1    32   14   4    2    7    21   25   42   
6th     PAS Giannina                    26   7    3    3    26   20   5    2    6    16   17   41   
10th    PAS Giannina                    26   6    5    2    21   15   3    2    8    16   25   34   
9th     PAS Giannina                    26   6    3    4    28   21   2    7    4    17   18   34   
7th     PAS Giannina                    26   6    5    2    22   13   2    6    5    16   20   35   
2nd     PAS Giannina                    26   7    3    3    28   18   7    2    4    24   21   47   
3rd     PAS Giannina                    26   7    2    4    26   18   6    2    5    24   23   43   
1st     PAS Giannina                    26   10   0    3    30   11   6    3    4    21   15   51   
2nd     PAS Giannina                    26   10   1    2    28   16   4    4    5    27   25   47   
5th     PAS Giannina                    26   8    3    2    29   16   3    4    6    13   21   40   
2nd     PAS Giannina                    26   8    3    2    27   13   6    3    4    25   21   48   
3rd     PAS Giannina                    26   6    4    3    27   16   6    3    4    20   17   43   
2nd     PAS Giannina                    26   8    3    2    30   14   5    5    3    26   21   47   
9th     PAS Giannina                    26   5    5    3    21   17   4    1    8    14   24   33   
9th     PAS Giannina                    26   7    3    3    25   16   1    5    7    17   28   32   
7th     PAS Giannina                    26   7    4    2    30   14   2    2    9    11   24   33   
3rd     PAS Giannina                    26   7    3    3    28   22   3    7    3    20   18   40   
4th     PAS Giannina                    26   7    4    2    33   25   4    5    4    17   18   42   
4th     PAS Giannina                    26   7    3    3    32   23   4    3    6    23   26   39   
2nd     PAS Giannina                    26   11   0    2    33   17   4    4    5    24   25   49   