1st     PAS Giannina                    26   9    1    3    31   18   9    1    3    29   17   56   
1st     PAS Giannina                    26   7    4    2    21   10   11   0    2    28   10   58   
1st     PAS Giannina                    26   9    3    1    29   13   10   1    2    27   13   61   
2nd     PAS Giannina                    26   9    1    3    30   17   7    1    5    18   15   50   
2nd     PAS Giannina                    26   9    2    2    26   13   7    1    5    24   19   51   
1st     PAS Giannina                    26   12   1    0    33   7    9    1    3    29   13   65   
1st     PAS Giannina                    26   10   1    2    36   18   7    5    1    25   10   57   
1st     PAS Giannina                    26   11   1    1    39   17   6    5    2    22   13   57   
1st     PAS Giannina                    26   11   2    0    33   14   6    3    4    17   17   56   
2nd     PAS Giannina                    26   10   2    1    33   8    5    4    4    19   14   51   
1st     PAS Giannina                    26   10   3    0    36   13   8    1    4    30   14   58   
2nd     PAS Giannina                    26   10   1    2    31   11   6    4    3    25   18   53   
1st     PAS Giannina                    26   12   0    1    28   8    7    2    4    25   14   59   
1st     PAS Giannina                    26   13   0    0    41   12   10   2    1    29   14   71   
1st     PAS Giannina                    26   11   1    1    31   9    8    3    2    26   14   61   
2nd     PAS Giannina                    26   7    4    2    27   19   6    3    4    13   12   46   
1st     PAS Giannina                    26   9    3    1    31   13   6    6    1    24   13   54   
1st     PAS Giannina                    26   8    5    0    28   8    9    4    0    25   11   60   
1st     PAS Giannina                    26   11   2    0    31   13   8    4    1    21   10   63   
2nd     PAS Giannina                    26   8    3    2    31   17   6    5    2    24   18   50   
1st     PAS Giannina                    26   11   2    0    28   10   11   1    1    28   12   69   
1st     PAS Giannina                    26   10   3    0    27   12   6    3    4    27   21   54   
3rd     PAS Giannina                    26   8    3    2    29   14   7    2    4    21   16   50   
1st     PAS Giannina                    26   10   2    1    31   12   4    4    5    15   16   48   
2nd     PAS Giannina                    26   9    3    1    24   9    4    5    4    22   17   47   
2nd     PAS Giannina                    26   8    4    1    29   13   6    3    4    22   17   49   
1st     PAS Giannina                    26   9    3    1    26   11   10   2    1    23   9    62   
3rd     PAS Giannina                    26   11   0    2    30   8    4    3    6    19   20   48   
1st     PAS Giannina                    26   13   0    0    33   11   7    5    1    33   17   65   
2nd     PAS Giannina                    26   9    1    3    30   16   6    6    1    22   12   52   
1st     PAS Giannina                    26   9    3    1    24   11   9    2    2    24   10   59   
2nd     PAS Giannina                    26   12   1    0    32   13   6    2    5    17   14   57   
1st     PAS Giannina                    26   7    4    2    29   16   8    3    2    27   15   52   
3rd     PAS Giannina                    26   8    4    1    23   9    7    2    4    20   18   51   
2nd     PAS Giannina                    26   9    3    1    29   9    6    4    3    20   14   52   
1st     PAS Giannina                    26   11   1    1    29   7    10   1    2    29   11   65   
2nd     PAS Giannina                    26   10   2    1    30   12   8    2    3    31   25   58   
1st     PAS Giannina                    26   10   3    0    31   9    9    2    2    27   10   62   
2nd     PAS Giannina                    26   8    4    1    27   13   6    3    4    23   16   49   
1st     PAS Giannina                    26   10   2    1    33   15   8    2    3    27   15   58   
1st     PAS Giannina                    26   12   1    0    34   11   9    1    3    31   14   65   
2nd     PAS Giannina                    26   9    2    2    24   12   7    2    4    28   20   52   
1st     PAS Giannina                    26   8    2    3    27   16   6    4    3    13   8    48   
2nd     PAS Giannina                    26   9    3    1    25   11   6    3    4    20   19   51   
1st     PAS Giannina                    26   10   0    3    29   11   8    2    3    16   10   56   
2nd     PAS Giannina                    26   9    2    2    37   15   6    2    5    25   20   49   
1st     PAS Giannina                    26   11   1    1    31   7    7    1    5    21   15   56   
1st     PAS Giannina                    26   10   2    1    26   9    8    2    3    25   12   58   
2nd     PAS Giannina                    26   8    3    2    27   11   5    5    3    19   14   47   
1st     PAS Giannina                    26   11   2    0    30   8    7    2    4    24   14   58   
2nd     PAS Giannina                    26   10   2    1    26   11   6    5    2    21   11   55   
1st     PAS Giannina                    26   9    4    0    32   10   8    4    1    26   14   59   
1st     PAS Giannina                    26   8    4    1    28   13   10   2    1    27   10   60   
4th     PAS Giannina                    26   6    4    3    26   17   6    4    3    19   11   44   
2nd     PAS Giannina                    26   9    2    2    29   14   7    4    2    23   10   54   
1st     PAS Giannina                    26   11   2    0    29   6    6    2    5    19   12   55   
1st     PAS Giannina                    26   10   3    0    27   6    6    4    3    20   13   55   
2nd     PAS Giannina                    26   10   2    1    24   8    7    4    2    21   9    57   
1st     PAS Giannina                    26   9    2    2    32   14   4    6    3    21   17   47   
1st     PAS Giannina                    26   11   1    1    32   11   8    3    2    30   13   61   
1st     PAS Giannina                    26   10   2    1    35   15   7    2    4    25   15   55   
3rd     PAS Giannina                    26   9    2    2    27   11   5    4    4    17   16   48   
1st     PAS Giannina                    26   9    4    0    27   13   8    2    3    23   14   57   
3rd     PAS Giannina                    26   10   2    1    30   10   6    3    4    22   20   53   
1st     PAS Giannina                    26   10   2    1    29   7    6    5    2    24   12   55   
1st     PAS Giannina                    26   9    3    1    26   10   12   0    1    30   11   66   
1st     PAS Giannina                    26   8    3    2    25   13   8    0    5    19   14   51   
1st     PAS Giannina                    26   9    3    1    26   7    8    3    2    25   11   57   
1st     PAS Giannina                    26   11   2    0    33   11   7    3    3    24   16   59   
1st     PAS Giannina                    26   10   3    0    30   14   11   1    1    27   12   67   
1st     PAS Giannina                    26   9    4    0    32   16   7    3    3    20   10   55   
1st     PAS Giannina                    26   9    2    2    27   9    10   1    2    34   15   60   
2nd     PAS Giannina                    26   9    3    1    33   15   3    5    5    14   22   44   
2nd     PAS Giannina                    26   6    6    1    29   16   6    3    4    20   18   45   
1st     PAS Giannina                    26   10   3    0    33   8    5    6    2    21   16   54   
1st     PAS Giannina                    26   11   2    0    35   13   8    2    3    23   13   61   
1st     PAS Giannina                    26   12   1    0    28   11   10   0    3    23   13   67   
2nd     PAS Giannina                    26   8    4    1    26   12   8    0    5    25   16   52   
1st     PAS Giannina                    26   11   0    2    29   12   10   2    1    30   16   65   
1st     PAS Giannina                    26   8    3    2    30   19   9    2    2    30   17   56   
1st     PAS Giannina                    26   10   2    1    28   13   6    5    2    24   17   55   
1st     PAS Giannina                    26   11   1    1    37   12   7    3    3    22   15   58   
1st     PAS Giannina                    26   12   1    0    34   12   7    2    4    30   15   60   
4th     PAS Giannina                    26   8    2    3    27   13   5    2    6    15   16   43   
1st     PAS Giannina                    26   10   3    0    31   12   6    3    4    20   19   54   
3rd     PAS Giannina                    26   8    2    3    20   11   5    4    4    21   21   45   
2nd     PAS Giannina                    26   9    2    2    31   12   7    3    3    16   12   53   
2nd     PAS Giannina                    26   7    3    3    27   15   9    3    1    26   9    54   
2nd     PAS Giannina                    26   10   2    1    32   10   5    2    6    16   23   49   
1st     PAS Giannina                    26   10   0    3    36   12   6    4    3    24   19   52   
2nd     PAS Giannina                    26   8    3    2    29   13   8    3    2    28   20   54   
1st     PAS Giannina                    26   11   1    1    28   13   9    2    2    27   12   63   
1st     PAS Giannina                    26   11   2    0    34   10   4    4    5    20   16   51   
1st     PAS Giannina                    26   11   2    0    31   14   7    4    2    24   13   60   
2nd     PAS Giannina                    26   9    3    1    24   10   5    4    4    19   19   49   
4th     PAS Giannina                    26   7    3    3    26   16   5    5    3    23   14   44   
1st     PAS Giannina                    26   10   1    2    27   11   10   3    0    25   9    64   
3rd     PAS Giannina                    26   8    2    3    28   14   5    5    3    25   16   46   
1st     PAS Giannina                    26   11   0    2    28   10   6    4    3    24   18   55   
2nd     PAS Giannina                    26   10   2    1    33   14   6    4    3    23   19   54   