4th     PAS Giannina                    26   9    3    1    28   12   2    6    5    10   17   42
10th    PAS Giannina                    26   3    6    4    22   20   5    1    7    12   18   31
4th     PAS Giannina                    26   8    1    4    25   18   3    5    5    14   18   39
3rd     PAS Giannina                    26   8    3    2    25   16   5    3    5    14   14   45
3rd     PAS Giannina                    26   9    0    4    28   21   4    3    6    17   16   42
4th     PAS Giannina                    26   9    2    2    26   12   4    2    7    14   17   43
5th     PAS Giannina                    26   6    1    6    20   20   6    2    5    14   17   39
8th     PAS Giannina                    26   7    3    3    26   18   2    6    5    12   16   36
1st     PAS Giannina                    26   8    3    2    19   8    5    5    3    18   16   47
4th     PAS Giannina                    26   8    4    1    28   10   4    3    6    11   17   43
7th     PAS Giannina                    26   8    2    3    26   16   1    6    6    14   24   35
9th     PAS Giannina                    26   6    3    4    23   16   2    6    5    11   17   33
5th     PAS Giannina                    26   8    4    1    27   14   2    6    5    19   20   40
8th     PAS Giannina                    26   9    2    2    26   15   1    4    8    12   23   36
3rd     PAS Giannina                    26   9    3    1    24   8    3    3    7    13   20   42
4th     PAS Giannina                    26   9    1    3    20   9    4    3    6    16   19   43
6th     PAS Giannina                    26   7    1    5    24   11   4    3    6    13   17   37
11th    PAS Giannina                    26   6    3    4    19   16   2    4    7    17   19   31
12th    PAS Giannina                    26   5    4    4    19   18   1    5    7    11   20   27
9th     PAS Giannina                    26   7    3    3    28   21   3    0    10   9    21   33
5th     PAS Giannina                    26   10   1    2    29   15   1    5    7    10   21   39
3rd     PAS Giannina                    26   7    5    1    26   14   6    3    4    15   13   47
3rd     PAS Giannina                    26   8    4    1    23   11   5    5    3    20   13   48
10th    PAS Giannina                    26   7    4    2    23   12   2    1    10   9    21   32
9th     PAS Giannina                    26   5    5    3    21   18   3    5    5    15   19   34
3rd     PAS Giannina                    26   8    5    0    32   16   3    5    5    16   22   43
12th    PAS Giannina                    26   4    3    6    15   20   1    3    9    13   20   21
9th     PAS Giannina                    26   7    3    3    24   17   3    2    8    9    26   35
1st     PAS Giannina                    26   10   3    0    27   9    4    7    2    18   14   52
7th     PAS Giannina                    26   7    1    5    15   12   2    5    6    12   17   33
9th     PAS Giannina                    26   7    3    3    17   10   3    3    7    14   24   36
2nd     PAS Giannina                    26   10   1    2    24   12   7    4    2    17   10   56
7th     PAS Giannina                    26   7    3    3    27   17   2    6    5    17   24   36
4th     PAS Giannina                    26   9    2    2    29   16   2    6    5    20   19   41
11th    PAS Giannina                    26   5    4    4    23   19   2    2    9    15   25   27
8th     PAS Giannina                    26   5    4    4    22   21   5    2    6    15   20   36
2nd     PAS Giannina                    26   10   2    1    32   16   5    4    4    14   11   51
5th     PAS Giannina                    26   7    5    1    26   11   2    4    7    17   22   36
2nd     PAS Giannina                    26   11   1    1    28   12   5    3    5    15   14   52
1st     PAS Giannina                    26   9    3    1    26   9    5    6    2    15   11   51
7th     PAS Giannina                    26   6    3    4    23   19   5    1    7    22   21   37
7th     PAS Giannina                    26   6    4    3    20   13   3    5    5    17   20   36
4th     PAS Giannina                    26   10   0    3    32   19   3    5    5    15   17   44
2nd     PAS Giannina                    26   8    4    1    25   14   4    4    5    18   22   44
5th     PAS Giannina                    26   10   2    1    25   14   2    3    8    9    17   41
2nd     PAS Giannina                    26   8    2    3    22   9    6    4    3    20   18   48
4th     PAS Giannina                    26   10   3    0    31   8    3    3    7    17   26   45
1st     PAS Giannina                    26   11   1    1    26   12   6    5    2    17   13   57
2nd     PAS Giannina                    26   8    1    4    20   10   6    4    3    19   12   47
5th     PAS Giannina                    26   9    1    3    29   15   4    2    7    13   16   42
8th     PAS Giannina                    26   5    5    3    20   17   4    3    6    13   20   35
4th     PAS Giannina                    26   8    3    2    25   15   2    9    2    13   12   42
8th     PAS Giannina                    26   9    2    2    27   14   1    3    9    13   28   35
11th    PAS Giannina                    26   6    2    5    20   18   3    3    7    17   21   32
2nd     PAS Giannina                    26   9    2    2    28   17   6    4    3    18   13   51
2nd     PAS Giannina                    26   7    4    2    25   18   6    4    3    22   16   47
2nd     PAS Giannina                    26   10   1    2    23   10   4    5    4    17   17   48
7th     PAS Giannina                    26   8    2    3    24   18   2    3    8    15   23   35
4th     PAS Giannina                    26   9    2    2    29   13   4    1    8    10   13   42
4th     PAS Giannina                    26   10   1    2    26   16   3    3    7    11   21   43
2nd     PAS Giannina                    26   8    3    2    20   8    5    3    5    16   17   45
3rd     PAS Giannina                    26   8    4    1    24   9    4    4    5    9    12   44
6th     PAS Giannina                    26   7    5    1    22   11   3    3    7    14   20   38
2nd     PAS Giannina                    26   6    5    2    25   18   7    3    3    16   10   47
10th    PAS Giannina                    26   6    5    2    20   13   2    3    8    8    20   32
6th     PAS Giannina                    26   9    2    2    27   17   3    1    9    11   28   39
4th     PAS Giannina                    26   8    3    2    29   11   5    2    6    17   19   44
4th     PAS Giannina                    26   5    5    3    21   17   5    4    4    14   14   39
8th     PAS Giannina                    26   7    4    2    27   14   2    3    8    13   19   34
9th     PAS Giannina                    26   8    3    2    31   17   1    4    8    10   22   34
2nd     PAS Giannina                    26   10   1    2    27   11   6    2    5    14   13   51
2nd     PAS Giannina                    26   5    6    2    19   14   7    2    4    24   19   44
4th     PAS Giannina                    26   8    2    3    23   12   4    3    6    16   18   41
8th     PAS Giannina                    26   7    4    2    25   19   3    1    9    14   25   35
3rd     PAS Giannina                    26   9    3    1    29   15   4    3    6    19   24   45
3rd     PAS Giannina                    26   7    4    2    25   10   5    5    3    15   13   45
8th     PAS Giannina                    26   5    2    6    23   19   5    1    7    11   17   33
5th     PAS Giannina                    26   7    2    4    21   19   4    3    6    13   18   38
4th     PAS Giannina                    26   7    3    3    27   17   4    4    5    20   19   40
3rd     PAS Giannina                    26   7    4    2    27   15   5    3    5    20   16   43
3rd     PAS Giannina                    26   7    3    3    25   15   5    4    4    21   18   43
9th     PAS Giannina                    26   6    3    4    26   19   4    4    5    15   17   37
3rd     PAS Giannina                    26   7    4    2    28   14   4    2    7    12   20   39
5th     PAS Giannina                    26   9    1    3    30   16   1    5    7    10   17   36
2nd     PAS Giannina                    26   10   1    2    20   10   3    3    7    15   28   43
2nd     PAS Giannina                    26   9    2    2    31   18   6    2    5    15   9    49
2nd     PAS Giannina                    26   7    4    2    24   18   5    4    4    21   18   44
5th     PAS Giannina                    26   7    3    3    25   13   4    3    6    11   19   39
8th     PAS Giannina                    26   7    4    2    28   19   3    3    7    14   21   37
13th     PAS Giannina                    26   4    5    4    24   24   2    3    8    8    18   26
4th     PAS Giannina                    26   9    1    3    30   12   4    5    4    16   19   45
3rd     PAS Giannina                    26   8    4    1    26   12   6    2    5    21   19   48
9th     PAS Giannina                    26   7    4    2    26   15   2    3    8    15   22   34
2nd     PAS Giannina                    26   10   2    1    32   14   5    4    4    16   18   51
3rd     PAS Giannina                    26   8    2    3    27   15   5    4    4    19   19   45
2nd     PAS Giannina                    26   10   2    1    29   11   4    2    7    15   21   46
3rd     PAS Giannina                    26   7    5    1    26   16   5    4    4    18   12   45
10th    PAS Giannina                    26   6    3    4    23   14   3    2    8    10   20   32
3rd     PAS Giannina                    26   9    1    3    24   18   4    4    5    12   15   44
9th     PAS Giannina                    26   5    6    2    21   14   2    5    6    12   17   32