3rd     PAS Giannina                    26   11   0    2    29   8    5    3    5    16   15   51   
2nd     PAS Giannina                    26   11   1    1    35   13   5    4    4    18   16   53   
1st     PAS Giannina                    26   9    3    1    24   8    7    3    3    23   17   54   
2nd     PAS Giannina                    26   10   1    2    25   8    4    5    4    17   16   48   
1st     PAS Giannina                    26   8    3    2    33   15   7    2    4    15   10   50   
2nd     PAS Giannina                    26   10   1    2    35   10   6    4    3    23   16   53   
1st     PAS Giannina                    26   8    4    1    32   17   7    4    2    22   11   53   
2nd     PAS Giannina                    26   10   1    2    27   13   7    1    5    22   17   53   
1st     PAS Giannina                    26   7    4    2    26   14   8    2    3    20   12   51   
3rd     PAS Giannina                    26   7    3    3    27   16   5    3    5    22   22   42   
6th     PAS Giannina                    26   7    4    2    24   14   4    2    7    21   20   39   
2nd     PAS Giannina                    26   10   1    2    28   13   6    3    4    18   19   52   
1st     PAS Giannina                    26   10   1    2    27   12   5    7    1    22   16   53   
1st     PAS Giannina                    26   8    5    0    25   8    7    4    2    21   10   54   
4th     PAS Giannina                    26   7    4    2    33   18   5    4    4    16   15   44   
4th     PAS Giannina                    26   11   1    1    31   11   3    3    7    17   28   46   
1st     PAS Giannina                    26   10   0    3    33   18   7    2    4    23   14   53   
2nd     PAS Giannina                    26   7    3    3    21   14   8    2    3    17   13   50   
1st     PAS Giannina                    26   9    3    1    22   9    8    3    2    27   16   57   
4th     PAS Giannina                    26   8    3    2    30   22   5    4    4    15   13   46   
2nd     PAS Giannina                    26   9    2    2    27   14   6    3    4    17   11   50   
2nd     PAS Giannina                    26   9    1    3    26   15   7    4    2    17   11   53   
1st     PAS Giannina                    26   10   1    2    33   12   8    4    1    28   18   59   
1st     PAS Giannina                    26   11   2    0    40   17   6    2    5    20   17   55   
1st     PAS Giannina                    26   11   1    1    30   8    5    2    6    18   15   51   
1st     PAS Giannina                    26   9    3    1    31   17   5    5    3    23   17   50   
3rd     PAS Giannina                    26   9    2    2    25   12   4    6    3    19   20   47   
6th     PAS Giannina                    26   5    6    2    18   10   2    6    5    13   15   33   
3rd     PAS Giannina                    26   7    3    3    24   17   3    6    4    20   20   39   
3rd     PAS Giannina                    26   11   2    0    32   7    3    4    6    12   14   48   
1st     PAS Giannina                    26   11   2    0    32   10   6    2    5    22   17   55   
4th     PAS Giannina                    26   9    2    2    30   12   4    4    5    22   17   45   
3rd     PAS Giannina                    26   10   1    2    31   17   5    2    6    17   20   48   
2nd     PAS Giannina                    26   11   2    0    31   11   6    3    4    13   12   56   
1st     PAS Giannina                    26   8    2    3    27   9    7    3    3    22   20   50   
3rd     PAS Giannina                    26   8    3    2    27   11   4    4    5    18   19   43   
4th     PAS Giannina                    26   9    3    1    23   15   2    8    3    13   16   44   
2nd     PAS Giannina                    26   9    3    1    28   12   4    5    4    19   17   47   
1st     PAS Giannina                    26   11   1    1    35   12   8    3    2    21   12   61   
2nd     PAS Giannina                    26   9    2    2    24   10   4    4    5    18   20   45   
1st     PAS Giannina                    26   12   1    0    28   7    7    2    4    23   17   60   
3rd     PAS Giannina                    26   8    5    0    27   9    5    2    6    17   18   46   
5th     PAS Giannina                    26   7    2    4    22   16   3    7    3    14   13   39   
1st     PAS Giannina                    26   6    7    0    27   18   7    4    2    22   9    50   
6th     PAS Giannina                    26   7    2    4    24   17   3    6    4    15   15   38   
1st     PAS Giannina                    26   8    3    2    26   16   7    2    4    27   19   50   
1st     PAS Giannina                    26   11   2    0    36   10   6    2    5    18   18   55   
1st     PAS Giannina                    26   10   2    1    33   12   9    1    3    22   12   60   
1st     PAS Giannina                    26   10   3    0    37   16   8    3    2    25   11   60   
5th     PAS Giannina                    26   7    2    4    23   12   5    6    2    19   15   44   
2nd     PAS Giannina                    26   8    5    0    26   10   7    2    4    22   15   52   
2nd     PAS Giannina                    26   8    3    2    29   15   5    4    4    17   14   46   
1st     PAS Giannina                    26   11   1    1    34   14   7    4    2    22   15   59   
1st     PAS Giannina                    26   11   0    2    31   9    4    5    4    19   20   50   
6th     PAS Giannina                    26   7    3    3    21   11   4    3    6    18   21   39   
1st     PAS Giannina                    26   9    3    1    28   13   7    3    3    22   15   54   
2nd     PAS Giannina                    26   9    3    1    27   11   6    5    2    23   15   53   
6th     PAS Giannina                    26   7    4    2    23   15   1    7    5    14   20   35   
1st     PAS Giannina                    26   9    3    1    32   12   8    3    2    26   13   57   
1st     PAS Giannina                    26   10   1    2    27   16   9    2    2    24   9    60   
2nd     PAS Giannina                    26   9    2    2    27   9    5    4    4    20   20   48   
1st     PAS Giannina                    26   11   2    0    32   12   8    0    5    24   16   59   
1st     PAS Giannina                    26   12   1    0    28   6    5    3    5    18   16   55   
2nd     PAS Giannina                    26   8    4    1    28   14   4    5    4    18   16   45   
1st     PAS Giannina                    26   11   0    2    38   18   7    2    4    29   21   56   
2nd     PAS Giannina                    26   8    3    2    31   11   6    1    6    23   17   46   
2nd     PAS Giannina                    26   11   1    1    31   9    3    5    5    18   21   48   
1st     PAS Giannina                    26   10   1    2    29   14   8    3    2    26   15   58   
1st     PAS Giannina                    26   10   1    2    24   11   7    1    5    25   17   53   
4th     PAS Giannina                    26   8    3    2    22   12   5    3    5    19   16   45   
2nd     PAS Giannina                    26   8    4    1    31   17   7    3    3    17   10   52   
6th     PAS Giannina                    26   9    1    3    24   13   5    2    6    20   19   45   
1st     PAS Giannina                    26   9    2    2    34   19   8    3    2    27   14   56   
2nd     PAS Giannina                    26   10   1    2    28   14   6    4    3    15   13   53   
1st     PAS Giannina                    26   10   3    0    24   9    5    4    4    19   22   52   
1st     PAS Giannina                    26   11   1    1    25   10   7    3    3    22   14   58   
5th     PAS Giannina                    26   5    6    2    22   17   6    2    5    15   14   41   
1st     PAS Giannina                    26   12   1    0    35   7    5    5    3    23   18   57   
2nd     PAS Giannina                    26   9    3    1    25   7    5    6    2    18   14   51   
3rd     PAS Giannina                    26   8    3    2    25   9    5    3    5    23   19   45   
3rd     PAS Giannina                    26   7    4    2    23   12   4    6    3    16   19   43   
2nd     PAS Giannina                    26   8    4    1    30   12   6    2    5    18   15   48   
1st     PAS Giannina                    26   9    2    2    33   10   8    1    4    20   16   54   
3rd     PAS Giannina                    26   10   2    1    23   7    5    3    5    20   21   50   
2nd     PAS Giannina                    26   9    2    2    24   12   5    5    3    16   10   49   
1st     PAS Giannina                    26   10   1    2    25   13   8    2    3    20   11   57   
4th     PAS Giannina                    26   6    5    2    31   25   4    2    7    11   15   37   
4th     PAS Giannina                    26   11   1    1    28   7    3    3    7    15   21   46   
1st     PAS Giannina                    26   9    4    0    37   16   7    4    2    27   18   56   
3rd     PAS Giannina                    26   8    3    2    27   15   5    4    4    23   18   46   
6th     PAS Giannina                    26   8    4    1    26   11   3    3    7    11   18   40   
4th     PAS Giannina                    26   6    3    4    24   17   5    6    2    18   13   42   
1st     PAS Giannina                    26   10   2    1    21   7    5    4    4    17   14   51   
3rd     PAS Giannina                    26   8    2    3    27   13   6    2    5    12   10   46   
3rd     PAS Giannina                    26   10   1    2    36   15   5    2    6    17   21   48   
3rd     PAS Giannina                    26   8    1    4    21   16   7    2    4    21   15   48   
1st     PAS Giannina                    26   10   3    0    25   9    8    2    3    24   13   59   
2nd     PAS Giannina                    26   10   1    2    30   17   6    4    3    22   14   53   
1st     PAS Giannina                    26   11   1    1    34   12   6    5    2    22   13   57   
3rd     PAS Giannina                    26   6    3    4    19   16   9    1    3    22   14   49   