5th     PAS Giannina                    26   9    4    0    37   22   2    2    9    19   35   39   
5th     PAS Giannina                    26   7    3    3    32   20   4    2    7    25   27   38   
4th     PAS Giannina                    26   7    3    3    34   24   4    4    5    27   28   40   
3rd     PAS Giannina                    26   7    4    2    31   23   6    1    6    25   22   44   
3rd     PAS Giannina                    26   8    2    3    41   22   4    4    5    27   31   42   
3rd     PAS Giannina                    26   8    3    2    41   22   6    2    5    27   22   47   
9th     PAS Giannina                    26   5    3    5    26   28   5    2    6    25   27   35   
1st     PAS Giannina                    26   9    3    1    37   23   5    2    6    28   31   47   
4th     PAS Giannina                    26   7    3    3    40   22   4    5    4    30   33   41   
8th     PAS Giannina                    26   7    1    5    36   28   2    5    6    22   28   33   
3rd     PAS Giannina                    26   7    4    2    31   20   5    3    5    32   28   43   
3rd     PAS Giannina                    26   7    1    5    27   29   6    2    5    18   19   42   
6th     PAS Giannina                    26   7    2    4    34   29   4    2    7    29   39   37   
7th     PAS Giannina                    26   7    3    3    32   22   2    5    6    27   33   35   
5th     PAS Giannina                    26   6    6    1    34   24   4    3    6    23   29   39   
6th     PAS Giannina                    26   5    2    6    29   29   6    0    7    22   27   35   
12th    PAS Giannina                    26   7    1    5    34   34   2    2    9    22   32   30   
6th     PAS Giannina                    26   9    1    3    40   21   3    2    8    16   26   39   
6th     PAS Giannina                    26   7    3    3    34   27   4    1    8    26   34   37   
8th     PAS Giannina                    26   6    2    5    21   20   4    2    7    26   27   34   
2nd     PAS Giannina                    26   9    2    2    30   20   9    1    3    32   23   57   
7th     PAS Giannina                    26   7    4    2    34   26   2    5    6    23   29   36   
14th    PAS Giannina                    26   7    3    3    32   25   0    4    9    24   37   28   
3rd     PAS Giannina                    26   8    2    3    32   23   4    3    6    29   33   41   
3rd     PAS Giannina                    26   9    0    4    34   23   5    1    7    21   27   43   
9th     PAS Giannina                    26   6    1    6    27   25   4    3    6    21   27   34   
5th     PAS Giannina                    26   8    1    4    32   22   4    5    4    27   30   42   
4th     PAS Giannina                    26   10   2    1    39   15   3    4    6    28   35   45   
6th     PAS Giannina                    26   8    0    5    39   24   5    2    6    20   26   41   
4th     PAS Giannina                    26   7    4    2    30   27   5    2    6    27   31   42   
5th     PAS Giannina                    26   7    3    3    40   32   4    2    7    34   35   38   
3rd     PAS Giannina                    26   9    1    3    40   21   3    4    6    25   27   41   
2nd     PAS Giannina                    26   8    3    2    38   25   6    1    6    29   30   46   
3rd     PAS Giannina                    26   9    2    2    42   23   5    2    6    23   28   46   
5th     PAS Giannina                    26   9    0    4    40   26   5    1    7    28   35   43   
10th    PAS Giannina                    26   7    1    5    36   31   2    3    8    19   30   31   
12th    PAS Giannina                    26   5    5    3    29   25   3    1    9    24   33   30   
9th     PAS Giannina                    26   8    0    5    42   27   2    3    8    25   39   33   
3rd     PAS Giannina                    26   8    3    2    37   22   5    3    5    27   30   45   
8th     PAS Giannina                    26   5    4    4    32   23   4    3    6    28   27   34   
6th     PAS Giannina                    26   7    4    2    42   30   3    4    6    25   29   38   
10th    PAS Giannina                    26   6    4    3    40   31   3    0    10   21   36   31   
4th     PAS Giannina                    26   6    4    3    33   28   6    3    4    26   22   43   
2nd     PAS Giannina                    26   10   3    0    45   19   2    5    6    22   26   44   
6th     PAS Giannina                    26   6    3    4    33   28   5    3    5    31   24   39   
6th     PAS Giannina                    26   7    4    2    34   22   4    1    8    20   24   38   
9th     PAS Giannina                    26   5    3    5    32   32   3    4    6    24   31   31   
3rd     PAS Giannina                    26   7    3    3    32   24   5    1    7    30   35   40   
4th     PAS Giannina                    26   7    4    2    41   22   4    4    5    27   32   41   
12th    PAS Giannina                    26   5    2    6    28   29   2    3    8    28   38   26   
9th     PAS Giannina                    26   6    4    3    32   21   2    3    8    21   33   31   
5th     PAS Giannina                    26   8    3    2    37   25   4    1    8    26   30   40   
4th     PAS Giannina                    26   7    3    3    28   21   5    2    6    31   29   41   
4th     PAS Giannina                    26   8    1    4    34   29   4    1    8    28   39   38   
5th     PAS Giannina                    26   9    2    2    34   15   2    7    4    32   37   42   
12th    PAS Giannina                    26   7    0    6    38   29   0    6    7    15   29   27   
12th    PAS Giannina                    26   7    0    6    38   32   2    2    9    18   34   29   
7th     PAS Giannina                    26   6    1    6    28   26   5    3    5    28   26   37   
1st     PAS Giannina                    26   9    1    3    32   17   6    4    3    35   27   50   
7th     PAS Giannina                    26   8    0    5    39   29   2    3    8    20   32   33   
4th     PAS Giannina                    26   9    1    3    38   22   3    3    7    24   31   40   
8th     PAS Giannina                    26   6    1    6    27   26   5    1    7    24   32   35   
11th    PAS Giannina                    26   5    4    4    34   28   4    1    8    22   30   32   
1st     PAS Giannina                    26   11   0    2    39   13   4    3    6    26   29   48   
5th     PAS Giannina                    26   6    2    5    35   28   6    4    3    28   24   42   
6th     PAS Giannina                    26   9    2    2    31   16   3    2    8    22   33   40   
7th     PAS Giannina                    26   7    3    3    34   26   4    1    8    22   34   37   
5th     PAS Giannina                    26   8    3    2    33   20   3    3    7    24   30   39   
3rd     PAS Giannina                    26   10   1    2    37   14   4    2    7    21   26   45   
14th    PAS Giannina                    26   6    1    6    35   29   1    3    9    14   28   25   
7th     PAS Giannina                    26   7    2    4    29   24   4    3    6    31   33   38   
2nd     PAS Giannina                    26   9    2    2    31   20   6    1    6    28   34   48   
7th     PAS Giannina                    26   6    2    5    35   30   3    4    6    22   29   33   
7th     PAS Giannina                    26   9    1    3    31   20   2    3    8    19   32   37   
7th     PAS Giannina                    26   7    3    3    35   24   3    3    7    28   34   36   
6th     PAS Giannina                    26   8    1    4    38   20   4    0    9    30   36   37   
8th     PAS Giannina                    26   9    0    4    36   33   3    2    8    23   34   38   
13th    PAS Giannina                    26   5    3    5    26   24   3    2    8    27   42   29   
2nd     PAS Giannina                    26   10   2    1    32   19   5    1    7    23   28   48   
5th     PAS Giannina                    26   9    2    2    38   25   2    6    5    27   33   41   
1st     PAS Giannina                    26   9    4    0    35   17   4    5    4    21   19   48   
6th     PAS Giannina                    26   8    3    2    35   25   4    1    8    25   33   40   
3rd     PAS Giannina                    26   7    6    0    46   30   5    4    4    29   27   46   
2nd     PAS Giannina                    26   9    4    0    41   18   5    2    6    26   35   48   
3rd     PAS Giannina                    26   9    3    1    40   21   4    3    6    23   27   45   
5th     PAS Giannina                    26   9    2    2    35   26   3    5    5    29   32   43   
8th     PAS Giannina                    26   6    2    5    28   30   4    5    4    26   32   37   
3rd     PAS Giannina                    26   9    4    0    45   23   4    2    7    22   24   45   
3rd     PAS Giannina                    26   8    1    4    35   25   6    2    5    26   27   45   
2nd     PAS Giannina                    26   9    3    1    37   21   4    3    6    24   32   45   
7th     PAS Giannina                    26   6    6    1    28   20   4    3    6    31   33   39   
2nd     PAS Giannina                    26   6    4    3    29   20   6    4    3    22   17   44   
6th     PAS Giannina                    26   7    3    3    33   25   5    1    7    21   28   40   
13th    PAS Giannina                    26   5    4    4    29   24   2    2    9    23   33   27   
9th     PAS Giannina                    26   7    4    2    34   28   2    4    7    24   31   35   
9th     PAS Giannina                    26   6    2    5    30   26   3    3    7    32   35   32   
6th     PAS Giannina                    26   7    3    3    31   19   3    5    5    23   31   38   
7th     PAS Giannina                    26   8    2    3    39   22   2    4    7    32   40   36   
1st     PAS Giannina                    26   11   1    1    52   26   7    1    5    30   29   56   
3rd     PAS Giannina                    26   8    2    3    29   20   6    1    6    34   30   45   