1st     PAS Giannina                    26   10   2    1    31   12   9    2    2    30   14   61   
1st     PAS Giannina                    26   12   1    0    37   13   8    3    2    25   14   64   
1st     PAS Giannina                    26   11   1    1    36   11   7    2    4    23   11   57   
1st     PAS Giannina                    26   9    3    1    27   9    10   1    2    31   10   61   
1st     PAS Giannina                    26   10   3    0    30   11   7    5    1    26   9    59   
1st     PAS Giannina                    26   8    5    0    31   12   9    3    1    27   11   59   
1st     PAS Giannina                    26   11   2    0    31   9    6    6    1    23   10   59   
1st     PAS Giannina                    26   11   2    0    33   8    6    3    4    21   11   56   
1st     PAS Giannina                    26   11   0    2    30   11   9    2    2    29   12   62   
1st     PAS Giannina                    26   9    2    2    32   10   10   1    2    31   9    60   
1st     PAS Giannina                    26   12   1    0    32   12   8    3    2    28   14   64   
1st     PAS Giannina                    26   12   0    1    36   8    7    3    3    25   13   60   
2nd     PAS Giannina                    26   9    4    0    37   13   5    3    5    18   17   49   
1st     PAS Giannina                    26   12   0    1    37   14   7    2    4    16   10   59   
2nd     PAS Giannina                    26   12   1    0    35   6    6    3    4    21   13   58   
2nd     PAS Giannina                    26   10   2    1    32   13   7    4    2    25   12   57   
1st     PAS Giannina                    26   11   1    1    41   12   6    4    3    23   17   56   
1st     PAS Giannina                    26   10   3    0    33   12   10   3    0    31   11   66   
1st     PAS Giannina                    26   11   2    0    39   13   9    2    2    23   10   64   
1st     PAS Giannina                    26   11   0    2    35   15   8    3    2    25   8    60   
1st     PAS Giannina                    26   12   1    0    39   14   11   1    1    32   12   71   
1st     PAS Giannina                    26   9    3    1    28   7    7    5    1    26   15   56   
1st     PAS Giannina                    26   9    4    0    28   6    9    2    2    31   9    60   
1st     PAS Giannina                    26   9    4    0    24   10   8    4    1    22   9    59   
1st     PAS Giannina                    26   9    3    1    25   9    6    3    4    18   13   51   
1st     PAS Giannina                    26   13   0    0    36   13   10   2    1    30   11   71   
1st     PAS Giannina                    26   10   1    2    33   14   8    4    1    25   16   59   
1st     PAS Giannina                    26   11   1    1    36   15   8    3    2    25   10   61   
1st     PAS Giannina                    26   12   1    0    35   7    9    2    2    32   11   66   
1st     PAS Giannina                    26   12   0    1    39   14   7    5    1    28   12   62   
1st     PAS Giannina                    26   11   2    0    38   17   10   1    2    30   12   66   
1st     PAS Giannina                    26   11   1    1    34   9    8    3    2    23   7    61   
1st     PAS Giannina                    26   11   1    1    37   12   9    2    2    33   13   63   
1st     PAS Giannina                    26   8    1    4    23   10   9    2    2    25   10   54   
2nd     PAS Giannina                    26   9    1    3    29   15   7    4    2    29   17   53   
1st     PAS Giannina                    26   6    6    1    26   11   8    4    1    24   7    52   
1st     PAS Giannina                    26   12   1    0    33   9    8    1    4    31   15   62   
1st     PAS Giannina                    26   12   0    1    36   12   9    2    2    30   11   65   
1st     PAS Giannina                    26   9    4    0    31   12   11   1    1    44   14   65   
1st     PAS Giannina                    26   11   0    2    32   10   9    3    1    32   9    63   
1st     PAS Giannina                    26   11   2    0    33   9    8    4    1    25   12   63   
1st     PAS Giannina                    26   12   1    0    35   9    9    4    0    29   14   68   
2nd     PAS Giannina                    26   10   3    0    31   11   7    3    3    17   8    57   
1st     PAS Giannina                    26   11   1    1    28   11   7    4    2    23   14   59   
1st     PAS Giannina                    26   12   0    1    35   13   9    3    1    24   9    66   
1st     PAS Giannina                    26   12   0    1    30   10   10   1    2    29   13   67   
1st     PAS Giannina                    26   10   3    0    39   12   7    4    2    26   13   58   
1st     PAS Giannina                    26   12   1    0    33   10   9    2    2    28   9    66   
1st     PAS Giannina                    26   9    2    2    26   9    8    3    2    18   8    56   
1st     PAS Giannina                    26   10   3    0    30   8    5    3    5    19   15   51   
1st     PAS Giannina                    26   11   2    0    35   10   6    4    3    22   14   57   
1st     PAS Giannina                    26   11   1    1    33   11   7    3    3    25   19   58   
1st     PAS Giannina                    26   11   1    1    37   11   6    6    1    25   14   58   
1st     PAS Giannina                    26   11   1    1    40   15   10   2    1    34   13   66   
1st     PAS Giannina                    26   13   0    0    41   11   9    2    2    27   8    68   
1st     PAS Giannina                    26   11   2    0    41   12   11   2    0    26   8    70   
1st     PAS Giannina                    26   12   1    0    42   10   9    2    2    30   12   66   
1st     PAS Giannina                    26   9    2    2    37   12   10   2    1    34   15   61   
1st     PAS Giannina                    26   11   1    1    30   8    9    3    1    24   8    64   
1st     PAS Giannina                    26   13   0    0    39   12   7    2    4    25   16   62   
1st     PAS Giannina                    26   9    3    1    34   12   8    3    2    22   7    57   
1st     PAS Giannina                    26   11   1    1    37   13   9    1    3    30   14   62   
1st     PAS Giannina                    26   10   2    1    28   8    7    3    3    29   19   56   
1st     PAS Giannina                    26   13   0    0    37   10   11   0    2    29   11   72   
1st     PAS Giannina                    26   11   2    0    35   12   10   2    1    30   11   67   
1st     PAS Giannina                    26   10   1    2    37   13   9    1    3    27   11   59   
1st     PAS Giannina                    26   10   3    0    33   10   9    2    2    26   13   62   
2nd     PAS Giannina                    26   10   2    1    33   15   7    4    2    22   11   57   
1st     PAS Giannina                    26   11   1    1    30   9    8    3    2    29   15   61   
1st     PAS Giannina                    26   12   0    1    32   6    7    5    1    27   11   62   
1st     PAS Giannina                    26   12   1    0    33   13   10   3    0    31   9    70   
1st     PAS Giannina                    26   11   1    1    25   6    8    3    2    25   13   61   
1st     PAS Giannina                    26   11   2    0    37   12   6    5    2    25   14   58   
1st     PAS Giannina                    26   10   2    1    31   10   7    3    3    23   12   56   
1st     PAS Giannina                    26   12   1    0    37   10   9    2    2    25   11   66   
1st     PAS Giannina                    26   11   2    0    31   7    10   3    0    33   8    68   
1st     PAS Giannina                    26   8    4    1    30   13   10   2    1    30   10   60   
1st     PAS Giannina                    26   13   0    0    38   7    7    4    2    24   17   64   
1st     PAS Giannina                    26   8    5    0    28   10   8    2    3    26   14   55   
1st     PAS Giannina                    26   12   0    1    38   18   5    5    3    20   14   56   
1st     PAS Giannina                    26   11   1    1    38   14   8    4    1    25   13   62   
1st     PAS Giannina                    26   11   2    0    36   12   10   1    2    24   9    66   
1st     PAS Giannina                    26   10   3    0    35   10   9    2    2    28   16   62   
2nd     PAS Giannina                    26   8    4    1    23   12   10   1    2    28   10   59   
1st     PAS Giannina                    26   10   1    2    31   11   8    2    3    27   10   57   
1st     PAS Giannina                    26   9    1    3    31   13   9    2    2    27   11   57   
1st     PAS Giannina                    26   11   2    0    29   11   7    4    2    26   12   60   
2nd     PAS Giannina                    26   9    0    4    29   15   7    2    4    22   13   50   
1st     PAS Giannina                    26   11   1    1    30   9    11   1    1    31   12   68   
2nd     PAS Giannina                    26   9    3    1    32   12   6    2    5    20   16   50   
2nd     PAS Giannina                    26   9    3    1    26   11   6    5    2    28   21   53   
1st     PAS Giannina                    26   10   3    0    29   12   12   0    1    32   8    69   
1st     PAS Giannina                    26   11   0    2    32   14   9    3    1    30   14   63   
2nd     PAS Giannina                    26   9    2    2    34   13   6    3    4    22   13   50   
1st     PAS Giannina                    26   11   1    1    34   9    9    3    1    31   13   64   
1st     PAS Giannina                    26   12   1    0    35   9    8    3    2    24   14   64   
1st     PAS Giannina                    26   12   1    0    36   12   8    4    1    20   8    65   
1st     PAS Giannina                    26   9    3    1    33   15   9    2    2    33   17   59   
1st     PAS Giannina                    26   10   3    0    28   11   12   1    0    37   7    70   
3rd     PAS Giannina                    26   8    3    2    35   15   6    3    4    20   15   48   