7th     PAS Giannina                    26   10   0    3    30   18   2    2    9    16   24   38   
6th     PAS Giannina                    26   9    1    3    32   19   2    4    7    13   21   38   
10th    PAS Giannina                    26   4    5    4    28   29   3    5    5    23   22   31   
9th     PAS Giannina                    26   6    3    4    22   19   3    3    7    13   22   33   
10th    PAS Giannina                    26   5    3    5    30   30   2    5    6    16   22   29   
5th     PAS Giannina                    26   10   2    1    38   16   2    4    7    15   20   42   
7th     PAS Giannina                    26   9    2    2    28   20   2    3    8    13   27   38   
5th     PAS Giannina                    26   6    6    1    27   17   5    1    7    19   23   40   
13th    PAS Giannina                    26   3    6    4    20   22   2    2    9    14   27   23   
10th    PAS Giannina                    26   5    2    6    22   23   3    3    7    16   27   29   
8th     PAS Giannina                    26   6    3    4    31   26   3    3    7    18   24   33   
7th     PAS Giannina                    26   9    1    3    31   19   1    5    7    11   27   36   
12th    PAS Giannina                    26   6    2    5    21   21   1    2    10   14   38   25   
7th     PAS Giannina                    26   8    3    2    28   14   2    3    8    16   29   36   
10th    PAS Giannina                    26   6    4    3    26   20   3    1    9    19   29   32   
8th     PAS Giannina                    26   5    5    3    25   18   4    4    5    19   22   36   
6th     PAS Giannina                    26   6    4    3    26   22   3    7    3    23   25   38   
6th     PAS Giannina                    26   6    2    5    24   21   3    7    3    15   16   36   
7th     PAS Giannina                    26   8    4    1    33   16   2    3    8    13   24   37   
1st     PAS Giannina                    26   11   2    0    31   15   6    1    6    23   18   54   
12th    PAS Giannina                    26   4    3    6    20   23   2    4    7    18   26   25   
2nd     PAS Giannina                    26   8    3    2    27   15   4    2    7    20   27   41   
10th    PAS Giannina                    26   5    3    5    22   20   5    2    6    17   22   35   
7th     PAS Giannina                    26   6    5    2    24   14   3    4    6    17   27   36   
7th     PAS Giannina                    26   6    4    3    24   21   4    2    7    14   21   36   
10th    PAS Giannina                    26   5    4    4    26   22   3    2    8    16   21   30   
11th    PAS Giannina                    26   4    4    5    17   17   3    4    6    15   17   29   
12th    PAS Giannina                    26   6    2    5    23   26   2    3    8    12   24   29   
12th    PAS Giannina                    26   6    3    4    24   17   1    3    9    16   31   27   
3rd     PAS Giannina                    26   7    1    5    25   16   5    4    4    26   22   41   
1st     PAS Giannina                    26   13   0    0    32   12   3    4    6    20   29   52   
4th     PAS Giannina                    26   7    2    4    28   19   5    1    7    17   24   39   
2nd     PAS Giannina                    26   9    2    2    28   15   6    2    5    22   20   49   
9th     PAS Giannina                    26   9    0    4    30   15   3    0    10   16   33   36   
7th     PAS Giannina                    26   7    6    0    25   15   1    2    10   18   31   32   
13th    PAS Giannina                    26   4    4    5    20   24   1    5    7    10   23   24   
14th    PAS Giannina                    26   5    4    4    29   22   0    1    12   13   38   20   
10th    PAS Giannina                    26   5    3    5    22   22   2    3    8    11   19   27   
10th    PAS Giannina                    26   6    3    4    25   17   1    5    7    9    19   29   
8th     PAS Giannina                    26   6    3    4    31   22   2    3    8    18   30   30   
6th     PAS Giannina                    26   7    4    2    25   19   4    4    5    15   18   41   
11th    PAS Giannina                    26   4    5    4    17   17   2    4    7    14   24   27   
12th    PAS Giannina                    26   3    7    3    25   28   3    2    8    16   29   27   
10th    PAS Giannina                    26   7    3    3    31   23   1    3    9    13   27   30   
11th    PAS Giannina                    26   8    2    3    27   20   0    4    9    13   31   30   
6th     PAS Giannina                    26   9    1    3    32   18   2    2    9    11   23   36   
7th     PAS Giannina                    26   6    2    5    22   24   5    3    5    20   21   38   
14th    PAS Giannina                    26   6    1    6    17   18   1    3    9    20   28   25   
5th     PAS Giannina                    26   10   3    0    30   14   3    2    8    16   21   44   
4th     PAS Giannina                    26   6    4    3    29   21   5    3    5    17   17   40   
6th     PAS Giannina                    26   8    3    2    35   21   2    3    8    13   26   36   
6th     PAS Giannina                    26   8    3    2    22   16   3    3    7    20   27   39   
6th     PAS Giannina                    26   8    2    3    30   17   1    7    5    15   24   36   
5th     PAS Giannina                    26   9    2    2    29   21   3    3    7    16   24   41   
8th     PAS Giannina                    26   8    3    2    31   21   2    1    10   14   28   34   
14th    PAS Giannina                    26   4    0    9    17   26   3    3    7    13   25   24   
6th     PAS Giannina                    26   8    1    4    30   21   3    3    7    17   23   37   
4th     PAS Giannina                    26   7    4    2    20   16   6    1    6    19   22   44   
5th     PAS Giannina                    26   8    2    3    30   20   3    4    6    20   26   39   
8th     PAS Giannina                    26   7    2    4    22   20   4    3    6    19   26   38   
12th    PAS Giannina                    26   5    3    5    25   25   3    3    7    15   31   30   
9th     PAS Giannina                    26   5    4    4    17   15   4    4    5    15   16   35   
6th     PAS Giannina                    26   6    4    3    24   19   4    2    7    25   27   36   
5th     PAS Giannina                    26   6    3    4    28   24   3    6    4    15   18   36   
12th    PAS Giannina                    26   5    2    6    28   25   3    3    7    18   24   29   
11th    PAS Giannina                    26   6    3    4    26   19   1    4    8    18   27   28   
5th     PAS Giannina                    26   6    2    5    29   22   5    3    5    22   21   38   
3rd     PAS Giannina                    26   4    5    4    22   20   6    3    4    21   20   38   
13th    PAS Giannina                    26   5    3    5    23   19   1    3    9    14   27   24   
13th    PAS Giannina                    26   2    5    6    25   28   3    2    8    16   26   22   
4th     PAS Giannina                    26   10   2    1    28   14   2    3    8    12   23   41   
5th     PAS Giannina                    26   7    2    4    23   20   4    5    4    25   22   40   
5th     PAS Giannina                    26   7    1    5    25   18   3    5    5    22   19   36   
11th    PAS Giannina                    26   4    6    3    23   20   2    4    7    19   30   28   
7th     PAS Giannina                    26   6    2    5    24   21   5    0    8    17   25   35   
9th     PAS Giannina                    26   6    3    4    25   22   2    4    7    22   28   31   
3rd     PAS Giannina                    26   7    3    3    23   15   4    5    4    22   24   41   
13th    PAS Giannina                    26   7    3    3    26   18   0    5    8    13   26   29   
5th     PAS Giannina                    26   8    3    2    30   22   3    6    4    18   20   42   
9th     PAS Giannina                    26   4    7    2    25   23   4    3    6    17   19   34   
7th     PAS Giannina                    26   5    5    3    21   19   5    3    5    20   23   38   
11th    PAS Giannina                    26   5    5    3    30   19   3    3    7    11   25   32   
6th     PAS Giannina                    26   8    3    2    30   16   1    4    8    11   25   34   
10th    PAS Giannina                    26   4    5    4    21   22   4    3    6    19   24   32   
10th    PAS Giannina                    26   8    1    4    28   19   1    3    9    12   24   31   
8th     PAS Giannina                    26   9    3    1    27   15   2    1    10   13   26   37   
3rd     PAS Giannina                    26   10   1    2    26   13   3    2    8    17   25   42   
4th     PAS Giannina                    26   9    1    3    28   17   2    7    4    16   19   41   
9th     PAS Giannina                    26   5    3    5    27   24   3    5    5    18   24   32   
6th     PAS Giannina                    26   8    3    2    23   15   1    7    5    11   21   37   
11th    PAS Giannina                    26   5    2    6    20   20   2    2    9    13   25   25   
2nd     PAS Giannina                    26   9    1    3    33   21   8    1    4    20   18   53   
5th     PAS Giannina                    26   9    3    1    24   14   2    3    8    13   27   39   
9th     PAS Giannina                    26   7    4    2    28   15   3    0    10   15   26   34   
8th     PAS Giannina                    26   6    4    3    27   20   3    2    8    18   30   33   
9th     PAS Giannina                    26   6    3    4    23   18   3    1    9    14   28   31   
4th     PAS Giannina                    26   8    3    2    24   15   4    3    6    15   21   42   
4th     PAS Giannina                    26   6    3    4    36   26   5    3    5    19   25   39   
8th     PAS Giannina                    26   6    4    3    26   23   3    1    9    18   28   32   
4th     PAS Giannina                    26   7    4    2    23   15   5    2    6    21   24   42   