3rd     PAS Giannina                    26   7    3    3    21   11   6    3    4    21   13   45   
2nd     PAS Giannina                    26   8    3    2    22   10   7    2    4    19   16   50   
4th     PAS Giannina                    26   8    2    3    26   12   3    5    5    13   16   40   
2nd     PAS Giannina                    26   8    3    2    26   13   5    5    3    22   18   47   
1st     PAS Giannina                    26   11   1    1    30   12   7    5    1    22   9    60   
1st     PAS Giannina                    26   10   3    0    23   7    5    5    3    15   15   53   
2nd     PAS Giannina                    26   9    3    1    24   7    6    3    4    15   10   51   
1st     PAS Giannina                    26   9    3    1    22   6    4    7    2    15   12   49   
2nd     PAS Giannina                    26   12   1    0    29   9    4    3    6    13   16   52   
1st     PAS Giannina                    26   12   0    1    32   5    8    3    2    21   13   63   
3rd     PAS Giannina                    26   9    3    1    30   12   2    6    5    7    10   42   
1st     PAS Giannina                    26   9    3    1    29   11   8    3    2    23   15   57   
2nd     PAS Giannina                    26   9    4    0    28   9    5    5    3    21   15   51   
1st     PAS Giannina                    26   12   1    0    31   8    10   1    2    30   13   68   
1st     PAS Giannina                    26   11   1    1    31   12   7    6    0    19   10   61   
4th     PAS Giannina                    26   10   1    2    34   10   4    2    7    17   18   45   
3rd     PAS Giannina                    26   11   2    0    32   4    3    4    6    15   20   48   
1st     PAS Giannina                    26   9    2    2    23   7    7    4    2    19   9    54   
1st     PAS Giannina                    26   10   2    1    27   10   7    3    3    18   11   56   
1st     PAS Giannina                    26   9    3    1    26   9    8    3    2    22   12   57   
2nd     PAS Giannina                    26   7    3    3    22   12   5    3    5    16   18   42   
3rd     PAS Giannina                    26   8    3    2    19   8    6    2    5    12   16   47   
2nd     PAS Giannina                    26   9    3    1    24   10   3    6    4    13   15   45   
2nd     PAS Giannina                    26   11   1    1    30   10   6    4    3    16   10   56   
1st     PAS Giannina                    26   10   2    1    23   7    6    3    4    20   15   53   
3rd     PAS Giannina                    26   8    3    2    27   10   5    3    5    17   16   45   
2nd     PAS Giannina                    26   9    3    1    25   11   3    6    4    15   17   45   
2nd     PAS Giannina                    26   9    3    1    32   14   7    4    2    12   7    55   
1st     PAS Giannina                    26   9    1    3    27   10   5    8    0    18   12   51   
1st     PAS Giannina                    26   9    2    2    26   11   6    5    2    22   15   52   
1st     PAS Giannina                    26   9    4    0    23   9    5    3    5    14   14   49   
1st     PAS Giannina                    26   12   1    0    25   4    5    4    4    17   13   56   
3rd     PAS Giannina                    26   9    1    3    26   13   6    4    3    19   14   50   
2nd     PAS Giannina                    26   9    2    2    26   8    7    3    3    19   10   53   
1st     PAS Giannina                    26   10   1    2    34   10   6    4    3    23   19   53   
1st     PAS Giannina                    26   11   2    0    27   9    3    6    4    13   14   50   
2nd     PAS Giannina                    26   7    4    2    25   8    7    5    1    19   8    51   
2nd     PAS Giannina                    26   9    4    0    24   8    6    3    4    22   15   52   
2nd     PAS Giannina                    26   8    2    3    27   15   6    2    5    16   13   46   
1st     PAS Giannina                    26   11   1    1    23   9    9    2    2    25   12   63   
2nd     PAS Giannina                    26   10   2    1    28   4    2    6    5    11   14   44   
2nd     PAS Giannina                    26   8    4    1    22   5    5    4    4    20   15   47   
1st     PAS Giannina                    26   11   1    1    24   7    7    3    3    23   14   58   
2nd     PAS Giannina                    26   8    4    1    24   8    4    3    6    16   19   43   
6th     PAS Giannina                    26   8    4    1    23   11   3    4    6    13   17   41   
1st     PAS Giannina                    26   9    2    2    24   9    6    3    4    19   12   50   
1st     PAS Giannina                    26   8    4    1    24   8    7    5    1    20   10   54   
1st     PAS Giannina                    26   8    3    2    16   8    7    5    1    19   11   53   
1st     PAS Giannina                    26   9    3    1    28   6    6    6    1    15   7    54   
2nd     PAS Giannina                    26   9    2    2    23   9    7    2    4    17   7    52   
1st     PAS Giannina                    26   9    4    0    30   8    7    3    3    18   10   55   
1st     PAS Giannina                    26   9    3    1    22   10   8    4    1    22   8    58   
2nd     PAS Giannina                    26   9    2    2    25   11   4    8    1    14   10   49   
3rd     PAS Giannina                    26   10   2    1    21   4    4    4    5    8    12   48   
2nd     PAS Giannina                    26   10   3    0    28   6    5    5    3    18   11   53   
2nd     PAS Giannina                    26   10   2    1    27   8    4    4    5    17   21   48   
1st     PAS Giannina                    26   8    1    4    22   13   9    3    1    20   7    55   
3rd     PAS Giannina                    26   6    5    2    20   9    4    6    3    17   11   41   
1st     PAS Giannina                    26   10   2    1    26   9    9    1    3    17   10   60   
1st     PAS Giannina                    26   7    4    2    17   9    6    5    2    20   14   48   
2nd     PAS Giannina                    26   11   1    1    22   7    7    4    2    19   11   59   
2nd     PAS Giannina                    26   11   2    0    33   7    6    3    4    22   12   56   
1st     PAS Giannina                    26   8    3    2    33   12   8    3    2    20   8    54   
1st     PAS Giannina                    26   10   3    0    24   6    6    4    3    16   10   55   
1st     PAS Giannina                    26   10   3    0    26   7    9    2    2    19   10   62   
1st     PAS Giannina                    26   11   2    0    20   4    4    5    4    15   15   52   
1st     PAS Giannina                    26   9    1    3    23   10   7    3    3    19   10   52   
2nd     PAS Giannina                    26   11   1    1    24   8    6    2    5    16   11   54   
1st     PAS Giannina                    26   9    4    0    31   14   7    1    5    16   14   53   
1st     PAS Giannina                    26   9    3    1    25   7    8    1    4    21   12   55   
3rd     PAS Giannina                    26   8    4    1    26   14   5    5    3    13   7    48   
3rd     PAS Giannina                    26   7    4    2    17   8    5    5    3    13   11   45   
2nd     PAS Giannina                    26   10   2    1    24   9    5    4    4    17   13   51   
2nd     PAS Giannina                    26   10   2    1    22   9    5    5    3    11   10   52   
6th     PAS Giannina                    26   7    5    1    20   8    3    5    5    8    14   40   
3rd     PAS Giannina                    26   6    7    0    21   13   5    5    3    16   10   45   
6th     PAS Giannina                    26   8    1    4    20   16   3    1    9    12   19   35   
1st     PAS Giannina                    26   10   2    1    33   13   7    2    4    19   12   55   
1st     PAS Giannina                    26   10   3    0    35   11   7    2    4    25   14   56   
4th     PAS Giannina                    26   5    5    3    20   18   7    3    3    21   11   44   
1st     PAS Giannina                    26   9    4    0    23   4    6    3    4    20   10   52   
2nd     PAS Giannina                    26   8    2    3    23   17   7    3    3    23   13   50   
2nd     PAS Giannina                    26   10   0    3    23   9    5    6    2    17   14   51   
1st     PAS Giannina                    26   7    4    2    19   8    7    3    3    17   11   49   
1st     PAS Giannina                    26   7    5    1    27   14   7    1    5    18   15   48   
1st     PAS Giannina                    26   12   1    0    38   11   7    3    3    23   10   61   
1st     PAS Giannina                    26   8    4    1    20   8    7    4    2    18   8    53   
2nd     PAS Giannina                    26   9    1    3    20   11   6    3    4    17   15   49   
3rd     PAS Giannina                    26   11   1    1    31   13   4    4    5    18   19   50   
1st     PAS Giannina                    26   9    2    2    27   12   9    1    3    28   9    57   
1st     PAS Giannina                    26   9    2    2    21   8    3    7    3    11   12   45   
3rd     PAS Giannina                    26   12   0    1    31   7    5    3    5    19   17   54   
1st     PAS Giannina                    26   9    2    2    19   7    8    3    2    22   13   56   
2nd     PAS Giannina                    26   9    3    1    26   11   5    5    3    17   11   50   
1st     PAS Giannina                    26   12   1    0    29   6    8    4    1    19   7    65   
3rd     PAS Giannina                    26   6    4    3    24   15   4    8    1    17   15   42   
2nd     PAS Giannina                    26   8    3    2    19   6    7    3    3    18   14   51   
1st     PAS Giannina                    26   10   1    2    23   7    6    6    1    16   8    55   
1st     PAS Giannina                    26   8    3    2    23   12   7    6    0    19   8    54   
1st     PAS Giannina                    26   9    3    1    31   15   7    2    4    17   15   53   