2nd     PAS Giannina                    26   9    1    3    28   13   7    3    3    24   11   52
1st     PAS Giannina                    26   10   2    1    39   13   6    4    3    19   10   54
1st     PAS Giannina                    26   8    1    4    23   13   7    5    1    19   11   51
1st     PAS Giannina                    26   10   1    2    24   9    7    6    0    21   11   58
1st     PAS Giannina                    26   11   2    0    36   9    8    0    5    20   13   59
1st     PAS Giannina                    26   9    2    2    31   14   9    3    1    19   9    59
1st     PAS Giannina                    26   12   1    0    30   11   6    6    1    26   15   61
2nd     PAS Giannina                    26   10   2    1    33   16   4    6    3    14   10   50
2nd     PAS Giannina                    26   9    2    2    27   9    7    1    5    26   14   51
1st     PAS Giannina                    26   10   2    1    32   11   7    4    2    24   14   57
2nd     PAS Giannina                    26   9    3    1    32   12   7    4    2    15   8    55
2nd     PAS Giannina                    26   9    4    0    37   19   4    4    5    18   18   47
1st     PAS Giannina                    26   11   0    2    23   10   4    7    2    17   14   52
2nd     PAS Giannina                    26   10   2    1    25   9    8    4    1    26   14   60
1st     PAS Giannina                    26   11   1    1    34   9    9    3    1    24   11   64
1st     PAS Giannina                    26   10   2    1    27   4    6    4    3    23   14   54
2nd     PAS Giannina                    26   9    2    2    30   11   5    3    5    12   13   47
4th     PAS Giannina                    26   8    1    4    25   12   5    2    6    20   12   42
1st     PAS Giannina                    26   9    2    2    32   14   7    2    4    18   17   52
1st     PAS Giannina                    26   12   1    0    32   10   8    5    0    29   14   66
1st     PAS Giannina                    26   11   0    2    30   5    10   2    1    24   8    65
1st     PAS Giannina                    26   9    3    1    31   12   7    1    5    22   14   52
2nd     PAS Giannina                    26   9    1    3    31   18   9    2    2    23   10   57
1st     PAS Giannina                    26   12   1    0    36   10   7    2    4    23   17   60
1st     PAS Giannina                    26   10   2    1    31   9    9    1    3    24   7    60
1st     PAS Giannina                    26   11   2    0    27   9    8    1    4    23   14   60
2nd     PAS Giannina                    26   9    4    0    29   9    8    3    2    23   12   58
1st     PAS Giannina                    26   10   2    1    35   15   7    2    4    23   14   55
3rd     PAS Giannina                    26   8    2    3    29   14   8    1    4    22   14   51
2nd     PAS Giannina                    26   6    3    4    25   19   5    8    0    19   9    44
2nd     PAS Giannina                    26   9    2    2    34   18   6    5    2    21   11   52
1st     PAS Giannina                    26   11   0    2    27   11   5    5    3    17   11   53
1st     PAS Giannina                    26   11   2    0    28   13   5    7    1    24   16   57
2nd     PAS Giannina                    26   8    3    2    29   20   5    7    1    19   7    49
2nd     PAS Giannina                    26   11   1    1    34   11   7    2    4    25   14   57
1st     PAS Giannina                    26   12   1    0    40   15   9    0    4    26   15   64
2nd     PAS Giannina                    26   12   0    1    38   7    4    4    5    17   19   52
1st     PAS Giannina                    26   8    2    3    27   11   8    5    0    26   11   55
1st     PAS Giannina                    26   9    3    1    23   7    7    6    0    24   12   57
1st     PAS Giannina                    26   10   1    2    31   13   9    0    4    22   12   58
1st     PAS Giannina                    26   10   1    2    28   7    7    2    4    22   14   54
1st     PAS Giannina                    26   12   1    0    28   9    9    3    1    27   11   67
1st     PAS Giannina                    26   9    3    1    33   14   7    6    0    23   12   57
1st     PAS Giannina                    26   11   2    0    32   7    5    7    1    22   15   57
1st     PAS Giannina                    26   9    2    2    23   9    9    1    3    27   14   57
2nd     PAS Giannina                    26   11   1    1    30   11   8    2    3    19   6    60
1st     PAS Giannina                    26   7    5    1    23   13   10   1    2    29   12   57
1st     PAS Giannina                    26   10   0    3    30   13   6    4    3    17   12   52
1st     PAS Giannina                    26   8    4    1    31   16   10   3    0    28   12   61
1st     PAS Giannina                    26   9    3    1    40   16   9    4    0    23   9    61
1st     PAS Giannina                    26   11   2    0    27   6    8    2    3    29   13   61
1st     PAS Giannina                    26   11   2    0    38   11   8    3    2    29   14   62
2nd     PAS Giannina                    26   10   1    2    28   11   5    5    3    14   11   51
3rd     PAS Giannina                    26   7    5    1    27   11   6    2    5    25   20   46
1st     PAS Giannina                    26   7    3    3    29   16   9    1    3    26   13   52
1st     PAS Giannina                    26   10   3    0    33   10   10   2    1    28   7    65
1st     PAS Giannina                    26   12   0    1    33   14   7    3    3    20   10   60
2nd     PAS Giannina                    26   8    3    2    23   12   9    1    3    24   11   55
1st     PAS Giannina                    26   11   1    1    30   8    9    2    2    25   12   63
1st     PAS Giannina                    26   10   3    0    34   15   8    2    3    26   16   59
1st     PAS Giannina                    26   9    3    1    30   8    7    3    3    21   15   54
1st     PAS Giannina                    26   10   3    0    32   11   7    3    3    27   17   57
1st     PAS Giannina                    26   9    3    1    29   10   8    1    4    29   14   55
2nd     PAS Giannina                    26   10   0    3    34   10   5    4    4    20   16   49
2nd     PAS Giannina                    26   8    4    1    26   9    7    4    2    23   11   53
1st     PAS Giannina                    26   11   0    2    32   11   7    4    2    24   12   58
1st     PAS Giannina                    26   11   1    1    34   11   8    1    4    23   13   59
2nd     PAS Giannina                    26   8    1    4    27   13   8    1    4    17   14   50
1st     PAS Giannina                    26   12   1    0    29   8    7    3    3    23   19   61
1st     PAS Giannina                    26   10   3    0    25   10   9    0    4    25   12   60
1st     PAS Giannina                    26   12   1    0    37   10   6    5    2    28   15   60
2nd     PAS Giannina                    26   9    2    2    27   14   7    2    4    25   19   52
2nd     PAS Giannina                    26   9    4    0    27   10   5    1    7    18   16   47
1st     PAS Giannina                    26   11   1    1    30   9    7    3    3    23   14   58
2nd     PAS Giannina                    26   8    2    3    30   18   8    2    3    24   14   52
1st     PAS Giannina                    26   10   1    2    27   12   7    3    3    17   9    55
1st     PAS Giannina                    26   9    3    1    25   9    7    3    3    23   13   54
1st     PAS Giannina                    26   8    5    0    31   14   9    2    2    31   14   58
1st     PAS Giannina                    26   9    3    1    27   11   10   0    3    27   9    60
2nd     PAS Giannina                    26   9    1    3    35   19   7    0    6    20   17   49
1st     PAS Giannina                    26   10   2    1    27   14   8    0    5    21   14   56
2nd     PAS Giannina                    26   9    3    1    29   12   5    3    5    14   15   48
1st     PAS Giannina                    26   10   2    1    30   10   9    3    1    31   14   62
2nd     PAS Giannina                    26   9    1    3    26   13   9    3    1    35   17   58
1st     PAS Giannina                    26   9    2    2    27   10   8    2    3    21   12   55
2nd     PAS Giannina                    26   8    3    2    24   11   5    4    4    16   16   46
1st     PAS Giannina                    26   9    4    0    26   7    8    4    1    23   9    59
1st     PAS Giannina                    26   11   1    1    37   12   9    2    2    30   16   63
1st     PAS Giannina                    26   12   1    0    29   9    12   0    1    32   9    73
1st     PAS Giannina                    26   10   1    2    32   13   8    3    2    24   10   58
1st     PAS Giannina                    26   9    3    1    30   13   11   1    1    35   14   64
1st     PAS Giannina                    26   12   1    0    37   13   4    5    4    27   22   54
1st     PAS Giannina                    26   12   1    0    43   9    7    3    3    25   17   61
1st     PAS Giannina                    26   10   3    0    32   13   10   1    2    26   10   64
1st     PAS Giannina                    26   10   3    0    34   7    8    1    4    26   14   58
2nd     PAS Giannina                    26   11   1    1    30   11   5    3    5    18   18   52
1st     PAS Giannina                    26   10   2    1    24   6    7    5    1    19   10   58
1st     PAS Giannina                    26   12   1    0    31   11   11   1    1    32   13   71
1st     PAS Giannina                    26   12   1    0    31   7    7    1    5    18   16   59
2nd     PAS Giannina                    26   11   2    0    38   10   5    4    4    18   19   54