1st     PAS Giannina                    26   10   2    1    29   10   5    4    4    20   20   51   
4th     PAS Giannina                    26   9    1    3    30   18   5    2    6    26   26   45   
4th     PAS Giannina                    26   5    2    6    17   24   7    2    4    24   21   40   
2nd     PAS Giannina                    26   9    2    2    31   18   6    2    5    19   23   49   
2nd     PAS Giannina                    26   8    3    2    26   21   5    4    4    19   20   46   
2nd     PAS Giannina                    26   11   1    1    41   13   4    4    5    19   22   50   
2nd     PAS Giannina                    26   7    3    3    32   27   8    1    4    25   17   49   
3rd     PAS Giannina                    26   8    2    3    27   15   5    5    3    16   16   46   
4th     PAS Giannina                    26   9    4    0    34   19   3    2    8    17   23   42   
1st     PAS Giannina                    26   11   2    0    38   15   5    6    2    19   15   56   
1st     PAS Giannina                    26   8    2    3    25   15   6    3    4    24   21   47   
1st     PAS Giannina                    26   12   1    0    40   18   5    3    5    19   20   55   
3rd     PAS Giannina                    26   9    2    2    29   18   3    3    7    22   26   41   
4th     PAS Giannina                    26   5    4    4    25   20   6    4    3    21   16   41   
4th     PAS Giannina                    26   6    5    2    35   23   5    2    6    22   25   40   
2nd     PAS Giannina                    26   8    3    2    32   17   5    4    4    24   21   46   
4th     PAS Giannina                    26   7    3    3    28   19   4    6    3    19   19   42   
2nd     PAS Giannina                    26   8    4    1    36   21   5    1    7    20   25   44   
1st     PAS Giannina                    26   10   2    1    31   15   8    1    4    19   12   57   
3rd     PAS Giannina                    26   8    4    1    37   18   6    6    1    22   15   52   
2nd     PAS Giannina                    26   9    3    1    26   15   7    2    4    22   15   53   
4th     PAS Giannina                    26   8    2    3    34   20   5    2    6    23   21   43   
3rd     PAS Giannina                    26   7    4    2    28   16   4    5    4    15   15   42   
1st     PAS Giannina                    26   8    3    2    30   18   8    1    4    30   24   52   
4th     PAS Giannina                    26   9    2    2    31   17   3    4    6    23   26   42   
3rd     PAS Giannina                    26   9    2    2    32   16   5    4    4    19   17   48   
3rd     PAS Giannina                    26   8    4    1    31   20   4    2    7    17   23   42   
5th     PAS Giannina                    26   7    2    4    29   20   4    2    7    16   21   37   
2nd     PAS Giannina                    26   11   1    1    32   13   3    2    8    19   25   45   
3rd     PAS Giannina                    26   8    3    2    28   19   4    6    3    18   15   45   
3rd     PAS Giannina                    26   9    1    3    36   16   6    2    5    22   21   48   
7th     PAS Giannina                    26   7    1    5    24   20   4    5    4    19   20   39   
6th     PAS Giannina                    26   9    1    3    37   27   3    3    7    18   22   40   
2nd     PAS Giannina                    26   8    4    1    25   9    5    4    4    19   18   47   
8th     PAS Giannina                    26   5    4    4    20   17   4    2    7    14   21   33   
2nd     PAS Giannina                    26   7    5    1    31   16   5    4    4    24   20   45   
1st     PAS Giannina                    26   9    3    1    37   17   7    2    4    23   19   53   
5th     PAS Giannina                    26   8    2    3    30   16   4    3    6    22   23   41   
3rd     PAS Giannina                    26   9    2    2    32   18   5    5    3    18   19   49   
4th     PAS Giannina                    26   10   0    3    31   17   2    5    6    18   27   41   
6th     PAS Giannina                    26   4    7    2    21   16   5    3    5    22   21   37   
1st     PAS Giannina                    26   8    3    2    36   20   8    2    3    26   18   53   
4th     PAS Giannina                    26   9    1    3    28   16   3    4    6    20   26   41   
2nd     PAS Giannina                    26   9    1    3    34   16   5    5    3    21   20   48   
9th     PAS Giannina                    26   8    0    5    29   17   2    2    9    14   28   32   
4th     PAS Giannina                    26   10   2    1    27   10   3    2    8    18   27   43   
3rd     PAS Giannina                    26   9    2    2    26   12   6    2    5    25   24   49   
7th     PAS Giannina                    26   5    5    3    25   20   5    1    7    16   15   36   
2nd     PAS Giannina                    26   10   1    2    37   20   7    1    5    29   19   53   
2nd     PAS Giannina                    26   8    2    3    31   25   5    3    5    20   20   44   
9th     PAS Giannina                    26   8    2    3    27   16   1    3    9    15   23   32   
6th     PAS Giannina                    26   6    3    4    20   18   5    2    6    18   21   38   
1st     PAS Giannina                    26   10   2    1    36   19   4    7    2    18   14   51   
2nd     PAS Giannina                    26   10   2    1    29   14   5    2    6    18   19   49   
3rd     PAS Giannina                    26   8    3    2    32   18   4    4    5    21   19   43   
1st     PAS Giannina                    26   9    3    1    39   23   4    5    4    19   18   47   
4th     PAS Giannina                    26   9    3    1    34   16   3    4    6    22   22   43   
4th     PAS Giannina                    26   9    2    2    33   17   2    4    7    14   23   39   
4th     PAS Giannina                    26   7    2    4    22   16   6    3    4    21   17   44   
3rd     PAS Giannina                    26   10   1    2    27   11   5    2    6    19   21   48   
2nd     PAS Giannina                    26   7    3    3    29   16   7    2    4    21   16   47   
2nd     PAS Giannina                    26   10   1    2    32   17   4    3    6    18   24   46   
4th     PAS Giannina                    26   8    2    3    33   19   4    1    8    14   22   39   
2nd     PAS Giannina                    26   12   0    1    32   13   4    3    6    15   22   51   
2nd     PAS Giannina                    26   7    4    2    28   14   6    3    4    22   19   46   
2nd     PAS Giannina                    26   8    3    2    37   23   4    5    4    20   22   44   
2nd     PAS Giannina                    26   9    2    2    28   16   4    5    4    21   20   46   
1st     PAS Giannina                    26   12   1    0    37   13   6    3    4    19   18   58   
12th    PAS Giannina                    26   8    2    3    28   17   1    0    12   8    22   29   
1st     PAS Giannina                    26   11   1    1    35   13   9    3    1    31   14   64   
5th     PAS Giannina                    26   5    6    2    30   25   5    2    6    14   16   38   
3rd     PAS Giannina                    26   7    4    2    29   21   4    5    4    16   19   42   
1st     PAS Giannina                    26   10   2    1    36   14   4    5    4    22   24   49   
3rd     PAS Giannina                    26   9    1    3    35   17   5    5    3    23   26   48   
4th     PAS Giannina                    26   7    4    2    28   19   4    4    5    19   20   41   
2nd     PAS Giannina                    26   9    2    2    36   15   5    5    3    21   21   49   
1st     PAS Giannina                    26   8    5    0    33   18   9    1    3    29   20   57   
4th     PAS Giannina                    26   8    4    1    31   17   4    3    6    19   21   43   
5th     PAS Giannina                    26   9    2    2    39   25   1    7    5    15   19   39   
3rd     PAS Giannina                    26   9    1    3    35   23   5    4    4    22   21   47   
2nd     PAS Giannina                    26   12   1    0    30   14   4    3    6    14   17   52   
2nd     PAS Giannina                    26   7    2    4    31   24   7    2    4    23   16   46   
5th     PAS Giannina                    26   9    1    3    36   24   4    2    7    19   25   42   
2nd     PAS Giannina                    26   8    1    4    29   19   5    4    4    21   18   44   
2nd     PAS Giannina                    26   9    2    2    30   19   7    4    2    27   17   54   
2nd     PAS Giannina                    26   10   3    0    32   14   4    4    5    19   17   49   
5th     PAS Giannina                    26   6    6    1    26   18   3    6    4    21   23   39   
2nd     PAS Giannina                    26   10   1    2    35   16   5    3    5    21   19   49   
2nd     PAS Giannina                    26   8    3    2    29   19   4    3    6    20   20   42   
10th    PAS Giannina                    26   6    4    3    23   21   4    2    7    19   26   36   
3rd     PAS Giannina                    26   7    3    3    29   24   6    3    4    23   20   45   
7th     PAS Giannina                    26   7    5    1    29   15   2    4    7    17   25   36   
5th     PAS Giannina                    26   8    4    1    25   13   3    4    6    10   15   41   
3rd     PAS Giannina                    26   8    2    3    33   23   5    3    5    17   14   44   
3rd     PAS Giannina                    26   9    2    2    29   10   4    1    8    15   19   42   
3rd     PAS Giannina                    26   10   2    1    32   16   4    4    5    22   25   48   
2nd     PAS Giannina                    26   11   1    1    29   9    5    5    3    22   16   54   
1st     PAS Giannina                    26   10   2    1    28   12   6    2    5    17   18   52   
4th     PAS Giannina                    26   7    3    3    29   22   4    4    5    15   16   40   
2nd     PAS Giannina                    26   9    4    0    33   17   7    3    3    24   18   55   