1st     PAS Giannina                    26   11   2    0    27   5    9    1    3    31   12   63   
5th     PAS Giannina                    26   8    3    2    22   6    4    5    4    16   13   44   
1st     PAS Giannina                    26   10   3    0    18   3    10   2    1    26   10   65   
1st     PAS Giannina                    26   10   1    2    22   8    8    1    4    23   10   56   
1st     PAS Giannina                    26   9    3    1    21   4    12   1    0    34   6    67   
1st     PAS Giannina                    26   11   1    1    29   8    10   2    1    19   7    66   
1st     PAS Giannina                    26   9    1    3    25   10   12   0    1    33   7    64   
1st     PAS Giannina                    26   12   0    1    25   12   9    3    1    27   10   66   
1st     PAS Giannina                    26   8    2    3    24   13   8    3    2    29   11   53   
3rd     PAS Giannina                    26   7    5    1    31   11   6    2    5    19   13   46   
1st     PAS Giannina                    26   11   2    0    28   6    9    3    1    30   10   65   
1st     PAS Giannina                    26   12   1    0    31   4    11   1    1    32   10   71   
1st     PAS Giannina                    26   12   1    0    31   8    8    1    4    18   9    62   
1st     PAS Giannina                    26   10   3    0    23   6    8    3    2    23   12   60   
1st     PAS Giannina                    26   9    3    1    26   10   9    4    0    28   5    61   
1st     PAS Giannina                    26   13   0    0    35   10   9    3    1    24   10   69   
1st     PAS Giannina                    26   9    3    1    26   9    9    4    0    26   10   61   
1st     PAS Giannina                    26   10   3    0    30   7    8    3    2    28   14   60   
1st     PAS Giannina                    26   9    4    0    25   8    9    3    1    22   9    61   
1st     PAS Giannina                    26   9    3    1    26   6    7    3    3    19   6    54   
1st     PAS Giannina                    26   10   3    0    29   7    6    5    2    27   14   56   
2nd     PAS Giannina                    26   9    3    1    19   4    6    4    3    20   11   52   
1st     PAS Giannina                    26   11   1    1    29   12   10   3    0    27   9    67   
1st     PAS Giannina                    26   11   1    1    25   7    8    3    2    27   9    61   
1st     PAS Giannina                    26   11   2    0    30   6    9    3    1    30   10   65   
1st     PAS Giannina                    26   10   3    0    25   5    10   2    1    25   5    65   
1st     PAS Giannina                    26   10   2    1    26   8    9    0    4    30   14   59   
1st     PAS Giannina                    26   8    4    1    23   10   8    0    5    28   15   52   
1st     PAS Giannina                    26   12   1    0    32   9    11   0    2    25   8    70   
1st     PAS Giannina                    26   9    3    1    29   11   12   1    0    29   5    67   
1st     PAS Giannina                    26   10   2    1    28   8    9    2    2    24   8    61   
2nd     PAS Giannina                    26   10   2    1    28   12   8    3    2    24   12   59   
1st     PAS Giannina                    26   12   1    0    37   6    10   3    0    28   9    70   
1st     PAS Giannina                    26   11   2    0    34   6    7    4    2    24   12   60   
1st     PAS Giannina                    26   11   2    0    25   3    9    1    3    21   10   63   
3rd     PAS Giannina                    26   8    3    2    23   11   7    2    4    21   13   50   
1st     PAS Giannina                    26   9    3    1    28   12   10   2    1    25   11   62   
1st     PAS Giannina                    26   8    4    1    33   13   9    3    1    27   8    58   
1st     PAS Giannina                    26   12   0    1    33   9    9    3    1    21   10   66   
1st     PAS Giannina                    26   11   2    0    33   10   9    2    2    28   12   64   
1st     PAS Giannina                    26   10   3    0    27   6    10   3    0    31   8    66   
1st     PAS Giannina                    26   9    1    3    25   11   10   2    1    21   3    60   
1st     PAS Giannina                    26   9    1    3    28   15   9    1    3    22   10   56   
1st     PAS Giannina                    26   9    3    1    24   11   8    3    2    23   10   57   
1st     PAS Giannina                    26   9    4    0    33   10   9    1    3    31   15   59   
1st     PAS Giannina                    26   12   0    1    30   6    10   2    1    22   7    68   
1st     PAS Giannina                    26   10   3    0    34   12   9    3    1    25   8    63   
1st     PAS Giannina                    26   10   2    1    24   7    6    3    4    18   11   53   
1st     PAS Giannina                    26   8    2    3    25   11   8    4    1    25   13   54   
1st     PAS Giannina                    26   11   1    1    27   4    6    5    2    23   9    57   
1st     PAS Giannina                    26   12   1    0    28   8    9    3    1    28   9    67   
1st     PAS Giannina                    26   10   2    1    26   6    10   2    1    29   11   64   
1st     PAS Giannina                    26   12   0    1    35   5    10   2    1    23   8    68   
1st     PAS Giannina                    26   11   2    0    25   7    8    2    3    26   11   61   
2nd     PAS Giannina                    26   8    5    0    24   10   11   1    1    32   10   63   
1st     PAS Giannina                    26   11   1    1    32   7    11   2    0    28   5    69   
2nd     PAS Giannina                    26   11   2    0    30   10   6    4    3    21   13   57   
1st     PAS Giannina                    26   10   1    2    26   11   11   1    1    27   10   65   
1st     PAS Giannina                    26   9    3    1    28   10   8    3    2    22   11   57   
1st     PAS Giannina                    26   9    2    2    24   13   6    5    2    20   10   52   
1st     PAS Giannina                    26   10   0    3    26   10   9    3    1    23   9    60   
1st     PAS Giannina                    26   11   2    0    23   5    8    2    3    24   10   61   
1st     PAS Giannina                    26   9    1    3    27   10   7    3    3    21   9    52   
2nd     PAS Giannina                    26   9    3    1    28   11   5    5    3    20   12   50   
1st     PAS Giannina                    26   9    3    1    25   10   12   1    0    29   5    67   
1st     PAS Giannina                    26   10   2    1    32   8    8    3    2    26   13   59   
2nd     PAS Giannina                    26   8    4    1    30   8    7    4    2    19   10   53   
1st     PAS Giannina                    26   9    3    1    28   9    12   0    1    29   8    66   
1st     PAS Giannina                    26   10   1    2    24   4    8    4    1    27   10   59   
1st     PAS Giannina                    26   10   2    1    23   5    11   0    2    30   11   65   
1st     PAS Giannina                    26   12   1    0    25   6    10   2    1    34   8    69   
1st     PAS Giannina                    26   10   3    0    29   10   10   1    2    33   6    64   
1st     PAS Giannina                    26   12   0    1    34   10   7    5    1    28   12   62   
1st     PAS Giannina                    26   11   1    1    28   7    5    4    4    21   15   53   
1st     PAS Giannina                    26   11   2    0    32   11   6    4    3    20   15   57   
2nd     PAS Giannina                    26   11   1    1    22   5    7    2    4    17   16   57   
1st     PAS Giannina                    26   12   1    0    30   8    9    2    2    28   12   66   
1st     PAS Giannina                    26   10   1    2    27   10   8    4    1    31   13   59   
1st     PAS Giannina                    26   11   2    0    38   8    6    6    1    31   17   59   
1st     PAS Giannina                    26   12   0    1    36   7    10   1    2    27   11   67   
1st     PAS Giannina                    26   8    3    2    25   10   10   3    0    29   6    60   
1st     PAS Giannina                    26   12   1    0    23   6    9    2    2    19   11   66   
1st     PAS Giannina                    26   10   3    0    23   5    10   0    3    37   7    63   
1st     PAS Giannina                    26   11   2    0    32   9    8    2    3    30   13   61   
1st     PAS Giannina                    26   10   3    0    30   11   6    5    2    22   13   56   
1st     PAS Giannina                    26   8    3    2    31   14   9    2    2    25   11   56   
1st     PAS Giannina                    26   10   3    0    26   8    9    2    2    22   8    62   
1st     PAS Giannina                    26   12   1    0    30   4    8    3    2    22   8    64   
1st     PAS Giannina                    26   11   2    0    27   5    8    3    2    29   10   62   
1st     PAS Giannina                    26   10   3    0    30   6    10   2    1    33   11   65   
1st     PAS Giannina                    26   13   0    0    29   6    11   1    1    32   13   73   
1st     PAS Giannina                    26   11   2    0    30   6    8    4    1    21   9    63   
1st     PAS Giannina                    26   11   2    0    32   9    9    2    2    29   11   64   
2nd     PAS Giannina                    26   10   0    3    21   5    8    2    3    14   8    56   
1st     PAS Giannina                    26   8    4    1    28   13   9    4    0    19   8    59   
1st     PAS Giannina                    26   12   0    1    28   8    10   3    0    26   8    69   
1st     PAS Giannina                    26   11   2    0    24   4    11   1    1    37   14   69   
1st     PAS Giannina                    26   11   1    1    27   7    8    4    1    24   6    62   
1st     PAS Giannina                    26   9    3    1    27   6    10   1    2    27   13   61   
2nd     PAS Giannina                    26   8    1    4    17   5    6    4    3    29   14   47   