3rd     PAS Giannina                    26   6    2    5    27   17   6    5    2    29   18   43   
2nd     PAS Giannina                    26   12   1    0    37   12   6    2    5    25   21   57   
1st     PAS Giannina                    26   9    1    3    31   20   8    4    1    32   12   56   
1st     PAS Giannina                    26   12   0    1    37   12   8    1    4    26   15   61   
2nd     PAS Giannina                    26   9    1    3    32   17   8    1    4    28   19   53   
1st     PAS Giannina                    26   9    2    2    32   15   6    5    2    30   20   52   
1st     PAS Giannina                    26   11   1    1    32   16   10   1    2    22   14   65   
1st     PAS Giannina                    26   8    3    2    32   19   9    2    2    31   18   56   
1st     PAS Giannina                    26   11   2    0    36   12   11   1    1    31   12   69   
1st     PAS Giannina                    26   10   1    2    36   17   5    6    2    22   19   52   
3rd     PAS Giannina                    26   6    5    2    25   18   7    2    4    25   18   46   
1st     PAS Giannina                    26   10   3    0    41   17   7    3    3    22   10   57   
1st     PAS Giannina                    26   11   1    1    32   13   8    3    2    32   20   61   
1st     PAS Giannina                    26   12   1    0    36   8    11   1    1    31   13   71   
3rd     PAS Giannina                    26   7    3    3    26   20   4    6    3    19   18   42   
2nd     PAS Giannina                    26   9    3    1    32   16   8    4    1    26   15   58   
1st     PAS Giannina                    26   10   0    3    36   27   8    3    2    30   17   57   
1st     PAS Giannina                    26   11   2    0    32   13   9    2    2    29   15   64   
1st     PAS Giannina                    26   10   1    2    39   17   7    2    4    27   20   54   
1st     PAS Giannina                    26   11   2    0    39   16   8    3    2    31   15   62   
3rd     PAS Giannina                    26   7    4    2    27   16   9    2    2    32   20   54   
1st     PAS Giannina                    26   10   3    0    34   13   9    1    3    31   17   61   
1st     PAS Giannina                    26   9    3    1    31   10   4    7    2    23   14   49   
1st     PAS Giannina                    26   8    4    1    30   12   8    3    2    31   13   55   
1st     PAS Giannina                    26   11   2    0    35   14   8    4    1    27   14   63   
1st     PAS Giannina                    26   10   3    0    40   16   11   2    0    27   10   68   
1st     PAS Giannina                    26   11   0    2    32   14   6    5    2    29   20   56   
1st     PAS Giannina                    26   10   2    1    39   18   6    3    4    27   18   53   
2nd     PAS Giannina                    26   7    3    3    22   14   8    3    2    29   16   51   
1st     PAS Giannina                    26   10   3    0    35   14   7    5    1    26   12   59   
1st     PAS Giannina                    26   9    2    2    32   17   10   1    2    25   10   60   
1st     PAS Giannina                    26   12   1    0    39   13   10   2    1    33   12   69   
1st     PAS Giannina                    26   11   2    0    33   11   11   1    1    29   13   69   
1st     PAS Giannina                    26   13   0    0    42   7    5    4    4    17   11   58   
1st     PAS Giannina                    26   10   2    1    33   16   9    2    2    25   13   61   
2nd     PAS Giannina                    26   10   3    0    37   14   7    3    3    26   18   57   
2nd     PAS Giannina                    26   7    4    2    31   21   8    2    3    28   15   51   
1st     PAS Giannina                    26   7    5    1    28   12   8    3    2    29   17   53   
1st     PAS Giannina                    26   12   1    0    41   10   6    3    4    22   15   58   
2nd     PAS Giannina                    26   8    5    0    31   13   5    4    4    23   18   48   
1st     PAS Giannina                    26   10   1    2    33   14   10   1    2    39   20   62   
2nd     PAS Giannina                    26   9    4    0    37   15   4    7    2    18   15   50   
2nd     PAS Giannina                    26   11   2    0    39   15   4    2    7    20   24   49   
2nd     PAS Giannina                    26   6    3    4    25   15   7    3    3    20   11   45   
1st     PAS Giannina                    26   8    1    4    29   15   10   1    2    29   12   56   
1st     PAS Giannina                    26   11   2    0    35   12   8    3    2    26   14   62   
1st     PAS Giannina                    26   9    2    2    27   13   7    4    2    24   13   54   
6th     PAS Giannina                    26   9    1    3    28   19   3    1    9    22   22   38   
1st     PAS Giannina                    26   8    1    4    29   18   7    4    2    28   16   50   
2nd     PAS Giannina                    26   8    4    1    34   19   9    2    2    26   15   57   
1st     PAS Giannina                    26   10   2    1    30   16   8    3    2    28   14   59   
2nd     PAS Giannina                    26   10   3    0    36   14   5    4    4    21   22   52   
1st     PAS Giannina                    26   10   1    2    32   14   11   2    0    31   10   66   
1st     PAS Giannina                    26   8    4    1    29   16   8    3    2    26   14   55   
1st     PAS Giannina                    26   12   1    0    39   13   7    4    2    29   20   62   
2nd     PAS Giannina                    26   10   1    2    33   16   7    5    1    23   15   57   
3rd     PAS Giannina                    26   8    3    2    28   15   5    6    2    28   26   48   
1st     PAS Giannina                    26   11   2    0    39   12   10   2    1    29   10   67   
1st     PAS Giannina                    26   10   0    3    32   16   7    2    4    27   16   53   
1st     PAS Giannina                    26   8    3    2    28   13   10   2    1    29   10   59   
2nd     PAS Giannina                    26   8    2    3    31   18   8    2    3    21   10   52   
1st     PAS Giannina                    26   11   0    2    30   9    6    4    3    25   26   55   
1st     PAS Giannina                    26   8    0    5    27   16   11   1    1    28   7    58   
2nd     PAS Giannina                    26   8    3    2    31   17   7    2    4    26   18   50   
1st     PAS Giannina                    26   11   1    1    41   11   9    1    3    31   16   62   
1st     PAS Giannina                    26   9    3    1    39   22   9    2    2    30   17   59   
2nd     PAS Giannina                    26   9    3    1    35   15   7    2    4    26   18   53   
1st     PAS Giannina                    26   10   2    1    39   16   8    1    4    20   14   57   
1st     PAS Giannina                    26   8    3    2    30   17   8    4    1    19   8    55   
1st     PAS Giannina                    26   11   1    1    32   9    7    4    2    24   14   59   
2nd     PAS Giannina                    26   9    3    1    29   14   7    1    5    25   19   52   
1st     PAS Giannina                    26   11   1    1    32   10   7    3    3    31   17   58   
2nd     PAS Giannina                    26   9    3    1    32   15   6    2    5    22   14   50   
2nd     PAS Giannina                    26   8    3    2    31   16   10   1    2    34   20   58   
1st     PAS Giannina                    26   9    2    2    28   14   8    4    1    28   12   57   
2nd     PAS Giannina                    26   12   1    0    40   11   6    4    3    24   18   59   
1st     PAS Giannina                    26   11   2    0    37   11   10   2    1    26   9    67   
2nd     PAS Giannina                    26   9    3    1    31   15   7    4    2    29   16   55   
2nd     PAS Giannina                    26   7    3    3    25   16   9    0    4    22   14   51   
2nd     PAS Giannina                    26   10   2    1    39   14   6    3    4    25   19   53   
2nd     PAS Giannina                    26   9    2    2    26   12   7    4    2    30   14   54   
3rd     PAS Giannina                    26   10   2    1    28   12   6    3    4    24   20   53   
1st     PAS Giannina                    26   9    2    2    27   13   5    7    1    19   13   51   
1st     PAS Giannina                    26   11   1    1    34   12   8    5    0    29   16   63   
1st     PAS Giannina                    26   9    1    3    31   17   8    3    2    26   17   55   
1st     PAS Giannina                    26   6    5    2    24   17   8    3    2    29   12   50   
1st     PAS Giannina                    26   10   2    1    33   19   8    4    1    33   15   60   
2nd     PAS Giannina                    26   10   2    1    28   10   4    4    5    18   16   48   
2nd     PAS Giannina                    26   9    3    1    31   15   9    2    2    32   15   59   
1st     PAS Giannina                    26   12   1    0    39   12   8    1    4    32   17   62   
2nd     PAS Giannina                    26   10   1    2    35   16   5    5    3    24   16   51   
1st     PAS Giannina                    26   11   1    1    33   11   10   1    2    27   11   65   
3rd     PAS Giannina                    26   8    5    0    28   11   6    5    2    27   18   52   
2nd     PAS Giannina                    26   10   3    0    34   9    7    3    3    29   22   57   
1st     PAS Giannina                    26   8    3    2    27   14   9    3    1    29   8    57   
1st     PAS Giannina                    26   10   1    2    32   14   8    4    1    27   12   59   
1st     PAS Giannina                    26   8    1    4    30   17   9    2    2    31   16   54   
1st     PAS Giannina                    26   9    3    1    35   17   9    1    3    24   14   58   
1st     PAS Giannina                    26   11   2    0    31   12   9    2    2    37   16   64   
1st     PAS Giannina                    26   12   1    0    28   7    8    2    3    30   18   63   