14th    PAS Giannina                    26   2    3    8    13   29   3    2    8    14   22   20   
11th    PAS Giannina                    26   4    4    5    24   27   3    2    8    17   27   27   
13th    PAS Giannina                    26   4    4    5    23   26   2    2    9    15   25   24   
4th     PAS Giannina                    26   8    2    3    30   27   4    3    6    21   28   41   
7th     PAS Giannina                    26   4    5    4    23   26   4    4    5    16   23   33   
12th    PAS Giannina                    26   6    3    4    18   16   1    3    9    20   37   27   
12th    PAS Giannina                    26   6    3    4    20   22   1    5    7    19   29   29   
14th    PAS Giannina                    26   3    3    7    22   29   0    4    9    17   34   16   
12th    PAS Giannina                    26   6    3    4    23   20   2    1    10   16   30   28   
12th    PAS Giannina                    26   5    3    5    27   24   3    2    8    16   25   29   
11th    PAS Giannina                    26   6    1    6    27   24   1    4    8    16   28   26   
11th    PAS Giannina                    26   6    2    5    23   20   3    2    8    21   29   31   
14th    PAS Giannina                    26   3    1    9    13   24   0    3    10   15   32   13   
14th    PAS Giannina                    26   4    4    5    24   24   1    5    7    19   28   24   
10th    PAS Giannina                    26   5    5    3    23   19   3    2    8    16   28   31   
11th    PAS Giannina                    26   6    0    7    21   25   3    2    8    18   25   29   
12th    PAS Giannina                    26   1    7    5    23   32   5    2    6    15   23   27   
13th    PAS Giannina                    26   5    4    4    20   25   1    1    11   13   33   23   
12th    PAS Giannina                    26   6    2    5    25   25   1    2    10   14   32   25   
11th    PAS Giannina                    26   5    3    5    20   24   2    4    7    16   26   28   
14th    PAS Giannina                    26   5    3    5    21   21   1    2    10   15   35   23   
13th    PAS Giannina                    26   6    2    5    27   22   1    4    8    20   30   27   
10th    PAS Giannina                    26   7    2    4    35   23   1    4    8    18   31   30   
11th    PAS Giannina                    26   3    3    7    19   27   5    3    5    19   22   30   
14th    PAS Giannina                    26   3    1    9    22   29   2    2    9    14   34   18   
11th    PAS Giannina                    26   4    3    6    20   26   3    3    7    22   28   27   
12th    PAS Giannina                    26   5    5    3    27   21   2    4    7    21   35   30   
10th    PAS Giannina                    26   10   3    0    30   14   1    0    12   11   33   36   
13th    PAS Giannina                    26   3    3    7    19   24   2    1    10   16   32   19   
14th    PAS Giannina                    26   3    3    7    19   29   2    1    10   17   35   19   
12th    PAS Giannina                    26   6    3    4    20   20   2    2    9    15   31   29   
14th    PAS Giannina                    26   1    2    10   17   35   4    0    9    17   26   17   
10th    PAS Giannina                    26   5    4    4    27   23   5    1    7    17   24   35   
10th    PAS Giannina                    26   7    2    4    26   21   3    1    9    17   33   33   
13th    PAS Giannina                    26   5    2    6    23   24   1    3    9    12   32   23   
12th    PAS Giannina                    26   4    2    7    21   29   3    3    7    15   22   26   
12th    PAS Giannina                    26   5    2    6    21   20   4    1    8    17   27   30   
9th     PAS Giannina                    26   6    5    2    30   19   1    3    9    11   26   29   
8th     PAS Giannina                    26   10   0    3    28   18   1    5    7    18   32   38   
14th    PAS Giannina                    26   3    2    8    21   30   2    2    9    13   28   19   
12th    PAS Giannina                    26   5    4    4    21   21   2    2    9    19   32   27   
14th    PAS Giannina                    26   3    3    7    19   25   0    1    12   17   40   13   
9th     PAS Giannina                    26   5    3    5    28   26   3    3    7    20   26   30   
14th    PAS Giannina                    26   4    4    5    20   25   1    2    10   14   33   21   
13th    PAS Giannina                    26   4    2    7    15   20   2    2    9    15   28   22   
14th    PAS Giannina                    26   3    1    9    17   30   1    2    10   11   28   15   
13th    PAS Giannina                    26   2    6    5    21   23   3    1    9    14   24   22   
14th    PAS Giannina                    26   4    3    6    18   24   2    2    9    11   34   23   
12th    PAS Giannina                    26   3    4    6    18   29   2    5    6    17   23   24   
11th    PAS Giannina                    26   6    2    5    19   23   3    2    8    19   30   31   
13th    PAS Giannina                    26   4    5    4    20   17   1    3    9    21   39   23   
14th    PAS Giannina                    26   2    0    11   16   33   0    5    8    9    25   11   
13th    PAS Giannina                    26   3    4    6    16   19   3    1    9    12   22   23   
12th    PAS Giannina                    26   5    1    7    21   28   3    2    8    18   27   27   
13th    PAS Giannina                    26   4    2    7    22   30   0    4    9    19   36   18   
13th    PAS Giannina                    26   5    3    5    23   24   3    0    10   11   25   27   
14th    PAS Giannina                    26   5    2    6    21   23   2    1    10   10   29   24   
10th    PAS Giannina                    26   6    2    5    28   30   3    2    8    21   29   31   
14th    PAS Giannina                    26   1    6    6    18   27   1    2    10   19   36   14   
11th    PAS Giannina                    26   4    2    7    22   28   2    4    7    15   25   24   
12th    PAS Giannina                    26   4    5    4    19   21   3    4    6    21   26   30   
7th     PAS Giannina                    26   5    2    6    25   28   3    6    4    25   34   32   
7th     PAS Giannina                    26   7    2    4    26   17   3    3    7    20   30   35   
14th    PAS Giannina                    26   6    0    7    27   28   0    3    10   13   30   21   
13th    PAS Giannina                    26   4    2    7    21   30   3    2    8    22   29   25   
14th    PAS Giannina                    26   4    3    6    18   32   0    3    10   18   35   18   
12th    PAS Giannina                    26   4    4    5    21   22   2    3    8    20   34   25   
14th    PAS Giannina                    26   3    4    6    29   33   2    3    8    19   32   22   
7th     PAS Giannina                    26   6    3    4    25   21   3    5    5    19   26   35   
8th     PAS Giannina                    26   7    1    5    26   22   4    1    8    14   23   35   
10th    PAS Giannina                    26   3    7    3    19   21   4    2    7    19   23   30   
7th     PAS Giannina                    26   6    3    4    26   20   4    2    7    19   27   35   
13th    PAS Giannina                    26   4    1    8    23   34   3    1    9    21   32   23   
14th    PAS Giannina                    26   2    3    8    17   29   1    1    11   11   28   13   
14th    PAS Giannina                    26   3    3    7    16   28   1    4    8    14   28   19   
14th    PAS Giannina                    26   3    2    8    16   26   3    2    8    14   21   22   
8th     PAS Giannina                    26   10   1    2    26   14   0    4    9    18   36   35   
14th    PAS Giannina                    26   3    2    8    22   33   3    0    10   13   29   20   
11th    PAS Giannina                    26   3    3    7    17   26   4    2    7    17   29   26   
13th    PAS Giannina                    26   3    4    6    18   25   3    1    9    14   32   23   
9th     PAS Giannina                    26   7    2    4    23   18   3    0    10   15   32   32   
12th    PAS Giannina                    26   4    4    5    20   21   1    6    6    16   23   25   
14th    PAS Giannina                    26   3    3    7    18   30   2    2    9    17   29   20   
13th    PAS Giannina                    26   7    2    4    33   26   1    4    8    18   31   30   
12th    PAS Giannina                    26   5    3    5    22   19   2    1    10   22   35   25   
10th    PAS Giannina                    26   6    5    2    18   17   2    3    8    17   25   32   
13th    PAS Giannina                    26   3    5    5    16   18   2    2    9    14   24   22   
10th    PAS Giannina                    26   6    4    3    31   23   2    5    6    22   29   33   
11th    PAS Giannina                    26   5    4    4    25   19   2    2    9    10   25   27   
14th    PAS Giannina                    26   3    3    7    19   24   0    1    12   11   33   13   
12th    PAS Giannina                    26   4    2    7    19   24   3    2    8    22   33   25   
14th    PAS Giannina                    26   2    6    5    23   25   1    0    12   11   38   15   
11th    PAS Giannina                    26   5    3    5    25   25   4    1    8    15   29   31   
14th    PAS Giannina                    26   4    3    6    31   33   2    0    11   13   35   21   
13th    PAS Giannina                    26   6    0    7    23   22   2    3    8    15   28   27   
12th    PAS Giannina                    26   4    1    8    23   27   3    3    7    14   28   25   
14th    PAS Giannina                    26   4    2    7    16   29   1    2    10   12   25   19   
13th    PAS Giannina                    26   4    2    7    26   29   2    2    9    15   35   22   
12th    PAS Giannina                    26   5    5    3    24   22   2    2    9    14   27   28   
6th     PAS Giannina                    26   7    4    2    28   23   2    5    6    18   24   36   