10th    PAS Giannina                    26   6    1    6    29   30   3    4    6    13   27   32
14th    PAS Giannina                    26   3    2    8    21   30   0    5    8    13   29   16
13th    PAS Giannina                    26   6    2    5    22   20   1    2    10   15   34   25
10th    PAS Giannina                    26   6    3    4    21   16   2    6    5    21   25   33
9th     PAS Giannina                    26   7    2    4    30   20   3    1    9    24   37   33
9th     PAS Giannina                    26   4    4    5    24   26   4    3    6    23   24   31
14th    PAS Giannina                    26   3    1    9    20   32   1    0    12   13   33   13
5th     PAS Giannina                    26   7    2    4    30   17   3    4    6    15   21   36
14th    PAS Giannina                    26   2    4    7    26   38   1    1    11   18   34   14
12th    PAS Giannina                    26   6    2    5    29   22   1    2    10   15   33   25
14th    PAS Giannina                    26   2    2    9    17   26   1    3    9    19   31   14
9th     PAS Giannina                    26   6    3    4    22   17   3    2    8    13   29   32
14th    PAS Giannina                    26   3    5    5    31   31   0    3    10   17   39   17
13th    PAS Giannina                    26   4    4    5    24   28   1    2    10   15   38   21
13th    PAS Giannina                    26   4    3    6    17   19   3    3    7    14   24   27
6th     PAS Giannina                    26   10   1    2    29   11   2    2    9    20   39   39
14th    PAS Giannina                    26   2    3    8    18   28   1    1    11   14   39   13
4th     PAS Giannina                    26   7    2    4    28   19   5    3    5    19   20   41
7th     PAS Giannina                    26   5    6    2    21   16   4    2    7    20   27   35
11th    PAS Giannina                    26   6    3    4    26   22   2    4    7    10   22   31
10th    PAS Giannina                    26   7    4    2    32   19   1    3    9    19   34   31
10th    PAS Giannina                    26   6    2    5    26   25   4    0    9    18   24   32
11th    PAS Giannina                    26   3    6    4    19   20   4    2    7    23   32   29
14th    PAS Giannina                    26   4    4    5    18   21   1    2    10   17   39   21
11th    PAS Giannina                    26   5    7    1    23   16   3    0    10   18   33   31
12th    PAS Giannina                    26   5    5    3    30   26   2    0    11   15   33   26
13th    PAS Giannina                    26   5    1    7    21   25   2    4    7    17   31   26
12th    PAS Giannina                    26   5    3    5    28   28   1    3    9    20   31   24
13th    PAS Giannina                    26   6    3    4    20   16   1    2    10   19   35   26
7th     PAS Giannina                    26   7    3    3    27   20   3    2    8    21   26   35
13th    PAS Giannina                    26   4    3    6    19   24   3    3    7    16   26   27
11th    PAS Giannina                    26   6    3    4    30   21   2    1    10   15   34   28
12th    PAS Giannina                    26   4    1    8    20   24   4    1    8    18   26   26
7th     PAS Giannina                    26   6    5    2    30   19   3    3    7    22   32   35
10th    PAS Giannina                    26   6    2    5    30   25   2    2    9    21   34   28
14th    PAS Giannina                    26   2    4    7    26   31   0    3    10   14   35   13
12th    PAS Giannina                    26   6    4    3    22   20   1    1    11   13   38   26
9th     PAS Giannina                    26   7    3    3    22   21   4    1    8    17   26   37
14th    PAS Giannina                    26   2    2    9    15   28   1    1    11   14   37   12
5th     PAS Giannina                    26   9    0    4    28   19   3    4    6    21   27   40
13th    PAS Giannina                    26   3    2    8    20   27   3    1    9    15   32   21
14th    PAS Giannina                    26   2    4    7    19   25   3    4    6    19   28   23
11th    PAS Giannina                    26   5    4    4    28   22   2    3    8    17   28   28
13th    PAS Giannina                    26   5    1    7    24   23   2    1    10   15   33   23
8th     PAS Giannina                    26   7    3    3    29   16   3    1    9    19   28   34
13th    PAS Giannina                    26   4    2    7    18   23   1    4    8    13   25   21
14th    PAS Giannina                    26   4    3    6    22   21   2    2    9    14   32   23
14th    PAS Giannina                    26   5    2    6    22   24   1    1    11   12   29   21
10th    PAS Giannina                    26   7    2    4    32   27   2    2    9    19   34   31
8th     PAS Giannina                    26   6    1    6    24   24   5    3    5    23   24   37
12th    PAS Giannina                    26   5    3    5    21   24   2    3    8    21   30   27
10th    PAS Giannina                    26   6    4    3    26   20   2    3    8    18   33   31
14th    PAS Giannina                    26   8    0    5    30   21   0    0    13   12   35   24
12th    PAS Giannina                    26   5    3    5    29   31   1    2    10   13   33   23
11th    PAS Giannina                    26   6    4    3    21   15   2    3    8    20   32   31
10th    PAS Giannina                    26   5    5    3    24   18   2    5    6    19   27   31
10th    PAS Giannina                    26   8    1    4    29   18   1    3    9    19   34   31
7th     PAS Giannina                    26   7    4    2    24   17   4    0    9    16   23   37
12th    PAS Giannina                    26   5    6    2    25   21   3    0    10   16   34   30
8th     PAS Giannina                    26   6    5    2    25   18   4    0    9    20   32   35
12th    PAS Giannina                    26   4    5    4    22   21   3    2    8    19   26   28
13th    PAS Giannina                    26   4    7    2    23   19   0    6    7    18   32   25
14th    PAS Giannina                    26   5    3    5    22   26   1    2    10   16   33   23
12th    PAS Giannina                    26   4    6    3    22   15   1    3    9    16   27   24
11th    PAS Giannina                    26   8    2    3    30   22   0    4    9    14   28   30
12th    PAS Giannina                    26   4    5    4    22   19   3    2    8    22   34   28
6th     PAS Giannina                    26   7    1    5    21   13   5    3    5    21   24   40
9th     PAS Giannina                    26   6    4    3    22   16   2    5    6    19   33   33
13th    PAS Giannina                    26   4    2    7    22   21   1    3    9    22   40   20
7th     PAS Giannina                    26   6    3    4    24   19   4    1    8    20   29   34
11th    PAS Giannina                    26   5    3    5    15   16   3    2    8    13   30   29
10th    PAS Giannina                    26   8    1    4    25   21   2    0    11   20   37   31
9th     PAS Giannina                    26   5    7    1    26   18   2    3    8    15   28   31
14th    PAS Giannina                    26   2    5    6    20   26   1    3    9    16   32   17
12th    PAS Giannina                    26   6    4    3    24   21   1    3    9    15   33   28
12th    PAS Giannina                    26   5    3    5    17   22   2    2    9    12   32   26
13th    PAS Giannina                    26   4    4    5    20   24   1    2    10   25   39   21
14th    PAS Giannina                    26   4    2    7    14   24   2    2    9    15   31   22
14th    PAS Giannina                    26   1    1    11   17   35   0    2    11   15   37   6
14th    PAS Giannina                    26   3    2    8    16   19   2    2    9    19   34   19
14th    PAS Giannina                    26   2    2    9    24   32   1    1    11   15   42   12
14th    PAS Giannina                    26   3    2    8    17   34   1    3    9    8    26   17
14th    PAS Giannina                    26   5    3    5    27   24   0    2    11   11   37   20
14th    PAS Giannina                    26   3    4    6    20   22   3    1    9    24   34   23
13th    PAS Giannina                    26   5    4    4    18   18   1    4    8    11   25   26
8th     PAS Giannina                    26   9    0    4    29   24   2    1    10   18   37   34
10th    PAS Giannina                    26   6    2    5    27   23   4    2    7    24   28   34
11th    PAS Giannina                    26   7    1    5    23   27   2    2    9    12   31   30
9th     PAS Giannina                    26   6    2    5    26   27   3    5    5    22   27   34
13th    PAS Giannina                    26   7    2    4    28   21   0    4    9    16   34   27
5th     PAS Giannina                    26   6    4    3    29   24   5    2    6    20   26   39
13th    PAS Giannina                    26   4    3    6    23   27   1    2    10   16   35   20
14th    PAS Giannina                    26   4    2    7    22   25   2    2    9    14   28   22
13th    PAS Giannina                    26   3    3    7    26   31   3    2    8    15   27   23
11th    PAS Giannina                    26   6    3    4    19   17   1    4    8    18   30   28
10th    PAS Giannina                    26   6    3    4    23   20   0    6    7    11   23   27
9th     PAS Giannina                    26   6    5    2    27   20   1    3    9    15   29   29
12th    PAS Giannina                    26   6    0    7    29   29   2    3    8    21   31   27
14th    PAS Giannina                    26   1    7    5    16   21   4    2    7    20   28   24
11th    PAS Giannina                    26   6    2    5    22   27   3    2    8    16   28   31