9th     PAS Giannina                    26   7    2    4    21   16   3    4    6    13   19   36
4th     PAS Giannina                    26   9    2    2    21   8    3    3    7    12   19   41
12th    PAS Giannina                    26   4    5    4    21   22   3    3    7    13   20   29
7th     PAS Giannina                    26   6    1    6    20   15   4    4    5    16   18   35
4th     PAS Giannina                    26   7    1    5    27   22   4    5    4    17   18   39
11th    PAS Giannina                    26   6    3    4    21   18   2    4    7    16   26   31
2nd     PAS Giannina                    26   11   2    0    27   10   3    5    5    16   19   49
10th    PAS Giannina                    26   4    3    6    21   22   3    3    7    17   21   27
12th    PAS Giannina                    26   6    4    3    24   15   1    2    10   17   28   27
3rd     PAS Giannina                    26   8    2    3    20   15   3    4    6    16   20   39
10th    PAS Giannina                    26   7    3    3    23   12   2    2    9    6    24   32
7th     PAS Giannina                    26   6    4    3    22   15   4    1    8    16   21   35
6th     PAS Giannina                    26   5    4    4    21   20   4    5    4    13   15   36
4th     PAS Giannina                    26   8    4    1    24   12   3    4    6    15   23   41
7th     PAS Giannina                    26   6    5    2    21   12   3    2    8    18   23   34
2nd     PAS Giannina                    26   10   2    1    28   15   5    3    5    20   19   50
4th     PAS Giannina                    26   8    1    4    18   12   4    4    5    15   11   41
2nd     PAS Giannina                    26   10   2    1    28   8    2    4    7    17   24   42
4th     PAS Giannina                    26   7    4    2    25   16   3    7    3    15   17   41
10th    PAS Giannina                    26   3    6    4    18   16   4    2    7    16   24   29
4th     PAS Giannina                    26   6    4    3    22   14   5    1    7    18   18   38
6th     PAS Giannina                    26   5    2    6    20   16   5    3    5    15   16   35
2nd     PAS Giannina                    26   7    5    1    25   14   4    5    4    16   15   43
7th     PAS Giannina                    26   9    1    3    26   11   2    2    9    12   21   36
13th    PAS Giannina                    26   4    5    4    23   21   2    2    9    8    18   25
9th     PAS Giannina                    26   7    3    3    21   13   2    3    8    13   26   33
13th    PAS Giannina                    26   4    3    6    21   24   1    7    5    14   20   25
4th     PAS Giannina                    26   8    3    2    23   11   2    5    6    21   28   38
2nd     PAS Giannina                    26   6    3    4    23   17   10   0    3    18   14   51
14th    PAS Giannina                    26   2    1    10   14   26   2    5    6    12   20   18
2nd     PAS Giannina                    26   7    5    1    28   16   6    5    2    20   15   49
6th     PAS Giannina                    26   7    4    2    31   19   5    1    7    18   18   41
13th    PAS Giannina                    26   3    2    8    11   18   2    5    6    15   20   22
5th     PAS Giannina                    26   5    6    2    23   18   6    2    5    21   18   41
4th     PAS Giannina                    26   9    1    3    26   13   4    1    8    14   25   41
4th     PAS Giannina                    26   8    2    3    21   11   3    3    7    16   21   38
3rd     PAS Giannina                    26   8    3    2    30   22   5    5    3    16   12   47
3rd     PAS Giannina                    26   7    4    2    28   21   5    5    3    13   14   45
5th     PAS Giannina                    26   7    3    3    18   14   5    2    6    17   19   41
3rd     PAS Giannina                    26   8    4    1    26   10   3    5    5    24   23   42
5th     PAS Giannina                    26   6    3    4    19   17   4    4    5    17   16   37
7th     PAS Giannina                    26   6    4    3    26   20   3    5    5    14   15   36
11th    PAS Giannina                    26   6    4    3    19   11   1    3    9    12   25   28
5th     PAS Giannina                    26   7    3    3    23   15   4    1    8    12   19   37
9th     PAS Giannina                    26   5    3    5    18   16   3    3    7    10   17   30
10th    PAS Giannina                    26   4    3    6    16   19   5    2    6    16   16   32
6th     PAS Giannina                    26   9    3    1    28   14   3    2    8    7    19   41
6th     PAS Giannina                    26   7    3    3    24   13   3    4    6    19   25   37
3rd     PAS Giannina                    26   10   0    3    24   11   3    4    6    8    14   43
5th     PAS Giannina                    26   7    4    2    24   15   5    4    4    16   20   44
6th     PAS Giannina                    26   5    5    3    20   13   5    3    5    13   16   38
8th     PAS Giannina                    26   6    3    4    21   15   3    5    5    18   22   35
7th     PAS Giannina                    26   7    3    3    19   11   3    3    7    17   24   36
5th     PAS Giannina                    26   7    3    3    19   15   4    6    3    15   15   42
5th     PAS Giannina                    26   7    1    5    18   11   4    3    6    9    18   37
3rd     PAS Giannina                    26   7    4    2    25   19   5    4    4    16   17   44
8th     PAS Giannina                    26   7    2    4    19   15   3    4    6    11   18   36
6th     PAS Giannina                    26   7    3    3    21   14   4    2    7    17   20   38
4th     PAS Giannina                    26   7    3    3    28   14   4    4    5    16   17   40
7th     PAS Giannina                    26   5    4    4    18   15   5    0    8    14   22   34
11th    PAS Giannina                    26   4    6    3    21   15   3    4    6    12   21   31
6th     PAS Giannina                    26   6    2    5    17   12   4    4    5    16   15   36
3rd     PAS Giannina                    26   7    4    2    22   15   5    4    4    20   19   44
2nd     PAS Giannina                    26   8    1    4    19   15   5    5    3    18   14   45
11th    PAS Giannina                    26   4    4    5    17   21   2    2    9    14   25   24
11th    PAS Giannina                    26   4    5    4    17   17   3    5    5    12   14   31
8th     PAS Giannina                    26   9    2    2    24   13   2    3    8    12   29   38
3rd     PAS Giannina                    26   5    5    3    25   19   7    3    3    23   15   44
4th     PAS Giannina                    26   7    3    3    20   15   4    5    4    17   15   41
1st      PAS Giannina                    26   11   1    1    29   14   6    2    5    19   20   54
4th     PAS Giannina                    26   8    4    1    22   10   4    2    7    14   20   42
5th     PAS Giannina                    26   9    2    2    28   13   3    2    8    15   21   40
3rd     PAS Giannina                    26   10   1    2    24   13   3    4    6    18   19   44
4th     PAS Giannina                    26   8    3    2    23   13   5    3    5    17   19   45
5th     PAS Giannina                    26   6    4    3    27   22   6    3    4    17   11   43
9th     PAS Giannina                    26   5    6    2    24   18   3    4    6    12   21   34
7th     PAS Giannina                    26   7    3    3    27   19   3    4    6    14   18   37
2nd     PAS Giannina                    26   9    0    4    26   10   5    3    5    18   16   45
9th     PAS Giannina                    26   5    1    7    16   17   3    5    5    11   13   30
10th    PAS Giannina                    26   7    1    5    23   18   2    4    7    8    18   32
9th     PAS Giannina                    26   6    6    1    29   17   1    5    7    10   18   32
7th     PAS Giannina                    26   7    4    2    18   12   2    3    8    15   22   34
14th    PAS Giannina                    26   5    4    4    16   15   1    3    9    10   24   25
3rd     PAS Giannina                    26   8    4    1    24   14   5    1    7    21   24   44
10th    PAS Giannina                    26   4    4    5    15   13   5    1    7    14   21   32
2nd     PAS Giannina                    26   7    5    1    20   12   3    6    4    15   14   41
4th     PAS Giannina                    26   7    5    1    24   16   5    2    6    16   19   43
4th     PAS Giannina                    26   9    3    1    25   13   3    4    6    14   18   43
5th     PAS Giannina                    26   7    1    5    26   18   3    5    5    11   17   36
11th    PAS Giannina                    26   6    5    2    22   16   1    2    10   3    19   28
3rd     PAS Giannina                    26   6    3    4    19   15   5    3    5    15   12   39
6th     PAS Giannina                    26   9    4    0    26   10   1    3    9    12   25   37
2nd     PAS Giannina                    26   7    5    1    28   15   5    4    4    16   14   45
6th     PAS Giannina                    26   9    1    3    25   12   2    2    9    9    18   36
2nd     PAS Giannina                    26   10   1    2    33   19   6    5    2    19   13   54
11th    PAS Giannina                    26   4    3    6    21   20   3    6    4    18   19   30
5th     PAS Giannina                    26   8    3    2    21   8    3    3    7    14   21   39
13th    PAS Giannina                    26   1    4    8    15   25   3    4    6    13   18   20
6th     PAS Giannina                    26   7    4    2    29   16   3    6    4    14   14   40
6th     PAS Giannina                    26   6    3    4    14   10   3    4    6    17   22   34