5th     PAS Giannina                    26   10   0    3    32   16   3    3    7    15   23   42
8th     PAS Giannina                    26   6    3    4    29   26   3    3    7    24   27   33
5th     PAS Giannina                    26   9    1    3    34   19   4    1    8    17   26   41
7th     PAS Giannina                    26   9    2    2    26   20   1    4    8    21   32   36
7th     PAS Giannina                    26   6    5    2    32   20   4    2    7    21   27   37
7th     PAS Giannina                    26   7    3    3    29   23   5    0    8    21   31   39
5th     PAS Giannina                    26   6    5    2    26   20   5    3    5    19   23   41
4th     PAS Giannina                    26   9    4    0    43   24   3    2    8    20   28   42
8th     PAS Giannina                    26   7    4    2    30   20   1    6    6    20   29   34
4th     PAS Giannina                    26   7    4    2    34   23   5    3    5    22   23   43
5th     PAS Giannina                    26   9    2    2    35   22   2    3    8    24   35   38
11th    PAS Giannina                    26   5    2    6    18   22   4    2    7    20   24   31
4th     PAS Giannina                    26   9    1    3    31   24   3    5    5    14   22   42
12th    PAS Giannina                    26   8    1    4    32   26   1    3    9    16   28   31
9th     PAS Giannina                    26   6    4    3    21   16   3    2    8    20   28   33
6th     PAS Giannina                    26   6    2    5    29   21   4    4    5    26   32   36
2nd     PAS Giannina                    26   9    1    3    40   23   5    4    4    25   20   47
7th     PAS Giannina                    26   6    4    3    25   19   4    2    7    24   25   36
10th    PAS Giannina                    26   8    2    3    27   17   1    3    9    13   27   32
6th     PAS Giannina                    26   6    4    3    26   24   4    3    6    22   25   37
7th     PAS Giannina                    26   8    1    4    28   17   4    0    9    18   23   37
6th     PAS Giannina                    26   7    2    4    30   26   3    5    5    28   31   37
3rd     PAS Giannina                    26   7    4    2    30   17   4    4    5    25   28   41
9th     PAS Giannina                    26   3    6    4    17   25   4    3    6    18   24   30
13th     PAS Giannina                    26   4    4    5    24   23   3    2    8    20   26   27
8th     PAS Giannina                    26   6    4    3    22   15   2    8    3    26   29   36
4th     PAS Giannina                    26   9    1    3    33   17   3    4    6    22   30   41
10th    PAS Giannina                    26   8    1    4    25   22   1    3    9    16   31   31
3rd     PAS Giannina                    26   10   3    0    36   19   5    3    5    23   22   51
3rd     PAS Giannina                    26   8    1    4    28   22   6    2    5    21   21   45
6th     PAS Giannina                    26   7    2    4    29   20   4    1    8    17   22   36
2nd     PAS Giannina                    26   11   2    0    31   13   3    5    5    26   27   49
5th     PAS Giannina                    26   4    6    3    25   20   6    2    5    28   27   38
4th     PAS Giannina                    26   8    3    2    32   23   4    4    5    21   22   43
9th     PAS Giannina                    26   3    7    3    21   21   5    1    7    21   26   32
3rd     PAS Giannina                    26   10   2    1    35   18   2    5    6    19   34   43
6th     PAS Giannina                    26   6    4    3    28   19   4    1    8    26   35   35
3rd     PAS Giannina                    26   8    2    3    36   22   4    4    5    27   28   42
6th     PAS Giannina                    26   6    2    5    26   24   5    3    5    20   18   38
4th     PAS Giannina                    26   10   2    1    32   11   3    1    9    21   30   42
4th     PAS Giannina                    26   7    3    3    29   21   3    4    6    20   23   37
5th     PAS Giannina                    26   8    2    3    29   17   3    3    7    21   28   38
6th     PAS Giannina                    26   7    2    4    25   18   5    2    6    17   21   40
13th     PAS Giannina                    26   5    3    5    22   15   1    4    8    19   33   25
7th     PAS Giannina                    26   6    1    6    22   21   5    2    6    27   29   36
2nd     PAS Giannina                    26   9    3    1    40   21   2    4    7    19   28   40
2nd     PAS Giannina                    26   9    1    3    39   24   4    4    5    22   25   44
3rd     PAS Giannina                    26   9    2    2    28   16   5    2    6    26   27   46
4th     PAS Giannina                    26   8    2    3    30   19   4    2    7    16   22   40
2nd     PAS Giannina                    26   9    2    2    33   19   6    3    4    23   20   50
10th    PAS Giannina                    26   5    4    4    27   20   3    3    7    22   27   31
3rd     PAS Giannina                    26   8    2    3    30   18   6    3    4    30   26   47
12th    PAS Giannina                    26   5    5    3    23   22   1    5    7    15   28   28
9th     PAS Giannina                    26   7    3    3    32   20   3    3    7    18   23   36
1st     PAS Giannina                    26   9    4    0    43   18   5    5    3    25   23   51
2nd     PAS Giannina                    26   8    4    1    28   15   5    2    6    19   20   45
2nd     PAS Giannina                    26   9    3    1    31   17   5    5    3    23   23   50
6th     PAS Giannina                    26   9    1    3    27   13   4    0    9    15   29   40
7th     PAS Giannina                    26   7    0    6    24   23   3    6    4    25   27   36
3rd     PAS Giannina                    26   7    4    2    27   17   4    6    3    27   25   43
13th     PAS Giannina                    26   4    4    5    22   20   1    3    9    16   31   22
8th     PAS Giannina                    26   6    3    4    27   20   4    2    7    20   28   35
3rd     PAS Giannina                    26   10   2    1    31   12   3    3    7    15   29   44
4th     PAS Giannina                    26   6    2    5    24   20   6    3    4    26   28   41
3rd     PAS Giannina                    26   6    2    5    30   28   6    3    4    25   21   41
6th     PAS Giannina                    26   4    7    2    29   28   5    3    5    18   20   37
13th     PAS Giannina                    26   7    1    5    22   19   0    4    9    16   32   26
3rd     PAS Giannina                    26   8    2    3    30   21   6    2    5    31   27   46
8th     PAS Giannina                    26   8    0    5    35   28   2    3    8    23   30   33
2nd     PAS Giannina                    26   6    5    2    24   16   5    4    4    25   26   42
11th    PAS Giannina                    26   5    2    6    35   31   3    2    8    14   27   28
10th    PAS Giannina                    26   8    2    3    30   18   2    2    9    21   35   34
12th    PAS Giannina                    26   5    3    5    18   21   1    4    8    18   31   25
6th     PAS Giannina                    26   6    1    6    24   24   4    4    5    27   28   35
2nd     PAS Giannina                    26   9    2    2    33   17   4    3    6    20   25   44
8th     PAS Giannina                    26   6    2    5    27   24   4    2    7    18   26   34
9th     PAS Giannina                    26   7    1    5    26   23   2    5    6    17   27   33
5th     PAS Giannina                    26   8    2    3    29   20   4    2    7    18   26   40
2nd     PAS Giannina                    26   7    4    2    29   23   6    4    3    30   26   47
2nd     PAS Giannina                    26   8    1    4    29   20   4    4    5    23   25   41
1st     PAS Giannina                    26   10   2    1    30   15   7    2    4    28   22   55
6th     PAS Giannina                    26   6    2    5    30   24   5    1    7    18   21   36
8th     PAS Giannina                    26   6    4    3    24   21   4    1    8    20   31   35
3rd     PAS Giannina                    26   8    3    2    22   10   5    1    7    21   25   43
7th     PAS Giannina                    26   9    1    3    28   14   2    1    10   18   30   35
11th    PAS Giannina                    26   6    4    3    35   27   1    5    7    20   31   30
11th    PAS Giannina                    26   5    5    3    26   18   3    2    8    13   22   31
3rd     PAS Giannina                    26   8    3    2    32   18   5    3    5    30   27   45
8th     PAS Giannina                    26   7    2    4    30   21   3    2    8    22   29   34
6th     PAS Giannina                    26   5    6    2    23   17   5    2    6    27   26   38
9th     PAS Giannina                    26   5    3    5    27   25   4    2    7    18   25   32
2nd     PAS Giannina                    26   11   1    1    35   17   5    1    7    26   27   50
6th     PAS Giannina                    26   8    2    3    31   19   2    3    8    18   32   35
7th     PAS Giannina                    26   7    1    5    24   18   5    1    7    19   19   38
10th    PAS Giannina                    26   6    5    2    32   20   1    5    7    18   33   31
8th     PAS Giannina                    26   7    4    2    33   20   3    2    8    17   29   36
5th     PAS Giannina                    26   9    0    4    31   13   3    1    9    19   30   37
9th     PAS Giannina                    26   6    5    2    31   18   2    2    9    24   36   31
2nd     PAS Giannina                    26   8    2    3    26   21   6    5    2    21   18   49
7th     PAS Giannina                    26   7    3    3    26   21   3    4    6    22   31   37