1st     PAS Giannina                    26   12   1    0    42   14   10   2    1    36   14   69
1st     PAS Giannina                    26   11   1    1    39   15   9    1    3    23   11   62
1st     PAS Giannina                    26   12   0    1    37   15   5    4    4    18   15   55
1st     PAS Giannina                    26   12   1    0    28   5    10   3    0    35   8    70
1st     PAS Giannina                    26   10   3    0    34   10   5    6    2    30   21   54
1st     PAS Giannina                    26   11   2    0    31   9    11   1    1    29   7    69
1st     PAS Giannina                    26   12   1    0    35   16   12   1    0    34   10   74
1st     PAS Giannina                    26   10   1    2    26   10   10   2    1    33   13   63
1st     PAS Giannina                    26   10   1    2    30   8    10   2    1    33   8    63
1st     PAS Giannina                    26   11   2    0    35   12   7    5    1    23   9    61
1st     PAS Giannina                    26   9    1    3    33   17   11   1    1    33   13   62
1st     PAS Giannina                    26   10   3    0    38   15   10   1    2    28   12   64
1st     PAS Giannina                    26   7    5    1    30   15   11   1    1    32   12   60
1st     PAS Giannina                    26   12   1    0    36   16   11   2    0    30   12   72
1st     PAS Giannina                    26   13   0    0    35   8    8    3    2    24   13   66
1st     PAS Giannina                    26   8    5    0    35   12   6    4    3    24   15   51
1st     PAS Giannina                    26   10   2    1    31   9    9    3    1    30   12   62
1st     PAS Giannina                    26   11   2    0    31   9    10   2    1    41   16   67
1st     PAS Giannina                    26   9    3    1    29   16   9    2    2    30   15   59
1st     PAS Giannina                    26   10   2    1    29   12   10   3    0    30   11   65
1st     PAS Giannina                    26   9    4    0    31   11   6    5    2    37   21   54
1st     PAS Giannina                    26   9    3    1    30   12   9    2    2    37   14   59
1st     PAS Giannina                    26   9    3    1    25   8    9    4    0    37   14   61
1st     PAS Giannina                    26   12   1    0    31   11   9    2    2    29   18   66
1st     PAS Giannina                    26   11   1    1    34   9    11   2    0    43   7    69
1st     PAS Giannina                    26   12   0    1    36   10   11   1    1    39   16   70
1st     PAS Giannina                    26   11   1    1    40   13   8    2    3    30   17   60
1st     PAS Giannina                    26   12   1    0    32   8    11   1    1    40   21   71
1st     PAS Giannina                    26   10   1    2    27   8    9    4    0    29   9    62
1st     PAS Giannina                    26   11   1    1    36   11   10   2    1    30   11   66
1st     PAS Giannina                    26   9    3    1    33   10   10   1    2    33   17   61
1st     PAS Giannina                    26   10   1    2    32   7    9    3    1    35   12   61
1st     PAS Giannina                    26   10   3    0    39   15   9    3    1    31   15   63
1st     PAS Giannina                    26   13   0    0    45   8    11   1    1    38   16   73
1st     PAS Giannina                    26   11   1    1    32   13   9    3    1    30   11   64
2nd     PAS Giannina                    26   9    3    1    39   18   7    4    2    27   15   55
2nd     PAS Giannina                    26   7    4    2    24   11   7    4    2    26   13   50
1st     PAS Giannina                    26   9    2    2    30   7    8    3    2    30   15   56
1st     PAS Giannina                    26   12   0    1    32   9    9    1    3    26   14   64
1st     PAS Giannina                    26   11   1    1    34   17   6    4    3    26   16   56
2nd     PAS Giannina                    26   9    2    2    31   19   9    2    2    33   9    58
1st     PAS Giannina                    26   12   0    1    43   13   6    4    3    26   18   58
1st     PAS Giannina                    26   11   2    0    32   9    6    6    1    21   14   59
2nd     PAS Giannina                    26   10   0    3    34   20   8    3    2    23   8    57
1st     PAS Giannina                    26   13   0    0    30   6    7    5    1    31   17   65
1st     PAS Giannina                    26   11   2    0    30   7    10   3    0    31   12   68
1st     PAS Giannina                    26   12   0    1    39   12   9    3    1    28   14   66
1st     PAS Giannina                    26   10   2    1    29   10   5    4    4    21   17   51
1st     PAS Giannina                    26   10   2    1    30   10   8    4    1    26   11   60
1st     PAS Giannina                    26   12   1    0    39   11   8    4    1    28   14   65
1st     PAS Giannina                    26   9    2    2    36   14   8    5    0    28   10   58
1st     PAS Giannina                    26   11   1    1    44   12   10   1    2    34   14   65
1st     PAS Giannina                    26   9    4    0    30   9    10   2    1    29   11   63
1st     PAS Giannina                    26   12   1    0    43   6    7    3    3    28   15   61
1st     PAS Giannina                    26   12   0    1    36   6    11   2    0    31   11   71
1st     PAS Giannina                    26   11   2    0    40   12   10   1    2    29   12   66
1st     PAS Giannina                    26   10   2    1    32   8    9    3    1    29   11   62
1st     PAS Giannina                    26   13   0    0    31   7    9    3    1    27   11   69
1st     PAS Giannina                    26   12   0    1    43   16   8    3    2    36   19   63
1st     PAS Giannina                    26   12   0    1    37   15   11   0    2    31   12   69
1st     PAS Giannina                    26   12   1    0    40   13   10   3    0    39   16   70
1st     PAS Giannina                    26   11   2    0    36   12   9    4    0    27   10   66
1st     PAS Giannina                    26   9    4    0    35   13   8    4    1    23   11   59
1st     PAS Giannina                    26   11   0    2    31   13   10   2    1    33   13   65
1st     PAS Giannina                    26   10   1    2    27   7    10   3    0    38   9    64
1st     PAS Giannina                    26   12   1    0    35   10   7    1    5    28   15   59
1st     PAS Giannina                    26   9    1    3    35   13   7    2    4    23   10   51
1st     PAS Giannina                    26   10   3    0    35   14   11   1    1    33   15   67
2nd     PAS Giannina                    26   8    3    2    26   12   7    2    4    20   12   50
1st     PAS Giannina                    26   12   1    0    33   10   8    3    2    27   13   64
1st     PAS Giannina                    26   10   1    2    36   15   7    2    4    26   16   54
1st     PAS Giannina                    26   12   1    0    34   11   13   0    0    31   8    76
1st     PAS Giannina                    26   12   1    0    30   6    5    2    6    19   13   54
1st     PAS Giannina                    26   12   1    0    31   11   8    3    2    23   13   64
1st     PAS Giannina                    26   11   2    0    33   9    10   2    1    26   11   67
1st     PAS Giannina                    26   10   2    1    39   18   10   2    1    34   12   64
1st     PAS Giannina                    26   11   2    0    41   14   8    3    2    28   14   62
1st     PAS Giannina                    26   10   2    1    28   10   9    2    2    25   12   61
1st     PAS Giannina                    26   10   2    1    31   9    10   1    2    32   10   63
1st     PAS Giannina                    26   10   0    3    36   14   10   0    3    28   12   60
1st     PAS Giannina                    26   12   1    0    30   8    11   2    0    34   12   72
2nd     PAS Giannina                    26   9    2    2    30   12   7    2    4    27   22   52
1st     PAS Giannina                    26   10   1    2    29   9    9    0    4    33   16   58
1st     PAS Giannina                    26   11   1    1    38   14   10   3    0    33   10   67
2nd     PAS Giannina                    26   9    4    0    31   14   6    4    3    27   14   53
2nd     PAS Giannina                    26   10   1    2    34   16   8    3    2    27   16   58
1st     PAS Giannina                    26   10   2    1    28   12   9    2    2    32   14   61
1st     PAS Giannina                    26   12   1    0    34   8    11   1    1    25   6    71
1st     PAS Giannina                    26   11   2    0    36   11   10   1    2    31   13   66
1st     PAS Giannina                    26   11   2    0    33   10   9    2    2    33   11   64
1st     PAS Giannina                    26   12   0    1    34   10   10   3    0    34   10   69
1st     PAS Giannina                    26   11   2    0    39   13   8    3    2    23   10   62
1st     PAS Giannina                    26   11   2    0    30   11   10   3    0    33   16   68
1st     PAS Giannina                    26   11   1    1    33   11   10   2    1    26   8    66
1st     PAS Giannina                    26   8    3    2    27   9    11   2    0    48   18   62
1st     PAS Giannina                    26   12   1    0    38   8    10   3    0    38   17   70
1st     PAS Giannina                    26   13   0    0    40   8    8    5    0    36   16   68
1st     PAS Giannina                    26   12   0    1    40   7    11   2    0    40   11   71
1st     PAS Giannina                    26   11   0    2    37   12   10   1    2    32   12   64
1st     PAS Giannina                    26   11   2    0    31   6    10   0    3    28   10   65