11th    PAS Giannina                    26   6    3    4    22   20   3    1    9    20   33   31
6th     PAS Giannina                    26   6    4    3    23   16   4    6    3    17   14   40
9th     PAS Giannina                    26   8    1    4    31   22   2    4    7    20   30   35
10th    PAS Giannina                    26   6    3    4    24   19   3    1    9    8    27   31
8th     PAS Giannina                    26   8    1    4    28   21   3    1    9    15   26   35
11th    PAS Giannina                    26   4    3    6    19   22   3    3    7    22   29   27
12th    PAS Giannina                    26   5    6    2    18   11   1    5    7    17   26   29
1st     PAS Giannina                    26   9    1    3    24   14   7    2    4    26   24   51
9th     PAS Giannina                    26   6    4    3    30   21   1    7    5    17   24   32
14th     PAS Giannina                    26   4    4    5    15   17   0    4    9    11   27   20
9th     PAS Giannina                    26   7    1    5    22   20   2    5    6    16   28   33
6th     PAS Giannina                    26   7    2    4    22   15   2    3    8    16   31   32
9th     PAS Giannina                    26   7    4    2    27   15   2    2    9    17   29   33
9th     PAS Giannina                    26   6    4    3    28   21   3    2    8    17   26   33
14th     PAS Giannina                    26   1    7    5    18   24   0    5    8    10   21   15
6th     PAS Giannina                    26   10   2    1    28   10   2    2    9    12   27   40
11th    PAS Giannina                    26   4    3    6    16   22   3    3    7    12   26   27
6th     PAS Giannina                    26   8    4    1    23   13   1    7    5    11   19   38
12th    PAS Giannina                    26   3    6    4    18   20   3    3    7    12   25   27
8th     PAS Giannina                    26   6    2    5    21   18   4    3    6    17   22   35
8th     PAS Giannina                    26   8    1    4    28   20   2    4    7    14   23   35
3rd     PAS Giannina                    26   9    2    2    25   18   4    5    4    21   20   46
10th    PAS Giannina                    26   7    4    2    31   23   2    1    10   19   34   32
12th    PAS Giannina                    26   3    5    5    21   20   3    2    8    22   32   25
6th     PAS Giannina                    26   8    2    3    27   15   5    1    7    19   28   42
4th     PAS Giannina                    26   9    2    2    30   21   3    4    6    20   23   42
11th    PAS Giannina                    26   6    1    6    23   22   4    4    5    20   24   35
5th     PAS Giannina                    26   6    2    5    22   19   5    3    5    21   25   38
2nd     PAS Giannina                    26   10   1    2    27   10   2    3    8    22   26   40
12th    PAS Giannina                    26   5    4    4    22   21   2    1    10   15   29   26
9th     PAS Giannina                    26   5    3    5    20   29   5    0    8    24   25   33
5th     PAS Giannina                    26   8    2    3    25   17   4    2    7    21   29   40
13th     PAS Giannina                    26   3    6    4    24   23   1    3    9    15   33   21
11th    PAS Giannina                    26   6    4    3    27   20   2    1    10   12   28   29
8th     PAS Giannina                    26   4    5    4    23   21   4    4    5    18   23   33
12th    PAS Giannina                    26   5    2    6    26   26   3    2    8    18   27   28
2nd     PAS Giannina                    26   10   2    1    32   14   5    0    8    20   27   47
11th    PAS Giannina                    26   6    3    4    25   19   3    0    10   23   35   30
11th    PAS Giannina                    26   8    1    4    26   18   1    1    11   11   32   29
6th     PAS Giannina                    26   7    3    3    21   15   3    4    6    20   24   37
11th    PAS Giannina                    26   5    2    6    21   20   3    2    8    17   24   28
11th    PAS Giannina                    26   5    5    3    28   22   2    3    8    15   23   29
7th     PAS Giannina                    26   5    5    3    24   25   4    2    7    17   26   34
4th     PAS Giannina                    26   7    6    0    25   12   4    1    8    16   27   40
8th     PAS Giannina                    26   8    4    1    30   16   1    3    9    18   33   34
2nd     PAS Giannina                    26   11   1    1    32   10   4    3    6    19   27   49
8th     PAS Giannina                    26   6    3    4    26   21   5    1    7    13   23   37
4th     PAS Giannina                    26   10   2    1    33   13   2    3    8    13   25   41
10th    PAS Giannina                    26   4    6    3    21   19   2    6    5    22   26   30
8th     PAS Giannina                    26   5    5    3    21   15   4    2    7    21   28   34
10th    PAS Giannina                    26   5    3    5    20   15   3    4    6    20   24   31
7th     PAS Giannina                    26   5    5    3    23   21   5    1    7    20   29   36
8th     PAS Giannina                    26   4    5    4    20   19   5    3    5    22   22   35
7th     PAS Giannina                    26   7    3    3    22   19   2    5    6    21   30   35
5th     PAS Giannina                    26   7    4    2    25   17   3    3    7    15   28   37
8th     PAS Giannina                    26   6    4    3    25   16   4    1    8    20   27   35
11th    PAS Giannina                    26   6    3    4    23   18   2    1    10   15   32   28
11th    PAS Giannina                    26   5    4    4    31   26   2    3    8    9    23   28
7th     PAS Giannina                    26   7    3    3    34   24   3    5    5    19   23   38
9th     PAS Giannina                    26   8    1    4    28   21   1    4    8    15   29   32
13th     PAS Giannina                    26   4    3    6    24   25   3    1    9    12   20   25
13th     PAS Giannina                    26   5    3    5    25   24   0    5    8    11   22   23
6th     PAS Giannina                    26   7    4    2    22   14   2    6    5    17   20   37
14th     PAS Giannina                    26   3    3    7    21   26   3    1    9    17   28   22
5th     PAS Giannina                    26   10   1    2    27   12   3    3    7    18   24   43
3rd     PAS Giannina                    26   7    2    4    28   18   5    3    5    25   23   41
5th     PAS Giannina                    26   6    5    2    28   18   3    5    5    19   22   37
9th     PAS Giannina                    26   6    4    3    20   17   4    1    8    15   26   35
13th     PAS Giannina                    26   2    4    7    17   26   4    2    7    17   23   24
4th     PAS Giannina                    26   8    2    3    25   16   3    4    6    16   24   39
11th    PAS Giannina                    26   5    3    5    22   15   2    2    9    13   22   26
10th    PAS Giannina                    26   5    6    2    25   15   2    3    8    15   26   30
12th    PAS Giannina                    26   6    1    6    27   22   2    4    7    15   24   29
3rd     PAS Giannina                    26   5    5    3    21   20   5    3    5    22   23   38
12th    PAS Giannina                    26   6    0    7    22   23   3    2    8    20   24   29
6th     PAS Giannina                    26   8    2    3    27   14   4    1    8    25   33   39
9th     PAS Giannina                    26   9    1    3    31   22   0    4    9    16   30   32
14th     PAS Giannina                    26   1    5    7    10   20   2    1    10   14   28   15
4th     PAS Giannina                    26   8    1    4    26   18   4    3    6    19   21   40
13th     PAS Giannina                    26   4    2    7    19   23   1    6    6    13   23   23
6th     PAS Giannina                    26   10   1    2    36   15   1    3    9    16   32   37
5th     PAS Giannina                    26   11   0    2    29   15   1    4    8    17   36   40
7th     PAS Giannina                    26   8    4    1    34   23   1    4    8    10   24   35
6th     PAS Giannina                    26   9    3    1    32   17   2    3    8    17   27   39
3rd     PAS Giannina                    26   8    3    2    25   15   4    4    5    18   19   43
7th     PAS Giannina                    26   5    5    3    20   18   4    2    7    24   29   34
7th     PAS Giannina                    26   6    3    4    24   22   3    6    4    22   24   36
10th    PAS Giannina                    26   6    6    1    19   13   2    0    11   13   26   30
10th    PAS Giannina                    26   8    2    3    20   14   0    5    8    19   34   31
13th     PAS Giannina                    26   3    4    6    22   25   3    1    9    15   24   23
5th     PAS Giannina                    26   9    2    2    32   15   3    2    8    16   28   40
13th     PAS Giannina                    26   5    2    6    19   18   1    4    8    14   31   24
10th    PAS Giannina                    26   6    2    5    23   17   4    0    9    17   22   32
3rd     PAS Giannina                    26   7    4    2    28   18   6    3    4    27   23   46
5th     PAS Giannina                    26   9    4    0    26   13   2    4    7    16   25   41
10th    PAS Giannina                    26   5    4    4    24   16   2    5    6    22   30   30
8th     PAS Giannina                    26   8    2    3    24   15   1    3    9    13   25   32
11th    PAS Giannina                    26   4    7    2    24   19   2    3    8    12   25   28
12th    PAS Giannina                    26   5    2    6    21   24   3    1    9    10   21   27
7th     PAS Giannina                    26   5    5    3    24   21   4    3    6    17   25   35