14th     PAS Giannina                    26   5    2    6    18   26   0    5    8    13   30   22
14th     PAS Giannina                    26   2    4    7    23   30   0    4    9    13   31   14
14th     PAS Giannina                    26   3    1    9    17   25   1    4    8    14   24   17
12th    PAS Giannina                    26   2    7    4    23   27   3    6    4    19   23   28
14th     PAS Giannina                    26   4    2    7    15   26   2    3    8    10   26   23
14th     PAS Giannina                    26   3    2    8    19   32   3    1    9    12   24   21
14th     PAS Giannina                    26   2    5    6    13   19   1    2    10   9    30   16
13th     PAS Giannina                    26   6    1    6    23   23   1    5    7    14   26   27
14th     PAS Giannina                    26   3    4    6    18   27   1    3    9    14   30   19
13th     PAS Giannina                    26   5    0    8    22   26   0    6    7    14   28   21
14th     PAS Giannina                    26   4    3    6    21   27   2    2    9    13   31   23
14th     PAS Giannina                    26   4    2    7    25   31   1    4    8    8    22   21
13th     PAS Giannina                    26   3    5    5    17   26   2    4    7    18   26   24
11th    PAS Giannina                    26   5    3    5    22   26   2    2    9    13   29   26
12th    PAS Giannina                    26   5    7    1    26   19   2    3    8    10   21   31
13th     PAS Giannina                    26   2    3    8    21   30   2    2    9    9    20   17
14th     PAS Giannina                    26   7    0    6    25   23   1    2    10   8    21   26
14th     PAS Giannina                    26   4    1    8    16   23   2    3    8    12   23   22
14th     PAS Giannina                    26   2    4    7    18   30   1    3    9    5    28   16
11th    PAS Giannina                    26   6    1    6    22   25   3    1    9    14   29   29
13th     PAS Giannina                    26   3    5    5    14   15   1    1    11   7    27   18
14th     PAS Giannina                    26   4    4    5    17   21   0    2    11   9    28   18
14th     PAS Giannina                    26   2    1    10   17   29   0    4    9    8    25   11
10th    PAS Giannina                    26   5    5    3    19   19   2    3    8    16   29   29
13th     PAS Giannina                    26   5    2    6    20   26   1    3    9    9    22   23
14th     PAS Giannina                    26   4    1    8    20   29   3    0    10   10   28   22
14th     PAS Giannina                    26   5    3    5    22   23   1    3    9    13   24   24
10th    PAS Giannina                    26   6    3    4    23   21   3    3    7    13   20   33
14th     PAS Giannina                    26   4    4    5    18   20   2    0    11   16   33   22
11th    PAS Giannina                    26   5    5    3    21   21   1    3    9    12   23   26
14th     PAS Giannina                    26   3    1    9    15   29   0    2    11   13   28   12
12th    PAS Giannina                    26   5    1    7    17   24   2    1    10   12   27   23
13th     PAS Giannina                    26   3    2    8    15   27   3    2    8    13   27   22
13th     PAS Giannina                    26   3    5    5    20   25   2    2    9    13   28   22
14th     PAS Giannina                    26   6    2    5    20   23   0    2    11   7    34   22
14th     PAS Giannina                    26   1    4    8    14   28   2    2    9    15   28   15
14th     PAS Giannina                    26   1    5    7    13   25   3    3    7    9    21   20
14th     PAS Giannina                    26   1    3    9    18   32   1    4    8    11   26   13
13th     PAS Giannina                    26   4    3    6    18   21   2    1    10   10   26   22
12th    PAS Giannina                    26   6    1    6    20   24   2    4    7    19   25   29
13th     PAS Giannina                    26   3    5    5    23   25   1    3    9    9    25   20
8th     PAS Giannina                    26   8    1    4    25   20   3    2    8    14   27   36
13th     PAS Giannina                    26   5    1    7    13   24   2    0    11   16   35   22
12th    PAS Giannina                    26   4    4    5    22   24   2    1    10   14   28   23
13th     PAS Giannina                    26   3    5    5    21   22   0    5    8    12   28   19
10th    PAS Giannina                    26   6    3    4    22   22   2    6    5    17   20   33
14th     PAS Giannina                    26   1    5    7    22   30   3    1    9    13   28   18
14th     PAS Giannina                    26   3    2    8    18   26   0    1    12   10   34   12
13th     PAS Giannina                    26   5    2    6    21   28   2    3    8    12   25   26
7th     PAS Giannina                    26   6    3    4    17   16   4    3    6    16   19   36
13th     PAS Giannina                    26   6    2    5    16   21   1    1    11   10   24   24
12th    PAS Giannina                    26   4    4    5    18   20   2    4    7    13   25   26
13th     PAS Giannina                    26   4    2    7    24   29   2    2    9    8    24   22
12th    PAS Giannina                    26   5    1    7    16   22   4    1    8    19   33   29
13th     PAS Giannina                    26   3    1    9    14   25   2    4    7    12   21   20
11th    PAS Giannina                    26   3    2    8    16   31   4    2    7    14   22   25
13th     PAS Giannina                    26   4    4    5    21   23   2    2    9    15   26   24
14th     PAS Giannina                    26   4    1    8    17   30   0    5    8    6    18   18
12th    PAS Giannina                    26   6    2    5    21   21   2    1    10   13   31   27
12th    PAS Giannina                    26   1    8    4    19   25   5    3    5    16   20   29
14th     PAS Giannina                    26   6    3    4    23   13   1    1    11   8    29   25
14th     PAS Giannina                    26   4    0    9    15   30   1    1    11   7    26   16
13th     PAS Giannina                    26   3    3    7    15   22   2    6    5    13   19   24
14th     PAS Giannina                    26   3    5    5    21   30   1    1    11   8    27   18
10th    PAS Giannina                    26   5    0    8    25   24   3    4    6    16   26   28
14th     PAS Giannina                    26   4    5    4    17   20   1    1    11   10   27   21
14th     PAS Giannina                    26   2    4    7    17   27   1    1    11   9    25   14
14th     PAS Giannina                    26   2    3    8    15   30   0    1    12   8    26   10
13th     PAS Giannina                    26   3    3    7    16   25   2    6    5    13   21   24
14th     PAS Giannina                    26   2    4    7    21   29   3    2    8    12   26   21
12th    PAS Giannina                    26   4    5    4    22   22   3    0    10   16   32   26
14th     PAS Giannina                    26   3    4    6    16   26   2    3    8    10   24   22
13th     PAS Giannina                    26   4    3    6    15   22   1    4    8    10   28   22
14th     PAS Giannina                    26   3    1    9    18   26   0    3    10   13   39   13
10th    PAS Giannina                    26   7    3    3    27   20   2    4    7    11   26   34
12th    PAS Giannina                    26   4    3    6    19   22   3    1    9    12   25   25
11th    PAS Giannina                    26   5    2    6    22   22   4    1    8    19   26   30
14th     PAS Giannina                    26   3    4    6    17   26   0    2    11   8    28   15
11th    PAS Giannina                    26   5    5    3    24   20   2    2    9    11   30   28
13th     PAS Giannina                    26   3    2    8    22   30   3    2    8    14   23   22
14th     PAS Giannina                    26   1    3    9    17   31   2    1    10   9    25   13
14th     PAS Giannina                    26   2    2    9    15   24   4    2    7    10   18   22
12th    PAS Giannina                    26   4    2    7    16   28   2    5    6    11   16   25
10th    PAS Giannina                    26   7    2    4    21   16   2    4    7    11   22   33
12th    PAS Giannina                    26   7    1    5    29   24   1    1    11   11   28   26
12th    PAS Giannina                    26   4    4    5    25   25   1    3    9    18   28   22
13th     PAS Giannina                    26   3    3    7    18   27   2    3    8    16   28   21
12th    PAS Giannina                    26   3    4    6    27   31   3    2    8    15   23   24
11th    PAS Giannina                    26   5    4    4    17   21   1    4    8    13   31   26
10th    PAS Giannina                    26   8    2    3    25   16   1    3    9    13   29   32
14th     PAS Giannina                    26   2    1    10   13   26   3    1    9    9    25   17
13th     PAS Giannina                    26   4    1    8    15   23   1    2    10   15   31   18
14th     PAS Giannina                    26   4    0    9    22   32   1    4    8    7    26   19
14th     PAS Giannina                    26   5    3    5    23   22   1    4    8    15   31   25
14th     PAS Giannina                    26   2    3    8    18   30   1    3    9    15   33   15
14th     PAS Giannina                    26   5    2    6    24   26   0    1    12   4    26   18
14th     PAS Giannina                    26   2    6    5    23   29   1    5    7    12   25   20
14th     PAS Giannina                    26   4    3    6    24   27   1    3    9    12   24   21
14th     PAS Giannina                    26   3    4    6    21   22   1    3    9    9    26   19
12th    PAS Giannina                    26   5    2    6    19   20   2    6    5    20   25   29