1st     PAS Giannina                    26   10   2    1    32   16   7    3    3    26   14   56   
1st     PAS Giannina                    26   13   0    0    30   6    6    4    3    18   12   61   
1st     PAS Giannina                    26   9    4    0    28   11   9    1    3    24   14   59   
1st     PAS Giannina                    26   11   1    1    34   11   5    5    3    25   20   54   
1st     PAS Giannina                    26   10   1    2    34   15   7    2    4    25   18   54   
1st     PAS Giannina                    26   13   0    0    38   5    8    2    3    26   16   65   
1st     PAS Giannina                    26   9    3    1    32   16   6    5    2    19   14   53   
1st     PAS Giannina                    26   7    3    3    24   16   8    4    1    27   13   52   
1st     PAS Giannina                    26   12   1    0    35   13   9    0    4    29   13   64   
3rd     PAS Giannina                    26   7    2    4    28   17   7    3    3    28   17   47   
4th     PAS Giannina                    26   7    2    4    29   21   6    4    3    24   19   45   
3rd     PAS Giannina                    26   12   0    1    39   14   4    4    5    13   11   52   
2nd     PAS Giannina                    26   10   2    1    25   11   5    4    4    19   16   51   
2nd     PAS Giannina                    26   11   2    0    31   11   6    4    3    19   12   57   
2nd     PAS Giannina                    26   9    3    1    24   7    6    3    4    22   15   51   
2nd     PAS Giannina                    26   10   0    3    31   9    7    2    4    25   15   53   
1st     PAS Giannina                    26   9    3    1    26   11   7    4    2    28   14   55   
1st     PAS Giannina                    26   9    2    2    38   19   9    1    3    25   11   57   
1st     PAS Giannina                    26   11   0    2    26   7    8    2    3    22   14   59   
1st     PAS Giannina                    26   12   0    1    33   11   9    4    0    27   9    67   
4th     PAS Giannina                    26   6    4    3    19   15   7    2    4    21   15   45   
1st     PAS Giannina                    26   8    5    0    31   15   7    2    4    21   17   52   
2nd     PAS Giannina                    26   11   1    1    37   12   6    5    2    22   12   57   
2nd     PAS Giannina                    26   10   1    2    33   13   7    2    4    27   15   54   
2nd     PAS Giannina                    26   7    2    4    28   21   8    1    4    30   16   48   
2nd     PAS Giannina                    26   11   2    0    37   11   5    6    2    27   22   56   
1st     PAS Giannina                    26   10   2    1    32   9    10   2    1    34   12   64   
2nd     PAS Giannina                    26   7    6    0    29   8    8    2    3    24   12   53   
1st     PAS Giannina                    26   11   1    1    31   12   8    4    1    32   16   62   
1st     PAS Giannina                    26   10   2    1    29   9    8    4    1    25   7    60   
1st     PAS Giannina                    26   10   2    1    34   10   5    5    3    23   18   52   
1st     PAS Giannina                    26   11   1    1    44   14   8    2    3    31   17   60   
3rd     PAS Giannina                    26   10   2    1    32   13   4    3    6    18   18   47   
1st     PAS Giannina                    26   8    4    1    28   12   8    5    0    30   15   57   
1st     PAS Giannina                    26   9    3    1    33   13   6    4    3    26   18   52   
1st     PAS Giannina                    26   11   1    1    31   13   7    4    2    28   19   59   
1st     PAS Giannina                    26   10   1    2    26   8    9    1    3    25   14   59   
1st     PAS Giannina                    26   8    4    1    27   13   8    2    3    30   18   54   
1st     PAS Giannina                    26   12   0    1    39   12   8    4    1    31   14   64   
1st     PAS Giannina                    26   11   2    0    33   11   9    2    2    29   16   64   
2nd     PAS Giannina                    26   10   2    1    31   11   4    6    3    24   22   50   
2nd     PAS Giannina                    26   12   0    1    38   16   5    5    3    24   16   56   
1st     PAS Giannina                    26   10   2    1    35   16   7    3    3    22   10   56   
1st     PAS Giannina                    26   11   1    1    33   13   8    4    1    23   11   62   
1st     PAS Giannina                    26   9    3    1    26   14   7    1    5    17   15   52   
1st     PAS Giannina                    26   11   2    0    33   14   10   0    3    21   11   65   
1st     PAS Giannina                    26   11   0    2    32   12   6    3    4    28   20   54   
2nd     PAS Giannina                    26   11   0    2    35   14   4    4    5    16   16   49   
3rd     PAS Giannina                    26   8    2    3    25   14   6    1    6    20   19   45   
2nd     PAS Giannina                    26   9    1    3    29   16   5    3    5    22   22   46   
1st     PAS Giannina                    26   9    2    2    26   13   7    5    1    25   16   55   
3rd     PAS Giannina                    26   7    3    3    22   15   5    4    4    25   21   43   
2nd     PAS Giannina                    26   10   1    2    31   11   6    4    3    26   17   53   
2nd     PAS Giannina                    26   7    4    2    22   13   8    1    4    27   13   50   
2nd     PAS Giannina                    26   7    4    2    33   18   8    3    2    24   14   52   
1st     PAS Giannina                    26   12   1    0    38   7    8    3    2    18   13   64   
1st     PAS Giannina                    26   10   2    1    29   9    9    4    0    29   11   63   
1st     PAS Giannina                    26   10   1    2    37   12   10   2    1    35   8    63   
2nd     PAS Giannina                    26   10   1    2    34   16   6    0    7    20   21   49   
1st     PAS Giannina                    26   11   2    0    31   7    6    2    5    21   17   55   
1st     PAS Giannina                    26   11   1    1    32   8    8    2    3    31   20   60   
1st     PAS Giannina                    26   11   2    0    37   14   11   0    2    32   11   68   
1st     PAS Giannina                    26   10   3    0    40   16   10   2    1    25   10   65   
2nd     PAS Giannina                    26   10   3    0    29   4    6    2    5    22   18   53   
3rd     PAS Giannina                    26   9    0    4    24   17   4    5    4    15   13   44   
2nd     PAS Giannina                    26   7    3    3    24   16   9    2    2    23   13   53   
1st     PAS Giannina                    26   11   1    1    32   15   7    3    3    24   16   58   
3rd     PAS Giannina                    26   9    2    2    26   11   5    5    3    20   13   49   
1st     PAS Giannina                    26   11   1    1    40   16   9    2    2    24   11   63   
2nd     PAS Giannina                    26   10   2    1    26   8    9    0    4    23   17   59   
1st     PAS Giannina                    26   8    5    0    28   11   10   1    2    30   13   60   
1st     PAS Giannina                    26   9    2    2    30   12   7    1    5    25   20   51   
1st     PAS Giannina                    26   11   1    1    28   11   9    2    2    33   12   63   
2nd     PAS Giannina                    26   13   0    0    34   9    5    1    7    16   22   55   
1st     PAS Giannina                    26   12   1    0    34   10   9    4    0    27   14   68   
2nd     PAS Giannina                    26   11   1    1    31   11   6    4    3    18   15   56   
1st     PAS Giannina                    26   10   2    1    32   10   10   2    1    36   14   64   
1st     PAS Giannina                    26   12   0    1    35   12   5    5    3    17   10   56   
1st     PAS Giannina                    26   10   2    1    24   12   7    4    2    28   23   57   
1st     PAS Giannina                    26   11   2    0    32   6    10   1    2    32   12   66   
1st     PAS Giannina                    26   11   1    1    35   14   8    1    4    27   16   59   
2nd     PAS Giannina                    26   8    2    3    19   10   7    2    4    20   12   49   
1st     PAS Giannina                    26   11   2    0    33   13   8    4    1    32   18   63   
1st     PAS Giannina                    26   9    1    3    29   15   11   1    1    30   13   62   
2nd     PAS Giannina                    26   8    3    2    29   19   7    1    5    20   19   49   
1st     PAS Giannina                    26   8    5    0    29   8    5    4    4    19   17   48   
1st     PAS Giannina                    26   8    4    1    25   10   8    1    4    31   20   53   
2nd     PAS Giannina                    26   7    4    2    25   14   6    5    2    22   15   48   
1st     PAS Giannina                    26   11   2    0    39   11   10   0    3    29   20   65   
2nd     PAS Giannina                    26   9    1    3    32   13   4    7    2    23   18   47   
1st     PAS Giannina                    26   11   0    2    35   11   7    2    4    23   13   56   
1st     PAS Giannina                    26   11   1    1    27   8    7    1    5    21   12   56   
1st     PAS Giannina                    26   11   0    2    26   10   8    3    2    25   10   60   
1st     PAS Giannina                    26   11   2    0    29   8    9    3    1    31   18   65   
1st     PAS Giannina                    26   10   2    1    29   15   7    4    2    26   15   57   
1st     PAS Giannina                    26   9    4    0    36   13   9    2    2    26   11   60   
1st     PAS Giannina                    26   10   2    1    34   16   8    3    2    28   16   59   
2nd     PAS Giannina                    26   10   1    2    38   13   6    3    4    25   19   52   
1st     PAS Giannina                    26   12   0    1    28   5    7    3    3    26   19   60   
1st     PAS Giannina                    26   10   2    1    37   15   7    3    3    33   15   56   