11th    PAS Giannina                    26   6    3    4    31   21   2    3    8    20   34   30
14th    PAS Giannina                    26   4    4    5    24   29   2    1    10   18   31   23
13th    PAS Giannina                    26   5    2    6    28   26   2    2    9    17   31   25
9th     PAS Giannina                    26   5    3    5    26   23   4    2    7    23   30   32
9th     PAS Giannina                    26   7    4    2    30   17   0    5    8    18   32   30
2nd     PAS Giannina                    26   11   2    0    36   18   1    5    7    25   33   43
7th     PAS Giannina                    26   9    1    3    34   21   2    5    6    17   24   39
12th    PAS Giannina                    26   3    4    6    29   33   4    1    8    19   31   26
8th     PAS Giannina                    26   5    3    5    32   30   3    4    6    21   29   31
6th     PAS Giannina                    26   8    0    5    29   22   5    1    7    28   28   40
9th     PAS Giannina                    26   6    3    4    26   25   3    2    8    22   37   32
10th    PAS Giannina                    26   6    6    1    32   22   2    2    9    20   32   32
9th     PAS Giannina                    26   7    4    2    30   21   2    3    8    17   29   34
6th     PAS Giannina                    26   8    4    1    29   17   2    4    7    22   30   38
9th     PAS Giannina                    26   6    4    3    28   20   3    4    6    15   20   35
11th    PAS Giannina                    26   7    3    3    24   16   2    2    9    14   30   32
6th     PAS Giannina                    26   7    1    5    23   19   4    2    7    24   30   36
11th    PAS Giannina                    26   4    5    4    24   26   2    3    8    20   28   26
7th     PAS Giannina                    26   6    2    5    26   23   2    7    4    20   21   33
9th     PAS Giannina                    26   6    5    2    29   18   1    5    7    24   36   31
12th    PAS Giannina                    26   4    3    6    26   27   3    2    8    21   37   26
11th    PAS Giannina                    26   5    3    5    25   22   3    1    9    24   31   28
12th    PAS Giannina                    26   5    2    6    20   21   2    5    6    20   25   28
10th    PAS Giannina                    26   6    5    2    31   24   2    4    7    15   23   33
5th     PAS Giannina                    26   10   1    2    37   19   2    2    9    24   36   39
13th    PAS Giannina                    26   5    2    6    25   27   2    3    8    19   29   26
11th    PAS Giannina                    26   8    2    3    37   29   2    3    8    25   37   35
9th     PAS Giannina                    26   11   1    1    36   14   0    3    10   18   38   37
13th    PAS Giannina                    26   2    6    5    23   28   2    4    7    18   27   22
10th    PAS Giannina                    26   6    3    4    34   29   2    4    7    21   30   31
7th     PAS Giannina                    26   7    3    3    26   23   4    3    6    25   24   39
11th    PAS Giannina                    26   6    2    5    21   19   2    3    8    19   31   29
12th    PAS Giannina                    26   5    3    5    23   22   2    2    9    17   31   26
12th    PAS Giannina                    26   7    0    6    29   25   1    5    7    17   28   29
11th    PAS Giannina                    26   5    3    5    29   20   1    6    6    25   34   27
6th     PAS Giannina                    26   9    3    1    39   22   2    2    9    17   33   38
12th    PAS Giannina                    26   4    3    6    24   25   3    4    6    27   29   28
10th    PAS Giannina                    26   7    2    4    28   17   2    0    11   19   37   29
8th     PAS Giannina                    26   8    1    4    36   27   2    2    9    19   39   33
13th    PAS Giannina                    26   6    4    3    28   21   0    2    11   17   38   24
8th     PAS Giannina                    26   5    4    4    25   28   3    4    6    25   33   32
11th    PAS Giannina                    26   7    2    4    38   28   2    1    10   16   37   30
9th     PAS Giannina                    26   5    4    4    25   21   2    3    8    20   31   28
9th     PAS Giannina                    26   6    4    3    23   19   3    3    7    15   28   34
9th     PAS Giannina                    26   5    5    3    27   26   3    4    6    26   31   33
8th     PAS Giannina                    26   8    2    3    38   23   2    2    9    20   38   34
7th     PAS Giannina                    26   10   1    2    33   16   2    2    9    17   38   39
9th     PAS Giannina                    26   7    2    4    27   22   2    2    9    22   32   31
8th     PAS Giannina                    26   5    5    3    27   21   3    4    6    20   26   33
6th     PAS Giannina                    26   7    1    5    29   24   4    2    7    23   29   36
10th    PAS Giannina                    26   6    3    4    40   33   3    1    9    20   34   31
12th    PAS Giannina                    26   8    2    3    33   26   1    2    10   21   38   31
11th    PAS Giannina                    26   5    4    4    26   22   3    3    7    19   26   31
9th     PAS Giannina                    26   6    2    5    33   31   3    1    9    17   30   30
6th     PAS Giannina                    26   9    1    3    32   21   2    3    8    18   29   37
8th     PAS Giannina                    26   7    3    3    36   26   1    5    7    20   32   32
11th    PAS Giannina                    26   3    4    6    21   28   6    0    7    19   22   31
5th     PAS Giannina                    26   8    2    3    35   24   4    1    8    26   35   39
12th    PAS Giannina                    26   4    6    3    25   24   3    0    10   20   32   27
12th    PAS Giannina                    26   5    3    5    30   25   3    2    8    21   30   29
9th     PAS Giannina                    26   5    2    6    31   33   4    3    6    18   26   32
8th     PAS Giannina                    26   6    2    5    29   22   4    3    6    25   27   35
13th    PAS Giannina                    26   5    4    4    21   22   0    2    11   14   35   21
12th    PAS Giannina                    26   5    1    7    25   28   4    1    8    26   33   29
14th    PAS Giannina                    26   2    4    7    17   25   2    1    10   15   35   17
10th    PAS Giannina                    26   8    1    4    27   22   1    4    8    19   32   32
10th    PAS Giannina                    26   7    2    4    29   25   2    2    9    18   33   31
10th    PAS Giannina                    26   5    3    5    25   17   2    4    7    21   32   28
12th    PAS Giannina                    26   5    2    6    26   28   2    4    7    14   24   27
8th     PAS Giannina                    26   6    2    5    34   31   3    3    7    22   26   32
8th     PAS Giannina                    26   6    2    5    27   29   3    3    7    24   31   32
6th     PAS Giannina                    26   6    4    3    26   20   3    3    7    25   27   34
11th    PAS Giannina                    26   5    2    6    31   31   3    5    5    15   23   31
9th     PAS Giannina                    26   6    5    2    29   19   2    2    9    16   31   31
11th    PAS Giannina                    26   4    2    7    29   32   5    3    5    22   28   32
3rd     PAS Giannina                    26   8    1    4    31   21   5    3    5    20   22   43
9th     PAS Giannina                    26   7    3    3    28   20   3    1    9    20   32   34
11th    PAS Giannina                    26   5    4    4    31   25   1    4    8    16   38   26
13th    PAS Giannina                    26   5    2    6    28   28   2    2    9    17   31   25
6th     PAS Giannina                    26   8    2    3    32   23   4    2    7    21   28   40
13th    PAS Giannina                    26   7    1    5    26   24   0    4    9    12   30   26
7th     PAS Giannina                    26   10   1    2    27   12   0    5    8    17   34   36
10th    PAS Giannina                    26   4    3    6    20   25   3    4    6    21   31   28
12th    PAS Giannina                    26   7    0    6    27   23   1    2    10   21   40   26
14th    PAS Giannina                    26   4    3    6    23   28   1    3    9    13   31   21
2nd     PAS Giannina                    26   8    4    1    37   22   4    1    8    23   31   41
10th    PAS Giannina                    26   5    3    5    32   30   3    2    8    23   32   29
12th    PAS Giannina                    26   5    3    5    29   26   1    2    10   19   39   23
3rd     PAS Giannina                    26   9    1    3    33   20   4    3    6    31   36   43
12th    PAS Giannina                    26   4    1    8    21   26   3    2    8    15   35   24
4th     PAS Giannina                    26   9    2    2    35   23   2    6    5    21   27   41
9th     PAS Giannina                    26   5    2    6    26   25   4    3    6    18   25   32
12th    PAS Giannina                    26   8    3    2    38   21   0    3    10   23   38   30
7th     PAS Giannina                    26   7    2    4    27   24   4    1    8    21   26   36
14th    PAS Giannina                    26   6    2    5    33   23   1    2    10   17   38   25
13th    PAS Giannina                    26   3    3    7    24   31   3    3    7    16   29   24
4th     PAS Giannina                    26   9    3    1    29   18   2    4    7    26   32   40
9th     PAS Giannina                    26   6    4    3    31   23   2    3    8    21   33   31
9th     PAS Giannina                    26   7    5    1    33   23   1    2    10   18   35   31
14th    PAS Giannina                    26   6    1    6    27   29   0    2    11   21   40   21