2nd     PAS Giannina                    26   10   2    1    29   10   8    3    2    27   18   59   
2nd     PAS Giannina                    26   10   1    2    27   10   5    5    3    21   18   51   
1st     PAS Giannina                    26   8    2    3    34   22   8    3    2    22   12   53   
1st     PAS Giannina                    26   9    3    1    30   13   10   1    2    26   11   61   
2nd     PAS Giannina                    26   11   2    0    30   11   7    2    4    22   21   58   
1st     PAS Giannina                    26   10   2    1    28   13   9    2    2    35   16   61   
3rd     PAS Giannina                    26   10   1    2    29   12   6    3    4    26   18   52   
1st     PAS Giannina                    26   10   2    1    29   10   7    3    3    26   20   56   
1st     PAS Giannina                    26   10   2    1    36   14   8    2    3    26   16   58   
4th     PAS Giannina                    26   7    2    4    20   13   4    5    4    22   21   40   
1st     PAS Giannina                    26   9    2    2    27   9    9    2    2    34   11   58   
2nd     PAS Giannina                    26   10   2    1    34   12   6    3    4    20   17   53   
1st     PAS Giannina                    26   9    2    2    27   13   5    4    4    19   12   48   
1st     PAS Giannina                    26   13   0    0    40   13   7    1    5    22   19   61   
3rd     PAS Giannina                    26   8    2    3    32   16   5    4    4    21   15   45   
3rd     PAS Giannina                    26   7    6    0    25   13   6    3    4    27   16   48   
1st     PAS Giannina                    26   8    4    1    23   11   10   3    0    26   11   61   
2nd     PAS Giannina                    26   9    4    0    31   14   5    5    3    23   22   51   
1st     PAS Giannina                    26   7    5    1    35   24   9    1    3    25   13   54   
2nd     PAS Giannina                    26   8    4    1    25   11   6    2    5    18   18   48   
1st     PAS Giannina                    26   9    3    1    29   17   11   1    1    28   7    64   
2nd     PAS Giannina                    26   8    2    3    23   11   6    4    3    25   16   48   
2nd     PAS Giannina                    26   9    2    2    30   12   9    0    4    22   15   56   
1st     PAS Giannina                    26   11   1    1    34   13   6    4    3    21   19   56   
1st     PAS Giannina                    26   10   1    2    34   13   7    2    4    23   15   54   
1st     PAS Giannina                    26   8    3    2    30   20   9    3    1    26   13   57   
2nd     PAS Giannina                    26   8    4    1    28   14   8    1    4    25   17   53   
1st     PAS Giannina                    26   9    2    2    32   15   8    2    3    26   16   55   
2nd     PAS Giannina                    26   8    3    2    20   10   6    4    3    18   15   49   
5th     PAS Giannina                    26   8    2    3    25   14   4    3    6    21   27   41   
3rd     PAS Giannina                    26   6    4    3    26   14   7    4    2    27   17   47   
1st     PAS Giannina                    26   12   1    0    36   12   8    3    2    27   20   64   
2nd     PAS Giannina                    26   10   2    1    31   11   6    3    4    20   13   53   
2nd     PAS Giannina                    26   8    4    1    33   17   10   2    1    30   11   60   
3rd     PAS Giannina                    26   9    2    2    30   19   3    3    7    18   22   41   
1st     PAS Giannina                    26   9    4    0    30   11   6    4    3    22   16   53   
1st     PAS Giannina                    26   9    3    1    38   19   8    2    3    27   13   56   
2nd     PAS Giannina                    26   8    3    2    25   11   6    3    4    20   17   48   
2nd     PAS Giannina                    26   10   2    1    33   13   5    3    5    18   20   50   
1st     PAS Giannina                    26   9    4    0    32   12   8    2    3    29   15   57   
1st     PAS Giannina                    26   9    3    1    29   16   8    4    1    29   17   58   
1st     PAS Giannina                    26   10   3    0    34   12   7    3    3    26   16   57   
2nd     PAS Giannina                    26   9    4    0    33   13   6    4    3    28   16   53   
1st     PAS Giannina                    26   11   2    0    30   9    11   1    1    20   11   69   
1st     PAS Giannina                    26   11   1    1    33   10   7    2    4    21   18   57   
1st     PAS Giannina                    26   10   2    1    27   14   5    4    4    18   12   51   
2nd     PAS Giannina                    26   10   1    2    33   13   5    2    6    23   19   48   
4th     PAS Giannina                    26   6    5    2    25   14   6    4    3    19   15   45   
6th     PAS Giannina                    26   8    1    4    33   14   1    8    4    15   18   36   
3rd     PAS Giannina                    26   9    3    1    29   11   4    5    4    21   19   47   
1st     PAS Giannina                    26   10   3    0    30   13   10   0    3    28   13   63   
1st     PAS Giannina                    26   11   2    0    45   12   7    4    2    30   20   60   
3rd     PAS Giannina                    26   10   0    3    35   15   5    5    3    22   18   50   
2nd     PAS Giannina                    26   9    2    2    35   18   8    2    3    23   15   55   
3rd     PAS Giannina                    26   6    5    2    28   21   7    4    2    21   12   48   
1st     PAS Giannina                    26   9    3    1    31   13   7    1    5    21   17   52   
1st     PAS Giannina                    26   9    3    1    32   14   8    2    3    27   12   56   
3rd     PAS Giannina                    26   6    3    4    26   23   7    4    2    23   13   46   
3rd     PAS Giannina                    26   6    5    2    18   11   7    3    3    16   10   47   
2nd     PAS Giannina                    26   9    1    3    29   13   7    5    1    28   18   54   
1st     PAS Giannina                    26   11   2    0    34   12   6    2    5    21   20   55   
2nd     PAS Giannina                    26   11   1    1    37   10   9    1    3    28   10   62   
2nd     PAS Giannina                    26   8    4    1    30   12   9    1    3    24   14   56   
1st     PAS Giannina                    26   9    3    1    33   13   7    4    2    25   15   55   
1st     PAS Giannina                    26   12   1    0    30   10   6    5    2    24   17   60   
1st     PAS Giannina                    26   10   2    1    24   10   7    3    3    23   17   56   
1st     PAS Giannina                    26   8    3    2    26   14   8    3    2    28   14   54   
4th     PAS Giannina                    26   8    4    1    28   11   4    3    6    18   14   43   
1st     PAS Giannina                    26   9    1    3    22   14   8    2    3    30   16   54   
2nd     PAS Giannina                    26   10   0    3    30   13   5    4    4    22   22   49   
1st     PAS Giannina                    26   11   0    2    30   12   8    3    2    28   14   60   
1st     PAS Giannina                    26   11   1    1    39   17   5    4    4    21   18   53   
2nd     PAS Giannina                    26   11   1    1    36   12   6    3    4    28   20   55   
1st     PAS Giannina                    26   10   1    2    24   13   10   0    3    33   18   61   
2nd     PAS Giannina                    26   9    1    3    26   10   6    3    4    18   15   49   
3rd     PAS Giannina                    26   10   1    2    29   9    6    2    5    23   19   51   
2nd     PAS Giannina                    26   9    2    2    33   13   5    4    4    17   11   48   
1st     PAS Giannina                    26   11   1    1    36   13   7    3    3    23   13   58   
1st     PAS Giannina                    26   9    4    0    31   17   6    5    2    26   15   54   
1st     PAS Giannina                    26   11   1    1    41   10   6    4    3    22   17   56   
2nd     PAS Giannina                    26   7    4    2    23   17   7    3    3    21   12   49   
1st     PAS Giannina                    26   10   1    2    27   7    9    3    1    27   10   61   
1st     PAS Giannina                    26   8    3    2    24   11   7    5    1    22   13   53   
1st     PAS Giannina                    26   8    4    1    26   13   6    4    3    25   21   50   
1st     PAS Giannina                    26   9    3    1    26   14   7    4    2    25   12   55   
1st     PAS Giannina                    26   10   1    2    33   15   9    3    1    29   16   61   
3rd     PAS Giannina                    26   8    2    3    24   14   8    2    3    28   16   52   
1st     PAS Giannina                    26   10   2    1    28   9    5    5    3    15   10   52   
1st     PAS Giannina                    26   10   3    0    34   18   7    4    2    24   16   58   
2nd     PAS Giannina                    26   10   1    2    36   18   6    5    2    16   10   54   
2nd     PAS Giannina                    26   7    1    5    21   17   7    2    4    25   14   45   
2nd     PAS Giannina                    26   10   3    0    39   14   6    3    4    21   20   54   
4th     PAS Giannina                    26   9    1    3    21   11   2    3    8    19   29   37   
1st     PAS Giannina                    26   8    3    2    22   12   7    3    3    24   14   51   
2nd     PAS Giannina                    26   9    2    2    35   15   9    0    4    30   14   56   
1st     PAS Giannina                    26   12   1    0    34   9    8    2    3    27   15   63   
2nd     PAS Giannina                    26   9    2    2    30   17   9    2    2    27   13   58   
4th     PAS Giannina                    26   8    4    1    33   17   4    4    5    20   19   44   
1st     PAS Giannina                    26   12   0    1    35   10   9    2    2    26   14   65   
2nd     PAS Giannina                    26   11   2    0    38   11   5    3    5    22   19   53   