8th     PAS Giannina                    26   7    4    2    32   21   2    4    7    14   27   35
11th    PAS Giannina                    26   6    0    7    25   22   2    4    7    15   27   28
9th     PAS Giannina                    26   7    3    3    25   17   2    3    8    20   29   33
8th     PAS Giannina                    26   5    2    6    29   20   3    6    4    17   22   32
9th     PAS Giannina                    26   7    2    4    25   19   2    4    7    21   31   33
9th     PAS Giannina                    26   7    2    4    32   23   2    2    9    21   36   31
14th     PAS Giannina                    26   5    1    7    16   23   3    2    8    16   26   27
4th     PAS Giannina                    26   6    2    5    23   19   6    3    4    19   16   41
6th     PAS Giannina                    26   7    2    4    26   25   4    3    6    23   25   38
3rd     PAS Giannina                    26   7    5    1    23   13   4    4    5    27   29   42
5th     PAS Giannina                    26   6    3    4    26   19   6    1    6    21   29   40
11th    PAS Giannina                    26   5    4    4    22   19   4    1    8    18   29   32
8th     PAS Giannina                    26   7    4    2    27   23   2    4    7    17   25   35
8th     PAS Giannina                    26   7    3    3    28   20   3    3    7    19   30   36
6th     PAS Giannina                    26   7    3    3    22   14   2    5    6    16   26   35
12th    PAS Giannina                    26   4    1    8    15   26   4    3    6    13   21   28
7th     PAS Giannina                    26   7    4    2    27   17   3    2    8    17   24   36
9th     PAS Giannina                    26   7    3    3    24   21   2    3    8    17   25   33
9th     PAS Giannina                    26   7    1    5    24   20   2    5    6    20   28   33
12th    PAS Giannina                    26   5    2    6    16   20   2    4    7    14   27   27
11th    PAS Giannina                    26   5    6    2    22   18   2    3    8    13   22   30
8th     PAS Giannina                    26   7    3    3    29   20   2    1    10   11   25   31
1st      PAS Giannina                    26   12   1    0    33   15   3    2    8    21   27   48
4th     PAS Giannina                    26   9    3    1    34   15   2    5    6    15   23   41
8th     PAS Giannina                    26   9    2    2    29   18   1    2    10   15   32   34
12th    PAS Giannina                    26   7    2    4    30   21   0    5    8    13   28   28
7th     PAS Giannina                    26   8    2    3    23   11   3    2    8    15   27   37
9th     PAS Giannina                    26   7    3    3    30   21   2    4    7    16   29   34
11th    PAS Giannina                    26   5    4    4    20   22   2    4    7    19   26   29
10th    PAS Giannina                    26   8    1    4    29   22   1    2    10   15   31   30
10th    PAS Giannina                    26   8    1    4    32   17   0    3    10   7    26   28
9th     PAS Giannina                    26   8    1    4    32   22   2    3    8    15   27   34
7th     PAS Giannina                    26   8    0    5    25   16   4    2    7    18   20   38
14th     PAS Giannina                    26   4    4    5    18   18   1    2    10   17   36   21
12th    PAS Giannina                    26   5    4    4    22   20   1    2    10   17   32   24
12th    PAS Giannina                    26   4    3    6    22   24   2    2    9    24   35   23
7th     PAS Giannina                    26   7    2    4    22   18   2    6    5    21   27   35
8th     PAS Giannina                    26   6    4    3    26   24   3    4    6    28   28   35
7th     PAS Giannina                    26   8    2    3    29   18   2    4    7    15   26   36
14th     PAS Giannina                    26   3    7    3    18   19   1    5    7    18   28   24
14th     PAS Giannina                    26   4    6    3    19   18   1    2    10   12   26   23
2nd     PAS Giannina                    26   10   1    2    33   16   3    2    8    19   32   42
8th     PAS Giannina                    26   5    4    4    27   28   4    4    5    20   23   35
5th     PAS Giannina                    26   7    3    3    31   22   3    5    5    20   26   38
5th     PAS Giannina                    26   9    1    3    30   18   2    7    4    21   23   41
14th     PAS Giannina                    26   2    4    7    26   31   2    6    5    22   29   22
4th     PAS Giannina                    26   8    0    5    26   18   4    6    3    22   22   42
6th     PAS Giannina                    26   6    4    3    25   18   5    2    6    23   25   39
13th     PAS Giannina                    26   5    5    3    23   16   3    1    9    17   31   30
9th     PAS Giannina                    26   7    4    2    25   11   2    2    9    21   28   33
12th    PAS Giannina                    26   7    2    4    26   18   1    1    11   10   29   27
7th     PAS Giannina                    26   7    2    4    21   17   3    3    7    15   21   35
8th     PAS Giannina                    26   7    1    5    25   19   4    1    8    13   28   35
7th     PAS Giannina                    26   10   0    3    31   21   2    2    9    18   32   38
11th    PAS Giannina                    26   5    2    6    26   24   2    4    7    21   32   27
12th    PAS Giannina                    26   5    2    6    20   20   2    5    6    20   26   28
9th     PAS Giannina                    26   5    5    3    24   22   3    5    5    20   25   34
3rd     PAS Giannina                    26   6    3    4    24   23   7    2    4    24   19   44
12th    PAS Giannina                    26   6    1    6    22   21   2    4    7    13   28   29
11th    PAS Giannina                    26   8    2    3    30   15   1    3    9    15   39   32
8th     PAS Giannina                    26   10   0    3    28   14   0    4    9    12   32   34
2nd     PAS Giannina                    26   11   1    1    30   13   4    3    6    16   20   49
12th    PAS Giannina                    26   4    3    6    22   27   3    3    7    24   31   27
8th     PAS Giannina                    26   7    5    1    30   17   2    2    9    14   32   34
2nd     PAS Giannina                    26   9    3    1    31   13   4    3    6    21   27   45
7th     PAS Giannina                    26   7    3    3    26   20   4    1    8    22   33   37
6th     PAS Giannina                    26   8    1    4    24   16   3    3    7    17   30   37
8th     PAS Giannina                    26   7    2    4    25   19   4    1    8    14   26   36
14th     PAS Giannina                    26   6    2    5    27   19   0    4    9    9    25   24
5th     PAS Giannina                    26   7    4    2    31   20   3    2    8    18   28   36
6th     PAS Giannina                    26   5    6    2    30   22   4    4    5    22   23   37
11th    PAS Giannina                    26   4    3    6    19   23   5    0    8    17   28   30
14th     PAS Giannina                    26   5    2    6    24   22   1    5    7    13   24   25
12th    PAS Giannina                    26   6    3    4    24   21   2    2    9    16   35   29
6th     PAS Giannina                    26   9    1    3    31   21   3    2    8    19   30   39
3rd     PAS Giannina                    26   10   2    1    29   15   2    5    6    15   26   43
9th     PAS Giannina                    26   7    2    4    26   23   3    1    9    13   29   33
8th     PAS Giannina                    26   6    4    3    29   19   3    3    7    17   24   34
5th     PAS Giannina                    26   8    1    4    24   15   3    3    7    20   28   37
10th    PAS Giannina                    26   6    3    4    23   22   3    2    8    18   29   32
7th     PAS Giannina                    26   6    4    3    27   18   3    4    6    16   20   35
6th     PAS Giannina                    26   7    4    2    23   16   3    3    7    18   28   37
12th    PAS Giannina                    26   5    3    5    23   19   2    1    10   16   31   25
9th     PAS Giannina                    26   5    3    5    31   23   3    2    8    18   22   29
7th     PAS Giannina                    26   6    1    6    25   21   3    4    6    13   22   32
4th     PAS Giannina                    26   8    3    2    31   13   4    2    7    27   31   41
6th     PAS Giannina                    26   6    3    4    28   19   4    3    6    20   25   36
3rd     PAS Giannina                    26   8    3    2    32   19   5    2    6    20   24   44
11th    PAS Giannina                    26   6    3    4    26   23   2    3    8    16   33   30
8th     PAS Giannina                    26   7    3    3    26   24   3    2    8    15   26   35
12th    PAS Giannina                    26   5    4    4    28   19   2    2    9    16   27   27
10th    PAS Giannina                    26   7    2    4    21   15   2    3    8    12   23   32
8th     PAS Giannina                    26   6    3    4    22   17   5    1    7    20   30   37
3rd     PAS Giannina                    26   9    0    4    37   22   5    2    6    16   22   44
11th    PAS Giannina                    26   5    3    5    25   25   3    4    6    13   22   31
12th    PAS Giannina                    26   5    4    4    32   26   2    1    10   19   32   26
11th    PAS Giannina                    26   4    2    7    27   29   4    4    5    25   26   30
13th     PAS Giannina                    26   4    5    4    25   23   1    3    9    14   27   23
7th     PAS Giannina                    26   7    2    4    26   23   4    2    7    21   28   37
14th     PAS Giannina                    26   4    3    6    23   25   1    2    10   14   31   20