1st     PAS Giannina                    26   11   2    0    27   12   10   1    2    27   13   66
1st     PAS Giannina                    26   10   3    0    35   14   9    2    2    28   12   62
1st     PAS Giannina                    26   11   1    1    34   10   9    1    3    35   13   62
1st     PAS Giannina                    26   12   1    0    41   10   9    2    2    36   17   66
1st     PAS Giannina                    26   10   3    0    39   9    10   1    2    28   12   64
1st     PAS Giannina                    26   12   0    1    34   9    8    4    1    33   13   64
1st     PAS Giannina                    26   13   0    0    35   5    9    1    3    28   12   67
1st     PAS Giannina                    26   10   1    2    28   10   9    2    2    26   13   60
1st     PAS Giannina                    26   12   0    1    32   7    10   2    1    26   11   68
2nd     PAS Giannina                    26   6    5    2    30   22   9    4    0    33   13   54
1st     PAS Giannina                    26   12   0    1    34   13   10   1    2    27   10   67
1st     PAS Giannina                    26   7    5    1    27   13   9    3    1    31   12   56
1st     PAS Giannina                    26   8    2    3    29   15   10   3    0    31   9    59
1st     PAS Giannina                    26   7    2    4    27   13   12   0    1    34   11   59
1st     PAS Giannina                    26   9    4    0    32   16   10   2    1    31   17   63
1st     PAS Giannina                    26   12   0    1    37   10   11   1    1    39   11   70
1st     PAS Giannina                    26   11   1    1    36   12   9    3    1    36   17   64
1st     PAS Giannina                    26   9    1    3    36   20   7    2    4    27   18   51
1st     PAS Giannina                    26   11   1    1    31   14   11   0    2    32   12   67
1st     PAS Giannina                    26   11   1    1    31   6    8    3    2    30   16   61
2nd     PAS Giannina                    26   5    6    2    27   14   7    5    1    20   11   47
2nd     PAS Giannina                    26   9    3    1    30   13   9    2    2    35   13   59
1st     PAS Giannina                    26   9    3    1    30   10   8    2    3    30   9    56
1st     PAS Giannina                    26   9    3    1    24   8    9    2    2    29   15   59
1st     PAS Giannina                    26   10   3    0    31   13   8    4    1    28   16   61
1st     PAS Giannina                    26   11   1    1    36   9    6    4    3    30   21   56
1st     PAS Giannina                    26   11   2    0    43   14   11   0    2    33   14   68
1st     PAS Giannina                    26   11   1    1    35   12   9    3    1    29   9    64
1st     PAS Giannina                    26   9    2    2    31   11   8    1    4    18   11   54
1st     PAS Giannina                    26   9    4    0    30   12   7    5    1    29   16   57
1st     PAS Giannina                    26   9    2    2    27   11   7    4    2    26   18   54
1st     PAS Giannina                    26   12   1    0    32   8    12   1    0    35   11   74
1st     PAS Giannina                    26   11   1    1    40   20   9    2    2    29   16   63
1st     PAS Giannina                    26   11   2    0    42   11   9    2    2    32   20   64
1st     PAS Giannina                    26   11   1    1    35   10   9    3    1    28   8    64
1st     PAS Giannina                    26   10   3    0    37   11   11   2    0    31   14   68
1st     PAS Giannina                    26   11   1    1    37   13   8    3    2    18   8    61
1st     PAS Giannina                    26   10   1    2    34   12   9    3    1    29   12   61
1st     PAS Giannina                    26   10   2    1    42   14   10   1    2    34   15   63
2nd     PAS Giannina                    26   8    5    0    29   15   9    3    1    27   10   59
1st     PAS Giannina                    26   11   2    0    34   7    6    3    4    30   22   56
1st     PAS Giannina                    26   11   1    1    25   9    9    3    1    38   15   64
1st     PAS Giannina                    26   8    3    2    27   15   7    3    3    23   17   51
1st     PAS Giannina                    26   11   2    0    34   14   8    2    3    30   17   61
1st     PAS Giannina                    26   9    3    1    31   10   8    4    1    30   15   58
1st     PAS Giannina                    26   10   1    2    32   12   9    2    2    33   11   60
1st     PAS Giannina                    26   13   0    0    37   17   11   1    1    23   8    73
1st     PAS Giannina                    26   9    2    2    36   15   9    0    4    27   16   56
1st     PAS Giannina                    26   12   1    0    38   13   9    3    1    40   16   67
1st     PAS Giannina                    26   12   1    0    38   8    9    3    1    26   10   67
1st     PAS Giannina                    26   11   1    1    34   13   10   1    2    19   9    65
1st     PAS Giannina                    26   10   1    2    41   19   12   0    1    37   9    67
1st     PAS Giannina                    26   11   2    0    39   14   6    3    4    23   18   56
1st     PAS Giannina                    26   11   1    1    32   10   9    2    2    34   15   63
1st     PAS Giannina                    26   10   3    0    32   12   7    3    3    30   17   57
1st     PAS Giannina                    26   9    3    1    31   14   9    4    0    35   12   61
1st     PAS Giannina                    26   9    3    1    33   6    9    0    4    28   17   57
1st     PAS Giannina                    26   11   0    2    35   12   7    3    3    35   23   57
1st     PAS Giannina                    26   11   1    1    34   10   9    2    2    24   10   63
1st     PAS Giannina                    26   10   1    2    36   17   9    1    3    29   17   59
1st     PAS Giannina                    26   11   2    0    32   7    8    3    2    33   20   62
1st     PAS Giannina                    26   9    4    0    35   12   9    1    3    29   11   59
1st     PAS Giannina                    26   9    3    1    35   15   7    4    2    24   14   55
1st     PAS Giannina                    26   9    3    1    34   15   9    2    2    30   12   59
1st     PAS Giannina                    26   9    4    0    33   12   11   2    0    40   15   66
1st     PAS Giannina                    26   10   3    0    35   10   7    4    2    31   19   58
1st     PAS Giannina                    26   8    4    1    28   14   7    3    3    26   14   52
1st     PAS Giannina                    26   8    5    0    36   14   9    2    2    28   10   58
1st     PAS Giannina                    26   11   1    1    28   9    9    3    1    24   8    64
1st     PAS Giannina                    26   10   3    0    38   10   10   1    2    31   13   64
1st     PAS Giannina                    26   9    3    1    30   13   8    3    2    28   17   57
1st     PAS Giannina                    26   9    2    2    36   20   9    2    2    30   20   58
2nd     PAS Giannina                    26   9    4    0    34   12   9    3    1    31   14   61
2nd     PAS Giannina                    26   8    1    4    33   17   7    5    1    32   16   51
1st     PAS Giannina                    26   10   3    0    30   10   7    2    4    26   17   56
2nd     PAS Giannina                    26   12   1    0    35   10   6    4    3    31   20   59
1st     PAS Giannina                    26   9    2    2    31   9    8    2    3    25   12   55
1st     PAS Giannina                    26   11   1    1    35   12   11   1    1    37   13   68
1st     PAS Giannina                    26   11   1    1    34   10   11   1    1    31   8    68
1st     PAS Giannina                    26   11   1    1    38   18   10   2    1    29   10   66
2nd     PAS Giannina                    26   10   2    1    35   13   4    5    4    22   22   49
1st     PAS Giannina                    26   10   3    0    31   16   9    2    2    33   11   62
1st     PAS Giannina                    26   9    4    0    35   19   10   2    1    39   17   63
1st     PAS Giannina                    26   11   1    1    31   15   11   2    0    31   7    69
1st     PAS Giannina                    26   9    4    0    32   10   9    4    0    26   11   62
1st     PAS Giannina                    26   10   1    2    36   12   10   2    1    29   11   63
1st     PAS Giannina                    26   11   1    1    38   12   9    2    2    29   14   63
1st     PAS Giannina                    26   9    3    1    40   15   9    2    2    31   11   59
1st     PAS Giannina                    26   9    1    3    29   15   10   0    3    29   8    58
1st     PAS Giannina                    26   10   2    1    32   15   9    3    1    30   12   62
1st     PAS Giannina                    26   10   2    1    41   18   9    3    1    33   14   62
1st     PAS Giannina                    26   8    5    0    35   15   8    3    2    27   15   56
1st     PAS Giannina                    26   12   1    0    40   14   11   1    1    31   15   71
1st     PAS Giannina                    26   8    3    2    29   14   11   1    1    33   8    61
1st     PAS Giannina                    26   10   2    1    30   13   9    1    3    30   12   60
1st     PAS Giannina                    26   11   2    0    30   11   11   1    1    24   5    69
1st     PAS Giannina                    26   11   2    0    37   10   8    2    3    25   15   61
1st     PAS Giannina                    26   11   0    2    27   14   10   2    1    31   13   65
1st     PAS Giannina                    26   11   0    2    36   17   7    5    1    24   13   59
1st     PAS Giannina                    26   10   2    1    39   14   8    4    1    33   15   60