7th     PAS Giannina                    26   6    3    4    19   14   3    4    6    18   23   34   
1st     PAS Giannina                    26   11   2    0    35   15   5    3    5    14   13   53   
1st     PAS Giannina                    26   7    5    1    27   14   8    2    3    21   10   52   
1st     PAS Giannina                    26   8    3    2    30   17   7    3    3    23   8    51   
2nd     PAS Giannina                    26   11   2    0    31   14   5    6    2    15   8    56   
7th     PAS Giannina                    26   7    5    1    24   16   2    4    7    18   25   36   
1st     PAS Giannina                    26   11   2    0    38   10   5    5    3    22   18   55   
3rd     PAS Giannina                    26   8    4    1    29   18   6    1    6    24   20   47   
3rd     PAS Giannina                    26   8    1    4    26   12   6    2    5    22   18   45   
1st     PAS Giannina                    26   9    3    1    28   14   6    2    5    17   12   50   
3rd     PAS Giannina                    26   6    2    5    23   15   9    2    2    30   16   49   
4th     PAS Giannina                    26   6    4    3    26   20   6    2    5    19   19   42   
3rd     PAS Giannina                    26   7    5    1    21   11   4    4    5    20   17   42   
4th     PAS Giannina                    26   5    5    3    26   20   6    2    5    19   14   40   
2nd     PAS Giannina                    26   7    5    1    22   11   8    3    2    29   15   53   
6th     PAS Giannina                    26   7    2    4    17   12   4    2    7    13   16   37   
2nd     PAS Giannina                    26   9    2    2    26   15   8    1    4    24   14   54   
1st     PAS Giannina                    26   12   0    1    31   10   9    1    3    24   15   64   
2nd     PAS Giannina                    26   8    2    3    30   17   6    5    2    20   14   49   
1st     PAS Giannina                    26   8    3    2    26   17   7    2    4    22   18   50   
1st     PAS Giannina                    26   10   1    2    33   17   6    3    4    23   19   52   
1st     PAS Giannina                    26   11   1    1    32   16   6    3    4    22   21   55   
1st     PAS Giannina                    26   6    4    3    22   12   7    5    1    27   17   48   
2nd     PAS Giannina                    26   9    2    2    31   15   8    1    4    24   20   54   
3rd     PAS Giannina                    26   7    4    2    24   15   5    6    2    20   17   46   
1st     PAS Giannina                    26   9    2    2    26   10   6    5    2    16   10   52   
1st     PAS Giannina                    26   9    2    2    35   17   8    2    3    24   16   55   
1st     PAS Giannina                    26   7    4    2    24   12   5    6    2    16   14   46   
1st     PAS Giannina                    26   11   1    1    29   11   9    1    3    25   11   62   
3rd     PAS Giannina                    26   7    3    3    30   15   6    3    4    19   16   45   
3rd     PAS Giannina                    26   7    2    4    30   19   5    5    3    23   16   43   
1st     PAS Giannina                    26   11   2    0    26   8    7    2    4    24   18   58   
2nd     PAS Giannina                    26   9    3    1    33   19   6    3    4    23   14   51   
1st     PAS Giannina                    26   9    3    1    33   13   5    3    5    25   19   48   
1st     PAS Giannina                    26   9    2    2    24   14   8    3    2    21   12   56   
2nd     PAS Giannina                    26   6    3    4    26   16   8    2    3    22   12   47   
4th     PAS Giannina                    26   7    5    1    26   17   4    4    5    27   23   42   
1st     PAS Giannina                    26   13   0    0    46   13   6    5    2    20   11   62   
5th     PAS Giannina                    26   7    2    4    22   17   3    8    2    21   18   40   
1st     PAS Giannina                    26   10   1    2    23   9    8    0    5    21   16   55   
4th     PAS Giannina                    26   9    1    3    25   13   4    3    6    15   19   43   
1st     PAS Giannina                    26   10   3    0    26   11   6    1    6    19   17   52   
2nd     PAS Giannina                    26   9    2    2    29   15   6    5    2    25   16   52   
2nd     PAS Giannina                    26   8    1    4    23   11   9    2    2    21   8    54   
5th     PAS Giannina                    26   7    2    4    24   20   6    1    6    20   16   42   
2nd     PAS Giannina                    26   11   2    0    35   8    6    2    5    23   20   55   
1st     PAS Giannina                    26   8    3    2    32   14   9    3    1    26   13   57   
2nd     PAS Giannina                    26   11   1    1    33   12   7    3    3    21   14   58   
4th     PAS Giannina                    26   7    4    2    27   16   6    4    3    24   18   47   
3rd     PAS Giannina                    26   8    3    2    24   12   6    4    3    27   20   49   
1st     PAS Giannina                    26   12   1    0    39   11   5    5    3    18   15   57   
2nd     PAS Giannina                    26   10   1    2    33   16   7    0    6    20   17   52   
2nd     PAS Giannina                    26   10   3    0    29   9    5    4    4    21   20   52   
2nd     PAS Giannina                    26   8    3    2    19   14   5    5    3    19   16   47   
2nd     PAS Giannina                    26   10   2    1    31   10   5    3    5    18   18   50   
1st     PAS Giannina                    26   8    1    4    19   12   7    3    3    28   21   49   
5th     PAS Giannina                    26   7    2    4    27   19   5    1    7    19   18   39   
2nd     PAS Giannina                    26   8    2    3    27   14   7    1    5    21   16   48   
3rd     PAS Giannina                    26   7    2    4    25   19   5    2    6    23   22   40   
5th     PAS Giannina                    26   7    4    2    30   17   4    4    5    23   17   41   
1st     PAS Giannina                    26   10   2    1    29   12   8    3    2    27   17   59   
3rd     PAS Giannina                    26   8    2    3    27   18   8    0    5    21   16   50   
1st     PAS Giannina                    26   10   1    2    35   15   8    3    2    24   12   58   
2nd     PAS Giannina                    26   11   2    0    39   15   5    4    4    27   21   54   
1st     PAS Giannina                    26   13   0    0    34   8    6    4    3    26   14   61   
3rd     PAS Giannina                    26   5    4    4    25   22   6    5    2    27   16   42   
1st     PAS Giannina                    26   13   0    0    35   8    8    2    3    26   15   65   
2nd     PAS Giannina                    26   9    2    2    33   17   6    4    3    22   13   51   
2nd     PAS Giannina                    26   10   3    0    35   11   5    5    3    23   18   53   
2nd     PAS Giannina                    26   8    1    4    24   19   7    2    4    16   14   48   
2nd     PAS Giannina                    26   9    1    3    27   16   8    1    4    24   19   53   
1st     PAS Giannina                    26   10   1    2    35   14   6    5    2    21   15   54   
1st     PAS Giannina                    26   10   1    2    23   11   6    4    3    21   14   53   
1st     PAS Giannina                    26   7    4    2    33   20   7    4    2    20   12   50   
2nd     PAS Giannina                    26   8    2    3    31   16   8    2    3    23   16   52   
1st     PAS Giannina                    26   9    1    3    29   15   6    3    4    19   14   49   
1st     PAS Giannina                    26   9    3    1    29   13   7    3    3    27   15   54   
1st     PAS Giannina                    26   7    2    4    26   18   8    2    3    26   12   49   
1st     PAS Giannina                    26   9    3    1    27   12   7    3    3    28   20   54   
1st     PAS Giannina                    26   10   2    1    32   12   5    4    4    18   15   51   
2nd     PAS Giannina                    26   8    3    2    30   19   5    4    4    15   16   46   
4th     PAS Giannina                    26   9    2    2    26   13   4    5    4    16   15   46   
1st     PAS Giannina                    26   9    2    2    25   9    7    4    2    23   13   54   
1st     PAS Giannina                    26   12   1    0    34   12   7    4    2    25   17   62   
2nd     PAS Giannina                    26   7    6    0    30   17   7    3    3    23   19   51   
3rd     PAS Giannina                    26   9    3    1    28   12   5    3    5    18   17   48   
2nd     PAS Giannina                    26   9    2    2    30   14   7    4    2    26   15   54   
5th     PAS Giannina                    26   6    3    4    25   15   6    2    5    20   19   41   
1st     PAS Giannina                    26   11   1    1    29   12   9    1    3    20   13   62   
2nd     PAS Giannina                    26   7    2    4    28   22   9    3    1    26   10   53   
2nd     PAS Giannina                    26   11   2    0    36   9    6    4    3    27   22   57   
2nd     PAS Giannina                    26   7    6    0    32   15   6    2    5    19   13   47   
2nd     PAS Giannina                    26   8    2    3    29   15   7    4    2    20   12   51   
3rd     PAS Giannina                    26   9    3    1    24   10   6    3    4    22   21   51   
1st     PAS Giannina                    26   9    3    1    25   11   4    3    6    18   19   45   
2nd     PAS Giannina                    26   11   1    1    30   9    7    2    4    25   13   57   
2nd     PAS Giannina                    26   11   2    0    33   12   5    2    6    24   23   52   
2nd     PAS Giannina                    26   10   2    1    26   17   5    4    4    19   18   51   
1st     PAS Giannina                    26   9    2    2    34   13   10   1    2    26   12   60   
5th     PAS Giannina                    26   8    2    3    23   14   3    6    4    20   19   41   