3rd     PAS Giannina                    26   9    3    1    24   11   4    5    4    15   13   47   
1st     PAS Giannina                    26   9    3    1    28   11   7    4    2    21   8    55   
1st     PAS Giannina                    26   11   1    1    30   12   7    4    2    22   17   59   
2nd     PAS Giannina                    26   7    4    2    22   11   7    4    2    23   14   50   
1st     PAS Giannina                    26   10   3    0    37   16   6    5    2    25   16   56   
1st     PAS Giannina                    26   10   3    0    32   9    7    5    1    27   11   59   
1st     PAS Giannina                    26   7    2    4    25   12   11   0    2    29   15   56   
2nd     PAS Giannina                    26   10   2    1    26   12   5    2    6    17   13   49   
1st     PAS Giannina                    26   10   2    1    32   12   7    5    1    27   16   58   
1st     PAS Giannina                    26   10   2    1    28   9    9    4    0    24   7    63   
1st     PAS Giannina                    26   7    3    3    26   13   11   1    1    31   15   58   
1st     PAS Giannina                    26   9    4    0    32   16   7    3    3    25   10   55   
1st     PAS Giannina                    26   11   2    0    29   8    6    5    2    21   14   58   
1st     PAS Giannina                    26   9    3    1    24   11   9    2    2    30   14   59   
1st     PAS Giannina                    26   12   0    1    35   8    8    2    3    26   14   62   
2nd     PAS Giannina                    26   9    1    3    25   10   6    2    5    20   16   48   
2nd     PAS Giannina                    26   8    2    3    32   14   7    2    4    21   11   49   
2nd     PAS Giannina                    26   11   2    0    31   7    6    4    3    29   15   57   
1st     PAS Giannina                    26   8    4    1    24   10   9    2    2    31   13   57   
1st     PAS Giannina                    26   11   1    1    33   14   5    5    3    21   14   54   
1st     PAS Giannina                    26   10   1    2    32   10   7    5    1    24   14   57   
1st     PAS Giannina                    26   10   1    2    36   15   9    2    2    28   12   60   
1st     PAS Giannina                    26   10   1    2    27   13   10   1    2    30   12   62   
1st     PAS Giannina                    26   12   1    0    34   12   8    1    4    20   12   62   
2nd     PAS Giannina                    26   10   2    1    26   10   6    4    3    22   16   54   
1st     PAS Giannina                    26   11   1    1    31   14   7    5    1    21   12   60   
1st     PAS Giannina                    26   10   3    0    30   9    6    4    3    23   15   55   
1st     PAS Giannina                    26   9    3    1    25   10   6    6    1    27   17   54   
2nd     PAS Giannina                    26   8    3    2    26   16   6    3    4    19   15   48   
1st     PAS Giannina                    26   11   2    0    35   11   9    3    1    30   12   65   
1st     PAS Giannina                    26   9    1    3    23   10   8    3    2    30   16   55   
1st     PAS Giannina                    26   12   0    1    34   8    9    3    1    31   13   66   
1st     PAS Giannina                    26   11   0    2    25   7    10   0    3    25   7    63   
1st     PAS Giannina                    26   13   0    0    35   3    5    3    5    21   22   57   
1st     PAS Giannina                    26   10   2    1    26   10   10   2    1    34   11   64   
1st     PAS Giannina                    26   13   0    0    32   8    8    3    2    22   11   66   
1st     PAS Giannina                    26   13   0    0    31   6    5    3    5    19   20   57   
2nd     PAS Giannina                    26   10   0    3    32   16   7    5    1    22   10   56   
1st     PAS Giannina                    26   8    4    1    18   10   8    3    2    24   10   55   
1st     PAS Giannina                    26   12   1    0    29   6    9    3    1    25   11   67   
1st     PAS Giannina                    26   11   2    0    37   12   8    2    3    24   9    61   
2nd     PAS Giannina                    26   10   1    2    22   11   8    2    3    27   20   57   
2nd     PAS Giannina                    26   11   1    1    33   8    4    4    5    21   17   50   
4th     PAS Giannina                    26   7    3    3    27   17   7    0    6    20   18   45   
1st     PAS Giannina                    26   9    4    0    33   12   7    4    2    23   12   56   
2nd     PAS Giannina                    26   13   0    0    35   9    6    3    4    17   12   60   
2nd     PAS Giannina                    26   9    3    1    26   12   7    3    3    20   9    54   
1st     PAS Giannina                    26   11   1    1    26   7    8    4    1    28   15   62   
2nd     PAS Giannina                    26   9    4    0    27   9    7    1    5    22   20   53   
2nd     PAS Giannina                    26   9    3    1    33   15   8    4    1    31   15   58   
1st     PAS Giannina                    26   9    2    2    29   11   8    4    1    28   13   57   
3rd     PAS Giannina                    26   8    2    3    26   10   6    0    7    19   17   44   
2nd     PAS Giannina                    26   10   1    2    37   14   5    5    3    18   13   51   
1st     PAS Giannina                    26   11   1    1    31   11   5    6    2    18   9    55   
1st     PAS Giannina                    26   11   2    0    29   7    8    2    3    20   10   61   
1st     PAS Giannina                    26   10   1    2    32   13   9    2    2    25   8    60   
1st     PAS Giannina                    26   9    3    1    26   13   8    4    1    29   12   58   
1st     PAS Giannina                    26   11   1    1    30   9    7    2    4    19   13   57   
1st     PAS Giannina                    26   11   1    1    27   10   9    3    1    25   10   64   
1st     PAS Giannina                    26   13   0    0    32   3    9    2    2    28   9    68   
1st     PAS Giannina                    26   11   2    0    32   10   7    2    4    23   18   58   
6th     PAS Giannina                    26   6    2    5    22   18   4    5    4    18   17   37   
2nd     PAS Giannina                    26   8    4    1    23   10   7    3    3    21   11   52   
1st     PAS Giannina                    26   12   1    0    34   9    8    4    1    26   13   65   
1st     PAS Giannina                    26   10   1    2    29   8    6    2    5    19   16   51   
1st     PAS Giannina                    26   10   2    1    33   9    7    2    4    23   14   55   
4th     PAS Giannina                    26   8    4    1    27   13   4    3    6    16   18   43   
1st     PAS Giannina                    26   9    4    0    30   8    9    3    1    27   12   61   
1st     PAS Giannina                    26   11   2    0    32   12   5    5    3    22   17   55   
4th     PAS Giannina                    26   7    3    3    25   15   4    6    3    19   13   42   
1st     PAS Giannina                    26   9    2    2    29   11   10   2    1    32   9    61   
2nd     PAS Giannina                    26   8    3    2    23   11   6    2    5    19   19   47   
2nd     PAS Giannina                    26   9    2    2    27   10   5    3    5    19   13   47   
2nd     PAS Giannina                    26   9    2    2    23   9    6    2    5    22   16   49   
2nd     PAS Giannina                    26   7    2    4    23   16   9    1    3    27   15   51   
1st     PAS Giannina                    26   10   2    1    34   13   10   1    2    26   13   63   
2nd     PAS Giannina                    26   7    2    4    25   17   8    2    3    18   10   49   
1st     PAS Giannina                    26   9    2    2    28   15   9    3    1    27   15   59   
3rd     PAS Giannina                    26   8    2    3    22   14   6    2    5    27   21   46   
2nd     PAS Giannina                    26   11   0    2    35   12   5    3    5    14   11   51   
1st     PAS Giannina                    26   11   1    1    28   11   8    3    2    23   12   61   
1st     PAS Giannina                    26   8    3    2    30   12   7    4    2    22   11   52   
1st     PAS Giannina                    26   9    4    0    33   14   8    4    1    22   9    59   
1st     PAS Giannina                    26   11   2    0    41   13   10   3    0    36   14   68   
1st     PAS Giannina                    26   11   2    0    29   8    6    4    3    27   18   57   
2nd     PAS Giannina                    26   11   2    0    28   13   6    4    3    25   17   57   
1st     PAS Giannina                    26   9    1    3    24   13   11   2    0    35   7    63   
1st     PAS Giannina                    26   10   1    2    28   10   10   2    1    24   5    63   
2nd     PAS Giannina                    26   8    3    2    28   12   6    1    6    21   14   46   
1st     PAS Giannina                    26   10   1    2    33   18   6    7    0    22   11   56   
1st     PAS Giannina                    26   10   2    1    23   5    8    3    2    21   8    59   
1st     PAS Giannina                    26   11   2    0    30   12   10   1    2    30   15   66   
1st     PAS Giannina                    26   10   1    2    29   12   7    2    4    28   16   54   
2nd     PAS Giannina                    26   10   1    2    25   9    5    2    6    21   17   48   
1st     PAS Giannina                    26   10   2    1    26   6    8    3    2    29   18   59   
2nd     PAS Giannina                    26   9    0    4    24   15   7    2    4    22   20   50   
1st     PAS Giannina                    26   10   2    1    26   9    11   2    0    26   9    67   
1st     PAS Giannina                    26   10   3    0    28   11   8    2    3    24   16   59   
1st     PAS Giannina                    26   11   2    0    36   15   11   1    1    35   12   69   
1st     PAS Giannina                    26   11   1    1    30   8    9    2    2    23   11   63   