3rd     PAS Giannina                    26   9    0    4    24   14   6    3    4    22   14   48
4th     PAS Giannina                    26   8    2    3    26   16   5    2    6    18   24   43
3rd     PAS Giannina                    26   8    1    4    21   18   8    2    3    20   17   51
2nd     PAS Giannina                    26   10   2    1    32   12   4    3    6    12   19   47
3rd     PAS Giannina                    26   8    3    2    23   13   4    5    4    16   20   44
5th     PAS Giannina                    26   8    2    3    27   14   4    2    7    10   19   40
2nd     PAS Giannina                    26   8    2    3    22   9    4    6    3    18   19   44
3rd     PAS Giannina                    26   9    1    3    26   13   5    4    4    17   18   47
1st     PAS Giannina                    26   12   1    0    31   10   3    3    7    18   23   49
1st     PAS Giannina                    26   10   2    1    26   7    6    5    2    26   14   55
7th     PAS Giannina                    26   7    3    3    26   18   3    4    6    13   20   37
4th     PAS Giannina                    26   7    2    4    24   19   7    3    3    23   12   47
5th     PAS Giannina                    26   8    3    2    23   13   2    6    5    11   15   39
5th     PAS Giannina                    26   6    4    3    20   14   5    3    5    16   18   40
2nd     PAS Giannina                    26   8    3    2    31   12   6    3    4    16   16   48
4th     PAS Giannina                    26   9    2    2    23   12   3    5    5    22   21   43
3rd     PAS Giannina                    26   9    2    2    23   9    3    6    4    18   16   44
2nd     PAS Giannina                    26   8    1    4    20   13   6    1    6    14   18   44
6th     PAS Giannina                    26   8    2    3    29   16   3    2    8    18   27   37
3rd     PAS Giannina                    26   8    4    1    26   14   4    4    5    16   18   44
7th     PAS Giannina                    26   6    2    5    21   21   4    4    5    16   18   36
11th    PAS Giannina                    26   6    2    5    23   14   4    0    9    18   27   32
6th     PAS Giannina                    26   5    1    7    17   21   5    4    4    22   17   35
2nd     PAS Giannina                    26   11   1    1    31   11   3    4    6    19   19   47
4th     PAS Giannina                    26   4    6    3    17   15   5    3    5    15   17   36
1st     PAS Giannina                    26   11   2    0    35   8    6    4    3    18   14   57
1st     PAS Giannina                    26   10   2    1    25   10   7    2    4    18   10   55
1st     PAS Giannina                    26   12   1    0    35   6    7    1    5    22   18   59
1st     PAS Giannina                    26   9    2    2    38   16   5    3    5    20   20   47
5th     PAS Giannina                    26   6    5    2    24   12   4    3    6    12   13   38
1st     PAS Giannina                    26   7    5    1    32   19   5    2    6    14   18   43
4th     PAS Giannina                    26   6    4    3    22   13   6    1    6    18   18   41
3rd     PAS Giannina                    26   8    2    3    25   11   4    4    5    16   15   42
2nd     PAS Giannina                    26   9    3    1    29   11   5    3    5    16   19   48
4th     PAS Giannina                    26   8    4    1    25   11   5    2    6    16   19   45
2nd     PAS Giannina                    26   10   2    1    27   11   3    5    5    9    15   46
7th     PAS Giannina                    26   7    4    2    28   16   1    7    5    8    19   35
1st     PAS Giannina                    26   9    3    1    24   11   8    0    5    20   14   54
1st     PAS Giannina                    26   10   2    1    22   9    8    2    3    21   12   58
6th     PAS Giannina                    26   5    5    3    14   14   5    1    7    14   16   36
1st     PAS Giannina                    26   8    4    1    20   9    8    4    1    24   12   56
1st     PAS Giannina                    26   10   3    0    28   12   8    4    1    20   10   61
4th     PAS Giannina                    26   6    4    3    25   15   6    3    4    17   16   43
7th     PAS Giannina                    26   6    2    5    23   20   5    3    5    16   17   38
2nd     PAS Giannina                    26   7    3    3    23   15   7    2    4    19   13   47
2nd     PAS Giannina                    26   9    3    1    29   11   4    6    3    17   15   48
1st     PAS Giannina                    26   6    6    1    26   15   6    3    4    21   18   45
6th     PAS Giannina                    26   7    4    2    27   15   2    8    3    20   23   39
2nd     PAS Giannina                    26   7    4    2    27   15   5    4    4    21   15   44
2nd     PAS Giannina                    26   10   2    1    36   18   6    4    3    18   12   54
3rd     PAS Giannina                    26   8    1    4    21   9    7    1    5    19   17   47
6th     PAS Giannina                    26   7    2    4    26   17   4    4    5    11   21   39
3rd     PAS Giannina                    26   8    4    1    26   12   4    4    5    16   16   44
9th     PAS Giannina                    26   6    4    3    21   16   4    3    6    9    11   37
2nd     PAS Giannina                    26   10   2    1    28   14   4    3    6    18   21   47
9th     PAS Giannina                    26   7    3    3    24   17   3    0    10   11   25   33
2nd     PAS Giannina                    26   7    6    0    29   14   5    4    4    18   14   46
4th     PAS Giannina                    26   7    3    3    21   13   4    5    4    18   18   41
2nd     PAS Giannina                    26   7    4    2    24   14   5    6    2    22   17   46
3rd     PAS Giannina                    26   7    3    3    27   16   5    1    7    15   16   40
3rd     PAS Giannina                    26   6    4    3    16   11   6    5    2    19   10   45
2nd     PAS Giannina                    26   9    2    2    27   13   6    5    2    16   11   52
4th     PAS Giannina                    26   8    1    4    24   13   5    5    3    19   12   45
3rd     PAS Giannina                    26   8    3    2    25   13   5    2    6    18   19   44
2nd     PAS Giannina                    26   7    2    4    27   19   5    7    1    17   11   45
2nd     PAS Giannina                    26   10   2    1    26   8    5    4    4    14   16   51
2nd     PAS Giannina                    26   9    0    4    21   13   6    3    4    20   16   48
8th     PAS Giannina                    26   6    3    4    24   20   3    5    5    12   17   35
5th     PAS Giannina                    26   8    2    3    24   9    4    5    4    17   19   43
4th     PAS Giannina                    26   8    3    2    24   11   2    8    3    12   12   41
5th     PAS Giannina                    26   9    3    1    25   14   2    5    6    20   23   41
11th    PAS Giannina                    26   4    6    3    21   15   4    4    5    14   14   34
1st     PAS Giannina                    26   12   1    0    33   13   6    4    3    18   9    59
1st     PAS Giannina                    26   8    2    3    25   15   7    4    2    19   9    51
1st     PAS Giannina                    26   12   1    0    34   10   6    3    4    22   15   58
4th     PAS Giannina                    26   8    3    2    28   16   4    2    7    14   18   41
5th     PAS Giannina                    26   8    3    2    26   16   2    4    7    8    19   37
4th     PAS Giannina                    26   8    2    3    22   15   6    0    7    18   18   44
6th     PAS Giannina                    26   8    1    4    24   18   5    3    5    18   19   43
4th     PAS Giannina                    26   10   2    1    33   15   1    5    7    13   24   40
2nd     PAS Giannina                    26   10   2    1    28   12   4    3    6    14   19   47
7th     PAS Giannina                    26   7    2    4    22   18   3    4    6    16   22   36
4th     PAS Giannina                    26   5    5    3    22   15   7    2    4    19   10   43
1st     PAS Giannina                    26   7    5    1    24   12   5    6    2    18   15   47
2nd     PAS Giannina                    26   8    3    2    22   16   8    4    1    20   10   55
3rd     PAS Giannina                    26   8    3    2    27   10   5    4    4    18   13   46
8th     PAS Giannina                    26   5    4    4    19   14   5    2    6    20   18   36
1st     PAS Giannina                    26   9    3    1    28   15   7    4    2    26   15   55
1st     PAS Giannina                    26   8    3    2    29   17   6    4    3    21   14   49
5th     PAS Giannina                    26   6    6    1    21   9    4    5    4    11   12   41
3rd     PAS Giannina                    26   7    2    4    20   13   6    3    4    19   18   44
7th     PAS Giannina                    26   7    4    2    23   13   2    4    7    15   21   35
7th     PAS Giannina                    26   8    1    4    24   14   2    3    8    14   20   34
4th     PAS Giannina                    26   9    3    1    28   9    3    3    7    11   18   42
5th     PAS Giannina                    26   9    2    2    27   16   3    3    7    15   20   41
1st     PAS Giannina                    26   11   2    0    29   7    6    1    6    20   18   54
5th     PAS Giannina                    26   7    2    4    29   19   5    2    6    20   20   40
1st     PAS Giannina                    26   12   1    0    31   6    4    5    4    18   17   54
3rd     PAS Giannina                    26   7    4    2    21   12   4    6    3    12   12   43
1st     PAS Giannina                    26   9    1    3    28   14   7    4    2    24   16   53