1st     PAS Giannina                    26   11   2    0    22   4    6    5    2    19   11   58   
2nd     PAS Giannina                    26   11   2    0    28   3    7    3    3    18   14   59   
2nd     PAS Giannina                    26   12   1    0    36   6    6    3    4    16   13   58   
1st     PAS Giannina                    26   13   0    0    30   5    3    6    4    14   15   54   
2nd     PAS Giannina                    26   11   1    1    28   7    7    2    4    21   12   57   
1st     PAS Giannina                    26   10   2    1    32   14   6    4    3    25   19   54   
1st     PAS Giannina                    26   11   1    1    27   6    8    2    3    19   11   60   
1st     PAS Giannina                    26   9    3    1    27   11   7    6    0    27   13   57   
4th     PAS Giannina                    26   7    5    1    24   12   5    2    6    16   17   43   
1st     PAS Giannina                    26   11   2    0    34   7    8    1    4    28   18   60   
2nd     PAS Giannina                    26   11   1    1    34   7    6    3    4    24   22   55   
2nd     PAS Giannina                    26   11   1    1    29   10   6    2    5    16   18   54   
2nd     PAS Giannina                    26   10   2    1    34   11   8    1    4    20   9    57   
1st     PAS Giannina                    26   10   1    2    29   12   9    1    3    19   10   59   
1st     PAS Giannina                    26   12   0    1    36   10   10   1    2    21   7    67   
1st     PAS Giannina                    26   11   1    1    31   12   9    2    2    21   8    63   
3rd     PAS Giannina                    26   8    2    3    23   12   6    1    6    24   17   45   
1st     PAS Giannina                    26   9    3    1    28   13   7    3    3    26   16   54   
1st     PAS Giannina                    26   12   1    0    32   7    7    3    3    23   16   61   
3rd     PAS Giannina                    26   8    3    2    27   11   7    4    2    20   9    52   
1st     PAS Giannina                    26   10   2    1    26   11   5    5    3    21   12   52   
3rd     PAS Giannina                    26   6    4    3    24   15   6    5    2    17   10   45   
1st     PAS Giannina                    26   11   1    1    29   11   8    4    1    20   10   62   
2nd     PAS Giannina                    26   11   0    2    33   15   4    1    8    12   21   46   
2nd     PAS Giannina                    26   11   1    1    30   12   4    3    6    22   25   49   
2nd     PAS Giannina                    26   8    4    1    31   13   6    3    4    21   15   49   
1st     PAS Giannina                    26   12   1    0    36   12   5    2    6    14   17   54   
2nd     PAS Giannina                    26   10   2    1    30   11   6    3    4    20   15   53   
2nd     PAS Giannina                    26   9    1    3    26   12   4    7    2    16   15   47   
1st     PAS Giannina                    26   10   2    1    29   8    6    2    5    17   11   52   
2nd     PAS Giannina                    26   7    4    2    20   9    7    2    4    18   12   48   
1st     PAS Giannina                    26   10   1    2    24   10   5    5    3    17   13   51   
1st     PAS Giannina                    26   12   1    0    26   8    7    4    2    25   14   62   
1st     PAS Giannina                    26   9    3    1    23   12   8    2    3    25   12   56   
1st     PAS Giannina                    26   11   2    0    36   7    8    3    2    27   17   62   
9th     PAS Giannina                    26   6    5    2    20   12   4    1    8    12   16   36   
5th     PAS Giannina                    26   7    4    2    23   14   5    4    4    17   14   44   
1st     PAS Giannina                    26   9    3    1    29   12   8    3    2    20   15   57   
2nd     PAS Giannina                    26   7    4    2    20   11   6    6    1    15   7    49   
1st     PAS Giannina                    26   11   2    0    26   3    5    3    5    22   15   53   
2nd     PAS Giannina                    26   11   0    2    29   10   5    4    4    15   10   52   
1st     PAS Giannina                    26   7    3    3    28   16   7    5    1    20   12   50   
1st     PAS Giannina                    26   9    2    2    25   15   10   1    2    26   12   60   
1st     PAS Giannina                    26   10   2    1    27   9    6    1    6    21   18   51   
2nd     PAS Giannina                    26   8    1    4    29   15   7    2    4    21   11   48   
2nd     PAS Giannina                    26   10   1    2    28   12   7    2    4    16   14   54   
1st     PAS Giannina                    26   11   0    2    26   7    9    2    2    24   10   62   
1st     PAS Giannina                    26   11   2    0    31   9    9    1    3    24   9    63   
2nd     PAS Giannina                    26   11   0    2    28   10   6    3    4    19   14   54   
3rd     PAS Giannina                    26   8    3    2    23   5    6    3    4    16   14   48   
1st     PAS Giannina                    26   11   1    1    32   10   9    2    2    26   9    63   
2nd     PAS Giannina                    26   10   3    0    26   8    7    2    4    25   15   56   
1st     PAS Giannina                    26   11   2    0    27   2    3    7    3    17   15   51   
5th     PAS Giannina                    26   4    5    4    19   16   7    2    4    18   12   40   
1st     PAS Giannina                    26   10   2    1    27   13   10   3    0    24   8    65   
2nd     PAS Giannina                    26   9    4    0    30   7    7    4    2    18   9    56   
2nd     PAS Giannina                    26   8    4    1    25   11   5    5    3    22   16   48   
1st     PAS Giannina                    26   10   3    0    29   9    8    3    2    26   17   60   
1st     PAS Giannina                    26   11   2    0    31   10   4    4    5    18   19   51   
1st     PAS Giannina                    26   11   2    0    28   9    9    3    1    19   6    65   
1st     PAS Giannina                    26   11   2    0    28   7    6    4    3    19   12   57   
2nd     PAS Giannina                    26   8    4    1    23   12   7    3    3    23   16   52   
1st     PAS Giannina                    26   9    3    1    24   10   9    2    2    27   15   59   
2nd     PAS Giannina                    26   9    2    2    26   6    6    2    5    11   13   49   
1st     PAS Giannina                    26   9    4    0    28   10   9    2    2    25   11   60   
2nd     PAS Giannina                    26   8    4    1    27   8    5    5    3    14   10   48   
1st     PAS Giannina                    26   9    2    2    24   12   4    5    4    18   18   46   
2nd     PAS Giannina                    26   9    1    3    26   10   6    4    3    21   17   50   
1st     PAS Giannina                    26   10   1    2    35   11   5    2    6    21   20   48   
1st     PAS Giannina                    26   11   2    0    36   7    6    2    5    23   14   55   
5th     PAS Giannina                    26   5    5    3    12   9    5    4    4    17   13   39   
2nd     PAS Giannina                    26   10   1    2    27   11   5    2    6    13   19   48   
3rd     PAS Giannina                    26   10   2    1    29   12   4    6    3    13   13   50   
1st     PAS Giannina                    26   11   1    1    26   9    6    4    3    19   10   56   
2nd     PAS Giannina                    26   9    2    2    20   6    6    3    4    20   14   50   
1st     PAS Giannina                    26   11   2    0    28   8    8    1    4    23   13   60   
1st     PAS Giannina                    26   10   2    1    35   12   7    4    2    22   15   57   
3rd     PAS Giannina                    26   9    1    3    18   7    4    6    3    19   15   46   
1st     PAS Giannina                    26   10   1    2    31   8    7    3    3    17   12   55   
1st     PAS Giannina                    26   11   1    1    26   7    8    5    0    25   7    63   
2nd     PAS Giannina                    26   9    2    2    25   10   7    2    4    21   16   52   
3rd     PAS Giannina                    26   8    3    2    21   9    7    0    6    19   19   48   
1st     PAS Giannina                    26   12   1    0    35   5    8    3    2    25   16   64   
1st     PAS Giannina                    26   9    4    0    26   4    6    3    4    24   20   52   
2nd     PAS Giannina                    26   8    4    1    20   9    5    4    4    18   16   47   
1st     PAS Giannina                    26   12   1    0    32   7    5    4    4    22   17   56   
2nd     PAS Giannina                    26   9    2    2    20   9    7    4    2    17   9    54   
1st     PAS Giannina                    26   11   0    2    29   9    7    5    1    20   12   59   
4th     PAS Giannina                    26   10   2    1    30   8    2    5    6    19   22   43   
1st     PAS Giannina                    26   9    4    0    26   9    9    2    2    21   15   60   
1st     PAS Giannina                    26   11   1    1    29   13   7    3    3    24   15   58   
3rd     PAS Giannina                    26   11   2    0    27   4    5    3    5    26   20   53   
3rd     PAS Giannina                    26   10   2    1    25   8    4    6    3    17   15   50   
2nd     PAS Giannina                    26   9    2    2    25   9    4    4    5    16   15   45   
4th     PAS Giannina                    26   9    2    2    23   5    3    4    6    16   20   42   
1st     PAS Giannina                    26   11   1    1    33   12   9    4    0    25   13   65   
2nd     PAS Giannina                    26   9    2    2    26   13   4    6    3    15   12   47   
2nd     PAS Giannina                    26   9    1    3    23   16   8    2    3    16   14   54   
3rd     PAS Giannina                    26   9    4    0    26   11   4    5    4    15   12   48   
1st     PAS Giannina                    26   12   1    0    35   11   4    5    4    18   19   54   