1st     PAS Giannina                    26   12   1    0    34   9    5    6    2    22   15   58   
2nd     PAS Giannina                    26   10   2    1    31   15   5    2    6    20   24   49   
1st     PAS Giannina                    26   12   1    0    27   10   7    2    4    18   10   60   
1st     PAS Giannina                    26   11   1    1    29   12   7    2    4    24   17   57   
2nd     PAS Giannina                    26   8    5    0    30   13   7    1    5    27   14   51   
1st     PAS Giannina                    26   10   0    3    31   14   7    1    5    27   16   52   
2nd     PAS Giannina                    26   11   1    1    26   8    5    2    6    16   17   51   
1st     PAS Giannina                    26   11   2    0    30   6    8    2    3    22   12   61   
1st     PAS Giannina                    26   12   1    0    36   9    8    2    3    23   11   63   
4th     PAS Giannina                    26   8    4    1    27   13   4    4    5    21   21   44   
1st     PAS Giannina                    26   10   2    1    30   12   7    1    5    22   20   54   
1st     PAS Giannina                    26   11   2    0    33   5    7    5    1    20   9    61   
4th     PAS Giannina                    26   6    4    3    32   22   6    0    7    21   25   40   
2nd     PAS Giannina                    26   8    4    1    30   16   6    3    4    20   20   49   
4th     PAS Giannina                    26   9    2    2    26   12   5    3    5    22   19   47   
1st     PAS Giannina                    26   11   0    2    32   18   6    2    5    21   14   53   
1st     PAS Giannina                    26   10   1    2    27   10   6    3    4    18   12   52   
2nd     PAS Giannina                    26   8    2    3    27   16   8    1    4    15   14   51   
2nd     PAS Giannina                    26   9    4    0    31   14   5    3    5    19   18   49   
2nd     PAS Giannina                    26   10   3    0    27   10   6    4    3    16   10   55   
4th     PAS Giannina                    26   8    0    5    24   14   4    3    6    19   21   39   
3rd     PAS Giannina                    26   8    4    1    23   9    7    3    3    21   16   52   
1st     PAS Giannina                    26   7    3    3    23   11   7    3    3    22   17   48   
1st     PAS Giannina                    26   9    3    1    30   14   6    5    2    19   15   53   
1st     PAS Giannina                    26   9    2    2    29   17   7    4    2    22   13   54   
1st     PAS Giannina                    26   7    3    3    31   18   9    1    3    23   10   52   
1st     PAS Giannina                    26   8    4    1    25   11   10   2    1    25   11   60   
5th     PAS Giannina                    26   8    2    3    28   14   5    5    3    16   15   46   
2nd     PAS Giannina                    26   9    2    2    33   14   6    2    5    18   11   49   
1st     PAS Giannina                    26   11   2    0    32   11   5    3    5    18   19   53   
2nd     PAS Giannina                    26   10   2    1    33   11   4    3    6    18   21   47   
4th     PAS Giannina                    26   7    4    2    35   17   6    4    3    21   20   47   
1st     PAS Giannina                    26   7    2    4    26   15   9    3    1    29   16   53   
3rd     PAS Giannina                    26   8    4    1    33   19   4    4    5    16   14   44   
2nd     PAS Giannina                    26   9    4    0    34   10   4    3    6    16   18   46   
3rd     PAS Giannina                    26   8    3    2    27   15   7    3    3    22   15   51   
1st     PAS Giannina                    26   11   2    0    33   12   5    6    2    21   14   56   
2nd     PAS Giannina                    26   9    4    0    26   7    7    2    4    25   17   54   
2nd     PAS Giannina                    26   10   1    2    24   9    7    2    4    19   15   54   
1st     PAS Giannina                    26   10   2    1    28   11   9    0    4    29   17   59   
1st     PAS Giannina                    26   11   1    1    36   13   10   3    0    31   14   67   
2nd     PAS Giannina                    26   10   2    1    32   9    6    3    4    19   14   53   
1st     PAS Giannina                    26   9    3    1    32   13   6    4    3    18   10   52   
1st     PAS Giannina                    26   10   3    0    32   12   8    2    3    22   12   59   
1st     PAS Giannina                    26   9    3    1    34   15   7    4    2    25   12   55   
2nd     PAS Giannina                    26   8    4    1    31   17   6    5    2    24   11   51   
1st     PAS Giannina                    26   11   0    2    30   14   6    3    4    18   15   54   
1st     PAS Giannina                    26   10   1    2    20   7    8    4    1    27   13   59   
4th     PAS Giannina                    26   7    3    3    24   15   5    4    4    17   12   43   
5th     PAS Giannina                    26   6    5    2    23   17   4    3    6    18   21   38   
2nd     PAS Giannina                    26   11   1    1    34   12   5    4    4    16   11   53   
1st     PAS Giannina                    26   10   2    1    36   12   6    4    3    28   15   54   
1st     PAS Giannina                    26   8    4    1    33   19   7    3    3    26   15   52   
2nd     PAS Giannina                    26   9    4    0    26   10   5    3    5    17   20   49   
1st     PAS Giannina                    26   11   1    1    39   15   9    2    2    37   10   63   
2nd     PAS Giannina                    26   10   1    2    31   12   6    3    4    23   19   52   
1st     PAS Giannina                    26   11   2    0    30   11   10   1    2    35   18   66   
1st     PAS Giannina                    26   11   0    2    36   17   9    2    2    19   7    62   
2nd     PAS Giannina                    26   10   3    0    42   17   6    1    6    22   22   52   
3rd     PAS Giannina                    26   9    1    3    37   14   6    3    4    21   16   49   
1st     PAS Giannina                    26   12   1    0    31   6    8    4    1    25   17   65   
1st     PAS Giannina                    26   8    3    2    29   15   7    4    2    21   14   52   
2nd     PAS Giannina                    26   8    4    1    21   11   7    4    2    22   13   53   
2nd     PAS Giannina                    26   9    2    2    23   11   9    1    3    26   11   57   
1st     PAS Giannina                    26   12   1    0    32   8    7    4    2    21   13   62   
1st     PAS Giannina                    26   10   1    2    33   10   7    4    2    25   12   56   
1st     PAS Giannina                    26   11   0    2    30   13   7    1    5    20   15   55   
2nd     PAS Giannina                    26   10   3    0    31   11   8    2    3    22   16   59   
2nd     PAS Giannina                    26   9    2    2    29   10   6    3    4    24   19   50   
1st     PAS Giannina                    26   11   2    0    36   14   7    6    0    24   12   62   
2nd     PAS Giannina                    26   9    3    1    34   13   7    1    5    27   19   52   
1st     PAS Giannina                    26   10   3    0    34   11   6    2    5    22   18   53   
1st     PAS Giannina                    26   10   2    1    35   14   6    5    2    25   11   55   
2nd     PAS Giannina                    26   8    5    0    29   14   8    3    2    25   13   56   
3rd     PAS Giannina                    26   9    2    2    30   16   2    8    3    16   16   43   
2nd     PAS Giannina                    26   11   1    1    25   9    6    3    4    21   15   55   
1st     PAS Giannina                    26   10   2    1    29   10   7    5    1    23   14   58   
2nd     PAS Giannina                    26   11   1    1    33   11   4    3    6    12   13   49   
1st     PAS Giannina                    26   12   1    0    37   12   7    1    5    18   15   59   
1st     PAS Giannina                    26   9    2    2    24   10   5    4    4    16   15   48   
2nd     PAS Giannina                    26   11   0    2    27   11   6    2    5    21   14   53   
2nd     PAS Giannina                    26   8    0    5    28   22   6    5    2    20   14   47   
1st     PAS Giannina                    26   11   1    1    33   8    8    2    3    28   16   60   
2nd     PAS Giannina                    26   9    2    2    24   12   7    2    4    28   22   52   
2nd     PAS Giannina                    26   11   1    1    31   11   4    7    2    23   18   53   
1st     PAS Giannina                    26   12   1    0    34   8    6    2    5    13   12   57   
1st     PAS Giannina                    26   11   0    2    34   11   6    6    1    30   18   57   
3rd     PAS Giannina                    26   8    2    3    25   18   5    3    5    18   17   44   
1st     PAS Giannina                    26   11   2    0    34   15   8    2    3    23   14   61   
1st     PAS Giannina                    26   10   3    0    26   8    6    4    3    22   16   55   
3rd     PAS Giannina                    26   10   3    0    35   15   3    3    7    11   15   45   
1st     PAS Giannina                    26   10   0    3    27   12   7    3    3    24   13   54   
1st     PAS Giannina                    26   12   1    0    33   8    6    3    4    21   14   58   
3rd     PAS Giannina                    26   8    2    3    24   14   5    2    6    20   23   43   
1st     PAS Giannina                    26   10   2    1    33   14   9    2    2    26   13   61   
1st     PAS Giannina                    26   10   1    2    34   17   7    4    2    21   10   56   
3rd     PAS Giannina                    26   7    4    2    22   10   4    4    5    16   19   41   
2nd     PAS Giannina                    26   10   2    1    30   12   6    4    3    17   15   54   
1st     PAS Giannina                    26   12   1    0    30   5    5    3    5    20   15   55   
2nd     PAS Giannina                    26   11   2    0    35   14   5    5    3    19   17   55   