1st     PAS Giannina                    26   7    3    3    26   13   11   1    1    26   9    58   
1st     PAS Giannina                    26   11   1    1    26   2    7    4    2    23   10   59   
1st     PAS Giannina                    26   11   1    1    29   8    8    4    1    24   8    62   
1st     PAS Giannina                    26   10   3    0    29   8    8    2    3    28   10   59   
1st     PAS Giannina                    26   9    2    2    26   12   9    4    0    26   6    60   
1st     PAS Giannina                    26   13   0    0    39   9    9    2    2    27   11   68   
1st     PAS Giannina                    26   10   2    1    35   14   9    3    1    26   12   62   
2nd     PAS Giannina                    26   11   2    0    36   11   3    6    4    21   15   50   
1st     PAS Giannina                    26   12   0    1    31   8    5    6    2    22   12   57   
1st     PAS Giannina                    26   11   2    0    34   15   7    5    1    22   11   61   
1st     PAS Giannina                    26   10   3    0    35   11   8    4    1    26   14   61   
1st     PAS Giannina                    26   11   0    2    35   12   8    3    2    23   9    60   
1st     PAS Giannina                    26   13   0    0    36   8    10   3    0    27   7    72   
1st     PAS Giannina                    26   12   0    1    35   6    8    5    0    29   17   65   
2nd     PAS Giannina                    26   8    5    0    30   12   9    1    3    26   12   57   
1st     PAS Giannina                    26   10   3    0    34   13   8    2    3    28   12   59   
1st     PAS Giannina                    26   10   2    1    31   8    9    3    1    31   15   62   
2nd     PAS Giannina                    26   10   1    2    36   13   7    2    4    23   16   54   
1st     PAS Giannina                    26   11   1    1    35   11   7    2    4    28   21   57   
1st     PAS Giannina                    26   12   0    1    31   6    8    4    1    22   10   64   
1st     PAS Giannina                    26   8    3    2    26   12   11   2    0    30   11   62   
2nd     PAS Giannina                    26   7    6    0    29   16   6    2    5    24   21   47   
1st     PAS Giannina                    26   10   2    1    29   2    7    4    2    23   13   57   
1st     PAS Giannina                    26   8    3    2    25   12   11   1    1    32   13   61   
1st     PAS Giannina                    26   11   1    1    34   14   9    3    1    29   11   64   
1st     PAS Giannina                    26   10   2    1    36   12   5    5    3    24   18   52   
1st     PAS Giannina                    26   10   0    3    36   12   11   1    1    25   7    64   
1st     PAS Giannina                    26   12   1    0    30   6    10   2    1    25   5    69   
1st     PAS Giannina                    26   10   3    0    30   14   9    2    2    34   16   62   
1st     PAS Giannina                    26   11   2    0    34   8    9    1    3    30   14   63   
1st     PAS Giannina                    26   9    1    3    26   9    9    3    1    33   16   58   
1st     PAS Giannina                    26   11   2    0    36   11   8    1    4    27   12   60   
1st     PAS Giannina                    26   10   2    1    33   15   11   1    1    33   13   66   
1st     PAS Giannina                    26   13   0    0    40   10   9    3    1    29   10   69   
1st     PAS Giannina                    26   12   1    0    34   5    9    2    2    32   12   66   
1st     PAS Giannina                    26   11   1    1    28   8    7    3    3    21   11   58   
1st     PAS Giannina                    26   11   1    1    35   7    11   1    1    26   4    68   
1st     PAS Giannina                    26   9    4    0    30   9    7    4    2    28   16   56   
1st     PAS Giannina                    26   11   0    2    28   12   10   2    1    22   3    65   
1st     PAS Giannina                    26   11   1    1    29   9    6    4    3    24   13   56   
1st     PAS Giannina                    26   11   2    0    35   12   12   0    1    38   15   71   
2nd     PAS Giannina                    26   10   2    1    27   11   7    1    5    23   15   54   
1st     PAS Giannina                    26   9    1    3    28   10   9    4    0    29   9    59   
1st     PAS Giannina                    26   11   2    0    30   9    8    3    2    23   13   62   
2nd     PAS Giannina                    26   8    4    1    30   13   7    3    3    24   12   52   
2nd     PAS Giannina                    26   8    5    0    34   14   7    2    4    24   16   52   
1st     PAS Giannina                    26   11   2    0    29   4    8    3    2    26   10   62   
1st     PAS Giannina                    26   12   0    1    34   6    7    3    3    25   16   60   
1st     PAS Giannina                    26   10   2    1    28   12   9    2    2    26   14   61   
1st     PAS Giannina                    26   10   2    1    36   10   9    2    2    25   9    61   
1st     PAS Giannina                    26   11   0    2    32   7    9    2    2    25   11   62   
1st     PAS Giannina                    26   11   2    0    31   11   7    5    1    32   13   61   
1st     PAS Giannina                    26   10   2    1    35   10   9    2    2    26   15   61   
1st     PAS Giannina                    26   10   2    1    31   10   9    2    2    27   13   61   
1st     PAS Giannina                    26   9    1    3    28   13   11   1    1    30   6    62   
1st     PAS Giannina                    26   13   0    0    30   6    11   2    0    33   13   74   
2nd     PAS Giannina                    26   9    2    2    34   13   9    2    2    32   14   58   
1st     PAS Giannina                    26   11   2    0    30   6    9    4    0    24   6    66   
1st     PAS Giannina                    26   11   1    1    32   11   10   0    3    24   11   64   
1st     PAS Giannina                    26   12   0    1    36   11   9    1    3    27   12   64   
2nd     PAS Giannina                    26   11   1    1    34   10   7    2    4    18   12   57   
1st     PAS Giannina                    26   11   2    0    29   9    9    1    3    24   12   63   
1st     PAS Giannina                    26   11   2    0    36   10   6    5    2    21   13   58   
1st     PAS Giannina                    26   9    2    2    34   12   8    2    3    29   13   55   
1st     PAS Giannina                    26   12   1    0    33   8    8    4    1    33   13   65   
1st     PAS Giannina                    26   13   0    0    43   11   7    1    5    23   20   61   
1st     PAS Giannina                    26   12   1    0    31   6    10   3    0    33   13   70   
1st     PAS Giannina                    26   11   1    1    39   7    10   2    1    30   8    66   
1st     PAS Giannina                    26   11   1    1    31   7    6    2    5    23   20   54   
2nd     PAS Giannina                    26   10   1    2    33   8    8    2    3    24   15   57   
1st     PAS Giannina                    26   12   1    0    39   12   9    2    2    30   11   66   
4th     PAS Giannina                    26   8    4    1    33   16   5    2    6    21   19   45   
1st     PAS Giannina                    26   12   0    1    30   8    8    1    4    26   13   61   
1st     PAS Giannina                    26   11   2    0    32   11   8    4    1    28   14   63   
1st     PAS Giannina                    26   10   2    1    27   8    11   2    0    27   7    67   
1st     PAS Giannina                    26   10   2    1    34   11   9    3    1    26   9    62   
2nd     PAS Giannina                    26   10   2    1    30   11   7    2    4    27   15   55   
1st     PAS Giannina                    26   9    1    3    31   12   10   0    3    32   13   58   
1st     PAS Giannina                    26   13   0    0    34   9    11   2    0    29   6    74   
1st     PAS Giannina                    26   11   2    0    32   9    6    4    3    24   14   57   
1st     PAS Giannina                    26   9    4    0    36   11   7    6    0    22   8    58   
1st     PAS Giannina                    26   12   1    0    38   9    12   0    1    31   6    73   
2nd     PAS Giannina                    26   9    2    2    30   11   9    3    1    32   14   59   
1st     PAS Giannina                    26   10   2    1    34   12   12   1    0    33   9    69   
2nd     PAS Giannina                    26   12   1    0    29   11   6    4    3    24   16   59   
1st     PAS Giannina                    26   10   1    2    30   11   11   2    0    31   7    66   
1st     PAS Giannina                    26   13   0    0    40   10   8    2    3    31   19   65   
1st     PAS Giannina                    26   9    4    0    27   8    7    3    3    28   13   55   
1st     PAS Giannina                    26   11   2    0    35   9    7    3    3    23   16   59   
1st     PAS Giannina                    26   9    4    0    29   11   7    5    1    20   8    57   
1st     PAS Giannina                    26   10   1    2    25   9    11   1    1    32   13   65   
1st     PAS Giannina                    26   12   1    0    32   6    8    3    2    24   13   64   
1st     PAS Giannina                    26   11   2    0    33   9    8    3    2    27   11   62   
1st     PAS Giannina                    26   11   1    1    33   9    7    1    5    27   18   56   
1st     PAS Giannina                    26   11   1    1    34   15   10   2    1    24   5    66   
3rd     PAS Giannina                    26   7    5    1    31   12   6    4    3    21   9    48   
1st     PAS Giannina                    26   10   2    1    33   10   11   2    0    26   10   67   
1st     PAS Giannina                    26   10   3    0    33   10   9    3    1    29   13   63   
1st     PAS Giannina                    26   10   2    1    35   12   8    4    1    32   11   60   
1st     PAS Giannina                    26   11   1    1    31   8    8    3    2    23   11   61   