2nd     PAS Giannina                    26   11   2    0    30   10   6    3    4    16   9    56   
2nd     PAS Giannina                    26   9    3    1    30   10   6    3    4    25   19   51   
1st     PAS Giannina                    26   8    2    3    33   20   7    4    2    21   12   51   
2nd     PAS Giannina                    26   9    3    1    29   12   7    1    5    16   12   52   
2nd     PAS Giannina                    26   10   2    1    31   12   4    6    3    16   14   50   
2nd     PAS Giannina                    26   10   2    1    26   11   4    3    6    22   23   47   
4th     PAS Giannina                    26   10   1    2    30   8    3    5    5    12   12   45   
1st     PAS Giannina                    26   8    3    2    20   10   7    2    4    20   16   50   
1st     PAS Giannina                    26   11   2    0    32   8    10   1    2    24   16   66   
2nd     PAS Giannina                    26   10   2    1    26   8    6    4    3    17   10   54   
1st     PAS Giannina                    26   9    2    2    28   11   8    0    5    18   13   53   
2nd     PAS Giannina                    26   7    3    3    23   14   7    4    2    20   13   49   
3rd     PAS Giannina                    26   10   1    2    28   10   4    8    1    21   14   51   
2nd     PAS Giannina                    26   7    5    1    21   12   6    4    3    20   13   48   
1st     PAS Giannina                    26   9    3    1    27   8    7    2    4    25   16   53   
1st     PAS Giannina                    26   10   1    2    32   15   7    1    5    21   18   53   
2nd     PAS Giannina                    26   10   2    1    25   10   5    7    1    21   12   54   
3rd     PAS Giannina                    26   7    4    2    18   8    7    4    2    19   11   50   
1st     PAS Giannina                    26   11   1    1    32   15   6    4    3    22   13   56   
1st     PAS Giannina                    26   10   2    1    31   11   6    3    4    16   14   53   
2nd     PAS Giannina                    26   9    1    3    24   17   9    2    2    22   8    57   
1st     PAS Giannina                    26   10   1    2    29   11   10   1    2    29   13   62   
2nd     PAS Giannina                    26   8    3    2    23   8    6    6    1    25   14   51   
1st     PAS Giannina                    26   10   3    0    30   7    6    4    3    21   13   55   
1st     PAS Giannina                    26   10   1    2    32   15   7    3    3    26   15   55   
1st     PAS Giannina                    26   8    3    2    29   13   7    3    3    26   14   51   
2nd     PAS Giannina                    26   8    2    3    30   17   5    6    2    18   7    47   
6th     PAS Giannina                    26   7    3    3    24   15   3    5    5    12   14   38   
2nd     PAS Giannina                    26   8    4    1    20   8    5    5    3    19   18   48   
1st     PAS Giannina                    26   11   1    1    30   13   9    2    2    25   11   63   
2nd     PAS Giannina                    26   11   1    1    31   10   4    1    8    11   19   47   
7th     PAS Giannina                    26   6    3    4    26   16   3    4    6    12   14   34   
2nd     PAS Giannina                    26   9    2    2    28   8    7    1    5    15   14   51   
4th     PAS Giannina                    26   8    3    2    28   13   4    3    6    13   15   42   
1st     PAS Giannina                    26   10   3    0    29   9    7    2    4    21   13   56   
1st     PAS Giannina                    26   11   2    0    37   9    9    2    2    23   11   64   
3rd     PAS Giannina                    26   8    4    1    26   14   7    2    4    15   13   51   
1st     PAS Giannina                    26   6    3    4    23   15   9    3    1    24   6    51   
1st     PAS Giannina                    26   10   3    0    32   10   8    3    2    25   17   60   
2nd     PAS Giannina                    26   6    5    2    24   16   7    4    2    15   7    48   
2nd     PAS Giannina                    26   9    3    1    29   15   7    2    4    22   11   53   
2nd     PAS Giannina                    26   9    3    1    29   10   6    1    6    19   14   49   
1st     PAS Giannina                    26   9    3    1    38   16   8    2    3    21   11   56   
2nd     PAS Giannina                    26   9    3    1    28   8    6    5    2    19   13   53   
1st     PAS Giannina                    26   11   1    1    33   10   7    2    4    21   16   57   
1st     PAS Giannina                    26   10   1    2    28   15   8    2    3    23   14   57   
3rd     PAS Giannina                    26   8    4    1    24   10   4    3    6    15   19   43   
2nd     PAS Giannina                    26   9    4    0    29   11   7    3    3    20   17   55   
2nd     PAS Giannina                    26   8    2    3    20   10   8    3    2    24   11   53   
1st     PAS Giannina                    26   11   1    1    29   13   7    2    4    19   15   57   
2nd     PAS Giannina                    26   8    1    4    31   18   8    1    4    24   12   50   
2nd     PAS Giannina                    26   11   2    0    30   12   3    6    4    11   11   50   
1st     PAS Giannina                    26   9    4    0    25   7    7    1    5    20   15   53   
5th     PAS Giannina                    26   7    4    2    30   14   4    5    4    16   17   42   
1st     PAS Giannina                    26   12   1    0    30   10   5    2    6    15   17   54   
1st     PAS Giannina                    26   9    3    1    32   17   6    3    4    18   12   51   
3rd     PAS Giannina                    26   10   1    2    27   14   4    4    5    17   16   47   
1st     PAS Giannina                    26   12   1    0    26   8    6    5    2    22   12   60   
2nd     PAS Giannina                    26   11   2    0    31   13   5    3    5    13   18   53   
1st     PAS Giannina                    26   11   0    2    36   16   7    3    3    25   15   57   
2nd     PAS Giannina                    26   11   1    1    34   17   7    3    3    24   17   58   
2nd     PAS Giannina                    26   8    1    4    21   13   7    3    3    18   10   49   
1st     PAS Giannina                    26   11   2    0    28   10   7    3    3    18   15   59   
2nd     PAS Giannina                    26   10   2    1    32   14   6    3    4    20   13   53   
1st     PAS Giannina                    26   9    1    3    22   10   10   1    2    20   8    59   
2nd     PAS Giannina                    26   8    4    1    24   9    7    3    3    20   14   52   
2nd     PAS Giannina                    26   10   2    1    27   12   8    2    3    27   17   58   
3rd     PAS Giannina                    26   9    4    0    23   9    4    4    5    14   16   47   
1st     PAS Giannina                    26   10   2    1    29   13   9    0    4    19   14   59   
1st     PAS Giannina                    26   11   1    1    31   13   8    2    3    23   14   60   
2nd     PAS Giannina                    26   10   2    1    28   10   5    5    3    16   14   52   
2nd     PAS Giannina                    26   9    2    2    21   8    7    3    3    21   14   53   
1st     PAS Giannina                    26   10   2    1    27   10   5    4    4    20   16   51   
1st     PAS Giannina                    26   8    3    2    27   9    7    1    5    22   16   49   
1st     PAS Giannina                    26   9    2    2    24   8    9    3    1    20   8    59   
2nd     PAS Giannina                    26   10   1    2    33   12   8    1    4    21   10   56   
2nd     PAS Giannina                    26   9    3    1    27   11   6    4    3    20   11   52   
1st     PAS Giannina                    26   10   1    2    31   10   5    7    1    20   16   53   
1st     PAS Giannina                    26   8    3    2    24   12   9    2    2    32   19   56   
2nd     PAS Giannina                    26   7    4    2    22   14   9    1    3    25   11   53   
3rd     PAS Giannina                    26   7    4    2    31   18   6    2    5    19   14   45   
2nd     PAS Giannina                    26   9    3    1    27   11   6    4    3    19   17   52   
2nd     PAS Giannina                    26   10   2    1    29   13   5    3    5    16   15   50   
1st     PAS Giannina                    26   10   2    1    28   11   6    3    4    20   15   53   
1st     PAS Giannina                    26   9    1    3    23   13   7    2    4    24   20   51   
1st     PAS Giannina                    26   9    2    2    27   12   9    3    1    25   10   59   
1st     PAS Giannina                    26   10   1    2    23   10   10   0    3    26   11   61   
1st     PAS Giannina                    26   10   3    0    26   10   6    4    3    27   14   55   
2nd     PAS Giannina                    26   8    3    2    24   12   7    1    5    17   9    49   
1st     PAS Giannina                    26   11   1    1    27   10   6    2    5    18   16   54   
2nd     PAS Giannina                    26   8    1    4    29   16   7    5    1    27   12   51   
2nd     PAS Giannina                    26   7    4    2    25   14   5    4    4    15   13   44   
1st     PAS Giannina                    26   10   3    0    30   10   6    3    4    17   13   54   
1st     PAS Giannina                    26   11   2    0    28   10   5    7    1    21   13   57   
2nd     PAS Giannina                    26   10   1    2    28   13   6    1    6    13   12   50   
3rd     PAS Giannina                    26   9    2    2    25   13   4    5    4    16   17   46   
3rd     PAS Giannina                    26   7    3    3    21   12   6    3    4    16   10   45   
1st     PAS Giannina                    26   12   0    1    29   7    4    6    3    18   11   54   
2nd     PAS Giannina                    26   10   0    3    30   13   5    4    4    17   13   49   
2nd     PAS Giannina                    26   7    3    3    25   13   8    4    1    18   8    52   