1st     PAS Giannina                    26   11   1    1    33   13   8    3    2    18   9    61   
3rd     PAS Giannina                    26   6    3    4    25   18   7    6    0    24   11   48   
1st     PAS Giannina                    26   10   2    1    31   16   8    1    4    25   17   57   
2nd     PAS Giannina                    26   8    4    1    26   12   6    3    4    25   16   49   
1st     PAS Giannina                    26   10   3    0    26   4    8    2    3    24   9    59   
1st     PAS Giannina                    26   10   3    0    32   10   6    6    1    19   13   57   
1st     PAS Giannina                    26   11   1    1    28   8    7    5    1    25   17   60   
1st     PAS Giannina                    26   10   1    2    32   13   11   0    2    26   7    64   
1st     PAS Giannina                    26   10   3    0    31   11   11   2    0    29   8    68   
1st     PAS Giannina                    26   10   3    0    33   12   10   2    1    30   12   65   
1st     PAS Giannina                    26   8    4    1    29   10   10   2    1    25   9    60   
1st     PAS Giannina                    26   11   1    1    29   10   9    3    1    29   6    64   
1st     PAS Giannina                    26   11   2    0    34   9    8    4    1    23   5    63   
1st     PAS Giannina                    26   9    4    0    28   9    11   1    1    33   13   65   
1st     PAS Giannina                    26   11   1    1    29   11   10   2    1    24   8    66   
2nd     PAS Giannina                    26   9    1    3    24   16   9    2    2    26   12   57   
2nd     PAS Giannina                    26   10   2    1    33   16   6    5    2    26   15   55   
1st     PAS Giannina                    26   10   3    0    30   11   11   0    2    26   10   66   
1st     PAS Giannina                    26   10   2    1    32   9    9    3    1    29   13   62   
2nd     PAS Giannina                    26   9    1    3    26   14   8    5    0    25   12   57   
1st     PAS Giannina                    26   11   2    0    39   8    8    1    4    24   12   60   
1st     PAS Giannina                    26   9    2    2    25   14   10   2    1    33   17   61   
1st     PAS Giannina                    26   10   2    1    20   8    8    3    2    21   13   59   
1st     PAS Giannina                    26   12   1    0    34   6    8    4    1    28   14   65   
1st     PAS Giannina                    26   10   2    1    32   9    7    2    4    25   13   55   
1st     PAS Giannina                    26   11   2    0    35   8    6    6    1    24   14   59   
1st     PAS Giannina                    26   9    4    0    31   11   10   2    1    25   14   63   
1st     PAS Giannina                    26   12   1    0    31   7    8    2    3    28   12   63   
1st     PAS Giannina                    26   12   0    1    28   6    7    3    3    20   14   60   
1st     PAS Giannina                    26   13   0    0    32   6    10   2    1    28   12   71   
2nd     PAS Giannina                    26   9    2    2    23   11   4    6    3    23   17   47   
1st     PAS Giannina                    26   10   2    1    32   10   8    3    2    21   10   59   
1st     PAS Giannina                    26   13   0    0    37   12   10   2    1    31   13   71   
1st     PAS Giannina                    26   12   0    1    36   12   7    3    3    22   12   60   
1st     PAS Giannina                    26   10   1    2    24   10   9    3    1    31   10   61   
1st     PAS Giannina                    26   10   2    1    27   7    11   0    2    29   6    65   
1st     PAS Giannina                    26   9    3    1    30   10   11   1    1    36   13   64   
1st     PAS Giannina                    26   11   1    1    32   10   10   2    1    20   6    66   
1st     PAS Giannina                    26   12   1    0    30   8    9    3    1    30   8    67   
1st     PAS Giannina                    26   9    2    2    26   10   7    4    2    22   13   54   
1st     PAS Giannina                    26   11   1    1    30   14   10   3    0    30   12   67   
1st     PAS Giannina                    26   8    4    1    24   10   8    3    2    25   7    55   
1st     PAS Giannina                    26   9    3    1    27   10   10   0    3    29   10   60   
1st     PAS Giannina                    26   10   3    0    31   13   10   2    1    25   8    65   
2nd     PAS Giannina                    26   8    4    1    29   12   9    1    3    27   11   56   
2nd     PAS Giannina                    26   9    1    3    21   12   5    2    6    23   16   45   
1st     PAS Giannina                    26   10   3    0    25   9    6    4    3    24   11   55   
2nd     PAS Giannina                    26   9    4    0    28   11   7    1    5    25   20   53   
1st     PAS Giannina                    26   11   1    1    28   11   7    3    3    21   15   58   
1st     PAS Giannina                    26   10   1    2    27   9    10   3    0    23   4    64   
1st     PAS Giannina                    26   11   1    1    33   12   11   1    1    29   7    68   
1st     PAS Giannina                    26   9    3    1    32   12   9    0    4    26   16   57   
1st     PAS Giannina                    26   11   2    0    32   9    8    4    1    26   12   63   
1st     PAS Giannina                    26   10   3    0    30   10   7    3    3    19   12   57   
2nd     PAS Giannina                    26   11   2    0    31   6    6    1    6    19   15   54   
2nd     PAS Giannina                    26   10   1    2    30   12   4    7    2    14   8    50   
1st     PAS Giannina                    26   8    4    1    25   12   8    1    4    22   15   53   
1st     PAS Giannina                    26   10   3    0    32   16   8    3    2    22   8    60   
2nd     PAS Giannina                    26   8    4    1    26   9    7    3    3    23   15   52   
1st     PAS Giannina                    26   11   1    1    33   10   9    2    2    22   10   63   
1st     PAS Giannina                    26   9    2    2    27   7    8    4    1    27   13   57   
1st     PAS Giannina                    26   8    2    3    23   13   7    4    2    16   8    51   
1st     PAS Giannina                    26   10   3    0    32   9    8    2    3    21   9    59   
2nd     PAS Giannina                    26   9    3    1    27   14   9    1    3    20   10   58   
2nd     PAS Giannina                    26   12   1    0    38   10   6    4    3    17   11   59   
1st     PAS Giannina                    26   10   2    1    33   12   11   2    0    37   18   67   
1st     PAS Giannina                    26   10   3    0    34   9    7    1    5    23   16   55   
1st     PAS Giannina                    26   9    2    2    27   14   9    3    1    32   13   59   
2nd     PAS Giannina                    26   9    1    3    24   10   7    2    4    21   15   51   
1st     PAS Giannina                    26   10   2    1    27   12   11   1    1    35   14   66   
1st     PAS Giannina                    26   13   0    0    31   8    10   1    2    25   14   70   
1st     PAS Giannina                    26   12   1    0    31   8    8    3    2    26   12   64   
1st     PAS Giannina                    26   12   1    0    31   10   7    5    1    26   15   63   
1st     PAS Giannina                    26   12   0    1    26   7    8    5    0    20   4    65   
1st     PAS Giannina                    26   12   1    0    36   10   11   0    2    30   10   70   
1st     PAS Giannina                    26   10   3    0    31   9    7    3    3    28   17   57   
1st     PAS Giannina                    26   9    2    2    27   7    8    2    3    18   11   55   
1st     PAS Giannina                    26   10   1    2    25   8    8    5    0    30   17   60   
1st     PAS Giannina                    26   11   1    1    36   12   10   2    1    26   9    66   
1st     PAS Giannina                    26   12   0    1    32   8    10   1    2    23   8    67   
2nd     PAS Giannina                    26   9    2    2    33   12   8    1    4    20   14   54   
1st     PAS Giannina                    26   11   1    1    25   10   8    4    1    23   10   62   
1st     PAS Giannina                    26   10   0    3    27   12   10   3    0    28   9    63   
1st     PAS Giannina                    26   11   2    0    28   9    8    5    0    22   6    64   
1st     PAS Giannina                    26   7    6    0    25   13   10   3    0    27   11   60   
1st     PAS Giannina                    26   9    3    1    20   6    11   0    2    31   9    63   
1st     PAS Giannina                    26   12   1    0    30   7    12   0    1    26   9    73   
2nd     PAS Giannina                    26   6    3    4    22   18   7    5    1    24   5    47   
1st     PAS Giannina                    26   11   1    1    33   12   11   1    1    36   11   68   
1st     PAS Giannina                    26   12   0    1    27   8    9    3    1    30   10   66   
1st     PAS Giannina                    26   9    3    1    28   10   11   2    0    24   7    65   
1st     PAS Giannina                    26   10   2    1    29   11   7    4    2    20   14   57   
1st     PAS Giannina                    26   12   0    1    36   13   7    4    2    15   9    61   
1st     PAS Giannina                    26   10   3    0    28   13   9    3    1    27   13   63   
2nd     PAS Giannina                    26   10   1    2    30   13   6    2    5    22   18   51   
1st     PAS Giannina                    26   12   1    0    34   11   10   0    3    32   10   67   
1st     PAS Giannina                    26   10   1    2    33   15   7    3    3    23   17   55   
1st     PAS Giannina                    26   10   1    2    25   6    10   2    1    30   10   63   
2nd     PAS Giannina                    26   11   2    0    38   11   5    5    3    28   18   55   
1st     PAS Giannina                    26   12   1    0    33   9    9    2    2    21   7    66   