2nd     PAS Giannina                    26   11   2    0    42   16   8    1    4    28   10   60
1st     PAS Giannina                    26   12   1    0    45   7    7    2    4    24   17   60
1st     PAS Giannina                    26   10   0    3    33   12   8    1    4    23   16   55
1st     PAS Giannina                    26   11   2    0    34   10   8    2    3    26   15   61
1st     PAS Giannina                    26   12   0    1    38   14   10   1    2    24   11   67
1st     PAS Giannina                    26   12   1    0    37   11   10   1    2    35   11   68
1st     PAS Giannina                    26   10   2    1    32   13   7    4    2    26   15   57
1st     PAS Giannina                    26   12   0    1    38   11   7    3    3    30   17   60
1st     PAS Giannina                    26   13   0    0    41   10   8    3    2    23   10   66
1st     PAS Giannina                    26   9    4    0    30   8    8    2    3    32   13   57
1st     PAS Giannina                    26   11   1    1    36   14   9    1    3    30   13   62
1st     PAS Giannina                    26   11   2    0    33   11   8    3    2    32   11   62
1st     PAS Giannina                    26   10   3    0    38   13   9    3    1    30   9    63
1st     PAS Giannina                    26   12   1    0    39   15   10   1    2    33   16   68
1st     PAS Giannina                    26   10   1    2    35   16   11   0    2    34   11   64
1st     PAS Giannina                    26   12   0    1    36   11   9    2    2    29   14   65
1st     PAS Giannina                    26   10   2    1    34   8    10   1    2    37   13   63
1st     PAS Giannina                    26   12   1    0    39   6    9    3    1    28   12   67
1st     PAS Giannina                    26   12   1    0    44   13   9    3    1    25   10   67
1st     PAS Giannina                    26   10   2    1    37   8    9    3    1    29   10   62
1st     PAS Giannina                    26   12   0    1    40   8    10   1    2    29   8    67
1st     PAS Giannina                    26   12   1    0    30   7    9    2    2    35   14   66
1st     PAS Giannina                    26   12   1    0    35   5    12   0    1    31   11   73
1st     PAS Giannina                    26   12   1    0    40   11   9    1    3    28   12   65
1st     PAS Giannina                    26   12   1    0    42   10   10   1    2    29   14   68
1st     PAS Giannina                    26   11   0    2    30   11   9    3    1    26   7    63
1st     PAS Giannina                    26   11   1    1    38   16   10   1    2    33   13   65
1st     PAS Giannina                    26   13   0    0    30   8    9    3    1    29   9    69
1st     PAS Giannina                    26   13   0    0    36   4    9    2    2    28   14   68
1st     PAS Giannina                    26   12   0    1    35   8    11   1    1    38   10   70
1st     PAS Giannina                    26   10   2    1    33   14   9    1    3    31   17   60
1st     PAS Giannina                    26   10   1    2    32   15   9    4    0    29   8    62
1st     PAS Giannina                    26   11   1    1    40   10   13   0    0    37   6    73
1st     PAS Giannina                    26   11   2    0    30   9    10   3    0    32   12   68
1st     PAS Giannina                    26   12   1    0    41   9    8    5    0    32   14   66
1st     PAS Giannina                    26   12   1    0    38   9    6    3    4    30   21   58
1st     PAS Giannina                    26   10   2    1    35   10   7    4    2    22   12   57
1st     PAS Giannina                    26   12   1    0    46   13   8    3    2    31   12   64
1st     PAS Giannina                    26   11   2    0    41   13   10   2    1    27   8    67
1st     PAS Giannina                    26   11   2    0    28   9    9    3    1    32   13   65
1st     PAS Giannina                    26   11   1    1    34   7    10   0    3    27   12   64
1st     PAS Giannina                    26   10   2    1    27   9    10   3    0    27   7    65
1st     PAS Giannina                    26   11   2    0    36   10   10   0    3    30   17   65
1st     PAS Giannina                    26   12   1    0    39   6    7    4    2    31   13   62
1st     PAS Giannina                    26   11   1    1    37   8    10   3    0    28   9    67
1st     PAS Giannina                    26   11   2    0    39   15   10   2    1    29   11   67
1st     PAS Giannina                    26   11   2    0    30   8    10   2    1    30   7    67
1st     PAS Giannina                    26   11   2    0    33   7    7    3    3    25   14   59
1st     PAS Giannina                    26   9    3    1    33   16   9    3    1    32   13   60
1st     PAS Giannina                    26   11   2    0    35   10   10   3    0    34   13   68
1st     PAS Giannina                    26   11   2    0    35   5    9    2    2    34   13   64
1st     PAS Giannina                    26   12   1    0    35   8    10   2    1    30   9    69
1st     PAS Giannina                    26   12   1    0    35   5    8    3    2    31   13   64
1st     PAS Giannina                    26   10   1    2    34   12   10   1    2    36   10   62
1st     PAS Giannina                    26   12   0    1    37   11   9    1    3    28   13   64
1st     PAS Giannina                    26   10   2    1    36   10   11   1    1    30   14   66
1st     PAS Giannina                    26   9    1    3    30   16   8    3    2    25   10   55
1st     PAS Giannina                    26   12   1    0    42   14   9    3    1    31   14   67
1st     PAS Giannina                    26   11   2    0    34   9    9    4    0    28   9    66
1st     PAS Giannina                    26   13   0    0    35   8    8    4    1    26   11   67
1st     PAS Giannina                    26   10   2    1    34   14   11   2    0    27   9    67
1st     PAS Giannina                    26   12   1    0    33   8    9    0    4    34   19   64
1st     PAS Giannina                    26   10   2    1    46   19   10   3    0    27   7    65
1st     PAS Giannina                    26   12   1    0    43   11   11   1    1    25   11   71
1st     PAS Giannina                    26   12   1    0    34   10   8    5    0    32   17   66
1st     PAS Giannina                    26   12   0    1    35   6    6    6    1    26   12   60
1st     PAS Giannina                    26   13   0    0    41   8    10   1    2    31   9    70
1st     PAS Giannina                    26   13   0    0    42   12   9    3    1    32   12   69
1st     PAS Giannina                    26   10   2    1    35   10   9    2    2    31   12   61
1st     PAS Giannina                    26   12   0    1    34   8    9    3    1    27   10   66
1st     PAS Giannina                    26   11   1    1    36   13   8    4    1    27   9    62
1st     PAS Giannina                    26   12   1    0    40   9    10   3    0    32   12   70
1st     PAS Giannina                    26   12   1    0    39   10   9    3    1    31   14   67
1st     PAS Giannina                    26   8    3    2    30   14   9    1    3    27   9    55
1st     PAS Giannina                    26   13   0    0    35   5    12   0    1    34   9    75
1st     PAS Giannina                    26   12   1    0    37   15   12   0    1    32   6    73
1st     PAS Giannina                    26   12   1    0    35   6    9    3    1    29   12   67
1st     PAS Giannina                    26   11   1    1    37   8    10   1    2    30   14   65
1st     PAS Giannina                    26   11   2    0    35   10   11   1    1    29   17   69
1st     PAS Giannina                    26   10   2    1    41   17   9    3    1    29   11   62
1st     PAS Giannina                    26   12   1    0    38   11   8    4    1    34   14   65
1st     PAS Giannina                    26   11   2    0    34   11   10   0    3    28   11   65
1st     PAS Giannina                    26   11   2    0    28   10   8    3    2    32   12   62
1st     PAS Giannina                    26   13   0    0    51   9    7    2    4    22   13   62
1st     PAS Giannina                    26   12   1    0    42   11   8    1    4    29   16   62
1st     PAS Giannina                    26   11   1    1    41   15   9    3    1    29   12   64
1st     PAS Giannina                    26   13   0    0    41   12   10   2    1    38   15   71
1st     PAS Giannina                    26   12   1    0    45   8    9    1    3    30   13   65
1st     PAS Giannina                    26   12   1    0    35   6    11   1    1    38   13   71
1st     PAS Giannina                    26   11   2    0    34   14   11   0    2    34   13   68
1st     PAS Giannina                    26   10   2    1    35   14   9    1    3    31   19   60
1st     PAS Giannina                    26   12   0    1    38   8    10   3    0    30   7    69
1st     PAS Giannina                    26   12   1    0    31   11   11   2    0    27   9    72
1st     PAS Giannina                    26   12   1    0    38   8    9    2    2    30   14   66
1st     PAS Giannina                    26   12   0    1    34   10   7    5    1    30   14   62
1st     PAS Giannina                    26   11   2    0    34   9    11   1    1    31   14   69
1st     PAS Giannina                    26   13   0    0    39   10   5    5    3    27   14   59
1st     PAS Giannina                    26   12   1    0    40   8    11   1    1    28   8    71
1st     PAS Giannina                    26   8    3    2    31   16   9    2    2    26   12   56
1st     PAS Giannina                    26   11   2    0    33   10   9    3    1    31   12   65