1st     PAS Giannina                    26   13   0    0    36   7    10   1    2    32   13   70   
1st     PAS Giannina                    26   10   2    1    35   20   10   1    2    34   14   63   
1st     PAS Giannina                    26   11   2    0    47   12   9    4    0    35   11   66   
1st     PAS Giannina                    26   12   1    0    38   8    6    4    3    22   15   59   
1st     PAS Giannina                    26   12   0    1    41   15   9    2    2    23   10   65   
1st     PAS Giannina                    26   11   2    0    45   18   9    2    2    36   18   64   
1st     PAS Giannina                    26   13   0    0    42   16   6    3    4    26   21   60   
1st     PAS Giannina                    26   10   3    0    30   9    8    1    4    33   16   58   
1st     PAS Giannina                    26   11   1    1    36   11   10   2    1    31   8    66   
1st     PAS Giannina                    26   10   3    0    38   16   9    3    1    31   15   63   
1st     PAS Giannina                    26   11   2    0    36   16   4    4    5    25   22   51   
1st     PAS Giannina                    26   11   2    0    30   8    8    2    3    25   11   61   
1st     PAS Giannina                    26   8    4    1    27   14   12   1    0    39   11   65   
1st     PAS Giannina                    26   12   1    0    45   17   9    2    2    20   9    66   
1st     PAS Giannina                    26   12   1    0    34   8    9    1    3    32   16   65   
1st     PAS Giannina                    26   13   0    0    42   13   7    3    3    30   14   63   
1st     PAS Giannina                    26   11   2    0    31   12   12   1    0    37   11   72   
1st     PAS Giannina                    26   10   2    1    31   13   10   1    2    34   17   63   
2nd     PAS Giannina                    26   10   3    0    44   17   7    3    3    30   15   57   
1st     PAS Giannina                    26   8    2    3    32   14   9    3    1    27   12   56   
1st     PAS Giannina                    26   9    3    1    29   9    10   1    2    24   11   61   
1st     PAS Giannina                    26   12   1    0    37   13   8    4    1    26   14   65   
1st     PAS Giannina                    26   7    5    1    28   17   9    3    1    30   15   56   
1st     PAS Giannina                    26   12   1    0    40   12   9    2    2    35   21   66   
1st     PAS Giannina                    26   7    4    2    34   16   11   1    1    25   6    59   
1st     PAS Giannina                    26   10   2    1    44   19   9    0    4    23   14   59   
1st     PAS Giannina                    26   11   2    0    47   14   5    5    3    28   19   55   
1st     PAS Giannina                    26   12   0    1    37   16   6    5    2    24   23   59   
1st     PAS Giannina                    26   10   1    2    38   16   11   1    1    29   12   65   
1st     PAS Giannina                    26   12   0    1    36   10   9    1    3    37   18   64   
1st     PAS Giannina                    26   10   2    1    42   16   9    2    2    31   15   61   
1st     PAS Giannina                    26   8    2    3    30   13   9    3    1    30   10   56   
1st     PAS Giannina                    26   9    4    0    42   19   9    2    2    34   15   60   
1st     PAS Giannina                    26   11   2    0    34   12   13   0    0    40   8    74   
1st     PAS Giannina                    26   11   2    0    39   16   11   1    1    34   11   69   
1st     PAS Giannina                    26   11   1    1    33   16   5    5    3    21   17   54   
1st     PAS Giannina                    26   10   2    1    38   14   6    4    3    30   18   54   
1st     PAS Giannina                    26   11   1    1    45   14   8    3    2    29   15   61   
1st     PAS Giannina                    26   11   2    0    44   19   9    2    2    31   9    64   
1st     PAS Giannina                    26   12   1    0    42   16   12   1    0    36   9    74   
1st     PAS Giannina                    26   11   1    1    34   14   9    2    2    27   14   63   
1st     PAS Giannina                    26   12   0    1    39   17   7    2    4    27   17   59   
2nd     PAS Giannina                    26   10   3    0    42   14   5    5    3    23   16   53   
1st     PAS Giannina                    26   10   2    1    43   17   6    4    3    26   14   54   
1st     PAS Giannina                    26   11   1    1    47   21   10   2    1    34   11   66   
1st     PAS Giannina                    26   12   0    1    42   15   10   1    2    37   23   67   
1st     PAS Giannina                    26   9    3    1    32   17   10   2    1    28   6    62   
1st     PAS Giannina                    26   11   2    0    32   10   6    5    2    31   15   58   
1st     PAS Giannina                    26   12   1    0    41   10   11   2    0    37   10   72   
1st     PAS Giannina                    26   10   2    1    33   11   9    3    1    31   17   62   
1st     PAS Giannina                    26   10   2    1    41   11   7    3    3    25   17   56   
1st     PAS Giannina                    26   10   2    1    30   13   10   2    1    36   17   64   
1st     PAS Giannina                    26   11   1    1    34   10   12   0    1    32   8    70   
1st     PAS Giannina                    26   10   2    1    37   20   10   1    2    38   17   63   
2nd     PAS Giannina                    26   9    4    0    38   10   5    4    4    31   20   50   
2nd     PAS Giannina                    26   8    3    2    35   16   8    2    3    28   15   53   
1st     PAS Giannina                    26   10   2    1    37   16   10   2    1    36   14   64   
1st     PAS Giannina                    26   9    2    2    35   20   8    3    2    25   10   56   
1st     PAS Giannina                    26   11   1    1    41   13   8    5    0    32   18   63   
1st     PAS Giannina                    26   11   1    1    42   19   9    1    3    25   9    62   
2nd     PAS Giannina                    26   9    3    1    37   16   8    4    1    29   12   58   
1st     PAS Giannina                    26   13   0    0    41   6    9    1    3    27   18   67   
1st     PAS Giannina                    26   11   2    0    34   10   11   2    0    35   13   70   
1st     PAS Giannina                    26   11   1    1    36   17   6    3    4    24   17   55   
1st     PAS Giannina                    26   13   0    0    44   8    7    3    3    32   18   63   
1st     PAS Giannina                    26   12   1    0    45   16   9    2    2    29   18   66   
1st     PAS Giannina                    26   11   0    2    30   13   8    3    2    35   17   60   
1st     PAS Giannina                    26   11   1    1    38   17   9    1    3    35   19   62   
2nd     PAS Giannina                    26   11   1    1    40   16   7    3    3    32   18   58   
1st     PAS Giannina                    26   11   2    0    32   15   10   1    2    32   13   66   
1st     PAS Giannina                    26   13   0    0    39   9    7    3    3    30   18   63   
1st     PAS Giannina                    26   12   1    0    35   10   8    3    2    29   16   64   
1st     PAS Giannina                    26   11   1    1    36   17   11   0    2    33   13   67   
1st     PAS Giannina                    26   10   3    0    38   15   7    4    2    27   14   58   
1st     PAS Giannina                    26   10   2    1    42   13   9    0    4    28   17   59   
1st     PAS Giannina                    26   11   1    1    41   12   9    1    3    25   13   62   
1st     PAS Giannina                    26   10   3    0    28   13   7    3    3    22   19   57   
1st     PAS Giannina                    26   12   0    1    37   11   10   2    1    35   13   68   
1st     PAS Giannina                    26   11   2    0    35   13   9    3    1    32   15   65   
1st     PAS Giannina                    26   11   2    0    36   12   7    3    3    23   14   59   
1st     PAS Giannina                    26   10   2    1    38   12   8    4    1    26   12   60   
2nd     PAS Giannina                    26   8    2    3    40   23   9    3    1    30   14   56   
1st     PAS Giannina                    26   10   3    0    35   11   9    4    0    39   18   64   
1st     PAS Giannina                    26   13   0    0    40   14   8    4    1    29   10   67   
1st     PAS Giannina                    26   11   2    0    35   9    9    1    3    36   19   63   
1st     PAS Giannina                    26   10   2    1    38   16   10   1    2    32   15   63   
1st     PAS Giannina                    26   10   3    0    31   13   13   0    0    36   10   72   
1st     PAS Giannina                    26   12   1    0    47   18   8    1    4    32   18   62   
1st     PAS Giannina                    26   12   1    0    39   11   12   0    1    34   11   73   
1st     PAS Giannina                    26   11   1    1    37   16   12   0    1    36   14   70   
1st     PAS Giannina                    26   11   1    1    34   9    10   0    3    26   11   64   
1st     PAS Giannina                    26   10   2    1    37   14   10   1    2    35   13   63   
3rd     PAS Giannina                    26   8    2    3    30   16   7    2    4    27   17   49   
1st     PAS Giannina                    26   10   1    2    38   17   8    3    2    22   10   58   
1st     PAS Giannina                    26   11   1    1    33   7    12   1    0    38   12   71   
1st     PAS Giannina                    26   12   1    0    41   9    7    2    4    31   22   60   
1st     PAS Giannina                    26   11   1    1    40   12   9    3    1    25   7    64   
1st     PAS Giannina                    26   12   1    0    46   18   10   1    2    36   17   68   
2nd     PAS Giannina                    26   10   2    1    40   14   8    3    2    29   21   59   
1st     PAS Giannina                    26   12   1    0    40   14   9    3    1    24   11   67   