1st     PAS Giannina                    26   9    3    1    26   11   9    2    2    30   10   59   
1st     PAS Giannina                    26   9    3    1    33   12   11   1    1    31   11   64   
1st     PAS Giannina                    26   10   3    0    33   11   10   1    2    24   11   64   
1st     PAS Giannina                    26   11   2    0    36   13   8    3    2    25   9    62   
1st     PAS Giannina                    26   12   0    1    39   11   9    1    3    29   13   64   
1st     PAS Giannina                    26   13   0    0    50   8    7    3    3    32   19   63   
1st     PAS Giannina                    26   11   2    0    27   7    10   2    1    33   12   67   
1st     PAS Giannina                    26   10   1    2    38   16   8    2    3    23   14   57   
1st     PAS Giannina                    26   10   2    1    26   10   6    3    4    22   17   53   
1st     PAS Giannina                    26   10   1    2    37   12   11   1    1    28   12   65   
1st     PAS Giannina                    26   10   2    1    33   10   6    3    4    24   21   53   
1st     PAS Giannina                    26   11   1    1    37   8    9    1    3    34   11   62   
1st     PAS Giannina                    26   9    3    1    32   8    7    3    3    22   11   54   
1st     PAS Giannina                    26   9    2    2    31   14   7    3    3    25   15   53   
1st     PAS Giannina                    26   8    5    0    32   14   11   2    0    35   8    64   
1st     PAS Giannina                    26   8    4    1    28   10   8    5    0    28   12   57   
1st     PAS Giannina                    26   10   3    0    24   4    8    3    2    32   14   60   
1st     PAS Giannina                    26   11   2    0    36   17   5    5    3    18   14   55   
1st     PAS Giannina                    26   10   1    2    34   13   9    2    2    30   12   60   
1st     PAS Giannina                    26   10   3    0    34   11   9    2    2    33   15   62   
1st     PAS Giannina                    26   10   3    0    32   6    10   3    0    28   9    66   
1st     PAS Giannina                    26   11   1    1    36   11   9    3    1    35   17   64   
1st     PAS Giannina                    26   11   2    0    34   12   11   1    1    39   13   69   
1st     PAS Giannina                    26   10   3    0    36   12   4    5    4    21   21   50   
1st     PAS Giannina                    26   12   1    0    40   12   6    3    4    23   20   58   
1st     PAS Giannina                    26   13   0    0    34   8    8    0    5    21   14   63   
1st     PAS Giannina                    26   11   2    0    31   8    9    3    1    31   10   65   
1st     PAS Giannina                    26   11   0    2    30   8    9    1    3    22   11   61   
1st     PAS Giannina                    26   10   3    0    27   5    12   0    1    38   16   69   
1st     PAS Giannina                    26   11   2    0    35   10   7    3    3    25   17   59   
1st     PAS Giannina                    26   7    4    2    28   13   8    3    2    26   12   52   
1st     PAS Giannina                    26   9    3    1    26   13   8    3    2    24   12   57   
1st     PAS Giannina                    26   11   1    1    33   12   11   0    2    33   13   67   
1st     PAS Giannina                    26   12   1    0    37   9    10   2    1    33   12   69   
1st     PAS Giannina                    26   8    4    1    33   14   6    5    2    22   14   51   
1st     PAS Giannina                    26   9    1    3    28   11   6    6    1    25   16   52   
1st     PAS Giannina                    26   10   0    3    29   6    8    2    3    31   12   56   
1st     PAS Giannina                    26   12   1    0    31   3    6    4    3    30   16   59   
1st     PAS Giannina                    26   11   2    0    37   10   10   3    0    31   7    68   
1st     PAS Giannina                    26   11   2    0    33   11   12   0    1    29   8    71   
1st     PAS Giannina                    26   11   1    1    36   11   7    5    1    34   19   60   
1st     PAS Giannina                    26   11   2    0    41   14   9    3    1    32   8    65   
1st     PAS Giannina                    26   12   1    0    40   6    6    5    2    29   18   60   
2nd     PAS Giannina                    26   10   2    1    28   4    7    3    3    29   20   56   
1st     PAS Giannina                    26   12   1    0    47   15   11   2    0    30   6    72   
1st     PAS Giannina                    26   10   2    1    32   11   9    2    2    28   8    61   
1st     PAS Giannina                    26   9    2    2    31   12   6    3    4    22   15   50   
1st     PAS Giannina                    26   11   0    2    35   14   9    0    4    28   15   60   
1st     PAS Giannina                    26   12   1    0    39   11   10   1    2    33   10   68   
1st     PAS Giannina                    26   13   0    0    39   8    10   1    2    29   11   70   
1st     PAS Giannina                    26   9    2    2    28   12   9    2    2    30   13   58   
1st     PAS Giannina                    26   12   0    1    37   11   5    5    3    28   21   56   
1st     PAS Giannina                    26   10   2    1    34   14   10   2    1    34   18   64   
1st     PAS Giannina                    26   12   0    1    37   9    8    3    2    30   8    63   
1st     PAS Giannina                    26   13   0    0    42   10   7    5    1    23   13   65   
1st     PAS Giannina                    26   9    4    0    33   14   9    3    1    23   12   61   
1st     PAS Giannina                    26   10   3    0    36   12   5    6    2    21   10   54   
1st     PAS Giannina                    26   11   2    0    32   6    7    3    3    23   15   59   
1st     PAS Giannina                    26   11   1    1    26   8    7    4    2    28   17   59   
2nd     PAS Giannina                    26   9    2    2    31   12   6    5    2    20   10   52   
1st     PAS Giannina                    26   12   1    0    38   9    9    3    1    30   11   67   
1st     PAS Giannina                    26   11   1    1    39   8    6    2    5    21   12   54   
1st     PAS Giannina                    26   10   0    3    29   7    10   1    2    26   8    61   
1st     PAS Giannina                    26   11   2    0    28   15   7    3    3    26   12   59   
1st     PAS Giannina                    26   11   2    0    30   11   10   3    0    28   8    68   
1st     PAS Giannina                    26   11   2    0    32   11   10   3    0    29   11   68   
2nd     PAS Giannina                    26   9    2    2    30   10   7    6    0    21   8    56   
2nd     PAS Giannina                    26   8    4    1    29   11   8    3    2    28   14   55   
1st     PAS Giannina                    26   12   0    1    37   9    6    6    1    27   15   60   
1st     PAS Giannina                    26   8    5    0    24   8    7    3    3    25   14   53   
1st     PAS Giannina                    26   11   2    0    34   10   8    4    1    27   13   63   
2nd     PAS Giannina                    26   12   0    1    42   8    5    4    4    22   17   55   
1st     PAS Giannina                    26   10   2    1    36   14   7    6    0    23   10   59   
1st     PAS Giannina                    26   12   1    0    38   8    9    0    4    24   11   64   
1st     PAS Giannina                    26   9    3    1    37   10   6    6    1    24   10   54   
2nd     PAS Giannina                    26   8    4    1    30   14   7    1    5    31   19   50   
1st     PAS Giannina                    26   13   0    0    37   10   9    2    2    25   10   68   
1st     PAS Giannina                    26   12   1    0    39   7    9    0    4    28   14   64   
1st     PAS Giannina                    26   9    2    2    30   9    8    4    1    27   13   57   
2nd     PAS Giannina                    26   11   1    1    29   12   7    4    2    25   12   59   
1st     PAS Giannina                    26   12   0    1    32   11   6    6    1    23   14   60   
1st     PAS Giannina                    26   12   1    0    38   6    9    2    2    33   14   66   
2nd     PAS Giannina                    26   9    4    0    25   6    6    3    4    21   14   52   
1st     PAS Giannina                    26   8    2    3    29   13   12   0    1    30   12   62   
2nd     PAS Giannina                    26   7    5    1    31   14   9    0    4    28   20   53   
1st     PAS Giannina                    26   10   1    2    35   12   10   2    1    27   8    63   
2nd     PAS Giannina                    26   10   2    1    37   9    10   1    2    24   11   63   
1st     PAS Giannina                    26   11   2    0    33   10   8    4    1    28   15   63   
1st     PAS Giannina                    26   10   2    1    31   14   9    1    3    33   20   60   
1st     PAS Giannina                    26   10   3    0    33   10   10   3    0    28   5    66   
1st     PAS Giannina                    26   9    3    1    29   12   10   3    0    29   9    63   
1st     PAS Giannina                    26   6    6    1    25   13   11   1    1    27   9    58   
1st     PAS Giannina                    26   10   1    2    27   10   8    3    2    27   16   58   
1st     PAS Giannina                    26   11   2    0    34   9    10   2    1    38   14   67   
1st     PAS Giannina                    26   13   0    0    47   7    8    4    1    22   8    67   
1st     PAS Giannina                    26   12   0    1    30   6    9    2    2    29   12   65   
1st     PAS Giannina                    26   11   1    1    39   7    8    4    1    32   17   62   
1st     PAS Giannina                    26   12   1    0    30   11   9    3    1    29   15   67   
1st     PAS Giannina                    26   11   1    1    33   13   8    3    2    29   13   61   
1st     PAS Giannina                    26   11   1    1    35   12   12   1    0    37   9    71   