10th    PAS Giannina                    26   7    2    4    25   22   2    3    8    12   26   32
12th    PAS Giannina                    26   5    4    4    21   16   3    2    8    18   27   30
6th     PAS Giannina                    26   7    4    2    22   15   3    3    7    17   24   37
5th     PAS Giannina                    26   9    2    2    23   11   3    2    8    13   26   40
14th     PAS Giannina                    26   5    1    7    20   23   1    2    10   11   35   21
12th    PAS Giannina                    26   3    4    6    15   19   3    3    7    9    19   25
12th    PAS Giannina                    26   8    1    4    28   24   1    0    12   5    28   28
8th     PAS Giannina                    26   8    1    4    27   16   3    3    7    15   24   37
11th    PAS Giannina                    26   5    3    5    17   14   2    5    6    15   22   29
10th    PAS Giannina                    26   6    2    5    22   17   3    2    8    14   23   31
7th     PAS Giannina                    26   7    3    3    28   22   4    2    7    16   23   38
10th    PAS Giannina                    26   5    4    4    24   20   3    2    8    11   25   30
10th    PAS Giannina                    26   5    1    7    13   18   5    1    7    16   24   32
7th     PAS Giannina                    26   6    4    3    21   14   4    3    6    16   18   37
11th    PAS Giannina                    26   4    3    6    17   19   5    1    7    16   23   31
9th     PAS Giannina                    26   6    2    5    19   17   2    6    5    16   22   32
8th     PAS Giannina                    26   5    6    2    18   13   3    5    5    13   17   35
6th     PAS Giannina                    26   8    1    4    22   17   4    1    8    12   26   38
13th     PAS Giannina                    26   4    2    7    17   27   2    3    8    10   22   23
12th    PAS Giannina                    26   6    4    3    22   14   1    2    10   13   27   27
14th     PAS Giannina                    26   5    2    6    18   19   1    2    10   12   29   22
12th    PAS Giannina                    26   4    2    7    23   24   3    4    6    16   18   27
12th    PAS Giannina                    26   3    3    7    14   18   2    3    8    11   24   21
8th     PAS Giannina                    26   6    6    1    22   16   3    3    7    20   21   36
2nd     PAS Giannina                    26   7    3    3    25   17   7    2    4    24   17   47
4th     PAS Giannina                    26   9    4    0    25   14   3    2    8    13   25   42
3rd     PAS Giannina                    26   7    2    4    27   24   6    3    4    15   19   44
4th     PAS Giannina                    26   5    3    5    21   22   7    3    3    17   14   42
7th     PAS Giannina                    26   6    4    3    22   16   3    4    6    14   25   35
11th    PAS Giannina                    26   5    2    6    20   19   2    4    7    19   32   27
14th     PAS Giannina                    26   2    8    3    14   12   1    3    9    10   25   20
11th    PAS Giannina                    26   5    5    3    20   18   3    0    10   10   26   29
9th     PAS Giannina                    26   5    4    4    20   20   4    0    9    13   26   31
6th     PAS Giannina                    26   8    3    2    19   12   3    3    7    9    20   39
6th     PAS Giannina                    26   6    4    3    25   18   4    5    4    12   13   39
3rd     PAS Giannina                    26   8    2    3    26   17   6    2    5    17   16   46
10th    PAS Giannina                    26   5    3    5    13   18   3    4    6    18   21   31
12th    PAS Giannina                    26   5    5    3    26   19   1    6    6    16   28   29
12th    PAS Giannina                    26   7    2    4    19   14   1    2    10   6    23   28
14th     PAS Giannina                    26   4    0    9    18   27   1    2    10   10   27   17
11th    PAS Giannina                    26   7    2    4    23   18   1    5    7    10   23   31
11th    PAS Giannina                    26   3    3    7    14   18   4    3    6    9    15   27
10th    PAS Giannina                    26   4    5    4    18   20   2    7    4    14   21   30
11th    PAS Giannina                    26   7    3    3    20   14   0    4    9    9    24   28
9th     PAS Giannina                    26   4    3    6    14   18   4    2    7    16   20   29
11th    PAS Giannina                    26   6    4    3    23   16   2    1    10   12   30   29
12th    PAS Giannina                    26   7    2    4    26   18   1    3    9    9    24   29
14th     PAS Giannina                    26   4    5    4    16   17   0    2    11   8    29   19
12th    PAS Giannina                    26   5    2    6    17   20   2    4    7    14   24   27
10th    PAS Giannina                    26   6    2    5    18   12   2    5    6    16   22   31
7th     PAS Giannina                    26   5    7    1    18   16   3    5    5    14   23   36
9th     PAS Giannina                    26   6    4    3    23   19   2    4    7    10   19   32
12th    PAS Giannina                    26   7    3    3    20   13   1    3    9    8    25   30
12th    PAS Giannina                    26   4    4    5    19   16   2    4    7    13   24   26
7th     PAS Giannina                    26   5    2    6    18   20   6    3    4    13   13   38
11th    PAS Giannina                    26   3    6    4    12   14   3    2    8    10   20   26
10th    PAS Giannina                    26   5    4    4    19   17   2    3    8    12   25   28
14th     PAS Giannina                    26   5    5    3    21   19   0    1    12   11   29   21
7th     PAS Giannina                    26   8    3    2    27   17   2    3    8    14   29   36
13th     PAS Giannina                    26   5    5    3    20   22   0    4    9    9    25   24
13th     PAS Giannina                    26   4    4    5    19   21   2    2    9    14   23   24
4th     PAS Giannina                    26   7    4    2    23   16   3    5    5    20   23   39
13th     PAS Giannina                    26   5    4    4    22   19   1    3    9    16   27   25
14th     PAS Giannina                    26   3    4    6    15   16   3    1    9    12   24   23
5th     PAS Giannina                    26   6    2    5    18   15   5    3    5    19   20   38
14th     PAS Giannina                    26   5    1    7    17   16   1    4    8    10   23   23
8th     PAS Giannina                    26   3    6    4    15   13   4    2    7    12   22   29
12th    PAS Giannina                    26   5    3    5    19   22   2    3    8    7    22   27
5th     PAS Giannina                    26   9    3    1    22   8    2    4    7    10   18   40
11th    PAS Giannina                    26   3    6    4    18   18   3    2    8    15   24   26
12th    PAS Giannina                    26   6    4    3    21   19   1    3    9    12   28   28
13th     PAS Giannina                    26   4    4    5    16   18   2    4    7    15   25   26
13th     PAS Giannina                    26   4    4    5    17   17   1    3    9    11   25   22
10th    PAS Giannina                    26   3    6    4    17   19   2    4    7    16   22   25
12th    PAS Giannina                    26   1    4    8    12   28   4    5    4    17   18   24
11th    PAS Giannina                    26   5    4    4    18   16   2    2    9    12   28   27
12th    PAS Giannina                    26   3    6    4    16   18   3    2    8    11   26   26
10th    PAS Giannina                    26   4    4    5    16   20   2    7    4    16   18   29
14th     PAS Giannina                    26   1    4    8    13   25   2    2    9    13   24   15
14th     PAS Giannina                    26   5    5    3    22   19   0    1    12   11   33   21
7th     PAS Giannina                    26   9    2    2    23   14   2    1    10   15   26   36
10th    PAS Giannina                    26   7    2    4    21   15   2    1    10   14   33   30
9th     PAS Giannina                    26   7    3    3    25   21   1    3    9    12   25   30
10th    PAS Giannina                    26   6    3    4    21   21   3    2    8    13   21   32
9th     PAS Giannina                    26   5    4    4    23   22   2    6    5    10   15   31
14th     PAS Giannina                    26   3    4    6    22   21   1    0    12   8    27   16
14th     PAS Giannina                    26   5    1    7    16   29   2    2    9    11   23   24
13th     PAS Giannina                    26   4    1    8    16   25   0    4    9    10   28   17
13th     PAS Giannina                    26   6    2    5    28   25   1    4    8    7    22   27
12th    PAS Giannina                    26   5    2    6    21   19   2    2    9    11   26   25
4th     PAS Giannina                    26   9    2    2    25   12   4    4    5    16   16   45
13th     PAS Giannina                    26   4    6    3    20   17   1    3    9    16   26   24
7th     PAS Giannina                    26   8    2    3    18   13   2    5    6    11   23   37
12th    PAS Giannina                    26   5    4    4    21   19   2    3    8    9    26   28
10th    PAS Giannina                    26   6    4    3    25   23   3    1    9    17   25   32
12th    PAS Giannina                    26   5    5    3    26   21   1    5    7    14   27   28
11th    PAS Giannina                    26   4    4    5    21   18   3    1    9    13   26   26
11th    PAS Giannina                    26   4    5    4    21   19   2    5    6    17   21   28
14th     PAS Giannina                    26   2    6    5    14   20   2    2    9    6    20   20
7th     PAS Giannina                    26   5    3    5    16   19   4    4    5    17   22   34