2nd     PAS Giannina                    26   6    2    5    22   18   7    3    3    20   13   44
1st     PAS Giannina                    26   13   0    0    38   10   7    1    5    21   19   61
2nd     PAS Giannina                    26   6    6    1    27   16   8    1    4    26   10   49
2nd     PAS Giannina                    26   10   1    2    29   16   6    4    3    23   16   53
3rd     PAS Giannina                    26   8    3    2    26   10   4    4    5    17   16   43
1st     PAS Giannina                    26   9    3    1    28   16   5    5    3    20   10   50
1st     PAS Giannina                    26   11   1    1    36   12   6    5    2    29   23   57
1st     PAS Giannina                    26   10   1    2    30   16   6    4    3    17   14   53
1st     PAS Giannina                    26   12   1    0    37   8    8    3    2    18   11   64
3rd     PAS Giannina                    26   6    3    4    30   20   5    3    5    18   21   39
3rd     PAS Giannina                    26   8    3    2    31   14   4    3    6    19   19   42
2nd     PAS Giannina                    26   8    3    2    28   15   5    7    1    24   17   49
1st     PAS Giannina                    26   12   1    0    35   11   5    2    6    19   17   54
1st     PAS Giannina                    26   11   2    0    32   13   6    6    1    22   15   59
4th     PAS Giannina                    26   9    0    4    29   16   4    2    7    24   26   41
2nd     PAS Giannina                    26   9    0    4    23   12   6    3    4    20   14   48
1st     PAS Giannina                    26   10   1    2    32   11   7    4    2    21   11   56
1st     PAS Giannina                    26   8    4    1    24   9    6    3    4    22   18   49
2nd     PAS Giannina                    26   9    1    3    29   14   6    3    4    23   15   49
1st     PAS Giannina                    26   8    3    2    33   20   9    3    1    24   9    57
2nd     PAS Giannina                    26   10   2    1    32   13   5    3    5    24   21   50
2nd     PAS Giannina                    26   9    4    0    27   10   6    3    4    23   19   52
4th     PAS Giannina                    26   8    3    2    34   21   5    3    5    16   18   45
3rd     PAS Giannina                    26   9    3    1    29   15   5    2    6    24   20   47
1st     PAS Giannina                    26   10   2    1    32   16   8    2    3    27   14   58
1st     PAS Giannina                    26   11   1    1    34   16   6    5    2    24   13   57
1st     PAS Giannina                    26   10   2    1    31   11   9    3    1    23   7    62
4th     PAS Giannina                    26   6    3    4    22   16   6    3    4    21   15   42
1st     PAS Giannina                    26   9    1    3    30   20   7    2    4    17   13   51
3rd     PAS Giannina                    26   10   1    2    34   13   4    4    5    18   20   47
1st     PAS Giannina                    26   8    2    3    24   14   10   1    2    22   12   57
2nd     PAS Giannina                    26   12   1    0    33   4    4    4    5    24   21   53
2nd     PAS Giannina                    26   10   2    1    30   11   6    3    4    23   17   53
1st     PAS Giannina                    26   12   0    1    38   16   7    4    2    23   16   61
2nd     PAS Giannina                    26   10   2    1    29   9    4    4    5    12   13   48
1st     PAS Giannina                    26   8    3    2    31   10   7    1    5    14   15   49
1st     PAS Giannina                    26   11   2    0    41   16   8    1    4    23   16   60
1st     PAS Giannina                    26   8    3    2    29   16   9    2    2    18   9    56
1st     PAS Giannina                    26   12   1    0    33   6    3    5    5    18   21   51
1st     PAS Giannina                    26   10   1    2    38   14   7    3    3    27   13   55
1st     PAS Giannina                    26   11   0    2    35   10   7    3    3    22   13   57
2nd     PAS Giannina                    26   9    2    2    30   14   6    3    4    20   16   50
2nd     PAS Giannina                    26   10   0    3    30   9    5    5    3    13   12   50
1st     PAS Giannina                    26   11   0    2    31   15   8    2    3    25   14   59
2nd     PAS Giannina                    26   11   2    0    29   10   5    4    4    20   19   54
1st     PAS Giannina                    26   10   1    2    34   15   5    4    4    22   20   50
2nd     PAS Giannina                    26   11   2    0    31   15   4    5    4    17   15   52
1st     PAS Giannina                    26   10   1    2    34   11   7    4    2    24   16   56
1st     PAS Giannina                    26   11   2    0    34   13   5    4    4    11   11   54
1st     PAS Giannina                    26   11   0    2    29   10   6    5    2    20   13   56
2nd     PAS Giannina                    26   8    4    1    35   15   6    6    1    20   17   52
4th     PAS Giannina                    26   8    2    3    28   17   3    7    3    16   18   42
7th     PAS Giannina                    26   8    1    4    22   15   3    5    5    16   19   39
1st     PAS Giannina                    26   10   3    0    28   13   9    2    2    34   18   62
1st     PAS Giannina                    26   12   0    1    29   9    5    5    3    21   15   56
1st     PAS Giannina                    26   10   0    3    26   12   4    8    1    21   18   50
1st     PAS Giannina                    26   8    4    1    29   15   7    2    4    16   10   51
3rd     PAS Giannina                    26   9    2    2    28   11   7    1    5    21   15   51
2nd     PAS Giannina                    26   10   2    1    38   16   8    2    3    27   23   58
2nd     PAS Giannina                    26   7    4    2    31   18   7    3    3    24   13   49
2nd     PAS Giannina                    26   10   2    1    24   9    3    7    3    17   18   48
2nd     PAS Giannina                    26   12   1    0    32   4    4    3    6    14   14   52
1st     PAS Giannina                    26   9    1    3    28   13   8    3    2    19   9    55
2nd     PAS Giannina                    26   8    2    3    27   18   5    6    2    21   12   47
2nd     PAS Giannina                    26   10   0    3    33   16   7    2    4    24   15   53
1st     PAS Giannina                    26   11   2    0    31   9    5    4    4    24   20   54
1st     PAS Giannina                    26   11   1    1    30   10   6    2    5    19   20   54
1st     PAS Giannina                    26   9    4    0    26   10   6    1    6    17   13   50
2nd     PAS Giannina                    26   8    2    3    26   14   8    2    3    23   16   52
3rd     PAS Giannina                    26   9    3    1    32   14   4    2    7    11   13   44
2nd     PAS Giannina                    26   9    3    1    32   11   5    7    1    22   15   52
2nd     PAS Giannina                    26   9    3    1    23   7    4    5    4    18   17   47
1st     PAS Giannina                    26   11   2    0    32   9    7    2    4    20   12   58
2nd     PAS Giannina                    26   10   2    1    33   9    5    6    2    26   14   53
2nd     PAS Giannina                    26   7    4    2    20   13   6    5    2    17   13   48
2nd     PAS Giannina                    26   11   2    0    27   8    6    5    2    23   15   58
1st     PAS Giannina                    26   10   2    1    33   10   4    6    3    20   21   50
1st     PAS Giannina                    26   7    4    2    25   17   7    5    1    23   12   51
1st     PAS Giannina                    26   10   3    0    32   11   5    4    4    20   19   52
1st     PAS Giannina                    26   8    3    2    26   11   6    4    3    25   19   49
2nd     PAS Giannina                    26   8    3    2    25   10   5    6    2    22   18   48
1st     PAS Giannina                    26   13   0    0    32   8    8    0    5    21   12   63
1st     PAS Giannina                    26   11   2    0    39   14   7    5    1    27   19   61
2nd     PAS Giannina                    26   11   0    2    35   13   6    4    3    20   13   55
1st     PAS Giannina                    26   10   1    2    25   13   7    3    3    26   18   55
1st     PAS Giannina                    26   11   2    0    36   16   6    3    4    29   21   56
3rd     PAS Giannina                    26   10   2    1    37   17   5    3    5    19   16   50
1st     PAS Giannina                    26   8    3    2    31   16   8    2    3    22   16   53
2nd     PAS Giannina                    26   10   1    2    27   12   8    3    2    26   14   58
2nd     PAS Giannina                    26   9    2    2    34   21   5    4    4    16   12   48
1st     PAS Giannina                    26   12   1    0    33   12   10   1    2    24   17   68
1st     PAS Giannina                    26   12   0    1    34   12   8    2    3    25   16   62
4th     PAS Giannina                    26   7    3    3    20   13   5    1    7    15   19   40
3rd     PAS Giannina                    26   8    1    4    29   15   6    5    2    26   18   48
2nd     PAS Giannina                    26   8    3    2    31   16   8    3    2    22   10   54
1st     PAS Giannina                    26   9    2    2    29   14   8    4    1    30   14   57
2nd     PAS Giannina                    26   10   1    2    31   11   5    5    3    16   14   51
1st     PAS Giannina                    26   10   1    2    24   11   7    2    4    19   12   54
1st     PAS Giannina                    26   8    5    0    35   18   7    2    4    18   14   52
1st     PAS Giannina                    26   8    3    2    31   13   6    3    4    20   15   48