2nd     PAS Giannina                    26   8    2    3    27   12   8    1    4    20   12   51   
3rd     PAS Giannina                    26   8    4    1    31   16   8    1    4    25   15   53   
2nd     PAS Giannina                    26   8    3    2    26   14   6    3    4    23   19   48   
1st     PAS Giannina                    26   9    3    1    26   8    9    2    2    26   14   59   
2nd     PAS Giannina                    26   10   2    1    29   15   8    2    3    27   14   58   
3rd     PAS Giannina                    26   8    2    3    32   17   6    5    2    28   14   49   
3rd     PAS Giannina                    26   9    3    1    25   13   5    1    7    18   16   46   
2nd     PAS Giannina                    26   7    3    3    28   14   9    3    1    25   10   54   
2nd     PAS Giannina                    26   8    5    0    27   11   4    4    5    16   16   45   
2nd     PAS Giannina                    26   8    4    1    26   10   4    6    3    26   15   46   
2nd     PAS Giannina                    26   11   1    1    31   11   7    0    6    18   15   55   
1st     PAS Giannina                    26   8    3    2    29   16   10   2    1    24   6    59   
1st     PAS Giannina                    26   11   2    0    36   11   7    2    4    23   16   58   
1st     PAS Giannina                    26   12   0    1    36   9    9    2    2    25   14   65   
1st     PAS Giannina                    26   11   1    1    33   8    7    2    4    24   13   57   
3rd     PAS Giannina                    26   8    3    2    26   10   5    3    5    15   14   45   
3rd     PAS Giannina                    26   8    5    0    26   10   3    4    6    20   20   42   
2nd     PAS Giannina                    26   9    4    0    25   10   6    4    3    26   19   53   
2nd     PAS Giannina                    26   9    3    1    32   12   7    3    3    21   11   54   
2nd     PAS Giannina                    26   9    4    0    28   12   6    2    5    18   16   51   
1st     PAS Giannina                    26   11   1    1    35   13   6    1    6    21   18   53   
6th     PAS Giannina                    26   6    5    2    26   14   4    3    6    16   17   38   
1st     PAS Giannina                    26   9    1    3    23   12   7    1    5    28   18   50   
1st     PAS Giannina                    26   8    2    3    24   15   7    2    4    27   14   49   
1st     PAS Giannina                    26   11   1    1    28   8    6    3    4    24   17   55   
2nd     PAS Giannina                    26   11   1    1    32   13   5    4    4    20   15   53   
1st     PAS Giannina                    26   12   0    1    30   11   7    2    4    22   15   59   
4th     PAS Giannina                    26   8    5    0    23   11   4    4    5    11   13   45   
2nd     PAS Giannina                    26   9    1    3    27   14   4    5    4    18   16   45   
3rd     PAS Giannina                    26   8    2    3    28   16   6    5    2    26   18   49   
1st     PAS Giannina                    26   9    3    1    29   15   11   1    1    28   10   64   
2nd     PAS Giannina                    26   10   1    2    31   19   5    4    4    23   18   50   
3rd     PAS Giannina                    26   8    4    1    32   14   6    6    1    23   16   52   
1st     PAS Giannina                    26   10   3    0    38   15   8    1    4    20   13   58   
2nd     PAS Giannina                    26   10   3    0    31   10   4    3    6    23   23   48   
2nd     PAS Giannina                    26   9    2    2    31   15   7    2    4    23   13   52   
3rd     PAS Giannina                    26   9    1    3    26   13   6    2    5    24   19   48   
1st     PAS Giannina                    26   11   1    1    34   18   6    2    5    17   8    54   
3rd     PAS Giannina                    26   8    4    1    30   12   6    3    4    22   15   49   
2nd     PAS Giannina                    26   10   2    1    29   10   7    3    3    24   14   56   
2nd     PAS Giannina                    26   11   1    1    27   7    5    4    4    20   15   53   
1st     PAS Giannina                    26   9    3    1    27   14   9    1    3    23   13   58   
1st     PAS Giannina                    26   11   1    1    38   13   8    2    3    26   15   60   
3rd     PAS Giannina                    26   6    5    2    27   19   7    3    3    25   20   47   
1st     PAS Giannina                    26   10   3    0    27   9    8    1    4    26   19   58   
1st     PAS Giannina                    26   12   0    1    32   12   8    4    1    18   9    64   
1st     PAS Giannina                    26   10   1    2    28   9    9    2    2    21   15   60   
1st     PAS Giannina                    26   11   1    1    33   15   5    3    5    20   17   52   
2nd     PAS Giannina                    26   10   2    1    32   11   5    3    5    17   21   50   
2nd     PAS Giannina                    26   10   0    3    26   14   6    3    4    19   15   51   
3rd     PAS Giannina                    26   9    2    2    33   16   3    4    6    17   19   42   
4th     PAS Giannina                    26   7    2    4    20   13   4    6    3    15   13   41   
1st     PAS Giannina                    26   12   1    0    34   12   7    4    2    21   10   62   
1st     PAS Giannina                    26   11   2    0    34   9    7    2    4    27   18   58   
3rd     PAS Giannina                    26   8    4    1    30   15   9    0    4    24   12   55   
2nd     PAS Giannina                    26   10   1    2    25   13   6    2    5    23   18   51   
1st     PAS Giannina                    26   11   2    0    29   10   8    3    2    23   16   62   
2nd     PAS Giannina                    26   10   2    1    28   8    8    1    4    23   15   57   
2nd     PAS Giannina                    26   9    3    1    29   11   4    5    4    12   13   47   
1st     PAS Giannina                    26   12   1    0    31   8    8    2    3    23   13   63   
2nd     PAS Giannina                    26   8    3    2    27   14   6    1    6    22   17   46   
2nd     PAS Giannina                    26   8    3    2    33   20   7    3    3    23   18   51   
3rd     PAS Giannina                    26   10   2    1    30   12   6    4    3    19   14   54   
1st     PAS Giannina                    26   10   1    2    23   6    7    2    4    24   14   54   
1st     PAS Giannina                    26   10   0    3    27   14   9    3    1    27   13   60   
1st     PAS Giannina                    26   10   3    0    27   8    11   0    2    32   12   66   
1st     PAS Giannina                    26   13   0    0    42   14   8    2    3    27   15   65   
3rd     PAS Giannina                    26   12   1    0    27   8    4    3    6    14   22   52   
1st     PAS Giannina                    26   11   2    0    26   10   6    3    4    26   19   56   
2nd     PAS Giannina                    26   9    1    3    22   10   6    3    4    23   14   49   
1st     PAS Giannina                    26   10   1    2    30   14   9    2    2    23   15   60   
2nd     PAS Giannina                    26   8    1    4    26   12   7    4    2    21   12   50   
4th     PAS Giannina                    26   10   2    1    28   11   4    2    7    14   14   46   
3rd     PAS Giannina                    26   8    2    3    27   13   7    3    3    23   11   50   
2nd     PAS Giannina                    26   10   3    0    29   10   6    0    7    19   14   51   
1st     PAS Giannina                    26   11   2    0    34   10   6    4    3    21   17   57   
2nd     PAS Giannina                    26   9    2    2    30   12   7    3    3    25   18   53   
1st     PAS Giannina                    26   11   0    2    32   9    6    5    2    21   15   56   
1st     PAS Giannina                    26   11   1    1    30   13   6    5    2    18   11   57   
1st     PAS Giannina                    26   11   1    1    32   10   8    3    2    24   15   61   
2nd     PAS Giannina                    26   6    4    3    24   15   7    5    1    29   20   48   
1st     PAS Giannina                    26   9    2    2    28   14   7    3    3    20   8    53   
1st     PAS Giannina                    26   11   2    0    33   6    6    3    4    18   15   56   
1st     PAS Giannina                    26   11   1    1    36   11   5    5    3    23   19   54   
1st     PAS Giannina                    26   10   1    2    26   13   7    2    4    18   9    54   
1st     PAS Giannina                    26   9    3    1    31   16   12   0    1    25   8    66   
1st     PAS Giannina                    26   9    3    1    24   13   9    3    1    30   13   60   
1st     PAS Giannina                    26   11   1    1    26   11   11   2    0    21   7    69   
2nd     PAS Giannina                    26   10   2    1    26   12   5    4    4    19   13   51   
1st     PAS Giannina                    26   10   3    0    34   15   8    2    3    22   11   59   
2nd     PAS Giannina                    26   7    5    1    26   11   7    4    2    19   9    51   
3rd     PAS Giannina                    26   9    2    2    29   15   5    4    4    21   22   48   
2nd     PAS Giannina                    26   8    3    2    27   9    6    2    5    17   16   47   
1st     PAS Giannina                    26   11   1    1    33   13   8    4    1    29   17   62   
1st     PAS Giannina                    26   12   0    1    36   13   5    4    4    18   16   55   
1st     PAS Giannina                    26   9    3    1    28   14   10   1    2    29   8    61   
1st     PAS Giannina                    26   11   1    1    33   9    10   1    2    22   10   65   
4th     PAS Giannina                    26   8    3    2    26   17   4    5    4    15   13   44   
2nd     PAS Giannina                    26   11   1    1    31   13   4    5    4    16   14   51   
1st     PAS Giannina                    26   9    3    1    29   13   10   1    2    27   13   61   