1st     PAS Giannina                    26   11   1    1    43   15   8    0    5    23   14   58   
3rd     PAS Giannina                    26   8    5    0    32   13   4    4    5    23   20   45   
1st     PAS Giannina                    26   11   1    1    41   12   10   1    2    33   18   65   
1st     PAS Giannina                    26   8    4    1    29   17   10   1    2    24   6    59   
2nd     PAS Giannina                    26   8    3    2    25   12   5    3    5    22   17   45   
1st     PAS Giannina                    26   10   3    0    31   12   9    2    2    27   11   62   
1st     PAS Giannina                    26   10   2    1    27   10   7    4    2    27   19   57   
1st     PAS Giannina                    26   10   3    0    39   14   7    5    1    35   13   59   
1st     PAS Giannina                    26   11   1    1    37   9    9    2    2    31   19   63   
1st     PAS Giannina                    26   13   0    0    40   14   9    1    3    30   15   67   
1st     PAS Giannina                    26   10   2    1    35   14   9    1    3    23   9    60   
2nd     PAS Giannina                    26   7    3    3    31   21   9    3    1    26   13   54   
1st     PAS Giannina                    26   12   1    0    38   11   10   1    2    39   18   68   
1st     PAS Giannina                    26   10   1    2    35   13   7    5    1    29   13   57   
3rd     PAS Giannina                    26   8    3    2    32   19   6    2    5    27   17   47   
1st     PAS Giannina                    26   9    3    1    37   12   6    5    2    28   21   53   
1st     PAS Giannina                    26   11   2    0    37   13   7    3    3    35   21   59   
2nd     PAS Giannina                    26   7    3    3    30   15   9    1    3    29   16   52   
2nd     PAS Giannina                    26   10   0    3    25   12   8    1    4    25   16   55   
1st     PAS Giannina                    26   11   0    2    28   13   9    1    3    31   14   61   
1st     PAS Giannina                    26   10   2    1    35   11   7    4    2    27   15   57   
1st     PAS Giannina                    26   12   0    1    39   13   7    5    1    24   13   62   
2nd     PAS Giannina                    26   10   0    3    32   15   6    4    3    22   13   52   
2nd     PAS Giannina                    26   7    3    3    33   20   7    4    2    31   17   49   
1st     PAS Giannina                    26   11   2    0    37   12   8    5    0    26   13   64   
2nd     PAS Giannina                    26   12   1    0    38   16   7    1    5    26   18   59   
1st     PAS Giannina                    26   12   1    0    42   16   7    4    2    23   13   62   
2nd     PAS Giannina                    26   10   1    2    33   15   7    3    3    30   19   55   
1st     PAS Giannina                    26   10   3    0    39   15   11   0    2    31   11   66   
1st     PAS Giannina                    26   10   3    0    32   13   9    0    4    26   17   60   
1st     PAS Giannina                    26   9    3    1    38   18   10   2    1    34   15   62   
1st     PAS Giannina                    26   13   0    0    29   6    8    3    2    30   15   66   
1st     PAS Giannina                    26   11   0    2    34   14   11   1    1    29   13   67   
1st     PAS Giannina                    26   10   2    1    40   17   7    4    2    25   15   57   
1st     PAS Giannina                    26   11   2    0    32   10   10   1    2    28   7    66   
1st     PAS Giannina                    26   11   2    0    35   17   9    1    3    31   15   63   
1st     PAS Giannina                    26   11   2    0    29   8    6    4    3    19   13   57   
1st     PAS Giannina                    26   11   2    0    40   11   7    5    1    31   16   61   
1st     PAS Giannina                    26   11   2    0    31   10   10   1    2    32   18   66   
1st     PAS Giannina                    26   11   2    0    29   7    10   3    0    33   10   68   
2nd     PAS Giannina                    26   11   1    1    35   7    7    2    4    21   14   57   
1st     PAS Giannina                    26   11   2    0    33   14   6    3    4    15   11   56   
1st     PAS Giannina                    26   12   1    0    37   11   10   2    1    25   8    69   
2nd     PAS Giannina                    26   9    3    1    36   17   8    3    2    30   15   57   
1st     PAS Giannina                    26   11   1    1    45   19   11   2    0    33   13   69   
2nd     PAS Giannina                    26   11   1    1    33   10   4    6    3    22   18   52   
2nd     PAS Giannina                    26   9    1    3    33   17   8    3    2    30   21   55   
1st     PAS Giannina                    26   11   1    1    32   14   9    3    1    34   11   64   
1st     PAS Giannina                    26   11   1    1    39   11   10   2    1    29   13   66   
1st     PAS Giannina                    26   12   1    0    35   4    7    2    4    29   18   60   
1st     PAS Giannina                    26   9    4    0    30   15   6    4    3    27   22   53   
1st     PAS Giannina                    26   11   2    0    39   11   8    2    3    29   15   61   
2nd     PAS Giannina                    26   10   3    0    34   10   8    2    3    30   16   59   
1st     PAS Giannina                    26   11   1    1    27   10   9    1    3    33   21   62   
1st     PAS Giannina                    26   12   1    0    40   9    7    3    3    33   21   61   
1st     PAS Giannina                    26   12   1    0    47   15   10   2    1    37   17   69   
5th     PAS Giannina                    26   8    3    2    33   13   4    2    7    19   23   41   
1st     PAS Giannina                    26   11   0    2    34   13   8    2    3    34   21   59   
1st     PAS Giannina                    26   10   3    0    34   14   9    3    1    29   14   63   
1st     PAS Giannina                    26   10   1    2    40   13   8    2    3    30   18   57   
2nd     PAS Giannina                    26   11   2    0    37   14   7    2    4    27   18   58   
1st     PAS Giannina                    26   12   1    0    38   9    7    3    3    27   20   61   
1st     PAS Giannina                    26   9    3    1    30   11   10   1    2    32   12   61   
2nd     PAS Giannina                    26   7    3    3    24   14   10   0    3    32   16   54   
1st     PAS Giannina                    26   10   3    0    33   9    7    3    3    34   18   57   
1st     PAS Giannina                    26   12   1    0    34   11   8    2    3    26   13   63   
1st     PAS Giannina                    26   9    2    2    37   22   8    3    2    28   14   56   
1st     PAS Giannina                    26   11   2    0    36   9    7    2    4    31   17   58   
1st     PAS Giannina                    26   12   1    0    35   10   9    2    2    37   18   66   
2nd     PAS Giannina                    26   10   2    1    30   12   5    5    3    20   14   52   
2nd     PAS Giannina                    26   11   2    0    34   13   4    5    4    24   18   52   
2nd     PAS Giannina                    26   8    4    1    26   12   11   0    2    36   15   61   
1st     PAS Giannina                    26   11   2    0    34   10   6    5    2    28   19   58   
1st     PAS Giannina                    26   9    3    1    36   20   10   1    2    32   19   61   
1st     PAS Giannina                    26   8    5    0    31   16   9    3    1    25   10   59   
1st     PAS Giannina                    26   13   0    0    42   7    7    5    1    35   17   65   
1st     PAS Giannina                    26   12   1    0    45   14   6    3    4    33   27   58   
2nd     PAS Giannina                    26   8    2    3    39   21   8    1    4    27   15   51   
2nd     PAS Giannina                    26   8    2    3    31   18   7    4    2    26   18   51   
1st     PAS Giannina                    26   11   1    1    36   12   11   2    0    29   13   69   
1st     PAS Giannina                    26   11   1    1    32   9    10   1    2    29   14   65   
2nd     PAS Giannina                    26   9    4    0    31   15   8    3    2    28   14   58   
2nd     PAS Giannina                    26   11   0    2    31   12   7    5    1    34   18   59   
2nd     PAS Giannina                    26   8    3    2    32   15   5    7    1    24   17   49   
1st     PAS Giannina                    26   9    2    2    23   9    10   1    2    32   15   60   
1st     PAS Giannina                    26   12   0    1    41   15   5    5    3    27   20   56   
1st     PAS Giannina                    26   10   3    0    36   14   8    3    2    25   14   60   
1st     PAS Giannina                    26   10   1    2    34   16   9    3    1    27   13   61   
1st     PAS Giannina                    26   12   1    0    37   11   8    3    2    28   16   64   
1st     PAS Giannina                    26   11   2    0    37   14   7    2    4    28   19   58   
2nd     PAS Giannina                    26   9    3    1    29   10   7    2    4    19   15   53   
1st     PAS Giannina                    26   9    4    0    26   5    8    2    3    29   18   57   
1st     PAS Giannina                    26   10   1    2    36   11   11   1    1    31   7    65   
1st     PAS Giannina                    26   9    3    1    33   15   10   1    2    29   11   61   
2nd     PAS Giannina                    26   9    3    1    31   18   8    4    1    29   16   58   
1st     PAS Giannina                    26   12   0    1    37   10   8    1    4    27   15   61   
1st     PAS Giannina                    26   10   2    1    31   10   7    5    1    25   13   58   
1st     PAS Giannina                    26   9    3    1    32   15   9    3    1    33   11   60   
1st     PAS Giannina                    26   7    5    1    25   14   8    4    1    26   14   54   
1st     PAS Giannina                    26   12   1    0    37   16   9    4    0    37   21   68   