2nd     PAS Giannina                    26   9    2    2    30   13   7    2    4    25   16   52   
2nd     PAS Giannina                    26   8    2    3    31   12   5    2    6    32   27   43   
1st     PAS Giannina                    26   10   3    0    40   16   9    2    2    30   13   62   
1st     PAS Giannina                    26   11   0    2    43   24   8    2    3    26   14   59   
2nd     PAS Giannina                    26   8    3    2    32   15   6    4    3    26   19   49   
2nd     PAS Giannina                    26   9    3    1    32   15   7    3    3    29   19   54   
1st     PAS Giannina                    26   8    4    1    27   9    8    3    2    28   14   55   
1st     PAS Giannina                    26   11   1    1    41   11   7    3    3    28   20   58   
1st     PAS Giannina                    26   11   1    1    41   16   9    2    2    25   10   63   
3rd     PAS Giannina                    26   9    2    2    30   13   5    2    6    27   22   46   
1st     PAS Giannina                    26   12   0    1    48   12   8    2    3    27   19   62   
1st     PAS Giannina                    26   11   0    2    35   12   10   2    1    36   17   65   
1st     PAS Giannina                    26   11   2    0    31   11   7    3    3    25   18   59   
1st     PAS Giannina                    26   10   0    3    32   20   8    3    2    30   13   57   
1st     PAS Giannina                    26   10   2    1    37   16   8    1    4    21   20   57   
2nd     PAS Giannina                    26   8    3    2    32   16   9    3    1    24   7    57   
1st     PAS Giannina                    26   12   1    0    43   12   7    5    1    26   13   63   
1st     PAS Giannina                    26   11   2    0    40   13   9    2    2    30   19   64   
1st     PAS Giannina                    26   10   2    1    42   16   7    4    2    27   18   57   
2nd     PAS Giannina                    26   11   1    1    37   14   6    3    4    25   17   55   
1st     PAS Giannina                    26   11   2    0    44   12   8    3    2    28   12   62   
1st     PAS Giannina                    26   10   3    0    34   12   8    4    1    29   14   61   
2nd     PAS Giannina                    26   4    8    1    26   17   7    5    1    24   14   46   
1st     PAS Giannina                    26   10   1    2    31   10   7    1    5    23   18   53   
2nd     PAS Giannina                    26   8    4    1    28   17   5    3    5    23   19   46   
1st     PAS Giannina                    26   11   1    1    32   14   6    6    1    23   14   58   
2nd     PAS Giannina                    26   7    3    3    31   19   8    2    3    24   11   50   
1st     PAS Giannina                    26   11   1    1    31   13   8    4    1    28   10   62   
1st     PAS Giannina                    26   12   0    1    39   9    7    3    3    29   17   60   
2nd     PAS Giannina                    26   8    3    2    32   16   5    5    3    17   15   47   
1st     PAS Giannina                    26   9    4    0    33   11   9    3    1    31   19   61   
2nd     PAS Giannina                    26   9    2    2    36   14   9    3    1    25   11   59   
1st     PAS Giannina                    26   8    5    0    29   12   8    3    2    28   16   56   
2nd     PAS Giannina                    26   11   1    1    32   12   6    3    4    29   19   55   
1st     PAS Giannina                    26   10   2    1    35   15   8    4    1    30   17   60   
1st     PAS Giannina                    26   11   1    1    35   12   10   2    1    22   7    66   
1st     PAS Giannina                    26   10   3    0    29   8    8    3    2    24   11   60   
1st     PAS Giannina                    26   9    3    1    34   13   9    2    2    30   16   59   
1st     PAS Giannina                    26   7    4    2    35   17   9    3    1    33   19   55   
1st     PAS Giannina                    26   10   2    1    35   15   9    2    2    33   11   61   
1st     PAS Giannina                    26   11   0    2    41   16   7    2    4    24   14   56   
1st     PAS Giannina                    26   10   3    0    34   9    10   2    1    35   9    65   
1st     PAS Giannina                    26   11   1    1    38   13   7    4    2    27   12   59   
1st     PAS Giannina                    26   9    3    1    31   11   6    3    4    29   21   51   
1st     PAS Giannina                    26   10   3    0    36   15   10   2    1    29   15   65   
1st     PAS Giannina                    26   11   0    2    35   14   8    2    3    26   15   59   
1st     PAS Giannina                    26   10   3    0    40   16   8    3    2    25   14   60   
2nd     PAS Giannina                    26   8    3    2    37   18   9    0    4    29   16   54   
1st     PAS Giannina                    26   11   0    2    37   19   7    3    3    20   13   57   
1st     PAS Giannina                    26   11   2    0    38   15   8    3    2    25   13   62   
1st     PAS Giannina                    26   12   1    0    34   4    10   1    2    31   11   68   
1st     PAS Giannina                    26   12   1    0    43   11   9    2    2    31   10   66   
1st     PAS Giannina                    26   10   2    1    35   15   11   1    1    36   13   66   
1st     PAS Giannina                    26   11   1    1    37   16   9    1    3    32   17   62   
1st     PAS Giannina                    26   10   2    1    30   15   8    3    2    25   13   59   
1st     PAS Giannina                    26   11   1    1    38   12   7    3    3    23   17   58   
1st     PAS Giannina                    26   10   1    2    32   10   11   1    1    31   12   65   
1st     PAS Giannina                    26   10   1    2    40   16   9    2    2    30   16   60   
2nd     PAS Giannina                    26   13   0    0    44   11   8    2    3    29   16   65   
1st     PAS Giannina                    26   11   1    1    35   15   10   1    2    27   11   65   
1st     PAS Giannina                    26   11   2    0    40   14   7    5    1    25   13   61   
1st     PAS Giannina                    26   9    3    1    27   12   8    2    3    32   15   56   
1st     PAS Giannina                    26   11   2    0    41   20   6    5    2    18   11   58   
1st     PAS Giannina                    26   11   2    0    35   12   9    2    2    29   15   64   
1st     PAS Giannina                    26   9    3    1    38   17   6    4    3    32   21   52   
1st     PAS Giannina                    26   11   1    1    33   9    7    3    3    33   25   58   
2nd     PAS Giannina                    26   9    3    1    30   15   8    2    3    25   16   56   
1st     PAS Giannina                    26   12   1    0    38   9    6    4    3    31   17   59   
1st     PAS Giannina                    26   13   0    0    36   8    10   2    1    37   15   71   
1st     PAS Giannina                    26   8    3    2    31   18   9    2    2    24   14   56   
3rd     PAS Giannina                    26   8    3    2    33   19   8    2    3    32   22   53   
1st     PAS Giannina                    26   10   2    1    33   13   10   2    1    35   17   64   
2nd     PAS Giannina                    26   8    3    2    36   25   7    3    3    22   15   51   
1st     PAS Giannina                    26   11   2    0    30   13   9    2    2    35   20   64   
2nd     PAS Giannina                    26   7    3    3    31   15   9    0    4    24   11   51   
1st     PAS Giannina                    26   9    2    2    28   14   11   1    1    37   14   63   
1st     PAS Giannina                    26   12   0    1    36   10   9    2    2    31   13   65   
1st     PAS Giannina                    26   9    2    2    21   12   8    4    1    34   12   57   
1st     PAS Giannina                    26   11   1    1    34   11   9    1    3    27   19   62   
1st     PAS Giannina                    26   12   1    0    39   12   6    5    2    20   14   60   
1st     PAS Giannina                    26   12   1    0    41   8    6    3    4    25   19   58   
1st     PAS Giannina                    26   7    3    3    32   17   10   2    1    36   15   56   
1st     PAS Giannina                    26   13   0    0    37   9    9    0    4    37   23   66   
1st     PAS Giannina                    26   7    4    2    27   19   7    1    5    26   24   47   
1st     PAS Giannina                    26   11   0    2    35   19   6    2    5    30   21   53   
1st     PAS Giannina                    26   11   1    1    35   9    8    3    2    30   15   61   
1st     PAS Giannina                    26   10   2    1    34   15   7    4    2    27   15   57   
2nd     PAS Giannina                    26   9    3    1    32   13   6    0    7    21   24   48   
1st     PAS Giannina                    26   12   1    0    26   6    6    4    3    25   16   59   
2nd     PAS Giannina                    26   11   1    1    41   12   6    3    4    20   15   55   
1st     PAS Giannina                    26   10   3    0    29   10   8    2    3    26   12   59   
1st     PAS Giannina                    26   12   0    1    34   10   8    3    2    35   23   63   
3rd     PAS Giannina                    26   9    1    3    28   17   4    6    3    20   19   46   
3rd     PAS Giannina                    26   9    2    2    27   10   6    4    3    22   14   51   
1st     PAS Giannina                    26   12   0    1    28   9    7    3    3    27   21   60   
1st     PAS Giannina                    26   11   2    0    35   12   10   0    3    26   14   65   
1st     PAS Giannina                    26   8    4    1    24   14   7    3    3    28   15   52   
2nd     PAS Giannina                    26   10   2    1    40   17   8    4    1    31   12   60   
2nd     PAS Giannina                    26   10   3    0    35   14   6    3    4    26   18   54   
1st     PAS Giannina                    26   9    3    1    24   10   10   0    3    32   9    60   