12th    PAS Giannina                    26   5    1    7    11   13   2    5    6    12   18   27
12th    PAS Giannina                    26   5    4    4    18   15   2    2    9    11   25   27
14th     PAS Giannina                    26   3    4    6    16   16   0    3    10   8    24   16
7th     PAS Giannina                    26   7    5    1    22   13   3    2    8    18   27   37
14th     PAS Giannina                    26   6    2    5    17   11   1    2    10   6    26   25
14th     PAS Giannina                    26   2    4    7    15   22   1    3    9    9    23   16
12th    PAS Giannina                    26   7    1    5    23   14   1    3    9    8    24   28
11th    PAS Giannina                    26   4    5    4    18   16   2    2    9    15   24   25
6th     PAS Giannina                    26   9    1    3    25   14   3    4    6    17   24   41
10th    PAS Giannina                    26   8    3    2    25   13   1    2    10   14   27   32
14th     PAS Giannina                    26   3    2    8    15   23   0    1    12   9    31   12
13th     PAS Giannina                    26   4    3    6    16   19   2    4    7    10   23   25
13th     PAS Giannina                    26   4    3    6    14   18   0    5    8    8    24   20
13th     PAS Giannina                    26   4    2    7    19   23   2    4    7    14   28   24
9th     PAS Giannina                    26   4    6    3    20   13   5    2    6    15   23   35
8th     PAS Giannina                    26   8    2    3    26   19   1    4    8    12   21   33
12th    PAS Giannina                    26   5    3    5    15   15   1    1    11   10   28   22
5th     PAS Giannina                    26   8    3    2    21   12   4    0    9    13   24   39
12th    PAS Giannina                    26   3    6    4    10   11   4    1    8    12   23   28
14th     PAS Giannina                    26   3    3    7    18   22   1    1    11   9    28   16
14th     PAS Giannina                    26   5    2    6    17   18   0    2    11   11   30   19
14th     PAS Giannina                    26   6    3    4    16   12   1    1    11   7    26   25
13th     PAS Giannina                    26   2    2    9    12   25   3    1    9    9    19   18
11th    PAS Giannina                    26   6    3    4    19   17   2    2    9    12   28   29
9th     PAS Giannina                    26   6    3    4    18   17   2    4    7    14   22   31
14th     PAS Giannina                    26   5    3    5    14   14   0    3    10   9    27   21
14th     PAS Giannina                    26   2    2    9    7    23   2    1    10   9    26   15
13th     PAS Giannina                    26   5    4    4    15   12   1    6    6    13   23   28
14th     PAS Giannina                    26   4    7    2    25   19   0    2    11   8    27   21
14th     PAS Giannina                    26   5    5    3    19   14   0    2    11   11   27   22
14th     PAS Giannina                    26   8    3    2    25   17   0    1    12   11   33   28
10th    PAS Giannina                    26   6    2    5    21   22   2    4    7    15   25   30
11th    PAS Giannina                    26   5    5    3    17   19   3    3    7    15   24   32
11th    PAS Giannina                    26   5    5    3    21   21   2    2    9    11   24   28
12th    PAS Giannina                    26   6    2    5    20   21   1    1    11   19   38   24
9th     PAS Giannina                    26   7    4    2    25   15   1    4    8    11   22   32
10th    PAS Giannina                    26   4    6    3    17   14   3    2    8    10   22   29
8th     PAS Giannina                    26   8    0    5    22   20   3    1    9    13   28   34
13th     PAS Giannina                    26   5    3    5    23   20   1    2    10   7    27   23
11th    PAS Giannina                    26   6    3    4    20   17   1    4    8    10   26   28
10th    PAS Giannina                    26   7    3    3    19   10   2    1    10   7    28   31
14th     PAS Giannina                    26   2    5    6    13   19   0    2    11   4    25   13
14th     PAS Giannina                    26   5    3    5    16   14   1    0    12   7    27   21
10th    PAS Giannina                    26   6    3    4    26   17   2    3    8    9    21   30
13th     PAS Giannina                    26   6    1    6    22   23   1    4    8    12   23   26
14th     PAS Giannina                    26   3    0    10   14   23   0    4    9    10   32   13
9th     PAS Giannina                    26   6    3    4    16   13   3    3    7    16   27   33
9th     PAS Giannina                    26   7    2    4    20   15   2    2    9    7    24   31
14th     PAS Giannina                    26   6    1    6    17   19   1    2    10   9    33   24
14th     PAS Giannina                    26   4    3    6    17   20   0    2    11   8    28   17
13th     PAS Giannina                    26   5    2    6    18   24   2    1    10   5    21   24
12th    PAS Giannina                    26   4    2    7    17   23   4    3    6    17   26   29
14th     PAS Giannina                    26   3    2    8    16   22   1    5    7    9    21   19
14th     PAS Giannina                    26   3    3    7    21   26   2    3    8    14   27   21
14th     PAS Giannina                    26   3    2    8    15   18   1    1    11   4    26   15
8th     PAS Giannina                    26   5    4    4    22   18   4    1    8    17   21   32
11th    PAS Giannina                    26   6    2    5    19   17   2    4    7    14   24   30
12th    PAS Giannina                    26   5    3    5    21   19   1    4    8    15   28   25
14th     PAS Giannina                    26   5    3    5    17   16   0    2    11   11   33   20
12th    PAS Giannina                    26   6    1    6    19   15   0    5    8    10   26   24
13th     PAS Giannina                    26   6    3    4    20   16   0    3    10   16   32   24
14th     PAS Giannina                    26   1    5    7    9    25   0    3    10   7    24   11
12th    PAS Giannina                    26   6    2    5    23   21   1    5    7    11   22   28
13th     PAS Giannina                    26   5    1    7    19   21   1    3    9    15   34   22
13th     PAS Giannina                    26   5    1    7    17   17   2    1    10   8    26   23
10th    PAS Giannina                    26   7    3    3    26   21   1    6    6    13   21   33
11th    PAS Giannina                    26   8    1    4    22   15   1    2    10   5    28   30
11th    PAS Giannina                    26   7    2    4    19   15   1    4    8    11   26   30
13th     PAS Giannina                    26   5    3    5    17   19   1    7    5    8    17   28
10th    PAS Giannina                    26   4    5    4    20   19   3    2    8    14   26   28
13th     PAS Giannina                    26   4    3    6    11   15   4    2    7    17   18   29
11th    PAS Giannina                    26   5    4    4    17   15   2    2    9    13   29   27
9th     PAS Giannina                    26   5    3    5    16   16   4    5    4    20   21   35
13th     PAS Giannina                    26   5    3    5    19   19   1    3    9    12   27   24
13th     PAS Giannina                    26   5    3    5    21   19   2    3    8    15   30   27
11th    PAS Giannina                    26   3    6    4    15   14   3    2    8    19   35   26
10th    PAS Giannina                    26   8    1    4    26   18   2    2    9    15   30   33
8th     PAS Giannina                    26   6    3    4    22   18   2    3    8    7    16   30
10th    PAS Giannina                    26   7    3    3    21   13   1    3    9    13   25   30
11th    PAS Giannina                    26   6    4    3    19   12   2    1    10   9    19   29
8th     PAS Giannina                    26   5    2    6    21   16   4    4    5    14   17   33
14th     PAS Giannina                    26   4    4    5    11   12   1    2    10   7    24   21
8th     PAS Giannina                    26   6    1    6    13   15   5    2    6    16   17   36
10th    PAS Giannina                    26   9    0    4    21   12   2    0    11   7    24   33
6th     PAS Giannina                    26   7    2    4    22   18   5    2    6    15   18   40
8th     PAS Giannina                    26   5    6    2    21   15   1    5    7    16   23   29
14th     PAS Giannina                    26   2    3    8    16   26   0    3    10   8    24   12
14th     PAS Giannina                    26   3    4    6    18   23   2    0    11   10   29   19
13th     PAS Giannina                    26   3    5    5    12   18   1    4    8    8    20   21
7th     PAS Giannina                    26   9    1    3    22   9    1    5    7    14   30   36
8th     PAS Giannina                    26   5    5    3    22   21   3    3    7    13   27   32
14th     PAS Giannina                    26   4    3    6    17   21   1    2    10   11   26   20
14th     PAS Giannina                    26   3    3    7    15   20   0    3    10   8    25   15
13th     PAS Giannina                    26   5    6    2    19   17   0    3    10   9    27   24
11th    PAS Giannina                    26   5    4    4    16   15   2    5    6    14   23   30
8th     PAS Giannina                    26   3    6    4    18   21   6    1    6    17   18   34
4th     PAS Giannina                    26   8    2    3    23   18   5    4    4    21   21   45
11th    PAS Giannina                    26   5    1    7    17   22   2    3    8    11   20   25
11th    PAS Giannina                    26   4    3    6    15   13   1    5    7    11   24   23
14th     PAS Giannina                    26   5    2    6    16   20   0    6    7    12   24   23