5th     PAS Giannina                    26   7    3    3    33   22   4    4    5    20   23   40   
3rd     PAS Giannina                    26   6    5    2    24   14   5    3    5    28   26   41   
2nd     PAS Giannina                    26   10   0    3    32   22   4    4    5    23   26   46   
11th    PAS Giannina                    26   4    5    4    24   23   4    2    7    18   25   31   
1st     PAS Giannina                    26   11   2    0    39   16   7    2    4    28   22   58   
2nd     PAS Giannina                    26   9    2    2    40   22   6    3    4    26   23   50   
7th     PAS Giannina                    26   8    4    1    32   17   3    2    8    22   30   39   
3rd     PAS Giannina                    26   8    1    4    30   23   5    1    7    24   29   41   
3rd     PAS Giannina                    26   6    4    3    30   27   6    2    5    30   30   42   
3rd     PAS Giannina                    26   8    3    2    34   22   4    4    5    26   28   43   
5th     PAS Giannina                    26   7    5    1    32   19   5    1    7    19   21   42   
4th     PAS Giannina                    26   9    1    3    35   20   3    3    7    22   27   40   
3rd     PAS Giannina                    26   8    3    2    33   21   4    4    5    22   25   43   
6th     PAS Giannina                    26   6    4    3    29   22   5    2    6    19   22   39   
7th     PAS Giannina                    26   5    2    6    27   26   5    5    3    22   20   37   
2nd     PAS Giannina                    26   7    3    3    34   24   6    4    3    28   22   46   
3rd     PAS Giannina                    26   7    1    5    24   25   6    2    5    25   22   42   
3rd     PAS Giannina                    26   9    1    3    38   20   5    3    5    27   24   46   
4th     PAS Giannina                    26   7    4    2    36   24   5    2    6    22   25   42   
2nd     PAS Giannina                    26   9    4    0    33   21   3    6    4    23   23   46   
3rd     PAS Giannina                    26   7    5    1    34   22   6    2    5    27   30   46   
2nd     PAS Giannina                    26   9    2    2    34   20   6    3    4    32   24   50   
3rd     PAS Giannina                    26   10   0    3    38   23   5    2    6    29   34   47   
2nd     PAS Giannina                    26   8    2    3    32   24   6    3    4    30   28   47   
2nd     PAS Giannina                    26   9    1    3    34   21   6    4    3    27   21   50   
7th     PAS Giannina                    26   8    3    2    31   20   3    2    8    23   30   38   
8th     PAS Giannina                    26   6    1    6    31   22   5    3    5    27   31   37   
2nd     PAS Giannina                    26   13   0    0    41   20   5    2    6    24   24   56   
4th     PAS Giannina                    26   8    3    2    37   24   3    7    3    27   28   43   
6th     PAS Giannina                    26   9    3    1    36   24   3    1    9    21   31   40   
5th     PAS Giannina                    26   7    3    3    28   20   5    3    5    22   22   42   
1st     PAS Giannina                    26   9    3    1    38   25   11   0    2    34   15   63   
7th     PAS Giannina                    26   9    1    3    36   20   2    1    10   15   30   35   
3rd     PAS Giannina                    26   9    2    2    44   30   3    5    5    26   30   43   
2nd     PAS Giannina                    26   8    4    1    32   21   5    5    3    27   22   48   
7th     PAS Giannina                    26   5    6    2    32   20   5    0    8    21   24   36   
2nd     PAS Giannina                    26   7    4    2    29   17   6    2    5    23   22   45   
7th     PAS Giannina                    26   6    3    4    31   27   4    3    6    24   27   36   
5th     PAS Giannina                    26   6    3    4    38   28   5    3    5    27   28   39   
3rd     PAS Giannina                    26   9    1    3    40   20   5    3    5    23   30   46   
1st     PAS Giannina                    26   8    2    3    37   26   7    5    1    28   19   52   
5th     PAS Giannina                    26   6    3    4    35   27   4    4    5    21   24   37   
3rd     PAS Giannina                    26   6    2    5    34   33   7    3    3    25   18   44   
4th     PAS Giannina                    26   7    1    5    33   26   5    4    4    24   20   41   
4th     PAS Giannina                    26   7    3    3    32   19   3    5    5    23   24   38   
7th     PAS Giannina                    26   6    4    3    22   17   3    3    7    19   29   34   
2nd     PAS Giannina                    26   8    3    2    38   25   5    3    5    23   22   45   
1st     PAS Giannina                    26   10   0    3    36   24   7    4    2    33   20   55   
4th     PAS Giannina                    26   6    5    2    32   22   6    1    6    26   32   42   
5th     PAS Giannina                    26   6    0    7    25   22   6    3    4    26   21   39   
2nd     PAS Giannina                    26   10   1    2    34   16   6    3    4    29   26   52   
5th     PAS Giannina                    26   6    4    3    34   27   5    3    5    25   25   40   
4th     PAS Giannina                    26   8    2    3    32   20   6    2    5    28   26   46   
3rd     PAS Giannina                    26   9    2    2    34   21   4    3    6    27   31   44   
6th     PAS Giannina                    26   8    1    4    35   22   3    4    6    17   21   38   
5th     PAS Giannina                    26   7    3    3    36   22   4    2    7    24   30   38   
3rd     PAS Giannina                    26   8    3    2    34   21   6    0    7    26   22   45   
2nd     PAS Giannina                    26   9    4    0    31   15   5    3    5    26   24   49   
6th     PAS Giannina                    26   10   1    2    42   24   2    5    6    25   32   42   
5th     PAS Giannina                    26   5    5    3    34   26   6    2    5    29   24   40   
2nd     PAS Giannina                    26   10   1    2    31   9    4    4    5    23   23   47   
5th     PAS Giannina                    26   8    2    3    25   19   3    3    7    21   27   38   
1st     PAS Giannina                    26   9    4    0    32   18   5    3    5    24   22   49   
3rd     PAS Giannina                    26   8    2    3    39   23   6    2    5    24   20   46   
2nd     PAS Giannina                    26   8    4    1    41   22   6    4    3    20   18   50   
2nd     PAS Giannina                    26   8    3    2    35   20   8    0    5    26   22   51   
2nd     PAS Giannina                    26   10   3    0    38   18   3    1    9    27   33   43   
2nd     PAS Giannina                    26   11   1    1    38   17   5    3    5    21   23   52   
3rd     PAS Giannina                    26   10   0    3    36   22   6    1    6    30   26   49   
5th     PAS Giannina                    26   8    3    2    37   22   3    3    7    27   33   39   
2nd     PAS Giannina                    26   9    2    2    34   16   4    4    5    22   20   45   
3rd     PAS Giannina                    26   9    1    3    34   20   5    2    6    33   36   45   
3rd     PAS Giannina                    26   8    5    0    29   13   4    4    5    22   25   45   
4th     PAS Giannina                    26   7    2    4    30   23   6    2    5    20   21   43   
2nd     PAS Giannina                    26   9    2    2    38   22   7    1    5    24   24   51   
4th     PAS Giannina                    26   7    2    4    30   21   5    2    6    23   25   40   
6th     PAS Giannina                    26   7    1    5    33   26   4    4    5    20   23   38   
3rd     PAS Giannina                    26   8    2    3    36   20   7    3    3    29   21   50   
1st     PAS Giannina                    26   7    4    2    36   21   6    5    2    32   23   48   
10th    PAS Giannina                    26   5    3    5    25   25   3    6    4    21   23   33   
1st     PAS Giannina                    26   11   1    1    40   19   5    3    5    24   23   52   
13th    PAS Giannina                    26   5    2    6    26   23   1    3    9    14   25   23   
2nd     PAS Giannina                    26   10   2    1    37   18   6    2    5    26   21   52   
5th     PAS Giannina                    26   5    3    5    29   25   5    5    3    28   21   38   
4th     PAS Giannina                    26   6    3    4    33   24   4    4    5    23   24   37   
3rd     PAS Giannina                    26   6    2    5    32   26   5    5    3    27   23   40   
5th     PAS Giannina                    26   9    3    1    33   18   1    3    9    19   35   36   
7th     PAS Giannina                    26   8    2    3    35   24   4    2    7    20   30   40   
3rd     PAS Giannina                    26   6    4    3    31   26   6    5    2    20   17   45   
2nd     PAS Giannina                    26   9    1    3    30   20   5    4    4    24   23   47   
2nd     PAS Giannina                    26   8    2    3    38   25   6    1    6    21   25   45   
5th     PAS Giannina                    26   6    4    3    36   27   5    4    4    26   30   41   
2nd     PAS Giannina                    26   7    5    1    43   30   8    0    5    32   26   50   
10th    PAS Giannina                    26   7    3    3    39   28   2    3    8    17   28   33   
2nd     PAS Giannina                    26   10   1    2    34   19   7    2    4    27   20   54   
1st     PAS Giannina                    26   10   1    2    36   20   5    3    5    26   26   49   
3rd     PAS Giannina                    26   6    4    3    34   29   8    1    4    28   21   47   
1st     PAS Giannina                    26   9    3    1    35   17   5    3    5    24   22   48   
3rd     PAS Giannina                    26   9    1    3    35   22   4    3    6    21   27   43   
2nd     PAS Giannina                    26   8    1    4    30   26   7    2    4    20   14   48   