1st     PAS Giannina                    26   10   1    2    28   9    9    3    1    31   12   61   
1st     PAS Giannina                    26   11   1    1    35   12   12   1    0    34   12   71   
1st     PAS Giannina                    26   10   2    1    34   11   11   2    0    35   6    67   
1st     PAS Giannina                    26   12   1    0    38   8    9    2    2    29   13   66   
1st     PAS Giannina                    26   10   2    1    26   10   12   1    0    35   10   69   
1st     PAS Giannina                    26   13   0    0    34   6    10   1    2    22   6    70   
1st     PAS Giannina                    26   13   0    0    42   7    9    2    2    33   13   68   
1st     PAS Giannina                    26   9    2    2    33   13   12   1    0    32   4    66   
1st     PAS Giannina                    26   11   2    0    45   14   7    2    4    33   20   58   
1st     PAS Giannina                    26   10   2    1    33   11   10   2    1    34   13   64   
1st     PAS Giannina                    26   11   0    2    31   15   8    3    2    32   16   60   
1st     PAS Giannina                    26   9    4    0    36   13   9    4    0    27   8    62   
1st     PAS Giannina                    26   13   0    0    42   13   9    2    2    35   14   68   
2nd     PAS Giannina                    26   10   3    0    29   12   8    2    3    25   15   59   
1st     PAS Giannina                    26   13   0    0    43   12   9    4    0    34   11   70   
1st     PAS Giannina                    26   12   0    1    40   11   10   1    2    27   10   67   
1st     PAS Giannina                    26   13   0    0    38   12   12   0    1    40   11   75   
1st     PAS Giannina                    26   11   1    1    38   11   8    3    2    32   14   61   
1st     PAS Giannina                    26   13   0    0    38   12   12   1    0    33   4    76   
1st     PAS Giannina                    26   12   0    1    39   10   11   1    1    39   13   70   
1st     PAS Giannina                    26   12   0    1    43   14   10   1    2    40   14   67   
1st     PAS Giannina                    26   12   1    0    40   13   11   1    1    30   8    71   
1st     PAS Giannina                    26   11   2    0    43   9    7    4    2    26   9    60   
1st     PAS Giannina                    26   12   1    0    35   3    11   1    1    31   7    71   
1st     PAS Giannina                    26   11   1    1    38   13   11   1    1    32   11   68   
1st     PAS Giannina                    26   11   0    2    34   10   11   1    1    26   10   67   
1st     PAS Giannina                    26   12   0    1    36   11   9    3    1    35   16   66   
1st     PAS Giannina                    26   10   2    1    32   8    8    2    3    35   18   58   
1st     PAS Giannina                    26   11   1    1    36   12   11   2    0    29   10   69   
1st     PAS Giannina                    26   10   3    0    31   8    9    1    3    37   12   61   
1st     PAS Giannina                    26   11   2    0    37   8    10   2    1    32   11   67   
1st     PAS Giannina                    26   11   2    0    37   12   10   1    2    31   11   66   
1st     PAS Giannina                    26   12   1    0    37   17   8    4    1    33   14   65   
1st     PAS Giannina                    26   10   3    0    36   12   11   2    0    38   7    68   
1st     PAS Giannina                    26   10   3    0    32   10   9    2    2    24   6    62   
1st     PAS Giannina                    26   11   2    0    27   9    10   3    0    33   12   68   
1st     PAS Giannina                    26   12   1    0    41   8    12   1    0    33   15   74   
1st     PAS Giannina                    26   12   1    0    33   6    8    4    1    27   14   65   
1st     PAS Giannina                    26   11   2    0    38   14   10   3    0    29   11   68   
1st     PAS Giannina                    26   11   2    0    33   13   9    2    2    26   8    64   
1st     PAS Giannina                    26   13   0    0    33   7    9    3    1    23   13   69   
1st     PAS Giannina                    26   12   1    0    35   7    10   2    1    37   14   69   
1st     PAS Giannina                    26   11   2    0    31   10   7    3    3    33   21   59   
1st     PAS Giannina                    26   12   0    1    40   15   6    6    1    19   8    60   
1st     PAS Giannina                    26   11   2    0    33   13   8    5    0    25   8    64   
1st     PAS Giannina                    26   12   1    0    41   9    10   3    0    33   7    70   
1st     PAS Giannina                    26   12   1    0    41   10   10   2    1    34   12   69   
1st     PAS Giannina                    26   11   1    1    36   10   11   2    0    31   8    69   
1st     PAS Giannina                    26   11   1    1    38   14   9    3    1    37   14   64   
2nd     PAS Giannina                    26   11   1    1    44   15   11   1    1    34   10   68   
1st     PAS Giannina                    26   9    3    1    34   15   9    0    4    29   13   57   
1st     PAS Giannina                    26   10   1    2    33   9    12   0    1    38   9    67   
1st     PAS Giannina                    26   11   2    0    38   12   11   2    0    33   12   70   
1st     PAS Giannina                    26   13   0    0    40   13   11   1    1    27   5    73   
1st     PAS Giannina                    26   10   1    2    36   13   10   1    2    36   14   62   
1st     PAS Giannina                    26   9    4    0    39   16   9    1    3    35   14   59   
1st     PAS Giannina                    26   12   1    0    36   13   10   2    1    35   12   69   
1st     PAS Giannina                    26   12   0    1    38   11   9    1    3    34   12   64   
1st     PAS Giannina                    26   13   0    0    45   9    9    4    0    28   9    70   
1st     PAS Giannina                    26   11   0    2    35   12   11   2    0    36   10   68   
1st     PAS Giannina                    26   13   0    0    36   12   10   2    1    31   13   71   
1st     PAS Giannina                    26   13   0    0    39   14   9    3    1    28   12   69   
1st     PAS Giannina                    26   13   0    0    38   11   10   1    2    37   10   70   
1st     PAS Giannina                    26   11   1    1    40   11   9    2    2    30   5    63   
1st     PAS Giannina                    26   13   0    0    42   9    8    2    3    25   15   65   
1st     PAS Giannina                    26   10   3    0    30   12   11   1    1    35   11   67   
1st     PAS Giannina                    26   11   1    1    41   14   7    4    2    22   11   59   
1st     PAS Giannina                    26   10   2    1    34   14   9    2    2    33   11   61   
1st     PAS Giannina                    26   11   1    1    36   11   10   1    2    28   15   65   
1st     PAS Giannina                    26   10   2    1    35   9    12   0    1    32   10   68   
1st     PAS Giannina                    26   11   1    1    39   10   10   3    0    29   8    67   
1st     PAS Giannina                    26   11   2    0    37   12   12   1    0    36   9    72   
1st     PAS Giannina                    26   10   1    2    34   14   9    3    1    32   9    61   
1st     PAS Giannina                    26   11   0    2    43   17   9    4    0    28   15   64   
1st     PAS Giannina                    26   13   0    0    26   3    10   2    1    33   12   71   
1st     PAS Giannina                    26   12   1    0    38   7    10   2    1    30   9    69   
1st     PAS Giannina                    26   11   2    0    32   10   10   3    0    29   12   68   
1st     PAS Giannina                    26   10   3    0    36   13   9    3    1    35   19   63   
1st     PAS Giannina                    26   11   2    0    28   5    9    3    1    32   9    65   
1st     PAS Giannina                    26   11   2    0    38   8    10   3    0    26   6    68   
1st     PAS Giannina                    26   10   3    0    39   14   10   0    3    28   14   63   
1st     PAS Giannina                    26   10   3    0    27   11   9    3    1    37   21   63   
1st     PAS Giannina                    26   12   0    1    44   12   11   1    1    35   11   70   
1st     PAS Giannina                    26   10   3    0    40   16   9    3    1    26   8    63   
1st     PAS Giannina                    26   9    2    2    27   13   10   2    1    25   8    61   
1st     PAS Giannina                    26   9    3    1    40   13   11   1    1    28   10   64   
2nd     PAS Giannina                    26   10   3    0    35   13   9    3    1    29   11   63   
1st     PAS Giannina                    26   11   2    0    37   15   11   0    2    32   7    68   
1st     PAS Giannina                    26   13   0    0    39   12   11   2    0    42   16   74   
1st     PAS Giannina                    26   9    2    2    35   15   10   3    0    32   5    62   
1st     PAS Giannina                    26   10   3    0    32   8    9    2    2    38   14   62   
1st     PAS Giannina                    26   13   0    0    41   10   9    3    1    25   6    69   
1st     PAS Giannina                    26   10   1    2    34   12   10   2    1    33   9    63   
1st     PAS Giannina                    26   12   0    1    43   14   9    2    2    36   19   65   
1st     PAS Giannina                    26   10   3    0    35   12   9    4    0    32   14   64   
1st     PAS Giannina                    26   12   1    0    38   9    9    2    2    30   11   66   
2nd     PAS Giannina                    26   10   2    1    38   9    9    2    2    32   9    61   
1st     PAS Giannina                    26   10   3    0    27   5    9    2    2    31   12   62   
1st     PAS Giannina                    26   11   2    0    27   8    7    6    0    25   9    62   
1st     PAS Giannina                    26   11   2    0    42   10   7    2    4    29   18   58   