3rd     PAS Giannina                    26   8    3    2    35   18   6    1    6    21   21   46   
1st     PAS Giannina                    26   10   1    2    23   11   7    2    4    29   15   54   
1st     PAS Giannina                    26   11   2    0    35   13   8    3    2    33   19   62   
1st     PAS Giannina                    26   11   2    0    37   8    9    2    2    32   17   64   
1st     PAS Giannina                    26   12   0    1    47   14   8    3    2    34   16   63   
2nd     PAS Giannina                    26   11   0    2    34   12   5    1    7    21   21   49   
2nd     PAS Giannina                    26   12   1    0    40   14   8    2    3    26   17   63   
2nd     PAS Giannina                    26   11   1    1    39   13   7    4    2    30   18   59   
1st     PAS Giannina                    26   11   1    1    38   14   8    2    3    31   20   60   
1st     PAS Giannina                    26   10   3    0    37   16   8    1    4    27   19   58   
1st     PAS Giannina                    26   12   0    1    37   18   8    3    2    25   11   63   
1st     PAS Giannina                    26   8    1    4    30   18   8    3    2    27   16   52   
1st     PAS Giannina                    26   12   1    0    36   11   11   1    1    40   18   71   
1st     PAS Giannina                    26   9    2    2    26   17   7    4    2    29   18   54   
1st     PAS Giannina                    26   10   2    1    33   13   11   0    2    41   15   65   
1st     PAS Giannina                    26   11   1    1    36   12   9    2    2    28   16   63   
1st     PAS Giannina                    26   10   2    1    30   10   8    1    4    35   17   57   
1st     PAS Giannina                    26   10   1    2    34   15   7    5    1    26   16   57   
2nd     PAS Giannina                    26   8    5    0    33   13   4    3    6    19   23   44   
1st     PAS Giannina                    26   11   1    1    36   10   6    2    5    22   21   54   
3rd     PAS Giannina                    26   7    4    2    27   16   7    2    4    29   18   48   
1st     PAS Giannina                    26   11   2    0    33   14   8    1    4    33   21   60   
1st     PAS Giannina                    26   12   0    1    43   16   10   1    2    32   16   67   
1st     PAS Giannina                    26   10   1    2    31   13   8    3    2    29   17   58   
2nd     PAS Giannina                    26   10   3    0    32   17   6    2    5    22   19   53   
1st     PAS Giannina                    26   11   2    0    35   12   9    3    1    27   10   65   
2nd     PAS Giannina                    26   7    3    3    27   18   9    1    3    31   15   52   
1st     PAS Giannina                    26   10   1    2    39   20   9    2    2    34   20   60   
1st     PAS Giannina                    26   11   1    1    34   11   11   1    1    42   15   68   
1st     PAS Giannina                    26   11   1    1    33   13   8    4    1    28   16   62   
1st     PAS Giannina                    26   10   2    1    31   12   10   3    0    38   17   65   
1st     PAS Giannina                    26   10   3    0    42   18   8    4    1    35   22   61   
5th     PAS Giannina                    26   6    4    3    28   20   7    2    4    22   17   45   
1st     PAS Giannina                    26   11   1    1    37   11   8    5    0    35   16   63   
1st     PAS Giannina                    26   12   1    0    41   21   8    4    1    33   18   65   
1st     PAS Giannina                    26   10   2    1    36   17   10   2    1    37   16   64   
1st     PAS Giannina                    26   11   2    0    41   13   5    5    3    25   17   55   
1st     PAS Giannina                    26   8    4    1    36   24   12   0    1    48   20   64   
1st     PAS Giannina                    26   12   1    0    40   13   9    3    1    36   18   67   
1st     PAS Giannina                    26   12   0    1    34   13   7    6    0    27   17   63   
1st     PAS Giannina                    26   9    3    1    37   16   9    3    1    30   11   60   
1st     PAS Giannina                    26   8    1    4    36   24   9    2    2    27   13   54   
2nd     PAS Giannina                    26   11   1    1    34   14   7    2    4    26   20   57   
1st     PAS Giannina                    26   12   1    0    42   11   7    3    3    24   19   61   
1st     PAS Giannina                    26   12   1    0    49   13   8    3    2    24   14   64   
2nd     PAS Giannina                    26   8    2    3    25   13   7    2    4    28   21   49   
1st     PAS Giannina                    26   12   1    0    36   10   11   1    1    35   15   71   
1st     PAS Giannina                    26   10   3    0    38   17   11   2    0    34   14   68   
1st     PAS Giannina                    26   11   0    2    36   16   7    3    3    29   18   57   
1st     PAS Giannina                    26   6    5    2    27   19   10   1    2    37   17   54   
3rd     PAS Giannina                    26   9    4    0    33   13   7    0    6    22   17   52   
1st     PAS Giannina                    26   9    4    0    34   14   8    1    4    29   19   56   
1st     PAS Giannina                    26   9    4    0    37   19   9    2    2    32   16   60   
1st     PAS Giannina                    26   10   2    1    43   18   8    3    2    26   12   59   
1st     PAS Giannina                    26   10   3    0    32   10   6    5    2    27   19   56   
2nd     PAS Giannina                    26   8    2    3    35   16   9    2    2    28   18   55   
3rd     PAS Giannina                    26   7    5    1    42   25   5    4    4    22   24   45   
1st     PAS Giannina                    26   11   1    1    42   22   7    3    3    28   19   58   
2nd     PAS Giannina                    26   7    6    0    28   15   7    4    2    32   20   52   
1st     PAS Giannina                    26   11   1    1    38   12   7    3    3    27   13   58   
1st     PAS Giannina                    26   10   1    2    39   17   8    3    2    30   16   58   
1st     PAS Giannina                    26   10   1    2    35   17   9    3    1    32   14   61   
2nd     PAS Giannina                    26   10   1    2    39   19   8    2    3    37   20   57   
1st     PAS Giannina                    26   10   1    2    41   18   7    4    2    32   21   56   
1st     PAS Giannina                    26   11   2    0    39   13   9    1    3    34   15   63   
1st     PAS Giannina                    26   10   3    0    38   16   10   3    0    40   19   66   
1st     PAS Giannina                    26   9    2    2    36   21   9    0    4    33   17   56   
1st     PAS Giannina                    26   10   2    1    30   14   7    2    4    39   23   55   
2nd     PAS Giannina                    26   7    5    1    27   17   7    4    2    24   17   51   
1st     PAS Giannina                    26   10   1    2    35   19   6    3    4    31   20   52   
2nd     PAS Giannina                    26   8    4    1    30   15   7    2    4    24   20   51   
1st     PAS Giannina                    26   10   2    1    31   13   11   0    2    33   15   65   
1st     PAS Giannina                    26   8    2    3    27   17   11   2    0    33   12   61   
1st     PAS Giannina                    26   12   1    0    42   12   8    3    2    30   18   64   
1st     PAS Giannina                    26   13   0    0    42   14   11   1    1    35   13   73   
3rd     PAS Giannina                    26   10   1    2    36   15   6    3    4    31   28   52   
1st     PAS Giannina                    26   12   0    1    40   16   8    3    2    28   19   63   
1st     PAS Giannina                    26   10   3    0    36   13   8    5    0    28   9    62   
1st     PAS Giannina                    26   11   2    0    35   15   5    2    6    29   28   52   
1st     PAS Giannina                    26   11   1    1    40   18   9    2    2    35   20   63   
1st     PAS Giannina                    26   10   1    2    33   10   8    3    2    32   19   58   
2nd     PAS Giannina                    26   10   2    1    32   12   3    5    5    19   21   46   
1st     PAS Giannina                    26   13   0    0    44   14   8    2    3    25   12   65   
1st     PAS Giannina                    26   11   2    0    37   14   8    4    1    31   16   63   
2nd     PAS Giannina                    26   8    4    1    33   19   7    3    3    26   14   52   
2nd     PAS Giannina                    26   10   1    2    30   10   8    1    4    34   15   56   
1st     PAS Giannina                    26   11   2    0    46   19   7    5    1    25   13   61   
1st     PAS Giannina                    26   11   1    1    38   17   9    2    2    29   13   63   
1st     PAS Giannina                    26   12   1    0    43   15   9    2    2    35   21   66   
1st     PAS Giannina                    26   10   2    1    36   14   10   2    1    37   16   64   
1st     PAS Giannina                    26   10   2    1    36   12   11   0    2    34   18   65   
1st     PAS Giannina                    26   7    2    4    29   18   11   1    1    36   14   57   
1st     PAS Giannina                    26   11   0    2    36   16   4    6    3    25   17   51   
2nd     PAS Giannina                    26   8    1    4    28   19   9    0    4    31   18   52   
1st     PAS Giannina                    26   10   0    3    40   17   7    4    2    33   20   55   
1st     PAS Giannina                    26   8    4    1    21   9    10   0    3    34   18   58   
1st     PAS Giannina                    26   11   2    0    44   14   5    4    4    23   21   54   
1st     PAS Giannina                    26   10   2    1    34   17   7    4    2    24   16   57   
2nd     PAS Giannina                    26   10   2    1    32   16   8    2    3    32   18   58   
2nd     PAS Giannina                    26   8    4    1    33   12   7    4    2    22   15   53   