1st     PAS Giannina                    26   12   1    0    33   6    9    3    1    29   12   67   
1st     PAS Giannina                    26   11   2    0    33   8    9    3    1    19   7    65   
1st     PAS Giannina                    26   11   1    1    30   6    8    4    1    26   6    62   
1st     PAS Giannina                    26   12   1    0    40   9    9    0    4    28   12   64   
1st     PAS Giannina                    26   8    3    2    26   9    11   1    1    27   8    61   
2nd     PAS Giannina                    26   10   3    0    29   7    6    4    3    18   11   55   
1st     PAS Giannina                    26   12   0    1    29   13   5    6    2    22   10   57   
1st     PAS Giannina                    26   11   2    0    28   11   9    2    2    27   7    64   
1st     PAS Giannina                    26   11   2    0    34   6    6    4    3    18   13   57   
1st     PAS Giannina                    26   11   2    0    27   6    9    2    2    32   13   64   
2nd     PAS Giannina                    26   11   1    1    31   9    9    3    1    29   12   64   
1st     PAS Giannina                    26   10   2    1    31   8    10   1    2    25   11   63   
1st     PAS Giannina                    26   8    4    1    27   12   11   1    1    28   9    62   
1st     PAS Giannina                    26   11   1    1    32   6    8    2    3    28   13   60   
1st     PAS Giannina                    26   11   2    0    29   5    7    3    3    22   10   59   
1st     PAS Giannina                    26   9    3    1    32   14   7    4    2    24   13   55   
1st     PAS Giannina                    26   11   1    1    32   9    11   2    0    32   8    69   
1st     PAS Giannina                    26   9    4    0    27   10   9    3    1    22   10   61   
1st     PAS Giannina                    26   12   1    0    38   11   9    2    2    23   11   66   
2nd     PAS Giannina                    26   9    1    3    29   15   9    2    2    31   13   57   
1st     PAS Giannina                    26   8    3    2    29   8    7    4    2    24   12   52   
1st     PAS Giannina                    26   11   2    0    31   9    9    4    0    25   4    66   
1st     PAS Giannina                    26   11   2    0    38   9    8    2    3    23   11   61   
1st     PAS Giannina                    26   11   2    0    29   7    10   2    1    26   7    67   
1st     PAS Giannina                    26   12   1    0    28   5    10   2    1    25   8    69   
1st     PAS Giannina                    26   11   1    1    27   9    9    2    2    29   13   63   
1st     PAS Giannina                    26   11   1    1    28   7    8    2    3    26   19   60   
1st     PAS Giannina                    26   11   1    1    36   9    8    3    2    27   11   61   
1st     PAS Giannina                    26   12   1    0    31   8    10   2    1    28   9    69   
1st     PAS Giannina                    26   9    2    2    24   7    6    4    3    21   10   51   
1st     PAS Giannina                    26   10   3    0    31   9    11   1    1    25   9    67   
1st     PAS Giannina                    26   10   3    0    27   5    9    3    1    28   7    63   
1st     PAS Giannina                    26   12   0    1    28   6    9    2    2    19   8    65   
1st     PAS Giannina                    26   12   1    0    31   5    8    3    2    21   11   64   
1st     PAS Giannina                    26   9    2    2    25   13   9    4    0    28   9    60   
1st     PAS Giannina                    26   10   2    1    33   14   9    2    2    30   14   61   
1st     PAS Giannina                    26   9    3    1    23   6    10   1    2    36   12   61   
1st     PAS Giannina                    26   11   1    1    36   12   9    1    3    29   7    62   
1st     PAS Giannina                    26   9    3    1    26   11   12   1    0    31   8    67   
2nd     PAS Giannina                    26   7    3    3    23   10   7    3    3    20   13   48   
1st     PAS Giannina                    26   10   3    0    32   10   11   0    2    30   8    66   
1st     PAS Giannina                    26   11   2    0    32   7    7    4    2    24   11   60   
1st     PAS Giannina                    26   11   2    0    34   7    6    3    4    26   13   56   
1st     PAS Giannina                    26   10   3    0    22   6    8    4    1    25   10   61   
2nd     PAS Giannina                    26   10   2    1    28   7    5    3    5    16   14   50   
1st     PAS Giannina                    26   11   2    0    34   5    9    2    2    29   13   64   
1st     PAS Giannina                    26   12   1    0    31   7    8    2    3    24   11   63   
1st     PAS Giannina                    26   11   2    0    29   6    10   1    2    24   7    66   
1st     PAS Giannina                    26   11   1    1    27   7    7    3    3    18   10   58   
1st     PAS Giannina                    26   12   1    0    28   6    9    0    4    25   13   64   
1st     PAS Giannina                    26   10   2    1    25   10   6    6    1    24   15   56   
1st     PAS Giannina                    26   9    4    0    37   13   9    3    1    22   7    61   
3rd     PAS Giannina                    26   9    2    2    31   11   4    5    4    14   10   46   
1st     PAS Giannina                    26   9    4    0    30   8    9    2    2    28   15   60   
1st     PAS Giannina                    26   13   0    0    34   9    9    2    2    27   13   68   
1st     PAS Giannina                    26   12   1    0    32   7    10   2    1    24   9    69   
1st     PAS Giannina                    26   12   1    0    34   11   9    1    3    35   13   65   
1st     PAS Giannina                    26   11   2    0    33   5    8    3    2    22   11   62   
1st     PAS Giannina                    26   11   2    0    30   8    9    1    3    24   9    63   
1st     PAS Giannina                    26   9    1    3    25   14   11   0    2    34   10   61   
1st     PAS Giannina                    26   12   1    0    30   11   10   2    1    32   9    69   
1st     PAS Giannina                    26   10   2    1    27   12   9    1    3    24   12   60   
1st     PAS Giannina                    26   10   3    0    30   9    9    2    2    29   11   62   
2nd     PAS Giannina                    26   9    2    2    22   8    6    4    3    24   17   51   
1st     PAS Giannina                    26   10   1    2    29   10   9    3    1    26   12   61   
1st     PAS Giannina                    26   11   1    1    23   9    12   1    0    33   8    71   
1st     PAS Giannina                    26   12   0    1    33   8    9    3    1    28   11   66   
1st     PAS Giannina                    26   11   1    1    29   7    9    4    0    26   7    65   
1st     PAS Giannina                    26   9    3    1    36   11   9    1    3    31   16   58   
1st     PAS Giannina                    26   11   2    0    28   10   9    3    1    22   9    65   
1st     PAS Giannina                    26   12   1    0    33   11   9    4    0    24   9    68   
1st     PAS Giannina                    26   10   2    1    35   15   11   2    0    23   3    67   
1st     PAS Giannina                    26   7    5    1    26   12   10   1    2    27   10   57   
1st     PAS Giannina                    26   11   1    1    26   5    9    3    1    32   11   64   
1st     PAS Giannina                    26   10   2    1    31   12   10   2    1    33   12   64   
1st     PAS Giannina                    26   10   2    1    30   9    8    2    3    25   13   58   
1st     PAS Giannina                    26   10   2    1    33   11   6    5    2    28   14   55   
1st     PAS Giannina                    26   11   2    0    35   9    10   3    0    25   7    68   
1st     PAS Giannina                    26   11   1    1    33   10   8    2    3    25   13   60   
1st     PAS Giannina                    26   11   1    1    37   9    8    3    2    30   13   61   
1st     PAS Giannina                    26   10   1    2    31   11   8    3    2    23   10   58   
1st     PAS Giannina                    26   10   3    0    26   5    6    4    3    17   10   55   
1st     PAS Giannina                    26   12   1    0    33   10   7    4    2    22   11   62   
1st     PAS Giannina                    26   11   1    1    37   15   7    2    4    16   12   57   
2nd     PAS Giannina                    26   7    4    2    26   15   7    2    4    25   20   48   
1st     PAS Giannina                    26   12   1    0    35   6    9    2    2    25   12   66   
2nd     PAS Giannina                    26   9    1    3    31   13   7    3    3    21   15   52   
1st     PAS Giannina                    26   10   3    0    34   9    7    5    1    26   15   59   
1st     PAS Giannina                    26   11   2    0    34   9    9    2    2    26   11   64   
1st     PAS Giannina                    26   11   2    0    35   12   10   3    0    26   4    68   
1st     PAS Giannina                    26   11   2    0    28   8    6    5    2    20   13   58   
2nd     PAS Giannina                    26   8    3    2    24   11   8    2    3    23   12   53   
2nd     PAS Giannina                    26   13   0    0    37   5    5    4    4    22   16   58   
1st     PAS Giannina                    26   12   0    1    32   8    10   2    1    31   10   68   
1st     PAS Giannina                    26   10   3    0    27   5    9    3    1    31   11   63   
1st     PAS Giannina                    26   11   2    0    33   10   8    4    1    22   10   63   
1st     PAS Giannina                    26   13   0    0    37   6    9    3    1    30   7    69   
1st     PAS Giannina                    26   10   2    1    29   11   6    3    4    17   12   53   
1st     PAS Giannina                    26   8    2    3    20   6    9    3    1    30   8    56   
1st     PAS Giannina                    26   12   1    0    31   5    12   1    0    31   4    74   