1st     PAS Giannina                    26   10   3    0    32   11   9    2    2    34   13   62   
3rd     PAS Giannina                    26   6    6    1    29   16   5    3    5    19   23   42   
1st     PAS Giannina                    26   9    1    3    26   12   7    4    2    19   10   53   
1st     PAS Giannina                    26   10   1    2    31   14   5    3    5    25   17   49   
1st     PAS Giannina                    26   9    3    1    30   16   11   1    1    34   13   64   
1st     PAS Giannina                    26   8    3    2    18   9    9    2    2    33   14   56   
1st     PAS Giannina                    26   9    3    1    28   10   8    4    1    25   14   58   
1st     PAS Giannina                    26   12   1    0    36   7    7    2    4    23   18   60   
2nd     PAS Giannina                    26   8    4    1    32   19   7    3    3    22   14   52   
1st     PAS Giannina                    26   11   1    1    31   12   10   1    2    24   11   65   
1st     PAS Giannina                    26   12   0    1    37   14   9    4    0    23   7    67   
1st     PAS Giannina                    26   10   2    1    34   12   9    2    2    26   14   61   
2nd     PAS Giannina                    26   11   1    1    30   11   8    3    2    33   19   61   
2nd     PAS Giannina                    26   9    2    2    26   14   8    3    2    25   13   56   
2nd     PAS Giannina                    26   10   1    2    29   12   8    2    3    28   17   57   
2nd     PAS Giannina                    26   9    0    4    26   14   6    4    3    23   17   49   
1st     PAS Giannina                    26   10   2    1    32   17   7    1    5    24   22   54   
1st     PAS Giannina                    26   9    2    2    27   8    7    3    3    22   10   53   
1st     PAS Giannina                    26   9    1    3    29   16   7    1    5    19   16   50   
2nd     PAS Giannina                    26   6    6    1    30   18   8    0    5    26   12   48   
2nd     PAS Giannina                    26   8    4    1    23   12   7    2    4    24   21   51   
1st     PAS Giannina                    26   10   1    2    33   10   8    2    3    24   14   57   
1st     PAS Giannina                    26   8    3    2    27   15   9    2    2    28   13   56   
1st     PAS Giannina                    26   10   2    1    24   12   7    4    2    29   21   57   
2nd     PAS Giannina                    26   8    2    3    26   9    5    5    3    22   19   46   
2nd     PAS Giannina                    26   11   1    1    33   11   5    1    7    21   24   50   
2nd     PAS Giannina                    26   11   2    0    39   12   4    4    5    24   20   51   
1st     PAS Giannina                    26   10   2    1    32   15   7    5    1    25   13   58   
1st     PAS Giannina                    26   12   1    0    39   14   5    5    3    20   14   57   
2nd     PAS Giannina                    26   9    2    2    39   19   8    3    2    22   11   56   
3rd     PAS Giannina                    26   8    4    1    25   13   6    3    4    24   24   49   
7th     PAS Giannina                    26   7    2    4    26   19   3    4    6    17   22   36   
2nd     PAS Giannina                    26   8    4    1    28   16   5    5    3    21   16   48   
1st     PAS Giannina                    26   8    1    4    27   16   10   1    2    31   15   56   
1st     PAS Giannina                    26   10   1    2    29   14   8    0    5    29   17   55   
1st     PAS Giannina                    26   10   1    2    26   12   9    3    1    26   12   61   
1st     PAS Giannina                    26   12   1    0    32   9    6    1    6    20   19   56   
2nd     PAS Giannina                    26   9    2    2    28   14   6    3    4    21   14   50   
1st     PAS Giannina                    26   10   1    2    31   14   8    3    2    27   17   58   
1st     PAS Giannina                    26   11   1    1    39   16   8    2    3    25   26   60   
2nd     PAS Giannina                    26   9    3    1    31   14   5    4    4    21   16   49   
2nd     PAS Giannina                    26   9    2    2    28   11   7    3    3    19   9    53   
1st     PAS Giannina                    26   12   1    0    28   7    8    3    2    24   10   64   
2nd     PAS Giannina                    26   9    4    0    32   14   5    3    5    18   14   49   
2nd     PAS Giannina                    26   7    4    2    24   12   5    4    4    29   20   44   
4th     PAS Giannina                    26   7    4    2    25   15   6    2    5    19   17   45   
1st     PAS Giannina                    26   9    2    2    41   18   9    2    2    25   11   58   
1st     PAS Giannina                    26   9    2    2    25   16   12   1    0    33   9    66   
2nd     PAS Giannina                    26   10   2    1    30   11   6    3    4    21   14   53   
1st     PAS Giannina                    26   12   1    0    30   5    7    4    2    31   18   62   
2nd     PAS Giannina                    26   8    3    2    29   16   5    5    3    22   17   47   
3rd     PAS Giannina                    26   8    3    2    27   14   5    3    5    19   15   45   
1st     PAS Giannina                    26   12   0    1    24   10   6    5    2    25   19   59   
1st     PAS Giannina                    26   10   1    2    23   13   7    2    4    23   17   54   
4th     PAS Giannina                    26   8    2    3    29   16   4    4    5    16   19   42   
1st     PAS Giannina                    26   11   0    2    33   14   9    2    2    36   14   62   
1st     PAS Giannina                    26   7    3    3    22   14   11   0    2    27   13   57   
1st     PAS Giannina                    26   9    3    1    30   14   6    5    2    25   17   53   
1st     PAS Giannina                    26   8    2    3    26   13   7    2    4    27   18   49   
1st     PAS Giannina                    26   10   3    0    30   13   9    3    1    26   11   63   
1st     PAS Giannina                    26   8    2    3    25   11   9    1    3    27   16   54   
1st     PAS Giannina                    26   12   1    0    35   10   5    3    5    22   23   55   
1st     PAS Giannina                    26   11   2    0    33   9    6    5    2    32   19   58   
2nd     PAS Giannina                    26   8    3    2    31   16   6    3    4    27   17   48   
1st     PAS Giannina                    26   11   1    1    31   10   8    2    3    26   12   60   
2nd     PAS Giannina                    26   10   1    2    25   11   3    7    3    18   18   47   
1st     PAS Giannina                    26   10   2    1    33   11   7    4    2    21   14   57   
2nd     PAS Giannina                    26   8    4    1    24   11   8    1    4    22   13   53   
1st     PAS Giannina                    26   12   0    1    36   9    6    4    3    19   15   58   
3rd     PAS Giannina                    26   6    5    2    30   22   6    3    4    14   10   44   
2nd     PAS Giannina                    26   9    2    2    23   14   7    2    4    22   12   52   
1st     PAS Giannina                    26   8    4    1    25   11   7    5    1    26   15   54   
2nd     PAS Giannina                    26   9    2    2    30   11   6    1    6    17   15   48   
1st     PAS Giannina                    26   9    2    2    23   14   6    4    3    18   12   51   
7th     PAS Giannina                    26   4    5    4    22   19   4    5    4    19   19   34   
1st     PAS Giannina                    26   9    2    2    38   16   6    4    3    27   18   51   
1st     PAS Giannina                    26   9    2    2    23   9    8    2    3    15   6    55   
5th     PAS Giannina                    26   6    4    3    21   14   5    2    6    19   16   39   
2nd     PAS Giannina                    26   9    2    2    30   16   9    2    2    32   14   58   
1st     PAS Giannina                    26   11   2    0    34   16   10   3    0    29   10   68   
1st     PAS Giannina                    26   11   1    1    26   10   5    5    3    21   15   54   
1st     PAS Giannina                    26   9    2    2    24   10   11   1    1    34   7    63   
2nd     PAS Giannina                    26   12   1    0    31   10   7    2    4    24   18   60   
1st     PAS Giannina                    26   10   3    0    32   10   7    6    0    27   13   60   
1st     PAS Giannina                    26   12   0    1    34   11   8    4    1    26   13   64   
1st     PAS Giannina                    26   6    5    2    26   18   8    4    1    30   15   51   
2nd     PAS Giannina                    26   12   0    1    31   10   5    1    7    20   19   52   
1st     PAS Giannina                    26   9    3    1    25   13   9    2    2    25   15   59   
1st     PAS Giannina                    26   9    3    1    31   15   5    5    3    28   18   50   
1st     PAS Giannina                    26   9    4    0    29   12   7    4    2    24   13   56   
2nd     PAS Giannina                    26   9    2    2    29   14   5    3    5    19   21   47   
3rd     PAS Giannina                    26   8    3    2    30   17   4    4    5    18   18   43   
1st     PAS Giannina                    26   8    3    2    26   12   10   2    1    23   7    59   
5th     PAS Giannina                    26   8    0    5    26   17   5    3    5    23   18   42   
2nd     PAS Giannina                    26   8    3    2    28   14   8    1    4    28   20   52   
1st     PAS Giannina                    26   9    2    2    24   7    6    6    1    21   14   53   
2nd     PAS Giannina                    26   8    1    4    37   26   7    1    5    25   18   47   
1st     PAS Giannina                    26   11   1    1    31   13   6    4    3    26   20   56   
3rd     PAS Giannina                    26   7    4    2    26   17   6    3    4    20   18   46   
1st     PAS Giannina                    26   11   2    0    29   14   10   1    2    20   10   66   