2nd     PAS Giannina                    26   9    3    1    28   11   6    3    4    25   23   51
2nd     PAS Giannina                    26   11   2    0    27   12   5    5    3    18   13   55
2nd     PAS Giannina                    26   10   2    1    27   12   6    3    4    20   15   53
5th     PAS Giannina                    26   6    5    2    24   16   4    2    7    14   17   37
2nd     PAS Giannina                    26   9    1    3    29   14   6    1    6    20   15   47
2nd     PAS Giannina                    26   11   2    0    34   14   4    5    4    17   18   52
3rd     PAS Giannina                    26   6    6    1    31   17   5    4    4    19   20   43
1st     PAS Giannina                    26   10   2    1    38   17   5    3    5    22   20   50
3rd     PAS Giannina                    26   8    4    1    30   15   5    3    5    19   21   46
1st     PAS Giannina                    26   10   2    1    33   13   6    3    4    19   14   53
6th     PAS Giannina                    26   7    1    5    24   20   4    2    7    18   22   36
1st     PAS Giannina                    26   11   1    1    36   15   4    5    4    15   16   51
2nd     PAS Giannina                    26   9    1    3    28   13   5    1    7    16   22   44
1st     PAS Giannina                    26   8    3    2    27   14   7    4    2    22   13   52
3rd     PAS Giannina                    26   10   0    3    26   11   3    6    4    17   19   45
2nd     PAS Giannina                    26   10   2    1    36   13   6    3    4    25   18   53
2nd     PAS Giannina                    26   8    3    2    25   16   7    2    4    20   17   50
1st     PAS Giannina                    26   10   3    0    33   11   6    3    4    23   18   54
11th    PAS Giannina                    26   4    2    7    19   18   3    4    6    18   20   27
1st     PAS Giannina                    26   11   1    1    35   16   6    2    5    23   23   54
4th     PAS Giannina                    26   9    3    1    25   12   3    5    5    15   16   44
1st     PAS Giannina                    26   10   2    1    30   16   8    1    4    26   15   57
2nd     PAS Giannina                    26   10   3    0    32   14   6    4    3    21   14   55
9th     PAS Giannina                    26   6    4    3    27   16   3    3    7    20   22   34
9th     PAS Giannina                    26   6    1    6    26   22   4    2    7    13   18   33
3rd     PAS Giannina                    26   10   3    0    42   13   0    8    5    20   27   41
2nd     PAS Giannina                    26   8    1    4    26   14   7    1    5    19   13   47
1st     PAS Giannina                    26   12   1    0    42   15   4    5    4    20   21   54
1st     PAS Giannina                    26   8    3    2    33   20   7    3    3    21   19   51
2nd     PAS Giannina                    26   7    2    4    24   15   7    1    5    23   24   45
1st     PAS Giannina                    26   9    2    2    33   17   6    3    4    23   17   50
5th     PAS Giannina                    26   7    6    0    31   16   3    4    6    17   22   40
2nd     PAS Giannina                    26   8    3    2    33   15   6    3    4    19   19   48
10th    PAS Giannina                    26   6    5    2    25   16   2    3    8    15   24   32
4th     PAS Giannina                    26   9    2    2    34   16   4    2    7    17   20   43
1st     PAS Giannina                    26   10   2    1    29   17   10   2    1    30   14   64
1st     PAS Giannina                    26   10   0    3    34   14   7    2    4    28   19   53
1st     PAS Giannina                    26   9    1    3    35   22   7    3    3    25   18   52
1st     PAS Giannina                    26   12   1    0    37   10   7    1    5    21   18   59
3rd     PAS Giannina                    26   9    4    0    34   17   5    3    5    18   18   49
1st     PAS Giannina                    26   11   0    2    32   17   6    2    5    22   21   53
2nd     PAS Giannina                    26   9    3    1    36   21   7    3    3    22   16   54
10th    PAS Giannina                    26   3    5    5    17   17   5    4    4    14   15   33
4th     PAS Giannina                    26   8    3    2    28   18   3    3    7    17   23   39
3rd     PAS Giannina                    26   7    3    3    34   22   7    2    4    20   16   47
1st     PAS Giannina                    26   9    2    2    31   14   7    4    2    21   13   54
5th     PAS Giannina                    26   9    2    2    30   13   2    6    5    17   19   41
2nd     PAS Giannina                    26   8    3    2    30   17   9    2    2    25   15   56
6th     PAS Giannina                    26   7    2    4    27   17   4    6    3    21   20   41
4th     PAS Giannina                    26   7    2    4    28   23   5    4    4    23   18   42
1st     PAS Giannina                    26   10   3    0    42   13   7    2    4    31   21   56
3rd     PAS Giannina                    26   8    3    2    28   16   5    1    7    22   24   43
8th     PAS Giannina                    26   8    2    3    34   20   2    2    9    18   30   34
3rd     PAS Giannina                    26   7    2    4    29   23   6    2    5    21   20   43
3rd     PAS Giannina                    26   11   1    1    32   16   2    6    5    16   21   46
3rd     PAS Giannina                    26   9    3    1    28   13   2    8    3    20   22   44
2nd     PAS Giannina                    26   10   1    2    26   10   5    3    5    25   23   49
2nd     PAS Giannina                    26   8    1    4    28   20   7    2    4    22   19   48
1st     PAS Giannina                    26   9    2    2    32   14   8    3    2    23   15   56
2nd     PAS Giannina                    26   10   1    2    34   20   5    2    6    20   22   48
4th     PAS Giannina                    26   8    1    4    27   19   5    3    5    23   25   43
1st     PAS Giannina                    26   9    4    0    33   19   6    2    5    23   20   51
1st     PAS Giannina                    26   9    2    2    33   20   7    4    2    23   16   54
2nd     PAS Giannina                    26   9    2    2    22   11   5    4    4    22   16   48
4th     PAS Giannina                    26   8    3    2    34   20   5    3    5    19   22   45
6th     PAS Giannina                    26   7    2    4    24   14   4    4    5    19   19   39
6th     PAS Giannina                    26   6    4    3    23   17   6    2    5    23   16   42
3rd     PAS Giannina                    26   8    2    3    31   18   6    3    4    21   18   47
3rd     PAS Giannina                    26   12   1    0    35   11   3    5    5    19   24   51
2nd     PAS Giannina                    26   10   1    2    29   10   5    1    7    19   22   47
4th     PAS Giannina                    26   7    4    2    27   16   6    2    5    23   22   45
3rd     PAS Giannina                    26   11   1    1    37   15   3    3    7    16   25   46
5th     PAS Giannina                    26   7    5    1    35   18   2    5    6    13   19   37
1st     PAS Giannina                    26   9    4    0    28   13   6    1    6    20   24   50
5th     PAS Giannina                    26   7    1    5    31   21   6    1    6    19   17   41
1st     PAS Giannina                    26   11   1    1    37   16   6    2    5    26   23   54
1st     PAS Giannina                    26   11   2    0    35   13   9    2    2    25   13   64
2nd     PAS Giannina                    26   7    5    1    29   21   6    6    1    20   16   50
9th     PAS Giannina                    26   5    2    6    24   21   4    4    5    17   18   33
10th    PAS Giannina                    26   5    3    5    24   24   4    2    7    17   21   32
5th     PAS Giannina                    26   7    3    3    30   23   6    2    5    21   18   44
2nd     PAS Giannina                    26   8    2    3    29   18   8    1    4    22   14   51
2nd     PAS Giannina                    26   8    3    2    30   22   5    3    5    20   18   45
6th     PAS Giannina                    26   8    3    2    33   18   3    4    6    20   26   40
2nd     PAS Giannina                    26   10   2    1    35   21   5    3    5    22   16   50
1st     PAS Giannina                    26   8    3    2    24   10   8    1    4    22   17   52
2nd     PAS Giannina                    26   8    1    4    31   22   6    3    4    23   19   46
2nd     PAS Giannina                    26   10   1    2    35   17   1    6    6    12   21   40
5th     PAS Giannina                    26   6    7    0    25   14   4    2    7    21   25   39
4th     PAS Giannina                    26   6    4    3    23   16   5    3    5    16   17   40
7th     PAS Giannina                    26   7    1    5    23   15   4    2    7    17   19   36
2nd     PAS Giannina                    26   11   2    0    40   8    4    5    4    23   24   52
9th     PAS Giannina                    26   6    6    1    24   16   3    1    9    15   29   34
2nd     PAS Giannina                    26   10   2    1    37   17   3    6    4    18   19   47
3rd     PAS Giannina                    26   9    1    3    37   15   6    4    3    29   24   50
2nd     PAS Giannina                    26   7    4    2    32   19   7    3    3    28   20   49
3rd     PAS Giannina                    26   8    3    2    28   16   5    5    3    23   20   47
3rd     PAS Giannina                    26   10   2    1    33   19   3    6    4    18   17   47
3rd     PAS Giannina                    26   10   3    0    30   12   4    2    7    20   24   47
5th     PAS Giannina                    26   6    4    3    20   17   6    1    6    20   21   41