1st     PAS Giannina                    26   11   2    0    33   5    9    3    1    27   13   65   
1st     PAS Giannina                    26   11   0    2    38   13   10   3    0    31   10   66   
1st     PAS Giannina                    26   13   0    0    35   14   9    1    3    22   14   67   
1st     PAS Giannina                    26   11   1    1    38   18   6    5    2    26   17   57   
1st     PAS Giannina                    26   11   2    0    34   9    11   2    0    28   5    70   
1st     PAS Giannina                    26   12   1    0    32   8    10   2    1    38   12   69   
1st     PAS Giannina                    26   9    3    1    38   16   8    3    2    28   9    57   
1st     PAS Giannina                    26   9    4    0    28   10   11   2    0    37   15   66   
1st     PAS Giannina                    26   11   0    2    40   13   7    3    3    23   12   57   
1st     PAS Giannina                    26   13   0    0    39   7    8    1    4    30   19   64   
1st     PAS Giannina                    26   13   0    0    34   8    8    1    4    25   19   64   
1st     PAS Giannina                    26   11   0    2    36   13   6    4    3    20   9    55   
1st     PAS Giannina                    26   10   3    0    41   16   12   0    1    31   8    69   
1st     PAS Giannina                    26   11   2    0    31   12   11   2    0    28   7    70   
1st     PAS Giannina                    26   9    2    2    26   10   9    1    3    31   14   57   
1st     PAS Giannina                    26   9    1    3    30   14   10   1    2    30   13   59   
1st     PAS Giannina                    26   10   2    1    32   12   9    0    4    27   13   59   
1st     PAS Giannina                    26   13   0    0    39   13   7    4    2    27   17   64   
1st     PAS Giannina                    26   11   1    1    35   11   9    1    3    24   12   62   
1st     PAS Giannina                    26   10   1    2    29   13   9    2    2    28   11   60   
1st     PAS Giannina                    26   9    0    4    31   16   11   0    2    33   9    60   
1st     PAS Giannina                    26   9    2    2    41   15   10   1    2    26   9    60   
1st     PAS Giannina                    26   11   2    0    30   11   9    3    1    29   6    65   
2nd     PAS Giannina                    26   10   2    1    37   14   6    4    3    29   16   54   
1st     PAS Giannina                    26   13   0    0    30   8    8    3    2    23   12   66   
1st     PAS Giannina                    26   10   3    0    37   14   7    4    2    22   11   58   
1st     PAS Giannina                    26   10   2    1    35   12   11   2    0    29   7    67   
1st     PAS Giannina                    26   10   1    2    32   10   10   3    0    27   11   64   
1st     PAS Giannina                    26   10   2    1    25   7    12   0    1    35   4    68   
1st     PAS Giannina                    26   12   0    1    35   11   11   1    1    32   11   70   
1st     PAS Giannina                    26   7    4    2    25   8    9    2    2    33   13   54   
1st     PAS Giannina                    26   10   3    0    32   11   5    5    3    21   17   53   
1st     PAS Giannina                    26   11   1    1    34   9    9    1    3    24   16   62   
1st     PAS Giannina                    26   11   2    0    36   14   8    5    0    29   12   64   
1st     PAS Giannina                    26   13   0    0    32   11   11   0    2    23   9    72   
2nd     PAS Giannina                    26   9    1    3    33   13   9    2    2    31   17   57   
1st     PAS Giannina                    26   12   1    0    41   8    9    3    1    25   13   67   
1st     PAS Giannina                    26   12   1    0    36   10   11   2    0    38   9    72   
1st     PAS Giannina                    26   8    4    1    24   8    8    3    2    26   12   55   
1st     PAS Giannina                    26   13   0    0    38   7    12   1    0    27   5    76   
1st     PAS Giannina                    26   11   1    1    34   12   9    3    1    33   15   64   
1st     PAS Giannina                    26   11   2    0    36   13   7    4    2    24   15   60   
1st     PAS Giannina                    26   11   2    0    31   14   9    0    4    26   12   62   
1st     PAS Giannina                    26   10   3    0    35   13   8    4    1    33   10   61   
1st     PAS Giannina                    26   13   0    0    34   7    9    4    0    22   8    70   
1st     PAS Giannina                    26   12   1    0    41   15   9    3    1    30   12   67   
1st     PAS Giannina                    26   11   2    0    34   8    8    1    4    23   18   60   
1st     PAS Giannina                    26   11   1    1    31   11   8    1    4    30   12   59   
1st     PAS Giannina                    26   11   1    1    31   9    11   2    0    38   10   69   
2nd     PAS Giannina                    26   11   2    0    37   7    7    3    3    28   18   59   
1st     PAS Giannina                    26   10   2    1    32   13   9    3    1    32   11   62   
2nd     PAS Giannina                    26   9    3    1    32   12   9    3    1    28   10   60   
1st     PAS Giannina                    26   12   0    1    30   5    8    1    4    34   15   61   
1st     PAS Giannina                    26   10   2    1    34   7    9    2    2    33   11   61   
1st     PAS Giannina                    26   11   1    1    28   9    10   2    1    32   11   66   
1st     PAS Giannina                    26   13   0    0    39   10   10   1    2    28   10   70   
1st     PAS Giannina                    26   9    3    1    34   17   12   1    0    31   6    67   
1st     PAS Giannina                    26   9    4    0    30   11   8    5    0    31   12   60   
2nd     PAS Giannina                    26   11   2    0    29   10   7    4    2    28   11   60   
1st     PAS Giannina                    26   10   2    1    31   10   8    2    3    24   10   58   
1st     PAS Giannina                    26   12   1    0    32   6    11   1    1    25   8    71   
1st     PAS Giannina                    26   10   2    1    31   17   7    4    2    28   16   57   
1st     PAS Giannina                    26   13   0    0    41   14   7    4    2    26   14   64   
1st     PAS Giannina                    26   11   1    1    38   12   9    2    2    25   11   63   
1st     PAS Giannina                    26   11   2    0    38   10   12   1    0    25   5    72   
1st     PAS Giannina                    26   12   1    0    37   7    9    2    2    27   11   66   
1st     PAS Giannina                    26   12   1    0    34   13   9    3    1    33   13   67   
1st     PAS Giannina                    26   11   1    1    36   16   11   1    1    34   12   68   
1st     PAS Giannina                    26   10   1    2    33   11   10   3    0    32   9    64   
1st     PAS Giannina                    26   8    4    1    31   12   9    2    2    23   9    57   
1st     PAS Giannina                    26   10   1    2    34   12   10   2    1    29   9    63   
1st     PAS Giannina                    26   12   1    0    39   12   7    2    4    20   17   60   
1st     PAS Giannina                    26   10   1    2    31   14   10   2    1    33   8    63   
1st     PAS Giannina                    26   8    4    1    27   13   10   2    1    33   12   60   
2nd     PAS Giannina                    26   9    3    1    29   15   9    1    3    25   11   58   
1st     PAS Giannina                    26   13   0    0    34   12   10   1    2    32   10   70   
1st     PAS Giannina                    26   10   2    1    29   6    8    2    3    30   13   58   
1st     PAS Giannina                    26   10   3    0    35   11   13   0    0    39   10   72   
1st     PAS Giannina                    26   11   1    1    31   13   8    2    3    21   15   60   
1st     PAS Giannina                    26   11   1    1    28   7    9    1    3    26   9    62   
1st     PAS Giannina                    26   12   0    1    29   8    7    3    3    16   11   60   
1st     PAS Giannina                    26   7    3    3    33   14   11   0    2    30   11   57   
1st     PAS Giannina                    26   10   2    1    31   11   8    4    1    28   12   60   
1st     PAS Giannina                    26   11   2    0    34   11   13   0    0    34   15   74   
1st     PAS Giannina                    26   10   0    3    36   11   6    5    2    27   15   53   
1st     PAS Giannina                    26   11   0    2    35   11   10   2    1    28   13   65   
1st     PAS Giannina                    26   10   2    1    27   5    11   1    1    27   6    66   
1st     PAS Giannina                    26   9    4    0    31   11   8    2    3    29   14   57   
1st     PAS Giannina                    26   11   1    1    33   12   8    2    3    23   12   60   
1st     PAS Giannina                    26   13   0    0    35   12   8    1    4    26   14   64   
1st     PAS Giannina                    26   8    4    1    23   11   11   1    1    31   8    62   
1st     PAS Giannina                    26   11   2    0    37   14   10   1    2    26   8    66   
1st     PAS Giannina                    26   11   1    1    40   12   10   1    2    37   12   65   
1st     PAS Giannina                    26   12   1    0    38   7    9    4    0    29   9    68   
1st     PAS Giannina                    26   9    1    3    29   11   7    3    3    26   12   52   
1st     PAS Giannina                    26   11   0    2    33   14   9    3    1    36   16   63   
1st     PAS Giannina                    26   12   1    0    39   6    6    3    4    23   15   58   
1st     PAS Giannina                    26   7    3    3    24   17   8    2    3    28   11   50   
1st     PAS Giannina                    26   10   2    1    27   12   12   1    0    39   9    69   
1st     PAS Giannina                    26   10   3    0    38   14   8    0    5    23   11   57   