4th     PAS Giannina                    26   9    1    3    30   15   4    2    7    18   19   42
3rd     PAS Giannina                    26   7    5    1    25   16   6    4    3    17   15   48
8th     PAS Giannina                    26   5    5    3    22   18   3    5    5    15   18   34
4th     PAS Giannina                    26   9    1    3    31   13   3    3    7    15   21   40
1st      PAS Giannina                    26   12   1    0    33   7    7    1    5    18   13   59
7th     PAS Giannina                    26   6    4    3    18   12   2    6    5    17   21   34
4th     PAS Giannina                    26   8    5    0    24   13   4    3    6    15   24   44
3rd     PAS Giannina                    26   10   2    1    30   10   4    4    5    11   19   48
2nd     PAS Giannina                    26   5    7    1    26   15   7    3    3    19   16   46
1st      PAS Giannina                    26   12   1    0    34   13   6    2    5    17   14   57
7th     PAS Giannina                    26   7    4    2    27   18   2    3    8    8    19   34
2nd     PAS Giannina                    26   8    3    2    29   17   5    5    3    20   16   47
3rd     PAS Giannina                    26   11   0    2    21   10   4    5    4    15   16   50
1st      PAS Giannina                    26   8    3    2    27   15   8    0    5    23   18   51
3rd     PAS Giannina                    26   8    4    1    27   17   5    3    5    15   15   46
3rd     PAS Giannina                    26   9    3    1    25   11   6    2    5    19   18   50
5th     PAS Giannina                    26   8    1    4    31   19   4    4    5    17   24   41
6th     PAS Giannina                    26   8    3    2    29   17   3    2    8    13   21   38
10th    PAS Giannina                    26   6    4    3    23   16   3    3    7    10   17   34
3rd     PAS Giannina                    26   8    3    2    25   14   5    3    5    10   11   45
1st      PAS Giannina                    26   10   2    1    32   14   6    5    2    22   14   55
4th     PAS Giannina                    26   8    3    2    29   15   4    2    7    14   24   41
2nd     PAS Giannina                    26   7    4    2    29   17   7    4    2    18   14   50
9th     PAS Giannina                    26   5    4    4    20   19   4    2    7    15   19   33
7th     PAS Giannina                    26   6    3    4    22   17   2    6    5    12   19   33
2nd     PAS Giannina                    26   7    3    3    19   14   6    2    5    21   20   44
3rd     PAS Giannina                    26   8    2    3    25   10   6    2    5    19   16   46
1st      PAS Giannina                    26   7    5    1    25   15   9    1    3    20   12   54
1st      PAS Giannina                    26   8    2    3    31   17   7    3    3    20   19   50
2nd     PAS Giannina                    26   6    5    2    18   12   6    5    2    17   9    46
4th     PAS Giannina                    26   9    3    1    23   10   2    4    7    12   17   40
4th     PAS Giannina                    26   11   0    2    26   10   2    6    5    13   14   45
3rd     PAS Giannina                    26   5    6    2    17   13   5    1    7    15   15   37
4th     PAS Giannina                    26   9    1    3    31   19   3    3    7    20   22   40
3rd     PAS Giannina                    26   10   1    2    22   10   6    1    6    19   20   50
1st      PAS Giannina                    26   11   2    0    30   12   7    2    4    21   16   58
2nd     PAS Giannina                    26   7    2    4    22   18   6    5    2    21   13   46
1st      PAS Giannina                    26   11   2    0    34   13   9    2    2    23   12   64
3rd     PAS Giannina                    26   7    3    3    23   17   3    4    6    18   28   37
2nd     PAS Giannina                    26   10   2    1    31   15   6    4    3    17   14   54
1st      PAS Giannina                    26   8    1    4    27   18   8    0    5    22   12   49
2nd     PAS Giannina                    26   9    4    0    24   8    3    5    5    15   18   45
1st      PAS Giannina                    26   8    4    1    23   13   4    3    6    17   17   43
2nd     PAS Giannina                    26   11   2    0    27   12   5    6    2    20   10   56
3rd     PAS Giannina                    26   7    3    3    25   18   6    5    2    19   15   47
8th     PAS Giannina                    26   7    2    4    23   15   3    3    7    14   18   35
3rd     PAS Giannina                    26   8    2    3    27   18   5    3    5    16   13   44
4th     PAS Giannina                    26   10   1    2    23   8    3    3    7    9    17   43
2nd     PAS Giannina                    26   10   2    1    30   13   7    1    5    20   19   54
3rd     PAS Giannina                    26   7    6    0    27   12   6    1    6    15   13   46
2nd     PAS Giannina                    26   6    3    4    18   12   8    2    3    18   11   47
11th    PAS Giannina                    26   7    0    6    23   20   2    6    5    12   17   33
2nd     PAS Giannina                    26   9    1    3    26   12   4    5    4    16   17   45
2nd     PAS Giannina                    26   11   2    0    32   11   4    4    5    16   16   51
9th     PAS Giannina                    26   5    5    3    15   16   3    3    7    18   20   32
2nd     PAS Giannina                    26   10   1    2    27   12   3    5    5    16   18   45
3rd     PAS Giannina                    26   7    3    3    25   13   6    2    5    20   17   44
1st      PAS Giannina                    26   10   2    1    29   12   6    4    3    19   11   54
2nd     PAS Giannina                    26   11   0    2    27   7    3    4    6    14   19   46
8th     PAS Giannina                    26   7    1    5    23   16   2    4    7    15   20   32
3rd     PAS Giannina                    26   7    3    3    22   16   6    4    3    20   18   46
2nd     PAS Giannina                    26   8    2    3    22   12   9    2    2    22   15   55
3rd     PAS Giannina                    26   9    2    2    24   14   3    4    6    11   13   42
9th     PAS Giannina                    26   5    6    2    24   17   3    4    6    19   24   34
6th     PAS Giannina                    26   4    5    4    19   15   5    5    3    18   14   37
4th     PAS Giannina                    26   8    4    1    25   12   4    3    6    12   15   43
3rd     PAS Giannina                    26   10   3    0    32   13   2    4    7    11   19   43
7th     PAS Giannina                    26   8    4    1    20   9    2    3    8    17   24   37
2nd     PAS Giannina                    26   11   2    0    33   12   6    2    5    23   22   55
6th     PAS Giannina                    26   7    3    3    25   19   3    5    5    15   16   38
2nd     PAS Giannina                    26   9    3    1    25   11   5    4    4    19   23   49
3rd     PAS Giannina                    26   8    3    2    22   12   4    4    5    19   22   43
3rd     PAS Giannina                    26   10   2    1    29   16   2    4    7    12   16   42
8th     PAS Giannina                    26   6    3    4    20   18   2    6    5    16   22   33
5th     PAS Giannina                    26   8    3    2    29   18   2    7    4    19   20   40
5th     PAS Giannina                    26   6    3    4    20   13   5    3    5    12   12   39
5th     PAS Giannina                    26   7    1    5    22   15   5    4    4    21   20   41
3rd     PAS Giannina                    26   10   2    1    29   12   2    7    4    17   22   45
1st      PAS Giannina                    26   8    4    1    29   13   6    4    3    19   14   50
2nd     PAS Giannina                    26   11   1    1    29   11   4    6    3    20   16   52
9th     PAS Giannina                    26   6    3    4    23   18   2    7    4    11   13   34
4th     PAS Giannina                    26   6    3    4    23   17   4    6    3    22   20   39
3rd     PAS Giannina                    26   11   1    1    27   12   5    2    6    14   16   51
6th     PAS Giannina                    26   8    3    2    24   15   1    5    7    11   18   35
4th     PAS Giannina                    26   9    3    1    28   15   4    3    6    17   20   45
3rd     PAS Giannina                    26   9    0    4    25   16   4    5    4    15   19   44
5th     PAS Giannina                    26   7    3    3    24   13   4    2    7    19   23   38
7th     PAS Giannina                    26   9    2    2    31   13   1    4    8    15   21   36
4th     PAS Giannina                    26   8    3    2    23   14   3    8    2    19   16   44
1st      PAS Giannina                    26   7    4    2    16   8    6    3    4    17   16   46
6th     PAS Giannina                    26   7    5    1    25   11   2    3    8    12   26   35
3rd     PAS Giannina                    26   8    4    1    25   14   5    3    5    15   13   46
7th     PAS Giannina                    26   6    4    3    20   17   3    4    6    16   19   35
2nd     PAS Giannina                    26   9    1    3    24   14   5    3    5    17   20   46
2nd     PAS Giannina                    26   8    4    1    25   11   6    3    4    19   16   49
4th     PAS Giannina                    26   7    3    3    22   11   6    1    6    20   21   43
4th     PAS Giannina                    26   8    1    4    26   12   4    5    4    17   17   42
6th     PAS Giannina                    26   5    3    5    16   14   4    5    4    20   23   35
3rd     PAS Giannina                    26   8    5    0    24   9    4    3    6    19   17   44
3rd     PAS Giannina                    26   7    4    2    26   15   4    4    5    12   13   41