1st     PAS Giannina                    26   11   1    1    39   13   9    1    3    28   15   62   
1st     PAS Giannina                    26   11   2    0    38   12   10   2    1    36   13   67   
1st     PAS Giannina                    26   9    4    0    33   10   8    3    2    27   15   58   
1st     PAS Giannina                    26   13   0    0    39   12   10   2    1    38   12   71   
1st     PAS Giannina                    26   11   2    0    42   13   10   1    2    31   10   66   
1st     PAS Giannina                    26   10   2    1    36   11   11   2    0    38   11   67   
1st     PAS Giannina                    26   11   1    1    38   15   9    2    2    38   21   63   
1st     PAS Giannina                    26   11   1    1    35   15   11   1    1    34   10   68   
1st     PAS Giannina                    26   12   1    0    37   8    10   3    0    36   4    70   
1st     PAS Giannina                    26   11   0    2    35   10   9    1    3    34   16   61   
1st     PAS Giannina                    26   12   1    0    38   10   9    3    1    33   15   67   
1st     PAS Giannina                    26   13   0    0    45   11   10   1    2    30   14   70   
1st     PAS Giannina                    26   12   1    0    42   13   11   2    0    31   11   72   
1st     PAS Giannina                    26   13   0    0    44   11   10   3    0    34   11   72   
1st     PAS Giannina                    26   11   2    0    38   9    9    2    2    30   16   64   
1st     PAS Giannina                    26   12   0    1    42   11   8    3    2    33   16   63   
2nd     PAS Giannina                    26   9    1    3    39   20   9    1    3    27   13   56   
1st     PAS Giannina                    26   13   0    0    39   13   11   1    1    27   6    73   
1st     PAS Giannina                    26   13   0    0    41   11   7    2    4    24   16   62   
1st     PAS Giannina                    26   10   3    0    41   11   10   1    2    25   14   64   
1st     PAS Giannina                    26   13   0    0    44   11   11   0    2    29   10   72   
1st     PAS Giannina                    26   12   1    0    54   12   10   1    2    28   8    68   
1st     PAS Giannina                    26   12   1    0    37   9    12   1    0    37   12   74   
1st     PAS Giannina                    26   10   1    2    36   10   9    3    1    34   13   61   
1st     PAS Giannina                    26   11   1    1    33   12   9    3    1    34   13   64   
1st     PAS Giannina                    26   11   1    1    47   16   10   3    0    32   13   67   
1st     PAS Giannina                    26   12   1    0    41   10   9    2    2    27   13   66   
1st     PAS Giannina                    26   13   0    0    45   12   5    4    4    21   19   58   
1st     PAS Giannina                    26   10   0    3    40   23   10   2    1    33   9    62   
1st     PAS Giannina                    26   12   1    0    42   8    8    2    3    28   14   63   
1st     PAS Giannina                    26   11   2    0    37   9    9    3    1    25   9    65   
1st     PAS Giannina                    26   12   1    0    42   13   8    2    3    31   16   63   
1st     PAS Giannina                    26   11   1    1    34   10   9    1    3    24   13   62   
1st     PAS Giannina                    26   11   2    0    37   9    11   0    2    42   14   68   
1st     PAS Giannina                    26   12   0    1    39   11   10   1    2    36   11   67   
1st     PAS Giannina                    26   11   1    1    38   16   9    2    2    29   17   63   
1st     PAS Giannina                    26   12   0    1    43   12   9    1    3    26   10   64   
1st     PAS Giannina                    26   13   0    0    50   12   11   1    1    32   8    73   
1st     PAS Giannina                    26   12   1    0    39   9    8    5    0    33   16   66   
1st     PAS Giannina                    26   12   1    0    39   15   10   3    0    35   13   70   
1st     PAS Giannina                    26   13   0    0    46   7    9    2    2    33   17   68   
1st     PAS Giannina                    26   12   1    0    44   11   8    2    3    23   11   63   
1st     PAS Giannina                    26   11   1    1    41   16   7    4    2    28   19   59   
1st     PAS Giannina                    26   11   1    1    46   12   8    3    2    31   18   61   
1st     PAS Giannina                    26   12   0    1    41   9    7    5    1    32   16   62   
1st     PAS Giannina                    26   11   2    0    45   15   8    2    3    21   14   61   
1st     PAS Giannina                    26   12   0    1    43   7    10   2    1    37   14   68   
1st     PAS Giannina                    26   11   2    0    34   8    13   0    0    39   8    74   
1st     PAS Giannina                    26   12   1    0    45   16   10   0    3    34   14   67   
1st     PAS Giannina                    26   11   0    2    41   17   10   1    2    26   12   64   
1st     PAS Giannina                    26   10   2    1    38   14   9    2    2    30   11   61   
1st     PAS Giannina                    26   11   2    0    41   11   12   0    1    40   12   71   
1st     PAS Giannina                    26   12   1    0    39   9    10   1    2    31   13   68   
1st     PAS Giannina                    26   11   1    1    42   19   12   0    1    38   10   70   
1st     PAS Giannina                    26   11   2    0    42   13   11   2    0    44   19   70   
1st     PAS Giannina                    26   12   1    0    37   13   6    6    1    30   24   61   
1st     PAS Giannina                    26   12   1    0    43   13   8    2    3    33   19   63   
1st     PAS Giannina                    26   13   0    0    43   7    9    3    1    25   9    69   
1st     PAS Giannina                    26   11   0    2    36   14   9    3    1    33   15   63   
1st     PAS Giannina                    26   10   2    1    36   13   9    3    1    32   10   62   
1st     PAS Giannina                    26   12   1    0    42   12   9    3    1    29   10   67   
1st     PAS Giannina                    26   11   1    1    31   11   7    4    2    23   12   59   
1st     PAS Giannina                    26   12   0    1    44   12   9    0    4    27   15   63   
1st     PAS Giannina                    26   11   1    1    39   14   10   2    1    40   11   66   
1st     PAS Giannina                    26   9    3    1    35   22   10   2    1    35   16   62   
1st     PAS Giannina                    26   11   1    1    40   14   11   1    1    35   11   68   
1st     PAS Giannina                    26   11   2    0    36   9    10   3    0    30   11   68   
1st     PAS Giannina                    26   11   2    0    40   12   11   2    0    38   12   70   
1st     PAS Giannina                    26   13   0    0    37   6    11   1    1    36   10   73   
1st     PAS Giannina                    26   12   1    0    43   15   7    4    2    21   11   62   
1st     PAS Giannina                    26   11   2    0    43   12   10   2    1    28   9    67   
1st     PAS Giannina                    26   11   1    1    38   12   9    2    2    29   11   63   
1st     PAS Giannina                    26   13   0    0    41   12   9    4    0    21   9    70   
1st     PAS Giannina                    26   10   1    2    37   12   8    2    3    27   16   57   
1st     PAS Giannina                    26   12   1    0    42   14   10   3    0    35   12   70   
1st     PAS Giannina                    26   10   2    1    31   14   10   0    3    31   14   62   
1st     PAS Giannina                    26   11   1    1    41   10   8    1    4    27   16   59   
1st     PAS Giannina                    26   13   0    0    39   11   10   2    1    36   15   71   
2nd     PAS Giannina                    26   8    4    1    39   18   8    3    2    27   11   55   
1st     PAS Giannina                    26   10   2    1    32   12   12   1    0    37   13   69   
1st     PAS Giannina                    26   13   0    0    34   11   12   0    1    36   15   75   
1st     PAS Giannina                    26   12   1    0    38   5    10   2    1    34   12   69   
1st     PAS Giannina                    26   12   0    1    43   14   7    4    2    30   17   61   
1st     PAS Giannina                    26   11   0    2    34   12   7    2    4    31   19   56   
1st     PAS Giannina                    26   13   0    0    42   6    8    3    2    33   15   66   
1st     PAS Giannina                    26   12   0    1    38   9    9    3    1    36   14   66   
1st     PAS Giannina                    26   13   0    0    40   10   9    1    3    23   12   67   
1st     PAS Giannina                    26   11   2    0    40   12   8    3    2    27   11   62   
1st     PAS Giannina                    26   11   1    1    33   12   8    3    2    32   18   61   
1st     PAS Giannina                    26   12   1    0    43   8    7    4    2    27   14   62   
1st     PAS Giannina                    26   13   0    0    47   10   7    1    5    25   18   61   
1st     PAS Giannina                    26   12   0    1    39   3    8    3    2    27   15   63   
2nd     PAS Giannina                    26   10   3    0    28   10   6    4    3    24   18   55   
1st     PAS Giannina                    26   11   1    1    36   15   9    2    2    27   14   63   
1st     PAS Giannina                    26   10   1    2    33   11   8    4    1    31   12   59   
1st     PAS Giannina                    26   12   0    1    38   15   9    1    3    32   13   64   
1st     PAS Giannina                    26   12   1    0    40   10   11   2    0    31   9    72   
1st     PAS Giannina                    26   10   2    1    39   17   11   1    1    39   17   66   
1st     PAS Giannina                    26   12   1    0    39   15   13   0    0    34   12   76   
1st     PAS Giannina                    26   11   1    1    29   7    12   0    1    34   12   70   