1st     PAS Giannina                    26   10   2    1    38   15   9    2    2    32   14   61
1st     PAS Giannina                    26   11   2    0    33   9    6    3    4    22   17   56
1st     PAS Giannina                    26   12   0    1    34   9    10   2    1    32   13   68
1st     PAS Giannina                    26   10   1    2    27   14   9    2    2    29   11   60
1st     PAS Giannina                    26   9    3    1    35   11   10   2    1    35   9    62
1st     PAS Giannina                    26   9    3    1    31   10   8    2    3    26   13   56
1st     PAS Giannina                    26   13   0    0    41   9    7    4    2    24   13   64
1st     PAS Giannina                    26   12   1    0    33   8    10   2    1    30   11   69
1st     PAS Giannina                    26   13   0    0    40   11   8    2    3    32   15   65
1st     PAS Giannina                    26   12   1    0    37   7    8    1    4    21   13   62
1st     PAS Giannina                    26   12   1    0    37   13   10   3    0    32   9    70
1st     PAS Giannina                    26   10   2    1    33   8    8    3    2    28   12   59
1st     PAS Giannina                    26   10   3    0    34   13   9    2    2    30   16   62
1st     PAS Giannina                    26   13   0    0    42   10   9    2    2    26   11   68
1st     PAS Giannina                    26   13   0    0    41   7    10   2    1    33   10   71
1st     PAS Giannina                    26   11   2    0    44   20   8    2    3    22   12   61
1st     PAS Giannina                    26   11   2    0    41   10   8    5    0    28   15   64
1st     PAS Giannina                    26   11   2    0    42   7    8    3    2    29   11   62
1st     PAS Giannina                    26   12   0    1    36   11   8    3    2    27   15   63
1st     PAS Giannina                    26   12   0    1    44   13   9    3    1    30   9    66
1st     PAS Giannina                    26   11   2    0    36   14   6    3    4    29   21   56
1st     PAS Giannina                    26   10   2    1    34   8    8    1    4    26   16   57
1st     PAS Giannina                    26   11   2    0    37   15   9    2    2    29   8    64
1st     PAS Giannina                    26   11   1    1    34   10   11   1    1    32   10   68
2nd     PAS Giannina                    26   9    2    2    36   14   7    3    3    25   10   53
1st     PAS Giannina                    26   10   3    0    39   10   10   2    1    25   8    65
1st     PAS Giannina                    26   10   2    1    38   15   8    3    2    25   13   59
1st     PAS Giannina                    26   11   1    1    39   6    9    4    0    30   9    65
1st     PAS Giannina                    26   13   0    0    46   11   9    1    3    26   10   67
1st     PAS Giannina                    26   11   1    1    36   11   9    2    2    31   15   63
1st     PAS Giannina                    26   9    3    1    28   7    8    4    1    27   10   58
1st     PAS Giannina                    26   11   0    2    28   8    6    4    3    27   13   55
1st     PAS Giannina                    26   10   1    2    30   14   10   3    0    24   8    64
1st     PAS Giannina                    26   11   0    2    34   13   7    3    3    28   18   57
1st     PAS Giannina                    26   10   2    1    39   8    11   0    2    32   11   65
1st     PAS Giannina                    26   11   2    0    34   12   9    3    1    31   17   65
1st     PAS Giannina                    26   11   2    0    37   15   10   3    0    30   11   68
1st     PAS Giannina                    26   12   1    0    33   7    13   0    0    33   8    76
1st     PAS Giannina                    26   11   0    2    38   15   12   0    1    38   8    69
1st     PAS Giannina                    26   11   2    0    40   6    9    1    3    30   16   63
1st     PAS Giannina                    26   11   1    1    34   7    10   2    1    28   11   66
1st     PAS Giannina                    26   12   1    0    38   9    8    3    2    21   12   64
1st     PAS Giannina                    26   12   1    0    42   9    5    8    0    25   16   60
1st     PAS Giannina                    26   12   1    0    38   6    10   2    1    24   7    69
1st     PAS Giannina                    26   11   2    0    36   9    9    1    3    29   20   63
1st     PAS Giannina                    26   11   2    0    35   12   10   1    2    32   17   66
1st     PAS Giannina                    26   11   0    2    39   14   8    2    3    29   14   59
1st     PAS Giannina                    26   12   1    0    37   19   10   2    1    30   13   69
1st     PAS Giannina                    26   12   0    1    36   11   8    5    0    29   11   65
1st     PAS Giannina                    26   12   1    0    38   10   8    2    3    27   19   63
2nd     PAS Giannina                    26   13   0    0    34   10   6    2    5    30   19   59
2nd     PAS Giannina                    26   11   1    1    28   7    5    4    4    26   22   53
1st     PAS Giannina                    26   11   2    0    37   7    9    2    2    31   14   64
1st     PAS Giannina                    26   11   0    2    32   9    10   2    1    29   12   65
1st     PAS Giannina                    26   10   1    2    28   8    8    4    1    32   10   59
1st     PAS Giannina                    26   12   1    0    24   4    6    5    2    28   19   60
2nd     PAS Giannina                    26   10   3    0    35   11   7    3    3    27   14   57
1st     PAS Giannina                    26   9    2    2    31   12   8    3    2    29   13   56
1st     PAS Giannina                    26   10   2    1    35   9    9    2    2    25   11   61
1st     PAS Giannina                    26   11   2    0    31   6    9    2    2    29   16   64
1st     PAS Giannina                    26   10   2    1    36   14   9    0    4    34   19   59
1st     PAS Giannina                    26   12   1    0    31   7    5    3    5    31   23   55
1st     PAS Giannina                    26   11   1    1    36   13   10   2    1    29   11   66
1st     PAS Giannina                    26   11   1    1    42   10   10   2    1    33   14   66
1st     PAS Giannina                    26   11   1    1    38   13   10   2    1    38   14   66
1st     PAS Giannina                    26   11   2    0    32   12   12   1    0    39   9    72
1st     PAS Giannina                    26   12   0    1    31   10   11   0    2    35   12   69
1st     PAS Giannina                    26   10   2    1    32   13   8    4    1    31   14   60
1st     PAS Giannina                    26   13   0    0    48   13   7    2    4    24   15   62
2nd     PAS Giannina                    26   9    2    2    29   15   8    2    3    27   13   55
1st     PAS Giannina                    26   10   3    0    36   12   9    2    2    31   16   62
1st     PAS Giannina                    26   11   0    2    36   13   13   0    0    33   8    72
1st     PAS Giannina                    26   13   0    0    44   13   7    2    4    30   16   62
1st     PAS Giannina                    26   11   1    1    36   13   8    3    2    31   13   61
1st     PAS Giannina                    26   12   0    1    37   9    10   3    0    29   10   69
1st     PAS Giannina                    26   9    3    1    29   11   9    3    1    28   13   60
2nd     PAS Giannina                    26   9    3    1    35   17   8    2    3    23   14   56
1st     PAS Giannina                    26   13   0    0    41   7    9    4    0    26   15   70
1st     PAS Giannina                    26   13   0    0    37   9    7    3    3    27   13   63
1st     PAS Giannina                    26   11   2    0    37   13   11   0    2    33   15   68
3rd     PAS Giannina                    26   9    2    2    30   13   9    0    4    37   16   56
1st     PAS Giannina                    26   12   1    0    34   6    7    2    4    28   18   60
1st     PAS Giannina                    26   12   0    1    39   16   10   0    3    32   17   66
1st     PAS Giannina                    26   12   1    0    35   9    9    4    0    45   16   68
1st     PAS Giannina                    26   12   0    1    44   13   9    0    4    26   13   63
1st     PAS Giannina                    26   13   0    0    35   6    10   1    2    31   11   70
1st     PAS Giannina                    26   13   0    0    41   10   11   1    1    36   10   73
1st     PAS Giannina                    26   11   1    1    35   13   9    2    2    32   15   63
2nd     PAS Giannina                    26   12   0    1    37   11   6    1    6    32   22   55
1st     PAS Giannina                    26   11   2    0    40   15   9    1    3    29   11   63
1st     PAS Giannina                    26   13   0    0    39   10   5    4    4    21   14   58
2nd     PAS Giannina                    26   12   1    0    34   5    6    4    3    22   15   59
1st     PAS Giannina                    26   12   1    0    37   8    9    3    1    27   11   67
1st     PAS Giannina                    26   9    2    2    33   13   10   2    1    29   12   61
2nd     PAS Giannina                    26   12   1    0    35   4    5    2    6    18   21   54
2nd     PAS Giannina                    26   10   2    1    36   13   7    3    3    26   12   56
1st     PAS Giannina                    26   10   1    2    40   18   11   1    1    34   13   65
1st     PAS Giannina                    26   12   1    0    40   14   11   0    2    25   14   70
1st     PAS Giannina                    26   12   0    1    35   11   10   1    2    37   18   67
1st     PAS Giannina                    26   11   2    0    36   9    9    4    0    29   11   66