2nd     PAS Giannina                    26   11   1    1    36   9    6    3    4    24   18   55   
2nd     PAS Giannina                    26   11   2    0    33   14   8    3    2    26   13   62   
1st     PAS Giannina                    26   11   2    0    26   6    11   2    0    32   11   70   
1st     PAS Giannina                    26   10   2    1    35   13   10   2    1    38   16   64   
3rd     PAS Giannina                    26   8    3    2    26   14   7    3    3    28   15   51   
1st     PAS Giannina                    26   12   1    0    41   7    9    1    3    30   12   65   
1st     PAS Giannina                    26   9    4    0    32   9    9    1    3    28   16   59   
1st     PAS Giannina                    26   9    4    0    31   7    9    3    1    28   7    61   
1st     PAS Giannina                    26   11   1    1    28   8    10   2    1    34   11   66   
2nd     PAS Giannina                    26   10   1    2    33   11   7    4    2    25   15   56   
1st     PAS Giannina                    26   13   0    0    36   11   9    2    2    24   8    68   
1st     PAS Giannina                    26   10   1    2    29   10   10   1    2    37   8    62   
1st     PAS Giannina                    26   10   2    1    24   6    10   3    0    29   11   65   
1st     PAS Giannina                    26   11   0    2    29   7    9    1    3    25   13   61   
1st     PAS Giannina                    26   12   0    1    37   8    7    4    2    28   12   61   
1st     PAS Giannina                    26   9    3    1    36   14   10   0    3    31   16   60   
1st     PAS Giannina                    26   11   1    1    32   8    10   1    2    24   9    65   
1st     PAS Giannina                    26   11   2    0    35   7    7    3    3    21   16   59   
1st     PAS Giannina                    26   10   3    0    34   16   12   0    1    31   12   69   
1st     PAS Giannina                    26   11   0    2    29   11   8    4    1    32   15   61   
1st     PAS Giannina                    26   12   1    0    42   11   9    2    2    33   12   66   
1st     PAS Giannina                    26   10   3    0    29   5    8    3    2    24   10   60   
1st     PAS Giannina                    26   11   2    0    31   7    10   1    2    26   8    66   
1st     PAS Giannina                    26   11   2    0    30   7    7    4    2    24   9    60   
1st     PAS Giannina                    26   9    3    1    35   18   9    2    2    26   11   59   
1st     PAS Giannina                    26   10   2    1    29   9    9    2    2    27   7    61   
1st     PAS Giannina                    26   9    1    3    31   14   11   1    1    30   6    62   
1st     PAS Giannina                    26   13   0    0    46   12   9    0    4    28   13   66   
1st     PAS Giannina                    26   10   3    0    29   9    10   0    3    31   9    63   
1st     PAS Giannina                    26   10   1    2    34   11   7    2    4    27   18   54   
1st     PAS Giannina                    26   12   0    1    30   10   11   2    0    33   10   71   
1st     PAS Giannina                    26   11   1    1    32   10   11   1    1    34   12   68   
1st     PAS Giannina                    26   12   1    0    34   11   9    2    2    30   14   66   
1st     PAS Giannina                    26   9    4    0    35   13   9    2    2    30   11   60   
1st     PAS Giannina                    26   12   1    0    36   8    9    3    1    30   15   67   
1st     PAS Giannina                    26   11   1    1    38   9    10   2    1    25   9    66   
1st     PAS Giannina                    26   10   2    1    31   11   8    3    2    24   9    59   
1st     PAS Giannina                    26   9    2    2    22   10   10   2    1    29   7    61   
1st     PAS Giannina                    26   13   0    0    33   9    9    3    1    28   15   69   
1st     PAS Giannina                    26   11   2    0    33   9    5    3    5    22   19   53   
1st     PAS Giannina                    26   9    4    0    27   11   8    3    2    28   13   58   
1st     PAS Giannina                    26   10   2    1    25   7    10   3    0    29   7    65   
1st     PAS Giannina                    26   11   2    0    26   8    9    4    0    31   9    66   
1st     PAS Giannina                    26   9    2    2    26   10   11   2    0    31   7    64   
1st     PAS Giannina                    26   10   2    1    18   5    10   2    1    31   16   64   
1st     PAS Giannina                    26   11   1    1    31   12   9    3    1    31   16   64   
1st     PAS Giannina                    26   9    3    1    34   9    9    2    2    27   11   59   
1st     PAS Giannina                    26   8    5    0    31   15   12   0    1    29   10   65   
1st     PAS Giannina                    26   12   0    1    34   12   10   1    2    31   11   67   
1st     PAS Giannina                    26   10   2    1    30   7    10   0    3    26   11   62   
1st     PAS Giannina                    26   11   2    0    33   7    10   3    0    33   12   68   
1st     PAS Giannina                    26   10   2    1    34   11   11   1    1    30   14   66   
1st     PAS Giannina                    26   9    4    0    38   12   10   3    0    27   12   64   
2nd     PAS Giannina                    26   9    2    2    28   11   7    3    3    29   17   53   
1st     PAS Giannina                    26   10   3    0    28   9    12   0    1    33   15   69   
1st     PAS Giannina                    26   12   0    1    38   12   9    2    2    27   11   65   
1st     PAS Giannina                    26   10   2    1    26   9    11   1    1    32   16   66   
2nd     PAS Giannina                    26   10   1    2    30   9    8    2    3    23   12   57   
1st     PAS Giannina                    26   12   0    1    40   11   8    1    4    24   16   61   
2nd     PAS Giannina                    26   8    0    5    25   16   7    3    3    30   19   48   
1st     PAS Giannina                    26   11   2    0    28   9    9    2    2    34   13   64   
2nd     PAS Giannina                    26   9    2    2    33   12   4    6    3    24   19   47   
1st     PAS Giannina                    26   10   1    2    25   13   10   3    0    25   8    64   
1st     PAS Giannina                    26   13   0    0    37   13   9    3    1    36   17   69   
1st     PAS Giannina                    26   10   3    0    25   7    6    5    2    18   8    56   
1st     PAS Giannina                    26   10   3    0    34   13   11   1    1    32   9    67   
1st     PAS Giannina                    26   9    3    1    30   12   10   0    3    31   14   60   
1st     PAS Giannina                    26   10   2    1    30   15   9    2    2    28   12   61   
2nd     PAS Giannina                    26   7    4    2    27   15   9    3    1    29   13   55   
2nd     PAS Giannina                    26   11   2    0    30   9    5    4    4    26   18   54   
1st     PAS Giannina                    26   10   2    1    28   6    9    3    1    24   12   62   
1st     PAS Giannina                    26   11   2    0    35   9    12   1    0    35   6    72   
1st     PAS Giannina                    26   13   0    0    37   8    6    3    4    24   14   60   
3rd     PAS Giannina                    26   9    3    1    30   6    5    2    6    20   21   47   
2nd     PAS Giannina                    26   9    2    2    31   11   10   2    1    25   11   61   
1st     PAS Giannina                    26   9    2    2    27   12   8    3    2    28   14   56   
1st     PAS Giannina                    26   12   0    1    32   7    5    6    2    23   15   57   
1st     PAS Giannina                    26   8    3    2    35   15   9    2    2    25   10   56   
2nd     PAS Giannina                    26   8    3    2    31   13   7    1    5    23   14   49   
1st     PAS Giannina                    26   10   1    2    25   10   8    4    1    22   10   59   
1st     PAS Giannina                    26   10   2    1    26   9    9    1    3    23   10   60   
1st     PAS Giannina                    26   11   0    2    36   15   9    2    2    27   10   62   
1st     PAS Giannina                    26   10   3    0    34   11   10   2    1    29   10   65   
1st     PAS Giannina                    26   11   2    0    34   10   10   3    0    28   11   68   
1st     PAS Giannina                    26   11   1    1    28   10   10   2    1    34   9    66   
1st     PAS Giannina                    26   11   2    0    32   7    8    2    3    28   10   61   
1st     PAS Giannina                    26   10   3    0    29   9    6    5    2    29   19   56   
2nd     PAS Giannina                    26   11   0    2    33   14   7    2    4    23   15   56   
1st     PAS Giannina                    26   12   0    1    32   7    8    2    3    34   12   62   
1st     PAS Giannina                    26   12   1    0    33   8    10   1    2    27   13   68   
1st     PAS Giannina                    26   11   2    0    41   13   10   2    1    29   11   67   
1st     PAS Giannina                    26   11   0    2    30   6    8    3    2    23   9    60   
1st     PAS Giannina                    26   11   1    1    32   12   10   1    2    25   11   65   
1st     PAS Giannina                    26   8    2    3    29   13   10   2    1    30   10   58   
1st     PAS Giannina                    26   10   2    1    23   9    10   3    0    29   8    65   
1st     PAS Giannina                    26   9    2    2    28   10   12   1    0    39   10   66   
1st     PAS Giannina                    26   9    1    3    26   15   10   1    2    35   17   59   
1st     PAS Giannina                    26   12   1    0    34   13   7    3    3    28   16   61   
1st     PAS Giannina                    26   10   2    1    34   7    9    2    2    27   10   61   
1st     PAS Giannina                    26   11   2    0    42   16   7    4    2    27   12   60   