1st     PAS Giannina                    26   11   2    0    38   14   9    2    2    33   13   64   
1st     PAS Giannina                    26   12   0    1    33   11   11   2    0    36   11   71   
1st     PAS Giannina                    26   12   1    0    46   13   7    3    3    30   16   61   
1st     PAS Giannina                    26   10   1    2    38   10   7    5    1    23   12   57   
1st     PAS Giannina                    26   13   0    0    44   8    10   3    0    33   8    72   
1st     PAS Giannina                    26   13   0    0    44   8    9    2    2    35   20   68   
1st     PAS Giannina                    26   13   0    0    40   10   11   1    1    28   11   73   
1st     PAS Giannina                    26   12   1    0    36   9    9    4    0    36   16   68   
1st     PAS Giannina                    26   12   1    0    43   12   7    4    2    30   23   62   
1st     PAS Giannina                    26   13   0    0    51   10   7    5    1    30   10   65   
1st     PAS Giannina                    26   12   1    0    39   8    11   2    0    36   10   72   
1st     PAS Giannina                    26   11   1    1    41   11   12   0    1    34   7    70   
1st     PAS Giannina                    26   12   1    0    43   6    12   0    1    39   9    73   
1st     PAS Giannina                    26   11   1    1    34   8    10   3    0    30   9    67   
1st     PAS Giannina                    26   10   2    1    34   10   11   1    1    36   15   66   
1st     PAS Giannina                    26   12   1    0    42   13   9    2    2    28   14   66   
1st     PAS Giannina                    26   11   2    0    46   16   13   0    0    35   9    74   
1st     PAS Giannina                    26   12   1    0    44   11   10   2    1    35   13   69   
1st     PAS Giannina                    26   12   1    0    38   10   10   1    2    34   13   68   
1st     PAS Giannina                    26   12   0    1    40   9    11   2    0    37   11   71   
1st     PAS Giannina                    26   13   0    0    41   6    11   0    2    35   8    72   
1st     PAS Giannina                    26   12   0    1    45   13   11   2    0    34   11   71   
1st     PAS Giannina                    26   11   2    0    38   9    7    5    1    33   14   61   
1st     PAS Giannina                    26   12   1    0    39   13   10   2    1    28   14   69   
1st     PAS Giannina                    26   11   2    0    40   12   5    5    3    20   14   55   
1st     PAS Giannina                    26   10   2    1    31   14   10   2    1    29   6    64   
1st     PAS Giannina                    26   11   0    2    33   8    9    1    3    25   13   61   
1st     PAS Giannina                    26   12   0    1    39   10   11   0    2    32   11   69   
1st     PAS Giannina                    26   12   1    0    41   11   9    2    2    30   13   66   
1st     PAS Giannina                    26   13   0    0    38   9    10   2    1    30   8    71   
1st     PAS Giannina                    26   11   2    0    40   13   13   0    0    30   5    74   
1st     PAS Giannina                    26   13   0    0    50   9    9    2    2    33   14   68   
1st     PAS Giannina                    26   11   1    1    43   11   11   1    1    34   9    68   
1st     PAS Giannina                    26   11   2    0    40   9    7    1    5    22   17   57   
1st     PAS Giannina                    26   12   1    0    40   6    9    1    3    29   10   65   
1st     PAS Giannina                    26   11   1    1    41   15   9    3    1    35   12   64   
1st     PAS Giannina                    26   13   0    0    36   8    11   1    1    34   12   73   
1st     PAS Giannina                    26   11   2    0    32   5    9    1    3    28   15   63   
1st     PAS Giannina                    26   10   2    1    33   11   11   1    1    34   8    66   
1st     PAS Giannina                    26   11   1    1    44   10   8    3    2    29   11   61   
1st     PAS Giannina                    26   12   1    0    34   7    11   0    2    32   10   70   
1st     PAS Giannina                    26   10   2    1    37   8    8    4    1    26   13   60   
1st     PAS Giannina                    26   13   0    0    45   9    10   0    3    32   14   69   
1st     PAS Giannina                    26   11   1    1    35   10   10   2    1    26   5    66   
1st     PAS Giannina                    26   11   1    1    41   16   12   1    0    37   6    71   
1st     PAS Giannina                    26   12   0    1    40   13   9    2    2    35   18   65   
1st     PAS Giannina                    26   13   0    0    45   10   7    5    1    28   14   65   
1st     PAS Giannina                    26   13   0    0    37   9    11   2    0    37   11   74   
1st     PAS Giannina                    26   11   2    0    37   10   9    3    1    33   17   65   
1st     PAS Giannina                    26   12   1    0    43   11   9    2    2    35   15   66   
1st     PAS Giannina                    26   10   3    0    37   11   10   3    0    35   10   66   
1st     PAS Giannina                    26   13   0    0    38   10   11   2    0    31   11   74   
1st     PAS Giannina                    26   11   1    1    36   15   9    2    2    31   17   63   
1st     PAS Giannina                    26   13   0    0    43   14   11   1    1    40   11   73   
1st     PAS Giannina                    26   12   1    0    44   5    11   2    0    35   13   72   
1st     PAS Giannina                    26   12   1    0    37   11   9    4    0    32   13   68   
1st     PAS Giannina                    26   12   1    0    42   15   11   1    1    32   10   71   
1st     PAS Giannina                    26   10   1    2    40   13   9    2    2    35   15   60   
1st     PAS Giannina                    26   12   1    0    36   10   10   2    1    36   14   69   
1st     PAS Giannina                    26   10   3    0    38   11   10   2    1    42   15   65   
1st     PAS Giannina                    26   12   1    0    35   10   9    2    2    39   15   66   
1st     PAS Giannina                    26   13   0    0    38   10   10   1    2    28   10   70   
1st     PAS Giannina                    26   9    4    0    34   11   10   1    2    30   9    62   
1st     PAS Giannina                    26   13   0    0    41   8    9    3    1    26   6    69   
1st     PAS Giannina                    26   12   1    0    45   13   9    3    1    34   13   67   
1st     PAS Giannina                    26   10   2    1    32   11   10   2    1    34   9    64   
1st     PAS Giannina                    26   11   2    0    37   12   11   2    0    36   7    70   
1st     PAS Giannina                    26   11   2    0    39   9    10   1    2    31   13   66   
1st     PAS Giannina                    26   12   1    0    39   11   10   2    1    29   8    69   
1st     PAS Giannina                    26   11   0    2    32   6    11   2    0    29   6    68   
2nd     PAS Giannina                    26   10   2    1    39   16   7    4    2    27   16   57   
1st     PAS Giannina                    26   12   0    1    43   7    10   3    0    42   11   69   
1st     PAS Giannina                    26   9    4    0    41   13   10   1    2    25   13   62   
1st     PAS Giannina                    26   9    4    0    35   16   12   0    1    35   11   67   
1st     PAS Giannina                    26   13   0    0    42   10   11   1    1    32   6    73   
1st     PAS Giannina                    26   13   0    0    36   7    10   0    3    29   11   69   
1st     PAS Giannina                    26   11   2    0    36   13   12   1    0    36   8    72   
1st     PAS Giannina                    26   11   2    0    40   15   13   0    0    37   9    74   
1st     PAS Giannina                    26   11   2    0    42   13   10   3    0    38   11   68   
1st     PAS Giannina                    26   10   2    1    39   17   9    3    1    34   11   62   
1st     PAS Giannina                    26   12   1    0    51   16   10   1    2    30   12   68   
1st     PAS Giannina                    26   11   1    1    38   13   9    2    2    37   16   63   
1st     PAS Giannina                    26   11   1    1    37   12   10   1    2    34   10   65   
1st     PAS Giannina                    26   11   2    0    38   14   9    2    2    36   12   64   
1st     PAS Giannina                    26   12   1    0    44   11   9    2    2    27   15   66   
1st     PAS Giannina                    26   12   0    1    35   12   12   1    0    40   13   73   
1st     PAS Giannina                    26   11   1    1    36   8    7    4    2    27   16   59   
1st     PAS Giannina                    26   11   1    1    41   11   8    4    1    33   11   62   
1st     PAS Giannina                    26   11   1    1    30   13   12   1    0    29   6    71   
1st     PAS Giannina                    26   12   1    0    44   10   10   3    0    29   7    70   
1st     PAS Giannina                    26   11   2    0    36   9    11   2    0    35   9    70   
1st     PAS Giannina                    26   11   0    2    38   12   12   1    0    35   11   70   
1st     PAS Giannina                    26   11   2    0    38   12   11   1    1    33   11   69   
1st     PAS Giannina                    26   12   0    1    47   14   11   2    0    35   11   71   
1st     PAS Giannina                    26   11   2    0    43   13   10   1    2    28   12   66   
1st     PAS Giannina                    26   12   1    0    44   9    11   2    0    33   8    72   
1st     PAS Giannina                    26   10   3    0    32   11   10   3    0    33   7    66   
1st     PAS Giannina                    26   12   1    0    47   11   11   1    1    34   11   71   
1st     PAS Giannina                    26   13   0    0    43   7    11   1    1    41   12   73   
1st     PAS Giannina                    26   13   0    0    43   12   10   2    1    33   13   71   