2nd     PAS Giannina                    26   9    3    1    24   11   6    2    5    16   14   50   
2nd     PAS Giannina                    26   10   3    0    30   10   5    6    2    25   16   54   
1st     PAS Giannina                    26   10   3    0    25   5    8    3    2    19   10   60   
4th     PAS Giannina                    26   7    3    3    22   16   5    4    4    21   13   43   
2nd     PAS Giannina                    26   9    3    1    26   10   5    4    4    15   11   49   
3rd     PAS Giannina                    26   8    2    3    18   11   5    5    3    16   14   46   
1st     PAS Giannina                    26   6    5    2    23   14   7    4    2    23   13   48   
2nd     PAS Giannina                    26   12   1    0    29   8    5    3    5    15   12   55   
2nd     PAS Giannina                    26   8    4    1    26   9    4    5    4    16   15   45   
1st     PAS Giannina                    26   11   1    1    29   9    7    2    4    17   12   57   
2nd     PAS Giannina                    26   9    2    2    27   13   5    3    5    11   15   47   
1st     PAS Giannina                    26   10   0    3    29   12   6    3    4    13   8    51   
1st     PAS Giannina                    26   11   1    1    32   8    8    2    3    18   8    60   
1st     PAS Giannina                    26   11   1    1    27   6    7    3    3    17   9    58   
2nd     PAS Giannina                    26   10   1    2    27   13   5    6    2    16   11   52   
2nd     PAS Giannina                    26   11   1    1    30   10   4    3    6    18   15   49   
3rd     PAS Giannina                    26   6    5    2    22   14   5    3    5    20   17   41   
3rd     PAS Giannina                    26   9    2    2    26   14   3    7    3    14   13   45   
1st     PAS Giannina                    26   10   2    1    23   7    7    3    3    21   10   56   
2nd     PAS Giannina                    26   8    3    2    25   15   6    5    2    16   10   50   
2nd     PAS Giannina                    26   8    5    0    27   9    6    4    3    24   16   51   
1st     PAS Giannina                    26   9    1    3    32   11   9    0    4    22   15   55   
1st     PAS Giannina                    26   12   1    0    27   4    5    5    3    22   16   57   
2nd     PAS Giannina                    26   13   0    0    31   4    5    2    6    20   23   56   
1st     PAS Giannina                    26   9    2    2    21   9    7    3    3    19   8    53   
2nd     PAS Giannina                    26   10   3    0    21   6    5    4    4    21   15   52   
2nd     PAS Giannina                    26   6    5    2    23   13   8    4    1    24   14   51   
1st     PAS Giannina                    26   10   2    1    28   12   8    2    3    18   12   58   
1st     PAS Giannina                    26   8    2    3    25   12   7    2    4    14   9    49   
2nd     PAS Giannina                    26   10   1    2    27   10   4    5    4    17   14   48   
1st     PAS Giannina                    26   10   1    2    32   11   5    3    5    14   14   49   
3rd     PAS Giannina                    26   9    3    1    27   13   7    4    2    16   10   55   
1st     PAS Giannina                    26   10   3    0    28   10   9    4    0    24   8    64   
3rd     PAS Giannina                    26   11   2    0    31   11   3    4    6    14   17   48   
2nd     PAS Giannina                    26   9    2    2    23   12   7    2    4    20   12   52   
1st     PAS Giannina                    26   10   1    2    22   10   8    3    2    17   9    58   
2nd     PAS Giannina                    26   8    4    1    23   9    6    2    5    17   14   48   
2nd     PAS Giannina                    26   10   3    0    28   10   3    6    4    15   19   48   
1st     PAS Giannina                    26   11   0    2    26   9    8    3    2    20   9    60   
2nd     PAS Giannina                    26   9    3    1    31   12   7    3    3    25   13   54   
1st     PAS Giannina                    26   11   1    1    26   9    9    3    1    24   8    64   
1st     PAS Giannina                    26   8    4    1    25   13   8    4    1    26   11   56   
1st     PAS Giannina                    26   11   1    1    30   12   8    3    2    22   13   61   
1st     PAS Giannina                    26   9    4    0    26   9    5    4    4    18   15   50   
1st     PAS Giannina                    26   10   3    0    27   9    6    2    5    18   18   53   
1st     PAS Giannina                    26   11   2    0    28   10   5    4    4    13   12   54   
2nd     PAS Giannina                    26   10   2    1    21   5    8    3    2    14   8    59   
4th     PAS Giannina                    26   9    2    2    23   7    4    4    5    22   16   45   
2nd     PAS Giannina                    26   10   1    2    25   9    6    3    4    19   14   52   
1st     PAS Giannina                    26   11   2    0    32   8    6    2    5    18   15   55   
2nd     PAS Giannina                    26   10   3    0    28   7    4    1    8    13   19   46   
2nd     PAS Giannina                    26   10   1    2    26   7    5    5    3    17   11   51   
2nd     PAS Giannina                    26   11   1    1    30   12   5    3    5    16   17   52   
2nd     PAS Giannina                    26   9    3    1    23   10   6    3    4    19   16   51   
1st     PAS Giannina                    26   10   1    2    23   5    5    5    3    15   12   51   
2nd     PAS Giannina                    26   8    2    3    34   12   6    4    3    19   14   48   
1st     PAS Giannina                    26   11   1    1    31   10   8    1    4    17   10   59   
2nd     PAS Giannina                    26   9    2    2    25   12   6    2    5    25   18   49   
1st     PAS Giannina                    26   12   0    1    30   10   8    2    3    19   15   62   
1st     PAS Giannina                    26   8    2    3    22   13   5    5    3    17   10   46   
1st     PAS Giannina                    26   10   1    2    26   11   7    4    2    27   13   56   
2nd     PAS Giannina                    26   7    4    2    29   12   8    3    2    19   10   52   
1st     PAS Giannina                    26   7    3    3    23   11   9    2    2    23   9    53   
1st     PAS Giannina                    26   10   3    0    25   6    9    2    2    17   10   62   
1st     PAS Giannina                    26   10   3    0    26   7    8    1    4    24   16   58   
3rd     PAS Giannina                    26   8    4    1    25   12   5    4    4    19   17   47   
1st     PAS Giannina                    26   9    4    0    23   6    9    2    2    20   12   60   
1st     PAS Giannina                    26   9    2    2    25   13   10   1    2    22   8    60   
2nd     PAS Giannina                    26   8    3    2    23   13   9    2    2    23   10   56   
1st     PAS Giannina                    26   11   2    0    26   7    10   3    0    23   9    68   
2nd     PAS Giannina                    26   9    3    1    27   12   6    3    4    23   18   51   
1st     PAS Giannina                    26   8    2    3    21   14   9    3    1    29   10   56   
4th     PAS Giannina                    26   8    4    1    25   10   4    5    4    15   15   45   
2nd     PAS Giannina                    26   11   1    1    31   8    4    6    3    16   12   52   
2nd     PAS Giannina                    26   10   1    2    30   14   8    2    3    21   12   57   
1st     PAS Giannina                    26   12   0    1    38   13   6    3    4    19   17   57   
2nd     PAS Giannina                    26   8    3    2    30   19   6    6    1    22   14   51   
2nd     PAS Giannina                    26   9    3    1    28   13   5    2    6    15   15   47   
1st     PAS Giannina                    26   10   3    0    31   11   6    6    1    24   17   57   
1st     PAS Giannina                    26   9    3    1    25   6    8    2    3    24   15   56   
2nd     PAS Giannina                    26   8    3    2    27   16   4    8    1    20   11   47   
3rd     PAS Giannina                    26   7    4    2    24   15   5    3    5    16   14   43   
4th     PAS Giannina                    26   8    4    1    28   17   6    1    6    20   20   47   
4th     PAS Giannina                    26   8    2    3    26   13   6    3    4    20   17   47   
4th     PAS Giannina                    26   5    4    4    17   12   6    5    2    19   11   42   
2nd     PAS Giannina                    26   8    2    3    25   16   7    5    1    18   9    52   
1st     PAS Giannina                    26   8    5    0    24   12   7    3    3    19   12   53   
2nd     PAS Giannina                    26   9    4    0    24   10   5    1    7    7    11   47   
2nd     PAS Giannina                    26   9    2    2    23   9    7    3    3    20   16   53   
2nd     PAS Giannina                    26   9    2    2    24   11   6    1    6    16   14   48   
2nd     PAS Giannina                    26   9    3    1    23   10   5    3    5    22   20   48   
2nd     PAS Giannina                    26   8    3    2    27   12   7    2    4    18   13   50   
1st     PAS Giannina                    26   11   0    2    29   16   4    7    2    13   12   52   
3rd     PAS Giannina                    26   7    4    2    20   13   6    3    4    20   15   46   
1st     PAS Giannina                    26   8    4    1    24   11   7    3    3    17   8    52   
1st     PAS Giannina                    26   10   3    0    26   12   4    7    2    20   17   52   
3rd     PAS Giannina                    26   9    1    3    25   9    4    7    2    23   17   47   
3rd     PAS Giannina                    26   9    1    3    23   11   2    9    2    14   13   43   
1st     PAS Giannina                    26   11   2    0    32   10   4    5    4    12   14   52   
1st     PAS Giannina                    26   10   3    0    26   10   6    6    1    26   13   57   