1st     PAS Giannina                    26   11   2    0    38   8    6    4    3    16   9    57
2nd     PAS Giannina                    26   11   2    0    38   7    7    2    4    20   15   58
1st     PAS Giannina                    26   10   2    1    26   8    8    3    2    28   13   59
1st     PAS Giannina                    26   11   1    1    30   8    5    4    4    23   16   53
1st     PAS Giannina                    26   11   2    0    39   15   9    2    2    26   12   64
1st     PAS Giannina                    26   8    3    2    25   11   9    4    0    22   6    58
2nd     PAS Giannina                    26   10   3    0    32   11   7    4    2    21   9    58
1st     PAS Giannina                    26   11   2    0    38   13   10   2    1    23   8    67
1st     PAS Giannina                    26   11   0    2    35   14   6    5    2    19   11   56
1st     PAS Giannina                    26   10   2    1    39   16   9    3    1    26   12   62
2nd     PAS Giannina                    26   11   1    1    29   7    6    5    2    21   13   57
1st     PAS Giannina                    26   12   1    0    36   11   6    4    3    26   18   59
1st     PAS Giannina                    26   8    3    2    30   10   9    1    3    23   7    55
1st     PAS Giannina                    26   11   0    2    31   10   8    2    3    26   12   59
1st     PAS Giannina                    26   9    2    2    28   8    8    2    3    25   13   55
1st     PAS Giannina                    26   10   0    3    31   11   9    3    1    25   12   60
1st     PAS Giannina                    26   10   3    0    38   10   9    2    2    26   10   62
2nd     PAS Giannina                    26   9    3    1    23   8    5    5    3    22   12   50
1st     PAS Giannina                    26   11   2    0    28   6    6    4    3    22   14   57
1st     PAS Giannina                    26   10   3    0    28   11   9    1    3    28   12   61
1st     PAS Giannina                    26   12   1    0    28   7    9    3    1    25   12   67
1st     PAS Giannina                    26   12   1    0    29   8    8    1    4    28   15   62
1st     PAS Giannina                    26   10   2    1    34   13   10   3    0    29   10   65
1st     PAS Giannina                    26   9    4    0    26   12   8    5    0    30   17   60
1st     PAS Giannina                    26   10   3    0    33   7    5    5    3    22   15   53
1st     PAS Giannina                    26   11   2    0    36   6    9    2    2    29   8    64
1st     PAS Giannina                    26   10   2    1    31   6    8    0    5    24   16   56
1st     PAS Giannina                    26   12   1    0    36   11   11   0    2    30   12   70
1st     PAS Giannina                    26   10   3    0    29   11   11   1    1    30   7    67
2nd     PAS Giannina                    26   11   1    1    32   11   8    4    1    24   13   62
1st     PAS Giannina                    26   10   2    1    29   10   8    3    2    21   12   59
1st     PAS Giannina                    26   12   1    0    33   12   7    1    5    26   15   59
1st     PAS Giannina                    26   11   1    1    33   13   7    4    2    31   16   59
1st     PAS Giannina                    26   11   1    1    27   3    8    1    4    29   13   59
3rd     PAS Giannina                    26   9    2    2    28   13   5    4    4    23   16   48
1st     PAS Giannina                    26   9    3    1    30   13   9    3    1    24   9    60
1st     PAS Giannina                    26   12   1    0    35   12   11   2    0    33   9    72
1st     PAS Giannina                    26   11   1    1    31   10   11   1    1    28   10   68
2nd     PAS Giannina                    26   11   0    2    26   8    7    4    2    22   12   58
2nd     PAS Giannina                    26   10   2    1    33   13   9    2    2    25   12   61
1st     PAS Giannina                    26   11   2    0    29   8    9    3    1    28   9    65
1st     PAS Giannina                    26   11   0    2    32   9    10   2    1    30   15   65
1st     PAS Giannina                    26   13   0    0    30   9    5    4    4    19   15   58
1st     PAS Giannina                    26   9    3    1    29   6    10   2    1    29   9    62
1st     PAS Giannina                    26   11   1    1    31   10   5    5    3    24   18   54
1st     PAS Giannina                    26   11   1    1    35   11   10   2    1    24   9    66
1st     PAS Giannina                    26   11   2    0    30   9    10   2    1    32   10   67
1st     PAS Giannina                    26   10   1    2    29   13   8    4    1    20   10   59
1st     PAS Giannina                    26   10   2    1    28   8    7    5    1    24   11   58
1st     PAS Giannina                    26   10   2    1    33   12   10   2    1    31   9    64
1st     PAS Giannina                    26   10   1    2    29   13   6    5    2    20   11   54
1st     PAS Giannina                    26   9    2    2    27   7    9    3    1    34   14   59
1st     PAS Giannina                    26   10   3    0    28   11   6    2    5    26   17   53
1st     PAS Giannina                    26   9    2    2    31   12   6    5    2    20   11   52
1st     PAS Giannina                    26   12   1    0    32   9    8    2    3    24   11   63
1st     PAS Giannina                    26   12   1    0    32   9    10   2    1    31   9    69
1st     PAS Giannina                    26   13   0    0    30   7    9    3    1    27   11   69
1st     PAS Giannina                    26   8    1    4    28   16   9    2    2    33   18   54
1st     PAS Giannina                    26   9    2    2    20   9    6    3    4    23   15   50
1st     PAS Giannina                    26   10   2    1    31   10   9    2    2    22   11   61
1st     PAS Giannina                    26   9    2    2    27   12   8    0    5    21   15   53
1st     PAS Giannina                    26   10   1    2    29   13   10   2    1    29   10   63
1st     PAS Giannina                    26   10   2    1    31   13   7    3    3    20   11   56
1st     PAS Giannina                    26   11   1    1    34   9    8    4    1    25   15   62
1st     PAS Giannina                    26   11   1    1    30   5    9    1    3    22   10   62
2nd     PAS Giannina                    26   10   1    2    24   10   9    2    2    23   9    60
1st     PAS Giannina                    26   11   1    1    33   8    7    2    4    25   16   57
1st     PAS Giannina                    26   11   1    1    31   13   9    3    1    25   13   64
1st     PAS Giannina                    26   10   3    0    31   10   8    4    1    25   9    61
1st     PAS Giannina                    26   10   2    1    26   9    8    4    1    26   15   60
1st     PAS Giannina                    26   11   2    0    29   5    9    4    0    25   9    66
1st     PAS Giannina                    26   10   3    0    29   14   7    6    0    22   12   60
1st     PAS Giannina                    26   12   1    0    36   6    8    3    2    23   12   64
1st     PAS Giannina                    26   11   1    1    29   9    8    2    3    24   14   60
1st     PAS Giannina                    26   12   0    1    30   9    6    3    4    23   17   57
2nd     PAS Giannina                    26   10   2    1    33   13   9    1    3    22   12   60
1st     PAS Giannina                    26   11   2    0    33   9    9    2    2    24   8    64
1st     PAS Giannina                    26   10   0    3    28   9    11   0    2    31   7    63
1st     PAS Giannina                    26   11   1    1    31   8    9    1    3    26   12   62
1st     PAS Giannina                    26   11   2    0    33   11   9    3    1    29   11   65
1st     PAS Giannina                    26   10   2    1    32   17   6    5    2    21   14   55
1st     PAS Giannina                    26   10   2    1    30   10   7    5    1    26   12   58
1st     PAS Giannina                    26   10   0    3    31   15   8    3    2    18   10   57
1st     PAS Giannina                    26   9    3    1    38   18   9    0    4    25   11   57
1st     PAS Giannina                    26   11   1    1    33   10   8    3    2    25   10   61
1st     PAS Giannina                    26   11   0    2    34   13   10   3    0    31   12   66
2nd     PAS Giannina                    26   10   1    2    27   10   6    2    5    15   11   51
1st     PAS Giannina                    26   12   1    0    40   9    10   1    2    27   11   68
1st     PAS Giannina                    26   10   2    1    34   12   8    4    1    25   12   60
1st     PAS Giannina                    26   10   2    1    31   11   5    6    2    14   8    53
1st     PAS Giannina                    26   11   1    1    28   4    10   2    1    35   11   66
1st     PAS Giannina                    26   10   3    0    27   10   7    3    3    31   18   57
1st     PAS Giannina                    26   10   3    0    36   11   9    3    1    28   14   63
1st     PAS Giannina                    26   11   1    1    33   14   7    2    4    26   18   57
1st     PAS Giannina                    26   10   2    1    38   13   12   1    0    31   9    69
1st     PAS Giannina                    26   10   2    1    33   15   11   2    0    32   11   67
1st     PAS Giannina                    26   10   2    1    27   10   8    4    1    27   12   60
3rd     PAS Giannina                    26   8    3    2    26   15   4    6    3    23   14   45
1st     PAS Giannina                    26   12   0    1    33   10   10   2    1    27   10   68
1st     PAS Giannina                    26   9    3    1    29   11   8    2    3    22   12   56