1st     PAS Giannina                    26   11   2    0    38   9    7    2    4    25   14   58   
1st     PAS Giannina                    26   8    3    2    34   15   9    2    2    33   16   56   
1st     PAS Giannina                    26   10   1    2    34   11   9    0    4    29   17   58   
1st     PAS Giannina                    26   11   1    1    42   23   5    6    2    32   18   55   
1st     PAS Giannina                    26   11   1    1    39   15   7    3    3    28   15   58   
1st     PAS Giannina                    26   10   1    2    38   15   9    3    1    32   11   61   
1st     PAS Giannina                    26   11   1    1    36   14   10   2    1    33   12   66   
1st     PAS Giannina                    26   11   2    0    32   12   10   2    1    30   7    67   
1st     PAS Giannina                    26   11   2    0    39   18   9    2    2    37   19   64   
1st     PAS Giannina                    26   11   0    2    35   11   11   1    1    34   7    67   
1st     PAS Giannina                    26   13   0    0    44   10   10   3    0    28   8    72   
3rd     PAS Giannina                    26   9    2    2    38   11   5    4    4    20   18   48   
1st     PAS Giannina                    26   10   3    0    34   14   9    2    2    26   15   62   
1st     PAS Giannina                    26   10   2    1    40   16   6    4    3    24   15   54   
1st     PAS Giannina                    26   7    5    1    27   16   10   2    1    34   16   58   
1st     PAS Giannina                    26   8    2    3    32   16   9    3    1    31   12   56   
1st     PAS Giannina                    26   10   3    0    32   10   9    3    1    27   11   63   
1st     PAS Giannina                    26   9    3    1    31   12   10   1    2    25   11   61   
1st     PAS Giannina                    26   10   2    1    47   19   8    3    2    29   14   59   
1st     PAS Giannina                    26   11   1    1    39   11   7    5    1    26   15   60   
1st     PAS Giannina                    26   11   2    0    47   12   8    3    2    28   18   62   
1st     PAS Giannina                    26   11   1    1    32   13   11   1    1    35   13   68   
1st     PAS Giannina                    26   9    3    1    33   10   10   3    0    32   10   63   
1st     PAS Giannina                    26   13   0    0    42   14   10   3    0    32   9    72   
1st     PAS Giannina                    26   13   0    0    40   15   10   3    0    34   10   72   
1st     PAS Giannina                    26   11   1    1    42   16   9    1    3    32   14   62   
1st     PAS Giannina                    26   13   0    0    41   14   10   0    3    36   17   69   
1st     PAS Giannina                    26   12   1    0    35   10   9    3    1    33   11   67   
1st     PAS Giannina                    26   11   1    1    36   12   11   1    1    38   17   68   
1st     PAS Giannina                    26   13   0    0    42   12   10   0    3    31   12   69   
1st     PAS Giannina                    26   12   0    1    41   17   10   2    1    40   11   68   
1st     PAS Giannina                    26   9    3    1    35   10   7    3    3    24   14   54   
1st     PAS Giannina                    26   11   2    0    34   9    7    4    2    33   16   60   
1st     PAS Giannina                    26   11   1    1    35   12   11   1    1    36   13   68   
1st     PAS Giannina                    26   11   1    1    36   14   10   1    2    35   12   65   
1st     PAS Giannina                    26   11   1    1    39   15   10   3    0    43   20   67   
2nd     PAS Giannina                    26   10   1    2    34   15   7    3    3    28   20   55   
1st     PAS Giannina                    26   9    4    0    37   14   9    2    2    27   10   60   
1st     PAS Giannina                    26   11   1    1    39   11   10   3    0    38   9    67   
1st     PAS Giannina                    26   11   1    1    39   13   11   2    0    39   16   69   
1st     PAS Giannina                    26   11   0    2    37   14   9    1    3    24   18   61   
1st     PAS Giannina                    26   9    2    2    34   11   11   0    2    40   12   62   
1st     PAS Giannina                    26   10   2    1    41   13   9    3    1    37   18   62   
1st     PAS Giannina                    26   11   1    1    36   19   9    2    2    34   13   63   
1st     PAS Giannina                    26   12   0    1    37   5    10   3    0    32   9    69   
1st     PAS Giannina                    26   11   1    1    42   15   12   1    0    39   14   71   
1st     PAS Giannina                    26   12   1    0    45   11   9    3    1    38   16   67   
1st     PAS Giannina                    26   12   0    1    39   17   11   1    1    35   13   70   
1st     PAS Giannina                    26   11   0    2    38   12   12   1    0    31   7    70   
1st     PAS Giannina                    26   12   1    0    43   16   8    4    1    36   16   65   
1st     PAS Giannina                    26   11   1    1    48   19   11   1    1    31   15   68   
1st     PAS Giannina                    26   11   1    1    30   8    9    2    2    28   12   63   
1st     PAS Giannina                    26   13   0    0    38   11   9    2    2    34   22   68   
1st     PAS Giannina                    26   10   3    0    34   14   11   2    0    37   12   68   
1st     PAS Giannina                    26   12   1    0    42   11   11   0    2    31   10   70   
1st     PAS Giannina                    26   10   3    0    34   8    10   1    2    32   8    64   
1st     PAS Giannina                    26   11   2    0    35   12   9    4    0    38   17   66   
1st     PAS Giannina                    26   10   2    1    33   14   8    4    1    29   11   60   
1st     PAS Giannina                    26   10   1    2    39   13   12   1    0    29   11   68   
1st     PAS Giannina                    26   11   1    1    32   13   9    3    1    36   16   64   
1st     PAS Giannina                    26   10   2    1    38   13   10   2    1    27   7    64   
1st     PAS Giannina                    26   12   1    0    44   9    4    5    4    20   17   54   
1st     PAS Giannina                    26   12   1    0    39   13   8    1    4    27   20   62   
1st     PAS Giannina                    26   10   3    0    42   14   8    4    1    30   12   61   
1st     PAS Giannina                    26   9    3    1    35   17   10   1    2    33   12   61   
1st     PAS Giannina                    26   11   2    0    42   16   9    3    1    32   17   65   
1st     PAS Giannina                    26   11   1    1    31   10   10   3    0    37   9    67   
1st     PAS Giannina                    26   9    3    1    33   12   10   3    0    38   15   63   
1st     PAS Giannina                    26   13   0    0    41   13   9    3    1    25   9    69   
1st     PAS Giannina                    26   11   1    1    34   18   11   1    1    32   17   68   
1st     PAS Giannina                    26   11   1    1    37   13   12   1    0    32   10   71   
1st     PAS Giannina                    26   10   2    1    43   13   10   1    2    37   17   63   
1st     PAS Giannina                    26   11   2    0    32   9    9    3    1    28   12   65   
1st     PAS Giannina                    26   11   2    0    38   14   10   2    1    34   13   67   
1st     PAS Giannina                    26   9    4    0    44   18   10   1    2    24   13   62   
1st     PAS Giannina                    26   10   3    0    37   8    8    4    1    33   19   61   
1st     PAS Giannina                    26   12   0    1    44   18   9    3    1    32   14   66   
1st     PAS Giannina                    26   9    3    1    33   12   9    2    2    37   13   59   
1st     PAS Giannina                    26   11   2    0    37   11   5    6    2    33   20   56   
1st     PAS Giannina                    26   11   0    2    35   11   8    2    3    31   18   59   
1st     PAS Giannina                    26   11   1    1    36   18   9    2    2    24   13   63   
1st     PAS Giannina                    26   11   1    1    42   13   9    3    1    29   12   64   
1st     PAS Giannina                    26   11   0    2    38   13   9    3    1    31   9    63   
1st     PAS Giannina                    26   10   1    2    33   12   11   2    0    36   14   66   
1st     PAS Giannina                    26   11   2    0    35   13   6    4    3    29   23   57   
1st     PAS Giannina                    26   12   1    0    38   13   11   2    0    34   15   72   
1st     PAS Giannina                    26   10   2    1    35   11   9    3    1    35   13   62   
1st     PAS Giannina                    26   12   1    0    47   20   10   1    2    33   14   68   
1st     PAS Giannina                    26   10   2    1    33   15   10   2    1    38   13   64   
1st     PAS Giannina                    26   11   2    0    36   10   10   1    2    33   11   66   
1st     PAS Giannina                    26   12   1    0    36   13   9    2    2    27   13   66   
1st     PAS Giannina                    26   13   0    0    43   6    7    4    2    33   20   64   
1st     PAS Giannina                    26   11   1    1    37   12   8    3    2    36   15   61   
1st     PAS Giannina                    26   11   2    0    42   12   10   1    2    28   12   66   
1st     PAS Giannina                    26   12   0    1    42   14   12   0    1    32   7    72   
1st     PAS Giannina                    26   11   2    0    35   14   10   2    1    34   15   67   
1st     PAS Giannina                    26   12   0    1    35   13   9    1    3    34   17   64   
1st     PAS Giannina                    26   10   3    0    36   14   10   3    0    32   9    66   
2nd     PAS Giannina                    26   10   1    2    43   18   8    1    4    34   21   56   
1st     PAS Giannina                    26   11   1    1    30   9    8    5    0    32   16   63   