5th     PAS Giannina                    26   8    2    3    25   15   4    5    4    13   16   43   
2nd     PAS Giannina                    26   10   1    2    28   12   4    4    5    12   12   47   
1st     PAS Giannina                    26   10   2    1    23   9    9    2    2    23   8    61   
4th     PAS Giannina                    26   7    2    4    15   12   5    4    4    17   15   42   
3rd     PAS Giannina                    26   7    5    1    29   21   7    2    4    15   11   49   
2nd     PAS Giannina                    26   7    3    3    25   13   6    4    3    15   11   46   
4th     PAS Giannina                    26   7    3    3    22   14   4    4    5    15   23   40   
7th     PAS Giannina                    26   6    3    4    20   13   5    2    6    19   22   38   
4th     PAS Giannina                    26   5    6    2    15   12   4    2    7    11   13   35   
3rd     PAS Giannina                    26   8    2    3    24   14   4    4    5    13   13   42   
5th     PAS Giannina                    26   9    0    4    26   10   3    5    5    15   20   41   
5th     PAS Giannina                    26   6    5    2    22   14   4    5    4    11   12   40   
3rd     PAS Giannina                    26   7    5    1    20   10   5    2    6    15   19   43   
2nd     PAS Giannina                    26   7    4    2    18   12   6    1    6    14   16   44   
3rd     PAS Giannina                    26   8    2    3    27   15   7    1    5    20   18   48   
1st     PAS Giannina                    26   11   2    0    29   7    7    2    4    11   8    58   
3rd     PAS Giannina                    26   9    4    0    25   12   3    3    7    11   20   43   
2nd     PAS Giannina                    26   6    7    0    22   12   7    3    3    19   11   49   
5th     PAS Giannina                    26   7    3    3    22   19   3    8    2    15   15   41   
2nd     PAS Giannina                    26   9    2    2    23   9    4    4    5    17   17   45   
1st     PAS Giannina                    26   9    3    1    22   9    8    4    1    19   10   58   
3rd     PAS Giannina                    26   6    4    3    21   14   4    5    4    13   11   39   
1st     PAS Giannina                    26   12   0    1    30   7    6    5    2    23   15   59   
5th     PAS Giannina                    26   8    4    1    23   10   1    7    5    9    15   38   
4th     PAS Giannina                    26   7    5    1    26   10   3    3    7    8    12   38   
4th     PAS Giannina                    26   7    4    2    23   15   6    3    4    21   17   46   
2nd     PAS Giannina                    26   8    5    0    26   13   2    9    2    16   16   44   
2nd     PAS Giannina                    26   10   1    2    27   16   7    2    4    21   15   54   
2nd     PAS Giannina                    26   8    3    2    19   8    7    3    3    23   16   51   
2nd     PAS Giannina                    26   10   2    1    28   13   4    4    5    18   17   48   
3rd     PAS Giannina                    26   7    4    2    24   13   5    4    4    20   19   44   
2nd     PAS Giannina                    26   10   3    0    32   16   5    2    6    18   18   50   
3rd     PAS Giannina                    26   9    1    3    22   10   7    2    4    18   17   51   
4th     PAS Giannina                    26   8    3    2    18   12   3    4    6    18   19   40   
5th     PAS Giannina                    26   8    1    4    24   15   2    8    3    10   12   39   
9th     PAS Giannina                    26   7    3    3    23   15   3    1    9    8    17   34   
7th     PAS Giannina                    26   8    3    2    24   15   2    4    7    15   19   37   
4th     PAS Giannina                    26   6    3    4    20   14   5    6    2    20   13   42   
2nd     PAS Giannina                    26   9    3    1    26   11   4    7    2    19   17   49   
9th     PAS Giannina                    26   4    7    2    14   11   4    2    7    13   20   33   
4th     PAS Giannina                    26   6    3    4    18   14   5    5    3    17   14   41   
4th     PAS Giannina                    26   9    1    3    24   12   4    4    5    14   15   44   
4th     PAS Giannina                    26   6    3    4    20   13   5    6    2    17   14   42   
5th     PAS Giannina                    26   8    2    3    24   13   3    4    6    9    14   39   
3rd     PAS Giannina                    26   8    2    3    19   11   6    4    3    17   12   48   
2nd     PAS Giannina                    26   9    2    2    23   10   6    2    5    15   15   49   
2nd     PAS Giannina                    26   9    3    1    20   7    6    2    5    14   14   50   
2nd     PAS Giannina                    26   9    3    1    26   13   5    4    4    10   14   49   
7th     PAS Giannina                    26   4    5    4    20   17   4    5    4    18   18   34   
5th     PAS Giannina                    26   9    1    3    24   13   3    2    8    11   19   39   
3rd     PAS Giannina                    26   9    3    1    19   7    2    4    7    13   21   40   
9th     PAS Giannina                    26   5    3    5    18   21   3    6    4    14   15   33   
1st     PAS Giannina                    26   12   1    0    28   8    4    5    4    13   14   54   
2nd     PAS Giannina                    26   7    3    3    20   11   5    5    3    20   18   44   
1st     PAS Giannina                    26   8    3    2    26   11   8    3    2    19   14   54   
8th     PAS Giannina                    26   7    4    2    20   15   2    6    5    19   23   37   
3rd     PAS Giannina                    26   10   3    0    26   8    3    6    4    17   15   48   
5th     PAS Giannina                    26   8    3    2    19   8    3    6    4    13   14   42   
6th     PAS Giannina                    26   7    2    4    16   12   3    4    6    14   21   36   
1st     PAS Giannina                    26   10   3    0    32   11   4    3    6    12   19   48   
6th     PAS Giannina                    26   4    3    6    14   14   6    3    4    22   16   36   
5th     PAS Giannina                    26   6    2    5    21   20   5    6    2    18   13   41   
3rd     PAS Giannina                    26   9    2    2    24   16   6    4    3    21   15   51   
2nd     PAS Giannina                    26   7    3    3    32   20   5    6    2    22   13   45   
7th     PAS Giannina                    26   6    6    1    22   8    3    2    8    10   18   35   
3rd     PAS Giannina                    26   9    2    2    26   12   5    4    4    14   13   48   
5th     PAS Giannina                    26   6    4    3    19   13   5    2    6    22   18   39   
2nd     PAS Giannina                    26   8    3    2    25   16   7    3    3    23   14   51   
7th     PAS Giannina                    26   8    3    2    21   10   0    8    5    4    12   35   
1st     PAS Giannina                    26   7    5    1    19   6    7    2    4    16   10   49   
2nd     PAS Giannina                    26   8    2    3    27   13   6    2    5    15   14   46   
7th     PAS Giannina                    26   4    4    5    13   15   6    1    6    16   11   35   
9th     PAS Giannina                    26   8    1    4    26   12   2    3    8    11   23   34   
7th     PAS Giannina                    26   6    3    4    14   10   3    5    5    14   13   35   
4th     PAS Giannina                    26   10   2    1    26   8    2    3    8    12   20   41   
2nd     PAS Giannina                    26   10   2    1    29   9    4    4    5    17   18   48   
2nd     PAS Giannina                    26   9    4    0    29   10   3    5    5    13   16   45   
5th     PAS Giannina                    26   7    5    1    27   17   3    6    4    12   10   41   
4th     PAS Giannina                    26   5    5    3    10   6    5    2    6    15   18   37   
1st     PAS Giannina                    26   6    3    4    22   17   5    6    2    18   14   42   
3rd     PAS Giannina                    26   7    3    3    22   16   6    2    5    18   14   44   
8th     PAS Giannina                    26   7    5    1    20   9    2    3    8    10   17   35   
3rd     PAS Giannina                    26   9    3    1    22   11   5    2    6    19   16   47   
4th     PAS Giannina                    26   7    5    1    21   10   4    4    5    15   17   42   
2nd     PAS Giannina                    26   9    2    2    26   13   5    5    3    17   18   49   
5th     PAS Giannina                    26   9    2    2    25   11   2    2    9    10   23   37   
8th     PAS Giannina                    26   3    4    6    14   17   6    4    3    22   16   35   
2nd     PAS Giannina                    26   9    2    2    24   11   5    5    3    15   11   49   
3rd     PAS Giannina                    26   8    3    2    28   18   6    1    6    19   15   46   
1st     PAS Giannina                    26   11   1    1    26   9    5    6    2    19   13   55   
5th     PAS Giannina                    26   6    3    4    21   17   5    5    3    12   10   41   
2nd     PAS Giannina                    26   8    4    1    25   12   5    7    1    18   14   50   
2nd     PAS Giannina                    26   8    3    2    20   12   6    3    4    14   13   48   
2nd     PAS Giannina                    26   11   0    2    29   11   4    3    6    14   18   48   
9th     PAS Giannina                    26   4    5    4    17   17   4    3    6    10   11   32   
9th     PAS Giannina                    26   6    5    2    22   14   2    5    6    9    14   34   
3rd     PAS Giannina                    26   7    4    2    17   12   6    3    4    12   10   46   
4th     PAS Giannina                    26   9    1    3    23   12   4    3    6    15   13   43   
5th     PAS Giannina                    26   6    3    4    19   15   6    4    3    22   15   43   
7th     PAS Giannina                    26   6    4    3    19   11   4    4    5    14   15   38   