5th     PAS Giannina                    26   8    2    3    31   22   3    4    6    13   19   39   
6th     PAS Giannina                    26   9    1    3    24   14   3    3    7    14   26   40   
4th     PAS Giannina                    26   10   1    2    30   15   4    2    7    17   22   45   
11th    PAS Giannina                    26   4    4    5    19   21   3    2    8    12   19   27   
10th    PAS Giannina                    26   7    2    4    34   24   2    2    9    9    25   31   
7th     PAS Giannina                    26   7    3    3    31   20   3    3    7    13   22   36   
12th    PAS Giannina                    26   6    1    6    28   20   1    5    7    13   28   27   
10th    PAS Giannina                    26   4    3    6    21   26   4    2    7    14   22   29   
4th     PAS Giannina                    26   6    2    5    26   25   5    4    4    13   17   39   
8th     PAS Giannina                    26   7    2    4    20   18   3    1    9    19   29   33   
4th     PAS Giannina                    26   8    1    4    21   15   5    4    4    26   23   44   
10th    PAS Giannina                    26   7    2    4    27   22   1    4    8    13   27   30   
2nd     PAS Giannina                    26   9    3    1    26   14   6    2    5    22   24   50   
11th    PAS Giannina                    26   6    2    5    26   20   2    4    7    16   28   30   
4th     PAS Giannina                    26   9    2    2    30   17   4    2    7    15   21   43   
7th     PAS Giannina                    26   9    1    3    31   18   2    4    7    10   22   38   
12th    PAS Giannina                    26   5    4    4    26   24   2    3    8    17   28   28   
8th     PAS Giannina                    26   7    3    3    26   19   3    2    8    19   30   35   
8th     PAS Giannina                    26   9    2    2    33   19   1    4    8    16   26   36   
8th     PAS Giannina                    26   7    3    3    31   20   2    3    8    13   25   33   
8th     PAS Giannina                    26   7    2    4    28   21   3    2    8    21   31   34   
8th     PAS Giannina                    26   7    3    3    30   23   3    3    7    23   28   36   
3rd     PAS Giannina                    26   10   1    2    35   18   2    4    7    19   31   41   
9th     PAS Giannina                    26   5    5    3    24   17   3    5    5    12   19   34   
11th    PAS Giannina                    26   4    6    3    24   22   1    4    8    14   32   25   
13th    PAS Giannina                    26   6    2    5    27   20   2    2    9    12   22   28   
6th     PAS Giannina                    26   7    2    4    31   23   3    6    4    18   20   38   
11th    PAS Giannina                    26   6    2    5    28   24   4    0    9    22   33   32   
7th     PAS Giannina                    26   8    2    3    28   21   3    3    7    14   20   38   
6th     PAS Giannina                    26   8    4    1    26   16   2    5    6    21   25   39   
9th     PAS Giannina                    26   6    5    2    29   19   2    3    8    15   31   32   
9th     PAS Giannina                    26   5    5    3    24   21   3    4    6    19   26   33   
13th    PAS Giannina                    26   4    5    4    30   28   3    1    9    16   30   27   
2nd     PAS Giannina                    26   8    3    2    31   17   6    3    4    21   16   48   
8th     PAS Giannina                    26   7    2    4    26   16   2    6    5    19   26   35   
9th     PAS Giannina                    26   7    2    4    26   16   3    1    9    18   31   33   
2nd     PAS Giannina                    26   10   3    0    32   17   3    6    4    17   26   48   
11th    PAS Giannina                    26   6    2    5    22   17   2    4    7    20   28   30   
9th     PAS Giannina                    26   6    1    6    21   22   4    2    7    15   16   33   
12th    PAS Giannina                    26   5    3    5    24   20   3    2    8    15   33   29   
8th     PAS Giannina                    26   6    4    3    24   20   3    3    7    18   25   34   
6th     PAS Giannina                    26   5    3    5    27   23   5    3    5    22   23   36   
4th     PAS Giannina                    26   7    3    3    28   19   5    4    4    19   18   43   
9th     PAS Giannina                    26   9    1    3    27   19   2    2    9    16   30   36   
11th    PAS Giannina                    26   5    1    7    21   23   4    3    6    20   22   31   
5th     PAS Giannina                    26   7    4    2    25   17   3    3    7    17   23   37   
12th    PAS Giannina                    26   4    4    5    27   30   2    1    10   15   34   23   
11th    PAS Giannina                    26   4    7    2    29   23   2    3    8    11   20   28   
14th    PAS Giannina                    26   4    5    4    20   21   2    2    9    21   29   25   
7th     PAS Giannina                    26   7    2    4    29   20   3    5    5    23   26   37   
4th     PAS Giannina                    26   8    2    3    29   16   3    3    7    15   21   38   
13th    PAS Giannina                    26   5    1    7    15   21   3    1    9    12   25   26   
7th     PAS Giannina                    26   6    4    3    29   25   4    2    7    12   19   36   
10th    PAS Giannina                    26   7    1    5    27   19   4    0    9    18   29   34   
10th    PAS Giannina                    26   6    2    5    25   18   4    1    8    16   29   33   
7th     PAS Giannina                    26   6    3    4    25   18   3    4    6    16   20   34   
10th    PAS Giannina                    26   6    4    3    24   19   1    4    8    18   29   29   
3rd     PAS Giannina                    26   8    2    3    29   21   3    5    5    16   16   40   
6th     PAS Giannina                    26   7    2    4    32   26   4    2    7    24   28   37   
8th     PAS Giannina                    26   6    3    4    22   19   5    1    7    24   26   37   
7th     PAS Giannina                    26   9    2    2    31   18   1    4    8    18   28   36   
8th     PAS Giannina                    26   7    1    5    27   24   3    3    7    20   25   34   
9th     PAS Giannina                    26   7    2    4    25   14   2    4    7    19   27   33   
9th     PAS Giannina                    26   4    5    4    22   25   4    2    7    15   26   31   
7th     PAS Giannina                    26   6    3    4    21   20   4    5    4    14   18   38   
11th    PAS Giannina                    26   5    2    6    21   21   1    4    8    14   24   24   
5th     PAS Giannina                    26   6    2    5    23   23   4    5    4    20   21   37   
4th     PAS Giannina                    26   6    5    2    30   22   5    3    5    19   24   41   
12th    PAS Giannina                    26   4    6    3    25   21   2    4    7    18   24   28   
8th     PAS Giannina                    26   6    3    4    31   22   4    1    8    18   27   34   
1st     PAS Giannina                    26   10   3    0    32   13   6    2    5    24   22   53   
10th    PAS Giannina                    26   6    5    2    26   20   1    2    10   10   24   28   
9th     PAS Giannina                    26   5    5    3    21   19   4    3    6    22   24   35   
5th     PAS Giannina                    26   10   2    1    40   17   1    5    7    16   32   40   
8th     PAS Giannina                    26   5    5    3    22   15   3    3    7    15   20   32   
7th     PAS Giannina                    26   6    5    2    28   21   3    4    6    21   24   36   
2nd     PAS Giannina                    26   9    2    2    26   10   4    4    5    17   22   45   
7th     PAS Giannina                    26   9    1    3    33   17   2    4    7    19   29   38   
12th    PAS Giannina                    26   5    5    3    24   22   0    3    10   9    28   23   
2nd     PAS Giannina                    26   7    3    3    29   17   7    1    5    24   20   46   
1st     PAS Giannina                    26   10   2    1    31   17   5    5    3    25   22   52   
3rd     PAS Giannina                    26   7    3    3    28   15   5    2    6    24   26   41   
6th     PAS Giannina                    26   5    7    1    26   16   4    2    7    18   26   36   
8th     PAS Giannina                    26   7    2    4    32   24   3    1    9    15   23   33   
8th     PAS Giannina                    26   6    2    5    17   13   3    4    6    17   23   33   
6th     PAS Giannina                    26   10   0    3    32   17   3    2    8    15   28   41   
5th     PAS Giannina                    26   7    5    1    28   15   3    4    6    18   23   39   
7th     PAS Giannina                    26   7    3    3    27   19   4    3    6    18   24   39   
6th     PAS Giannina                    26   6    5    2    26   23   2    3    8    17   28   32   
5th     PAS Giannina                    26   9    2    2    26   15   2    5    6    15   24   40   
11th    PAS Giannina                    26   4    4    5    25   24   5    0    8    14   20   31   
10th    PAS Giannina                    26   7    2    4    33   23   2    3    8    19   27   32   
12th    PAS Giannina                    26   4    4    5    21   24   3    3    7    17   24   28   
5th     PAS Giannina                    26   6    6    1    33   21   5    3    5    16   18   42   
11th    PAS Giannina                    26   6    4    3    23   21   3    3    7    17   23   34   
11th    PAS Giannina                    26   5    5    3    25   26   3    2    8    20   28   31   
10th    PAS Giannina                    26   6    6    1    26   16   1    4    8    13   21   31   
3rd     PAS Giannina                    26   7    1    5    33   26   6    2    5    22   21   42   
10th    PAS Giannina                    26   7    3    3    30   16   2    2    9    20   31   32   
8th     PAS Giannina                    26   8    2    3    27   18   2    3    8    16   31   35   