1st     PAS Giannina                    26   13   0    0    29   4    7    1    5    23   18   61
2nd     PAS Giannina                    26   9    3    1    30   14   4    6    3    16   16   48
1st     PAS Giannina                    26   9    2    2    28   12   11   0    2    30   9    62
1st     PAS Giannina                    26   9    0    4    32   16   6    6    1    16   7    51
1st     PAS Giannina                    26   9    2    2    29   11   10   2    1    36   13   61
1st     PAS Giannina                    26   8    5    0    29   11   9    2    2    32   19   58
1st     PAS Giannina                    26   9    4    0    28   8    6    3    4    21   18   52
1st     PAS Giannina                    26   7    4    2    19   9    8    4    1    29   11   53
1st     PAS Giannina                    26   9    3    1    32   18   7    4    2    22   13   55
2nd     PAS Giannina                    26   7    5    1    24   11   5    5    3    14   14   46
1st     PAS Giannina                    26   11   1    1    36   11   9    1    3    31   17   62
1st     PAS Giannina                    26   7    3    3    24   14   11   2    0    32   11   59
1st     PAS Giannina                    26   11   2    0    29   11   10   3    0    32   16   68
2nd     PAS Giannina                    26   9    3    1    27   10   5    4    4    26   22   49
1st     PAS Giannina                    26   11   2    0    37   12   8    3    2    28   13   62
2nd     PAS Giannina                    26   9    3    1    31   16   8    3    2    27   12   57
2nd     PAS Giannina                    26   10   1    2    29   9    6    2    5    25   12   51
2nd     PAS Giannina                    26   10   3    0    29   10   7    3    3    24   16   57
2nd     PAS Giannina                    26   12   0    1    27   10   9    2    2    31   17   65
1st     PAS Giannina                    26   9    4    0    26   8    6    5    2    22   17   54
1st     PAS Giannina                    26   10   3    0    31   8    6    2    5    32   16   53
1st     PAS Giannina                    26   10   2    1    26   10   8    2    3    30   12   58
1st     PAS Giannina                    26   11   1    1    29   7    7    2    4    22   17   57
2nd     PAS Giannina                    26   10   2    1    30   9    5    4    4    22   16   51
1st     PAS Giannina                    26   11   2    0    29   8    9    3    1    31   13   65
1st     PAS Giannina                    26   10   2    1    26   11   11   2    0    27   10   67
3rd     PAS Giannina                    26   9    3    1    35   16   3    5    5    19   20   44
2nd     PAS Giannina                    26   11   2    0    28   10   6    3    4    21   14   56
2nd     PAS Giannina                    26   7    5    1    29   13   7    4    2    30   20   51
1st     PAS Giannina                    26   12   0    1    27   8    11   1    1    34   10   70
1st     PAS Giannina                    26   11   1    1    31   13   9    2    2    25   6    63
1st     PAS Giannina                    26   10   1    2    23   10   13   0    0    27   4    70
1st     PAS Giannina                    26   11   1    1    28   13   11   1    1    32   13   68
1st     PAS Giannina                    26   10   2    1    35   13   8    3    2    23   10   59
1st     PAS Giannina                    26   8    5    0    26   11   9    0    4    28   19   56
1st     PAS Giannina                    26   11   0    2    29   12   6    4    3    27   13   55
1st     PAS Giannina                    26   12   0    1    32   8    6    2    5    18   19   56
1st     PAS Giannina                    26   11   1    1    31   9    8    3    2    30   15   61
1st     PAS Giannina                    26   10   2    1    34   12   10   2    1    31   13   64
2nd     PAS Giannina                    26   10   0    3    26   10   8    3    2    29   11   57
1st     PAS Giannina                    26   11   2    0    35   10   8    1    4    27   14   60
4th     PAS Giannina                    26   7    2    4    25   13   5    6    2    25   13   44
1st     PAS Giannina                    26   9    4    0    26   9    8    2    3    23   13   57
2nd     PAS Giannina                    26   7    3    3    17   11   8    2    3    24   13   50
1st     PAS Giannina                    26   12   1    0    29   6    9    2    2    32   16   66
2nd     PAS Giannina                    26   9    2    2    29   11   7    3    3    22   14   53
1st     PAS Giannina                    26   11   1    1    29   8    7    4    2    26   10   59
2nd     PAS Giannina                    26   6    3    4    23   15   6    5    2    24   15   44
2nd     PAS Giannina                    26   10   2    1    30   7    5    2    6    23   22   49
1st     PAS Giannina                    26   9    3    1    28   11   8    3    2    23   13   57
2nd     PAS Giannina                    26   10   3    0    30   8    7    5    1    30   13   59
1st     PAS Giannina                    26   11   2    0    29   12   9    2    2    33   11   64
1st     PAS Giannina                    26   8    4    1    21   12   7    3    3    29   16   52
3rd     PAS Giannina                    26   8    3    2    26   12   6    5    2    25   12   50
1st     PAS Giannina                    26   12   0    1    31   10   9    2    2    31   16   65
3rd     PAS Giannina                    26   9    3    1    24   8    5    1    7    17   17   46
4th     PAS Giannina                    26   7    1    5    19   15   7    3    3    20   9    46
1st     PAS Giannina                    26   11   1    1    32   8    8    2    3    24   15   60
2nd     PAS Giannina                    26   10   0    3    28   10   9    1    3    30   16   58
1st     PAS Giannina                    26   9    1    3    25   14   10   1    2    25   11   59
1st     PAS Giannina                    26   11   2    0    29   11   8    3    2    25   13   62
1st     PAS Giannina                    26   9    3    1    27   15   7    3    3    19   12   54
2nd     PAS Giannina                    26   7    2    4    18   15   11   0    2    28   9    56
1st     PAS Giannina                    26   12   1    0    32   8    8    5    0    26   12   66
1st     PAS Giannina                    26   11   2    0    29   10   7    2    4    26   20   58
2nd     PAS Giannina                    26   9    4    0    26   9    7    4    2    27   19   56
1st     PAS Giannina                    26   8    4    1    27   14   8    5    0    28   8    57
1st     PAS Giannina                    26   11   1    1    35   12   5    5    3    20   15   54
2nd     PAS Giannina                    26   8    2    3    28   18   9    2    2    31   14   55
1st     PAS Giannina                    26   11   0    2    33   15   10   1    2    25   8    64
2nd     PAS Giannina                    26   10   3    0    27   10   8    2    3    27   14   59
1st     PAS Giannina                    26   8    4    1    23   9    8    2    3    27   12   54
1st     PAS Giannina                    26   10   2    1    31   14   7    4    2    27   16   57
1st     PAS Giannina                    26   8    1    4    23   11   8    4    1    24   11   53
1st     PAS Giannina                    26   9    2    2    26   11   10   1    2    31   15   60
1st     PAS Giannina                    26   11   2    0    35   13   7    6    0    25   13   62
1st     PAS Giannina                    26   11   2    0    30   7    6    4    3    23   15   57
1st     PAS Giannina                    26   12   1    0    34   6    6    5    2    27   16   60
1st     PAS Giannina                    26   11   2    0    26   8    6    4    3    25   15   57
2nd     PAS Giannina                    26   5    5    3    18   11   9    1    3    21   11   48
2nd     PAS Giannina                    26   11   0    2    34   13   5    6    2    22   13   54
1st     PAS Giannina                    26   11   0    2    29   14   8    1    4    25   16   58
1st     PAS Giannina                    26   9    3    1    33   12   9    3    1    31   16   60
2nd     PAS Giannina                    26   6    5    2    24   12   7    2    4    18   11   46
1st     PAS Giannina                    26   8    4    1    30   13   10   2    1    28   10   60
1st     PAS Giannina                    26   11   2    0    34   10   9    2    2    26   14   64
2nd     PAS Giannina                    26   12   1    0    37   9    4    6    3    22   19   55
1st     PAS Giannina                    26   10   2    1    25   7    7    5    1    21   14   58
1st     PAS Giannina                    26   11   1    1    28   11   9    1    3    28   14   62
1st     PAS Giannina                    26   12   1    0    35   8    5    5    3    15   11   57
1st     PAS Giannina                    26   9    1    3    26   9    6    2    5    21   14   48
1st     PAS Giannina                    26   9    2    2    24   9    9    2    2    30   14   58
1st     PAS Giannina                    26   11   1    1    30   12   10   3    0    23   6    67
2nd     PAS Giannina                    26   9    4    0    34   15   7    2    4    24   16   54
1st     PAS Giannina                    26   10   2    1    31   9    11   1    1    31   8    66
1st     PAS Giannina                    26   11   1    1    29   10   8    5    0    28   10   63
1st     PAS Giannina                    26   11   0    2    27   8    9    3    1    27   12   63
2nd     PAS Giannina                    26   9    3    1    22   10   7    4    2    20   12   55
1st     PAS Giannina                    26   11   2    0    41   11   5    3    5    24   12   53
1st     PAS Giannina                    26   11   1    1    29   11   7    4    2    23   10   59