1st     PAS Giannina                    26   11   0    2    36   14   7    4    2    27   14   58   
1st     PAS Giannina                    26   10   3    0    38   15   10   2    1    33   15   65   
1st     PAS Giannina                    26   12   1    0    36   11   8    4    1    36   21   65   
1st     PAS Giannina                    26   12   0    1    43   11   6    6    1    38   25   60   
2nd     PAS Giannina                    26   10   2    1    31   10   8    1    4    34   28   57   
1st     PAS Giannina                    26   12   0    1    44   13   9    3    1    39   18   66   
1st     PAS Giannina                    26   13   0    0    39   8    9    2    2    41   24   68   
1st     PAS Giannina                    26   12   1    0    33   9    11   0    2    42   11   70   
2nd     PAS Giannina                    26   10   1    2    39   15   7    3    3    28   15   55   
1st     PAS Giannina                    26   13   0    0    40   18   10   1    2    39   16   70   
1st     PAS Giannina                    26   9    2    2    31   17   13   0    0    39   10   68   
2nd     PAS Giannina                    26   6    5    2    24   14   10   3    0    35   13   56   
1st     PAS Giannina                    26   10   1    2    29   17   9    2    2    35   16   60   
1st     PAS Giannina                    26   8    3    2    38   23   9    3    1    26   9    57   
1st     PAS Giannina                    26   10   2    1    30   13   10   1    2    38   14   63   
1st     PAS Giannina                    26   10   2    1    39   13   9    3    1    42   24   62   
1st     PAS Giannina                    26   13   0    0    36   14   6    4    3    28   21   61   
1st     PAS Giannina                    26   13   0    0    36   15   8    2    3    30   18   65   
1st     PAS Giannina                    26   12   0    1    45   20   9    4    0    39   15   67   
1st     PAS Giannina                    26   12   1    0    35   13   9    3    1    38   16   67   
1st     PAS Giannina                    26   12   1    0    39   17   10   3    0    37   13   70   
1st     PAS Giannina                    26   11   2    0    36   15   10   1    2    40   20   66   
1st     PAS Giannina                    26   11   2    0    45   17   10   3    0    35   11   68   
1st     PAS Giannina                    26   12   0    1    41   15   10   3    0    40   24   69   
1st     PAS Giannina                    26   11   1    1    46   17   8    2    3    39   26   60   
1st     PAS Giannina                    26   11   2    0    42   21   10   3    0    32   18   68   
1st     PAS Giannina                    26   10   3    0    39   9    8    1    4    30   18   58   
1st     PAS Giannina                    26   10   3    0    34   15   10   3    0    41   11   66   
1st     PAS Giannina                    26   12   1    0    38   11   12   1    0    38   9    74   
1st     PAS Giannina                    26   10   3    0    34   12   7    3    3    28   18   57   
1st     PAS Giannina                    26   11   2    0    41   13   8    4    1    41   13   63   
1st     PAS Giannina                    26   11   0    2    32   14   9    1    3    29   18   61   
1st     PAS Giannina                    26   10   2    1    33   15   10   2    1    31   18   64   
1st     PAS Giannina                    26   10   3    0    38   15   9    1    3    41   17   61   
1st     PAS Giannina                    26   10   3    0    43   20   11   1    1    35   15   67   
1st     PAS Giannina                    26   9    4    0    40   19   11   1    1    35   17   65   
1st     PAS Giannina                    26   11   2    0    42   21   9    2    2    34   13   64   
1st     PAS Giannina                    26   12   0    1    44   14   8    2    3    32   14   62   
1st     PAS Giannina                    26   10   2    1    38   12   8    2    3    35   19   58   
1st     PAS Giannina                    26   11   2    0    41   13   10   2    1    44   15   67   
2nd     PAS Giannina                    26   8    4    1    29   15   10   1    2    38   20   59   
1st     PAS Giannina                    26   11   2    0    39   17   9    2    2    38   21   64   
1st     PAS Giannina                    26   11   2    0    42   14   6    3    4    35   26   56   
1st     PAS Giannina                    26   12   1    0    44   10   7    2    4    34   19   60   
1st     PAS Giannina                    26   9    4    0    35   14   11   1    1    40   14   65   
1st     PAS Giannina                    26   12   1    0    43   13   9    1    3    32   21   65   
2nd     PAS Giannina                    26   8    3    2    33   18   8    2    3    34   20   53   
2nd     PAS Giannina                    26   9    3    1    37   14   6    4    3    27   18   52   
1st     PAS Giannina                    26   13   0    0    38   14   11   1    1    35   12   73   
2nd     PAS Giannina                    26   10   1    2    37   17   9    2    2    31   15   60   
1st     PAS Giannina                    26   10   3    0    35   14   10   1    2    27   14   64   
1st     PAS Giannina                    26   11   1    1    38   12   11   2    0    40   16   69   
1st     PAS Giannina                    26   10   2    1    31   15   9    3    1    34   20   62   
1st     PAS Giannina                    26   10   3    0    34   14   9    1    3    34   19   61   
2nd     PAS Giannina                    26   8    4    1    34   19   9    3    1    37   15   58   
1st     PAS Giannina                    26   10   3    0    33   11   8    4    1    36   18   61   
1st     PAS Giannina                    26   9    4    0    36   11   9    3    1    37   14   61   
1st     PAS Giannina                    26   10   1    2    31   10   11   1    1    38   14   65   
2nd     PAS Giannina                    26   9    1    3    33   17   10   2    1    36   15   60   
1st     PAS Giannina                    26   10   1    2    36   18   10   3    0    42   10   64   
2nd     PAS Giannina                    26   10   0    3    33   15   6    3    4    31   18   51   
1st     PAS Giannina                    26   12   1    0    45   15   10   2    1    42   17   69   
1st     PAS Giannina                    26   9    3    1    35   15   10   2    1    40   15   62   
1st     PAS Giannina                    26   12   1    0    41   20   9    1    3    35   16   65   
2nd     PAS Giannina                    26   11   2    0    39   18   6    4    3    29   22   57   
1st     PAS Giannina                    26   9    3    1    41   19   8    4    1    40   18   58   
1st     PAS Giannina                    26   11   1    1    41   17   8    2    3    33   14   60   
1st     PAS Giannina                    26   10   1    2    35   13   8    3    2    28   13   58   
1st     PAS Giannina                    26   11   1    1    30   9    9    1    3    36   23   62   
1st     PAS Giannina                    26   12   1    0    38   12   8    3    2    40   24   64   
1st     PAS Giannina                    26   10   2    1    29   14   9    2    2    28   15   61   
1st     PAS Giannina                    26   11   1    1    37   15   8    1    4    26   20   59   
1st     PAS Giannina                    26   10   3    0    32   13   8    3    2    32   13   60   
1st     PAS Giannina                    26   8    1    4    33   21   11   1    1    33   11   59   
1st     PAS Giannina                    26   12   1    0    36   14   9    1    3    37   17   65   
1st     PAS Giannina                    26   11   2    0    39   18   8    2    3    25   14   61   
1st     PAS Giannina                    26   10   1    2    36   16   9    4    0    40   18   62   
1st     PAS Giannina                    26   12   1    0    37   15   10   2    1    42   18   69   
1st     PAS Giannina                    26   11   0    2    36   13   9    3    1    40   11   63   
1st     PAS Giannina                    26   12   1    0    41   8    8    4    1    34   16   65   
1st     PAS Giannina                    26   12   1    0    40   13   10   2    1    35   10   69   
1st     PAS Giannina                    26   11   2    0    44   15   8    4    1    38   19   63   
1st     PAS Giannina                    26   10   1    2    39   16   7    3    3    27   15   55   
2nd     PAS Giannina                    26   9    4    0    33   15   9    3    1    36   17   61   
1st     PAS Giannina                    26   10   2    1    33   13   10   2    1    37   18   64   
1st     PAS Giannina                    26   11   2    0    40   13   8    3    2    31   17   62   
1st     PAS Giannina                    26   8    3    2    26   16   10   3    0    37   14   60   
1st     PAS Giannina                    26   12   1    0    42   15   9    2    2    35   15   66   
2nd     PAS Giannina                    26   7    3    3    28   17   6    5    2    27   17   47   
1st     PAS Giannina                    26   12   1    0    35   12   10   2    1    40   13   69   
1st     PAS Giannina                    26   9    2    2    29   12   8    4    1    38   17   57   
1st     PAS Giannina                    26   12   0    1    41   12   9    2    2    34   14   65   
1st     PAS Giannina                    26   13   0    0    47   8    9    3    1    29   15   69   
2nd     PAS Giannina                    26   12   0    1    37   11   4    5    4    24   25   53   
1st     PAS Giannina                    26   13   0    0    45   15   6    5    2    32   26   62   
1st     PAS Giannina                    26   10   3    0    40   13   8    3    2    34   16   60   
4th     PAS Giannina                    26   8    2    3    33   17   5    5    3    26   18   46   
1st     PAS Giannina                    26   12   1    0    36   7    8    2    3    28   16   63   
3rd     PAS Giannina                    26   7    2    4    30   12   6    3    4    33   22   44   
1st     PAS Giannina                    26   9    3    1    40   17   9    1    3    29   12   58   