1st      PAS Giannina            26   10   1    2    31   12   10   2    1    31   12   63
1st      PAS Giannina            26   11   2    0    35   8    9    3    1    24   10   65
1st      PAS Giannina            26   12   1    0    37   11   9    3    1    30   13   67
1st      PAS Giannina            26   9    3    1    29   10   10   1    2    34   14   61
1st      PAS Giannina            26   10   1    2    28   10   11   1    1    32   13   65
1st      PAS Giannina            26   12   0    1    37   12   10   2    1    32   11   68
1st      PAS Giannina            26   12   0    1    38   9    6    5    2    23   13   59
1st      PAS Giannina            26   12   1    0    40   10   5    4    4    20   18   56
1st      PAS Giannina            26   10   2    1    31   11   8    1    4    21   13   57
1st      PAS Giannina            26   8    2    3    25   9    11   0    2    35   11   59
1st      PAS Giannina            26   10   1    2    37   10   9    3    1    36   12   61
1st      PAS Giannina            26   12   0    1    36   16   11   1    1    34   12   70
1st      PAS Giannina            26   10   3    0    33   9    8    3    2    33   15   60
2nd     PAS Giannina            26   9    4    0    32   7    8    3    2    25   13   58
1st      PAS Giannina            26   12   1    0    43   11   6    3    4    20   13   58
1st      PAS Giannina            26   9    4    0    27   12   13   0    0    33   10   70
2nd     PAS Giannina            26   13   0    0    35   6    5    4    4    19   14   58
1st      PAS Giannina            26   12   0    1    40   14   9    2    2    30   7    65
1st      PAS Giannina            26   9    3    1    31   11   11   0    2    33   6    63
1st      PAS Giannina            26   10   3    0    29   5    11   0    2    30   14   66
1st      PAS Giannina            26   11   0    2    29   11   11   1    1    33   8    67
1st      PAS Giannina            26   11   1    1    31   11   7    3    3    25   18   58
2nd     PAS Giannina            26   12   1    0    37   8    5    3    5    16   13   55
1st      PAS Giannina            26   12   1    0    37   9    8    0    5    23   15   61
1st      PAS Giannina            26   12   0    1    38   13   4    5    4    22   17   53
1st      PAS Giannina            26   10   3    0    29   9    11   1    1    31   9    67
1st      PAS Giannina            26   12   1    0    33   9    8    3    2    29   18   64
1st      PAS Giannina            26   11   1    1    31   9    10   2    1    32   11   66
1st      PAS Giannina            26   8    3    2    31   18   11   0    2    31   11   60
1st      PAS Giannina            26   11   2    0    45   15   11   1    1    28   11   69
1st      PAS Giannina            26   9    4    0    26   10   8    3    2    29   19   58
1st      PAS Giannina            26   13   0    0    38   8    9    3    1    27   16   69
1st      PAS Giannina            26   10   2    1    37   15   12   0    1    32   8    68
1st      PAS Giannina            26   11   1    1    33   12   9    3    1    30   14   64
1st      PAS Giannina            26   12   1    0    31   4    9    3    1    27   10   67
1st      PAS Giannina            26   11   2    0    35   13   8    3    2    29   14   62
1st      PAS Giannina            26   12   1    0    41   8    8    4    1    24   11   65
1st      PAS Giannina            26   12   1    0    32   5    12   0    1    41   17   73
1st      PAS Giannina            26   12   1    0    31   7    9    4    0    29   11   68
1st      PAS Giannina            26   10   1    2    30   13   11   1    1    30   7    65
1st      PAS Giannina            26   10   1    2    29   10   8    5    0    26   12   60
1st      PAS Giannina            26   10   3    0    28   10   11   0    2    26   12   66
1st      PAS Giannina            26   10   2    1    29   10   7    1    5    21   16   54
1st      PAS Giannina            26   13   0    0    37   4    9    1    3    28   16   67
1st      PAS Giannina            26   12   0    1    36   12   7    4    2    29   12   61
2nd     PAS Giannina            26   8    2    3    27   12   10   1    2    29   15   57
1st      PAS Giannina            26   13   0    0    30   9    10   2    1    39   12   71
1st      PAS Giannina            26   11   2    0    39   12   12   1    0    36   8    72
1st      PAS Giannina            26   10   2    1    33   6    10   1    2    35   9    63
1st      PAS Giannina            26   10   2    1    24   8    9    2    2    35   11   61
1st      PAS Giannina            26   10   3    0    30   8    11   2    0    31   6    68
1st      PAS Giannina            26   11   2    0    28   6    8    3    2    26   13   62
1st      PAS Giannina            26   11   1    1    33   12   10   1    2    26   12   65
1st      PAS Giannina            26   13   0    0    40   11   6    3    4    25   18   60
1st      PAS Giannina            26   10   1    2    24   9    9    2    2    36   14   60
1st      PAS Giannina            26   9    3    1    35   12   9    3    1    33   10   60
1st      PAS Giannina            26   11   1    1    32   7    9    3    1    29   14   64
1st      PAS Giannina            26   10   2    1    29   7    8    3    2    24   10   59
2nd     PAS Giannina            26   12   0    1    38   9    7    3    3    31   17   60
1st      PAS Giannina            26   11   1    1    36   9    9    2    2    29   13   63
1st      PAS Giannina            26   11   2    0    35   10   9    2    2    25   11   64
1st      PAS Giannina            26   12   0    1    40   11   7    5    1    29   17   62
1st      PAS Giannina            26   9    1    3    34   17   8    3    2    27   13   55
1st      PAS Giannina            26   11   1    1    35   9    7    2    4    28   20   57
1st      PAS Giannina            26   10   2    1    35   10   10   1    2    32   12   63
1st      PAS Giannina            26   12   1    0    31   6    10   1    2    32   12   68
1st      PAS Giannina            26   11   2    0    35   12   11   1    1    32   14   69
1st      PAS Giannina            26   13   0    0    42   8    8    3    2    30   15   66
1st      PAS Giannina            26   11   2    0    35   13   10   3    0    35   13   68
1st      PAS Giannina            26   13   0    0    32   5    6    5    2    27   15   62
2nd     PAS Giannina            26   11   1    1    32   4    8    2    3    24   11   60
1st      PAS Giannina            26   13   0    0    34   5    5    3    5    22   18   57
1st      PAS Giannina            26   10   3    0    32   12   7    2    4    28   16   56
2nd     PAS Giannina            26   10   2    1    33   10   7    5    1    25   14   58
1st      PAS Giannina            26   10   2    1    25   6    9    2    2    34   17   61
1st      PAS Giannina            26   11   2    0    35   7    9    3    1    26   12   65
1st      PAS Giannina            26   10   3    0    35   13   7    3    3    24   14   57
1st      PAS Giannina            26   11   0    2    43   11   8    3    2    21   12   60
1st      PAS Giannina            26   13   0    0    41   11   11   1    1    39   14   73
1st      PAS Giannina            26   10   3    0    28   7    11   1    1    28   6    67
1st      PAS Giannina            26   11   0    2    25   8    10   2    1    35   9    65
1st      PAS Giannina            26   11   2    0    34   10   7    5    1    25   11   61
1st      PAS Giannina            26   11   2    0    32   14   10   3    0    26   11   68
1st      PAS Giannina            26   12   1    0    36   13   12   0    1    30   14   73
1st      PAS Giannina            26   13   0    0    37   6    9    2    2    31   13   68
2nd     PAS Giannina            26   9    2    2    26   12   7    2    4    23   16   52
2nd     PAS Giannina            26   8    3    2    25   10   7    5    1    25   15   53
1st      PAS Giannina            26   10   1    2    25   11   9    2    2    33   15   60
1st      PAS Giannina            26   10   2    1    37   8    7    5    1    23   14   58
1st      PAS Giannina            26   10   2    1    30   9    9    4    0    25   10   63
1st      PAS Giannina            26   11   2    0    41   10   11   0    2    33   15   68
1st      PAS Giannina            26   10   2    1    29   7    7    4    2    30   14   57
2nd     PAS Giannina            26   10   3    0    32   12   9    0    4    27   13   60
1st      PAS Giannina            26   13   0    0    36   9    8    2    3    32   17   65
1st      PAS Giannina            26   12   1    0    32   6    9    2    2    27   12   66
1st      PAS Giannina            26   11   1    1    27   5    9    3    1    30   8    64
1st      PAS Giannina            26   9    4    0    34   18   11   1    1    37   12   65
1st      PAS Giannina            26   12   1    0    27   5    10   3    0    36   9    70
1st      PAS Giannina            26   10   2    1    35   16   11   1    1    26   8    66
1st      PAS Giannina            26   10   2    1    37   12   9    2    2    26   12   61