1st     PAS Giannina                    26   9    3    1    39   21   8    2    3    35   23   56   
1st     PAS Giannina                    26   7    3    3    36   25   10   2    1    36   13   56   
1st     PAS Giannina                    26   8    2    3    32   25   5    6    2    27   16   47   
3rd     PAS Giannina                    26   8    1    4    27   17   7    1    5    24   18   47   
1st     PAS Giannina                    26   9    3    1    39   20   9    2    2    34   17   59   
2nd     PAS Giannina                    26   7    4    2    26   17   8    2    3    28   16   51   
1st     PAS Giannina                    26   11   1    1    37   13   10   1    2    35   18   65   
1st     PAS Giannina                    26   11   2    0    41   10   9    3    1    37   14   65   
1st     PAS Giannina                    26   8    2    3    33   17   9    3    1    34   15   56   
2nd     PAS Giannina                    26   10   1    2    38   11   6    3    4    32   24   52   
1st     PAS Giannina                    26   10   2    1    38   14   6    2    5    28   22   52   
1st     PAS Giannina                    26   10   3    0    34   12   7    3    3    27   18   57   
1st     PAS Giannina                    26   10   3    0    35   15   7    2    4    28   19   56   
1st     PAS Giannina                    26   9    4    0    32   15   6    4    3    26   22   53   
1st     PAS Giannina                    26   9    2    2    37   12   10   3    0    27   7    62   
1st     PAS Giannina                    26   6    4    3    28   18   10   2    1    30   17   54   
6th     PAS Giannina                    26   5    3    5    32   27   7    1    5    24   19   40   
1st     PAS Giannina                    26   12   0    1    41   13   9    3    1    38   14   66   
1st     PAS Giannina                    26   8    3    2    32   16   11   1    1    35   12   61   
2nd     PAS Giannina                    26   10   2    1    33   15   5    5    3    24   17   52   
2nd     PAS Giannina                    26   6    3    4    31   21   8    3    2    33   20   48   
1st     PAS Giannina                    26   10   2    1    35   17   10   2    1    30   13   64   
1st     PAS Giannina                    26   8    5    0    30   11   7    5    1    34   22   55   
1st     PAS Giannina                    26   9    3    1    34   18   7    3    3    26   17   54   
1st     PAS Giannina                    26   10   0    3    35   20   10   2    1    37   15   62   
1st     PAS Giannina                    26   10   2    1    35   15   10   1    2    36   15   63   
1st     PAS Giannina                    26   10   1    2    30   12   9    4    0    38   15   62   
1st     PAS Giannina                    26   12   0    1    35   13   9    3    1    35   14   66   
2nd     PAS Giannina                    26   7    5    1    28   15   9    4    0    39   13   57   
3rd     PAS Giannina                    26   8    1    4    30   22   6    3    4    30   21   46   
3rd     PAS Giannina                    26   10   2    1    33   18   4    5    4    17   16   49   
1st     PAS Giannina                    26   11   1    1    32   10   8    3    2    33   20   61   
1st     PAS Giannina                    26   9    3    1    36   14   8    4    1    31   17   58   
1st     PAS Giannina                    26   12   1    0    37   9    9    2    2    29   17   66   
1st     PAS Giannina                    26   10   3    0    30   13   7    1    5    24   13   55   
2nd     PAS Giannina                    26   9    1    3    34   21   6    2    5    26   20   48   
2nd     PAS Giannina                    26   11   0    2    35   14   8    3    2    28   14   60   
1st     PAS Giannina                    26   8    4    1    26   13   8    2    3    30   18   54   
3rd     PAS Giannina                    26   8    2    3    34   20   5    4    4    29   23   45   
2nd     PAS Giannina                    26   8    3    2    35   17   6    6    1    34   19   51   
2nd     PAS Giannina                    26   9    3    1    34   16   7    3    3    37   22   54   
1st     PAS Giannina                    26   10   2    1    33   13   7    4    2    26   18   57   
1st     PAS Giannina                    26   10   0    3    36   17   9    2    2    35   10   59   
1st     PAS Giannina                    26   11   2    0    36   18   10   1    2    32   17   66   
2nd     PAS Giannina                    26   10   2    1    35   17   8    1    4    27   19   57   
1st     PAS Giannina                    26   11   2    0    29   12   7    4    2    26   14   60   
1st     PAS Giannina                    26   10   2    1    34   19   10   1    2    35   12   63   
1st     PAS Giannina                    26   9    4    0    45   23   10   3    0    33   12   64   
3rd     PAS Giannina                    26   7    4    2    27   18   7    5    1    29   13   51   
1st     PAS Giannina                    26   11   1    1    33   10   8    4    1    38   24   62   
1st     PAS Giannina                    26   11   2    0    34   13   10   3    0    39   13   68   
2nd     PAS Giannina                    26   8    2    3    33   20   11   1    1    39   17   60   
1st     PAS Giannina                    26   10   2    1    37   16   10   1    2    35   19   63   
2nd     PAS Giannina                    26   7    3    3    31   22   10   0    3    36   13   54   
3rd     PAS Giannina                    26   8    2    3    24   20   7    1    5    31   22   48   
1st     PAS Giannina                    26   9    2    2    29   17   8    3    2    31   16   56   
1st     PAS Giannina                    26   10   2    1    35   17   8    5    0    34   18   61   
1st     PAS Giannina                    26   9    2    2    35   17   6    3    4    25   18   50   
1st     PAS Giannina                    26   12   1    0    37   9    9    2    2    36   19   66   
1st     PAS Giannina                    26   6    5    2    24   17   10   2    1    32   10   55   
1st     PAS Giannina                    26   9    4    0    41   16   7    4    2    35   15   56   
1st     PAS Giannina                    26   10   2    1    36   17   11   1    1    39   17   66   
2nd     PAS Giannina                    26   10   0    3    34   13   5    5    3    28   21   50   
2nd     PAS Giannina                    26   8    2    3    30   20   10   3    0    38   10   59   
2nd     PAS Giannina                    26   8    2    3    32   18   7    2    4    34   21   49   
1st     PAS Giannina                    26   10   1    2    38   24   11   2    0    34   5    66   
1st     PAS Giannina                    26   7    4    2    29   17   11   1    1    36   18   59   
1st     PAS Giannina                    26   12   0    1    33   10   8    4    1    38   21   64   
1st     PAS Giannina                    26   10   1    2    31   17   6    2    5    30   25   51   
1st     PAS Giannina                    26   8    3    2    33   18   9    3    1    35   17   57   
1st     PAS Giannina                    26   9    2    2    38   19   8    3    2    22   9    56   
2nd     PAS Giannina                    26   7    2    4    35   23   9    0    4    34   20   50   
1st     PAS Giannina                    26   7    4    2    25   17   7    3    3    30   20   49   
1st     PAS Giannina                    26   7    3    3    30   16   8    4    1    32   15   52   
1st     PAS Giannina                    26   10   2    1    31   13   5    5    3    33   27   52   
2nd     PAS Giannina                    26   10   1    2    31   12   9    2    2    30   12   60   
1st     PAS Giannina                    26   9    4    0    35   15   8    3    2    28   18   58   
1st     PAS Giannina                    26   7    3    3    30   26   9    2    2    40   17   53   
1st     PAS Giannina                    26   11   1    1    35   14   11   2    0    38   10   69   
1st     PAS Giannina                    26   10   2    1    37   15   7    4    2    28   17   57   
1st     PAS Giannina                    26   10   3    0    35   18   6    4    3    24   18   55   
1st     PAS Giannina                    26   10   2    1    32   8    10   3    0    34   18   65   
1st     PAS Giannina                    26   10   2    1    39   23   5    8    0    25   18   55   
1st     PAS Giannina                    26   7    2    4    33   24   10   1    2    43   18   54   
1st     PAS Giannina                    26   7    1    5    25   21   10   1    2    34   20   53   
1st     PAS Giannina                    26   8    4    1    29   16   7    5    1    31   19   54   
3rd     PAS Giannina                    26   8    2    3    27   18   7    4    2    29   16   51   
1st     PAS Giannina                    26   10   2    1    32   18   9    1    3    37   16   60   
1st     PAS Giannina                    26   11   1    1    39   18   7    3    3    36   24   58   
1st     PAS Giannina                    26   12   1    0    43   20   7    5    1    37   22   63   
1st     PAS Giannina                    26   11   0    2    37   10   6    4    3    22   20   55   
1st     PAS Giannina                    26   8    4    1    35   20   9    2    2    32   15   57   
1st     PAS Giannina                    26   10   3    0    27   12   9    1    3    36   18   61   
2nd     PAS Giannina                    26   10   0    3    33   14   6    3    4    33   23   51   
1st     PAS Giannina                    26   10   1    2    36   22   9    2    2    32   19   60   
1st     PAS Giannina                    26   7    2    4    34   23   9    2    2    24   16   52   
1st     PAS Giannina                    26   11   0    2    39   17   10   3    0    35   15   66   
2nd     PAS Giannina                    26   9    3    1    38   16   8    4    1    37   18   58   
1st     PAS Giannina                    26   9    2    2    32   16   10   2    1    42   12   61   
1st     PAS Giannina                    26   12   0    1    38   19   8    2    3    37   22   62   