1st     PAS Giannina                    26   12   1    0    33   10   7    2    4    25   16   60
1st     PAS Giannina                    26   13   0    0    31   6    8    2    3    23   13   65
2nd     PAS Giannina                    26   9    2    2    29   11   9    2    2    27   11   58
2nd     PAS Giannina                    26   9    1    3    31   9    6    4    3    21   17   50
1st     PAS Giannina                    26   9    3    1    29   9    11   1    1    28   5    64
2nd     PAS Giannina                    26   9    1    3    25   14   6    4    3    17   10   50
2nd     PAS Giannina                    26   12   1    0    31   9    8    3    2    26   13   64
1st     PAS Giannina                    26   9    3    1    22   4    10   2    1    30   12   62
1st     PAS Giannina                    26   10   1    2    30   10   6    4    3    26   18   53
2nd     PAS Giannina                    26   9    3    1    33   14   7    4    2    24   13   55
1st     PAS Giannina                    26   11   1    1    28   9    6    3    4    20   11   55
1st     PAS Giannina                    26   10   2    1    30   9    10   0    3    27   15   62
1st     PAS Giannina                    26   11   2    0    35   9    10   2    1    28   9    67
1st     PAS Giannina                    26   11   2    0    29   8    10   2    1    32   11   67
1st     PAS Giannina                    26   13   0    0    39   12   8    5    0    22   11   68
1st     PAS Giannina                    26   11   2    0    31   9    8    3    2    23   11   62
1st     PAS Giannina                    26   13   0    0    39   11   9    2    2    30   14   68
1st     PAS Giannina                    26   9    2    2    29   10   9    2    2    29   7    58
1st     PAS Giannina                    26   11   2    0    34   13   9    3    1    30   14   65
1st     PAS Giannina                    26   10   2    1    41   12   7    6    0    25   12   59
1st     PAS Giannina                    26   10   3    0    34   9    6    4    3    20   11   55
1st     PAS Giannina                    26   10   2    1    29   11   9    2    2    25   10   61
1st     PAS Giannina                    26   12   1    0    32   6    11   1    1    34   9    71
1st     PAS Giannina                    26   11   1    1    32   9    8    3    2    29   15   61
1st     PAS Giannina                    26   8    3    2    26   11   9    1    3    25   12   55
2nd     PAS Giannina                    26   6    7    0    19   8    7    2    4    28   17   48
1st     PAS Giannina                    26   12   0    1    31   8    9    3    1    28   9    66
1st     PAS Giannina                    26   11   1    1    30   10   7    3    3    18   12   58
1st     PAS Giannina                    26   12   1    0    29   6    11   1    1    30   7    71
2nd     PAS Giannina                    26   11   2    0    30   8    7    5    1    25   11   61
1st     PAS Giannina                    26   10   2    1    31   10   9    4    0    28   8    63
1st     PAS Giannina                    26   11   1    1    33   7    9    4    0    33   18   65
1st     PAS Giannina                    26   10   2    1    28   10   9    0    4    24   11   59
1st     PAS Giannina                    26   10   2    1    32   10   8    3    2    22   12   59
1st     PAS Giannina                    26   10   3    0    31   9    10   1    2    24   10   64
1st     PAS Giannina                    26   10   1    2    21   7    7    2    4    20   15   54
1st     PAS Giannina                    26   13   0    0    29   6    8    3    2    26   13   66
1st     PAS Giannina                    26   12   1    0    34   6    8    3    2    28   13   64
1st     PAS Giannina                    26   11   1    1    30   5    7    2    4    30   19   57
1st     PAS Giannina                    26   12   1    0    33   10   6    6    1    28   17   61
1st     PAS Giannina                    26   11   1    1    26   6    9    3    1    27   7    64
2nd     PAS Giannina                    26   9    2    2    26   10   9    2    2    20   8    58
1st     PAS Giannina                    26   11   2    0    28   9    9    4    0    22   9    66
1st     PAS Giannina                    26   11   1    1    35   9    8    2    3    31   16   60
1st     PAS Giannina                    26   10   3    0    29   10   11   2    0    36   11   68
1st     PAS Giannina                    26   10   1    2    33   9    7    4    2    21   14   56
1st     PAS Giannina                    26   9    3    1    24   7    8    4    1    25   11   58
1st     PAS Giannina                    26   10   2    1    33   12   9    3    1    25   8    62
1st     PAS Giannina                    26   9    2    2    28   12   8    3    2    22   11   56
1st     PAS Giannina                    26   11   1    1    30   10   10   1    2    23   7    65
1st     PAS Giannina                    26   10   3    0    24   7    8    4    1    26   12   61
1st     PAS Giannina                    26   11   2    0    31   9    9    3    1    31   10   65
1st     PAS Giannina                    26   9    2    2    28   10   9    2    2    28   15   58
1st     PAS Giannina                    26   11   1    1    30   8    9    2    2    26   9    63
2nd     PAS Giannina                    26   10   1    2    27   9    8    3    2    20   11   58
1st     PAS Giannina                    26   11   2    0    29   9    9    2    2    25   9    64
1st     PAS Giannina                    26   13   0    0    42   8    7    3    3    23   14   63
2nd     PAS Giannina                    26   9    3    1    29   12   4    6    3    17   14   48
1st     PAS Giannina                    26   10   3    0    32   11   8    2    3    31   16   59
1st     PAS Giannina                    26   12   0    1    32   9    10   1    2    24   10   67
1st     PAS Giannina                    26   12   0    1    32   9    10   3    0    26   7    69
1st     PAS Giannina                    26   10   2    1    29   8    8    1    4    26   16   57
1st     PAS Giannina                    26   11   2    0    40   16   9    3    1    34   7    65
1st     PAS Giannina                    26   10   1    2    33   10   6    5    2    19   13   54
1st     PAS Giannina                    26   11   2    0    30   8    10   1    2    28   9    66
1st     PAS Giannina                    26   11   2    0    34   9    5    8    0    27   16   58
1st     PAS Giannina                    26   12   1    0    36   11   7    2    4    25   15   60
1st     PAS Giannina                    26   11   0    2    26   3    4    5    4    20   15   50
2nd     PAS Giannina                    26   11   1    1    36   13   6    5    2    21   15   57
1st     PAS Giannina                    26   9    3    1    32   7    9    1    3    27   16   58
1st     PAS Giannina                    26   7    4    2    22   15   7    3    3    26   15   49
1st     PAS Giannina                    26   11   1    1    26   7    11   0    2    37   7    67
1st     PAS Giannina                    26   11   2    0    22   6    10   3    0    27   6    68
1st     PAS Giannina                    26   8    3    2    25   12   7    5    1    24   10   53
1st     PAS Giannina                    26   11   1    1    30   6    8    4    1    19   10   62
1st     PAS Giannina                    26   11   2    0    24   3    9    4    0    21   7    66
1st     PAS Giannina                    26   12   0    1    31   6    8    5    0    37   18   65
1st     PAS Giannina                    26   9    3    1    30   11   8    4    1    22   9    58
1st     PAS Giannina                    26   9    3    1    26   12   8    3    2    20   8    57
1st     PAS Giannina                    26   12   1    0    30   9    6    4    3    20   12   59
1st     PAS Giannina                    26   12   1    0    34   7    9    3    1    22   9    67
2nd     PAS Giannina                    26   8    2    3    24   13   6    3    4    21   10   47
1st     PAS Giannina                    26   12   1    0    40   9    8    2    3    22   11   63
1st     PAS Giannina                    26   11   2    0    26   7    8    3    2    23   7    62
1st     PAS Giannina                    26   11   2    0    24   6    8    2    3    23   15   61
1st     PAS Giannina                    26   12   0    1    36   8    8    4    1    32   14   64
1st     PAS Giannina                    26   11   2    0    25   5    7    3    3    25   13   59
1st     PAS Giannina                    26   12   1    0    32   7    9    3    1    29   8    67
2nd     PAS Giannina                    26   10   3    0    33   10   6    2    5    18   12   53
1st     PAS Giannina                    26   11   1    1    29   7    10   1    2    25   12   65
1st     PAS Giannina                    26   10   3    0    29   7    6    6    1    20   10   57
1st     PAS Giannina                    26   10   1    2    36   10   7    2    4    26   14   54
1st     PAS Giannina                    26   10   2    1    30   10   9    2    2    26   8    61
1st     PAS Giannina                    26   11   2    0    36   13   8    3    2    29   15   62
1st     PAS Giannina                    26   9    2    2    24   10   12   1    0    32   8    66
2nd     PAS Giannina                    26   9    4    0    33   10   5    3    5    21   16   49
2nd     PAS Giannina                    26   8    4    1    23   6    5    4    4    21   16   47
1st     PAS Giannina                    26   10   3    0    31   7    8    3    2    25   14   60
1st     PAS Giannina                    26   10   1    2    29   11   8    2    3    24   12   57
1st     PAS Giannina                    26   11   1    1    31   10   8    3    2    31   14   61