6th     PAS Giannina                    26   5    3    5    22   20   5    5    3    20   11   38   
2nd     PAS Giannina                    26   10   3    0    30   12   5    4    4    19   18   52   
6th     PAS Giannina                    26   9    1    3    22   9    2    5    6    11   15   39   
1st     PAS Giannina                    26   8    2    3    20   11   10   2    1    21   6    58   
3rd     PAS Giannina                    26   10   2    1    26   10   2    4    7    14   23   42   
1st     PAS Giannina                    26   9    2    2    26   11   6    3    4    20   17   50   
2nd     PAS Giannina                    26   10   2    1    37   12   4    4    5    18   17   48   
2nd     PAS Giannina                    26   8    3    2    18   10   5    6    2    20   15   48   
1st     PAS Giannina                    26   7    4    2    23   13   6    7    0    18   12   50   
4th     PAS Giannina                    26   7    5    1    23   12   2    6    5    11   15   38   
3rd     PAS Giannina                    26   9    2    2    24   9    5    3    5    21   19   47   
1st     PAS Giannina                    26   11   2    0    28   8    8    4    1    34   15   63   
3rd     PAS Giannina                    26   10   1    2    29   12   4    4    5    16   15   47   
1st     PAS Giannina                    26   10   3    0    28   10   6    3    4    19   15   54   
2nd     PAS Giannina                    26   9    2    2    30   15   5    3    5    24   22   47   
4th     PAS Giannina                    26   6    4    3    25   13   5    2    6    17   19   39   
1st     PAS Giannina                    26   11   2    0    38   12   6    2    5    14   15   55   
1st     PAS Giannina                    26   10   1    2    23   9    6    3    4    21   20   52   
2nd     PAS Giannina                    26   11   2    0    27   9    6    3    4    22   13   56   
1st     PAS Giannina                    26   12   1    0    26   8    6    4    3    15   10   59   
4th     PAS Giannina                    26   9    2    2    33   16   3    3    7    13   21   41   
2nd     PAS Giannina                    26   9    4    0    26   8    5    3    5    18   20   49   
4th     PAS Giannina                    26   9    3    1    24   10   3    3    7    21   26   42   
4th     PAS Giannina                    26   6    2    5    22   20   4    5    4    15   14   37   
2nd     PAS Giannina                    26   9    2    2    29   15   4    3    6    14   18   44   
3rd     PAS Giannina                    26   10   2    1    27   12   3    2    8    11   19   43   
3rd     PAS Giannina                    26   11   0    2    29   7    4    2    7    21   26   47   
4th     PAS Giannina                    26   10   1    2    26   10   4    3    6    13   17   46   
3rd     PAS Giannina                    26   8    4    1    32   14   6    3    4    17   11   49   
2nd     PAS Giannina                    26   7    4    2    24   11   5    4    4    22   25   44   
1st     PAS Giannina                    26   9    4    0    26   13   6    3    4    20   15   52   
9th     PAS Giannina                    26   5    6    2    19   13   4    3    6    18   25   36   
1st     PAS Giannina                    26   9    1    3    25   11   8    2    3    29   15   54   
8th     PAS Giannina                    26   6    6    1    22   12   2    4    7    12   19   34   
3rd     PAS Giannina                    26   7    4    2    27   15   5    3    5    13   14   43   
2nd     PAS Giannina                    26   7    4    2    24   11   5    5    3    22   15   45   
3rd     PAS Giannina                    26   10   0    3    27   13   4    8    1    18   11   50   
5th     PAS Giannina                    26   7    1    5    18   10   4    6    3    17   18   40   
1st     PAS Giannina                    26   11   2    0    28   9    3    6    4    17   15   50   
2nd     PAS Giannina                    26   8    3    2    25   11   5    7    1    19   14   49   
2nd     PAS Giannina                    26   11   1    1    27   12   6    3    4    23   15   55   
2nd     PAS Giannina                    26   9    3    1    25   9    3    7    3    16   14   46   
4th     PAS Giannina                    26   4    7    2    25   16   8    1    4    21   20   44   
2nd     PAS Giannina                    26   8    3    2    27   10   6    4    3    27   21   49   
3rd     PAS Giannina                    26   10   3    0    29   10   4    4    5    17   19   49   
2nd     PAS Giannina                    26   8    3    2    27   12   6    3    4    21   17   48   
1st     PAS Giannina                    26   11   2    0    29   5    5    5    3    16   12   55   
2nd     PAS Giannina                    26   7    6    0    21   8    6    3    4    18   15   48   
1st     PAS Giannina                    26   11   1    1    31   12   6    4    3    18   15   56   
2nd     PAS Giannina                    26   7    5    1    19   9    8    1    4    17   12   51   
1st     PAS Giannina                    26   7    4    2    21   11   6    5    2    16   11   48   
2nd     PAS Giannina                    26   10   1    2    30   14   6    2    5    19   14   51   
5th     PAS Giannina                    26   7    4    2    24   15   4    3    6    12   19   40   
2nd     PAS Giannina                    26   10   3    0    32   11   7    5    1    23   12   59   
1st     PAS Giannina                    26   12   1    0    34   14   5    4    4    18   13   56   
1st     PAS Giannina                    26   11   1    1    33   8    6    5    2    17   11   57   
4th     PAS Giannina                    26   6    5    2    22   14   5    3    5    14   17   41   
5th     PAS Giannina                    26   6    5    2    21   15   4    4    5    15   18   39   
4th     PAS Giannina                    26   8    1    4    22   12   5    1    7    12   19   41   
2nd     PAS Giannina                    26   6    6    1    27   18   4    8    1    15   12   44   
4th     PAS Giannina                    26   8    4    1    27   13   4    4    5    12   13   44   
1st     PAS Giannina                    26   10   1    2    32   13   8    2    3    23   16   57   
3rd     PAS Giannina                    26   8    4    1    28   13   6    3    4    19   15   49   
4th     PAS Giannina                    26   9    3    1    23   8    4    4    5    13   17   46   
5th     PAS Giannina                    26   8    3    2    24   12   4    1    8    14   27   40   
3rd     PAS Giannina                    26   8    2    3    27   17   4    5    4    16   15   43   
2nd     PAS Giannina                    26   8    3    2    26   12   8    1    4    17   13   52   
4th     PAS Giannina                    26   8    3    2    31   16   3    4    6    16   20   40   
5th     PAS Giannina                    26   4    6    3    24   16   4    8    1    18   12   38   
3rd     PAS Giannina                    26   9    0    4    26   16   3    6    4    19   16   42   
2nd     PAS Giannina                    26   8    1    4    31   18   5    3    5    19   16   43   
2nd     PAS Giannina                    26   10   3    0    24   7    6    3    4    18   12   54   
1st     PAS Giannina                    26   10   1    2    28   15   8    2    3    24   16   57   
3rd     PAS Giannina                    26   10   2    1    26   12   5    5    3    20   17   52   
2nd     PAS Giannina                    26   10   1    2    22   9    4    4    5    18   18   47   
2nd     PAS Giannina                    26   8    2    3    28   14   5    5    3    22   15   46   
2nd     PAS Giannina                    26   6    6    1    27   19   6    2    5    17   16   44   
3rd     PAS Giannina                    26   10   0    3    29   9    2    7    4    8    13   43   
2nd     PAS Giannina                    26   8    1    4    28   15   8    3    2    25   15   52   
2nd     PAS Giannina                    26   8    2    3    32   16   6    4    3    19   14   48   
2nd     PAS Giannina                    26   9    4    0    26   7    4    6    3    14   11   49   
2nd     PAS Giannina                    26   11   2    0    29   10   4    5    4    15   13   52   
6th     PAS Giannina                    26   5    5    3    19   15   4    5    4    16   14   37   
2nd     PAS Giannina                    26   11   2    0    32   12   6    2    5    17   16   55   
6th     PAS Giannina                    26   6    5    2    27   15   5    5    3    14   13   43   
2nd     PAS Giannina                    26   6    1    6    24   21   9    2    2    19   7    48   
1st     PAS Giannina                    26   11   1    1    30   10   7    2    4    15   10   57   
1st     PAS Giannina                    26   12   0    1    34   9    5    5    3    16   8    56   
3rd     PAS Giannina                    26   9    3    1    29   11   3    6    4    16   17   45   
2nd     PAS Giannina                    26   10   1    2    22   8    2    9    2    16   16   46   
1st     PAS Giannina                    26   8    3    2    30   15   8    1    4    19   10   52   
2nd     PAS Giannina                    26   11   0    2    29   12   7    4    2    28   17   58   
2nd     PAS Giannina                    26   8    3    2    20   12   3    7    3    13   16   43   
1st     PAS Giannina                    26   10   2    1    35   11   6    2    5    17   10   52   
2nd     PAS Giannina                    26   8    2    3    19   11   4    6    3    19   12   44   
4th     PAS Giannina                    26   10   1    2    31   14   4    3    6    18   17   46   
1st     PAS Giannina                    26   7    5    1    30   15   8    3    2    25   16   53   
3rd     PAS Giannina                    26   6    3    4    18   14   6    5    2    19   12   44   
3rd     PAS Giannina                    26   6    4    3    24   17   9    2    2    25   9    51   
2nd     PAS Giannina                    26   9    1    3    25   10   5    6    2    22   15   49   