Pos,Team, ,Pld,Won,Drn,Lst,For,Ag,Won,Drn,Lst,For,Ag,Pts, ,tactic_name, scored-conceded, points, games, wins_draws_losses
2nd,PAS,Giannina,26,9,3,1,31,13,8,3,2,31,19,57,,4141 High pressing,3131-1319,57,26,98_33_12
1st,PAS,Giannina,26,12,0,1,35,9,9,3,1,23,10,66,,4141 High pressing,3523-910,66,26,129_03_11
1st,PAS,Giannina,26,10,3,0,37,14,9,2,2,25,9,62,,4141 High pressing,3725-149,62,26,109_32_02
1st,PAS,Giannina,26,11,2,0,38,12,8,5,0,24,8,64,,4141 High pressing,3824-128,64,26,118_25_00
2nd,PAS,Giannina,26,9,4,0,30,10,6,2,5,19,12,51,,4141 High pressing,3019-1012,51,26,96_42_05
2nd,PAS,Giannina,26,8,3,2,29,11,6,4,3,23,10,49,,4141 High pressing,2923-1110,49,26,86_34_23
1st,PAS,Giannina,26,13,0,0,37,13,5,6,2,27,16,60,,4141 High pressing,3727-1316,60,26,135_06_02
2nd,PAS,Giannina,26,9,1,3,26,13,6,3,4,19,11,49,,4141 High pressing,2619-1311,49,26,96_13_34
1st,PAS,Giannina,26,11,1,1,34,12,7,0,6,19,16,55,,4141 High pressing,3419-1216,55,26,117_10_16
1st,PAS,Giannina,26,8,4,1,30,12,6,4,3,22,12,50,,4141 High pressing,3022-1212,50,26,86_44_13
1st,PAS,Giannina,26,9,4,0,31,12,7,4,2,27,14,56,,4141 High pressing,3127-1214,56,26,97_44_02
2nd,PAS,Giannina,26,9,2,2,26,13,8,1,4,19,13,54,,4141 High pressing,2619-1313,54,26,98_21_24
1st,PAS,Giannina,26,12,1,0,25,8,10,2,1,29,10,69,,4141 High pressing,2529-810,69,26,1210_12_01
1st,PAS,Giannina,26,9,3,1,26,8,8,2,3,25,13,56,,4141 High pressing,2625-813,56,26,98_32_13
2nd,PAS,Giannina,26,9,2,2,27,10,5,4,4,21,16,48,,4141 High pressing,2721-1016,48,26,95_24_24
1st,PAS,Giannina,26,9,3,1,27,6,9,2,2,28,14,59,,4141 High pressing,2728-614,59,26,99_32_12
1st,PAS,Giannina,26,9,1,3,25,13,5,5,3,17,14,48,,4141 High pressing,2517-1314,48,26,95_15_33
1st,PAS,Giannina,26,12,1,0,37,15,7,4,2,24,13,62,,4141 High pressing,3724-1513,62,26,127_14_02
2nd,PAS,Giannina,26,10,1,2,36,14,3,5,5,15,19,45,,4141 High pressing,3615-1419,45,26,103_15_25
1st,PAS,Giannina,26,10,2,1,28,11,9,0,4,31,17,59,,4141 High pressing,2831-1117,59,26,109_20_14
1st,PAS,Giannina,26,10,1,2,38,16,10,1,2,22,12,62,,4141 High pressing,3822-1612,62,26,1010_11_22
2nd,PAS,Giannina,26,12,1,0,36,7,3,2,8,12,18,48,,4141 High pressing,3612-718,48,26,123_12_08
1st,PAS,Giannina,26,12,1,0,34,9,6,1,6,19,13,56,,4141 High pressing,3419-913,56,26,126_11_06
1st,PAS,Giannina,26,8,1,4,31,15,9,1,3,23,10,53,,4141 High pressing,3123-1510,53,26,89_11_43
1st,PAS,Giannina,26,10,2,1,28,13,10,3,0,33,7,65,,4141 High pressing,2833-137,65,26,1010_23_10
1st,PAS,Giannina,26,12,1,0,34,7,6,5,2,19,9,60,,4141 High pressing,3419-79,60,26,126_15_02
1st,PAS,Giannina,26,10,3,0,31,10,8,4,1,27,11,61,,4141 High pressing,3127-1011,61,26,108_34_01
3rd,PAS,Giannina,26,10,3,0,28,13,5,2,6,21,19,50,,4141 High pressing,2821-1319,50,26,105_32_06
1st,PAS,Giannina,26,9,3,1,22,5,10,1,2,29,16,61,,4141 High pressing,2229-516,61,26,910_31_12
1st,PAS,Giannina,26,8,4,1,28,11,10,2,1,24,11,60,,4141 High pressing,2824-1111,60,26,810_42_11
2nd,PAS,Giannina,26,9,2,2,29,11,6,3,4,15,12,50,,4141 High pressing,2915-1112,50,26,96_23_24
1st,PAS,Giannina,26,9,1,3,23,11,6,4,3,23,22,50,,4141 High pressing,2323-1122,50,26,96_14_33
1st,PAS,Giannina,26,11,1,1,30,10,5,3,5,25,18,52,,4141 High pressing,3025-1018,52,26,115_13_15
2nd,PAS,Giannina,26,10,1,2,25,11,7,5,1,23,9,57,,4141 High pressing,2523-119,57,26,107_15_21
1st,PAS,Giannina,26,10,1,2,30,11,10,2,1,28,9,63,,4141 High pressing,3028-119,63,26,1010_12_21
1st,PAS,Giannina,26,11,1,1,32,19,11,1,1,27,7,68,,4141 High pressing,3227-197,68,26,1111_11_11
1st,PAS,Giannina,26,11,2,0,23,8,9,3,1,25,14,65,,4141 High pressing,2325-814,65,26,119_23_01
2nd,PAS,Giannina,26,10,1,2,29,14,8,4,1,27,10,59,,4141 High pressing,2927-1410,59,26,108_14_21
1st,PAS,Giannina,26,11,2,0,33,9,8,2,3,30,18,61,,4141 High pressing,3330-918,61,26,118_22_03
1st,PAS,Giannina,26,12,1,0,36,11,8,0,5,20,17,61,,4141 High pressing,3620-1117,61,26,128_10_05
1st,PAS,Giannina,26,12,0,1,23,10,8,1,4,29,16,61,,4141 High pressing,2329-1016,61,26,128_01_14
1st,PAS,Giannina,26,13,0,0,35,14,7,4,2,24,17,64,,4141 High pressing,3524-1417,64,26,137_04_02
4th,PAS,Giannina,26,8,2,3,29,17,5,1,7,15,17,42,,4141 High pressing,2915-1717,42,26,85_21_37
1st,PAS,Giannina,26,11,0,2,39,8,7,4,2,25,15,58,,4141 High pressing,3925-815,58,26,117_04_22
1st,PAS,Giannina,26,8,3,2,23,12,7,5,1,29,19,53,,4141 High pressing,2329-1219,53,26,87_35_21
1st,PAS,Giannina,26,8,3,2,28,14,8,4,1,23,10,55,,4141 High pressing,2823-1410,55,26,88_34_21
4th,PAS,Giannina,26,9,0,4,24,10,4,2,7,15,21,41,,4141 High pressing,2415-1021,41,26,94_02_47
1st,PAS,Giannina,26,11,1,1,31,18,7,2,4,20,16,57,,4141 High pressing,3120-1816,57,26,117_12_14
1st,PAS,Giannina,26,11,2,0,27,6,8,2,3,26,14,61,,4141 High pressing,2726-614,61,26,118_22_03
3rd,PAS,Giannina,26,10,1,2,29,7,5,4,4,21,19,50,,4141 High pressing,2921-719,50,26,105_14_24
1st,PAS,Giannina,26,9,2,2,23,11,8,3,2,29,9,56,,4141 High pressing,2329-119,56,26,98_23_22
2nd,PAS,Giannina,26,11,1,1,31,9,6,2,5,20,16,54,,4141 High pressing,3120-916,54,26,116_12_15
1st,PAS,Giannina,26,10,3,0,28,15,10,2,1,29,16,65,,4141 High pressing,2829-1516,65,26,1010_32_01
2nd,PAS,Giannina,26,9,4,0,35,12,6,2,5,20,17,51,,4141 High pressing,3520-1217,51,26,96_42_05
2nd,PAS,Giannina,26,9,2,2,29,9,6,5,2,20,14,52,,4141 High pressing,2920-914,52,26,96_25_22
1st,PAS,Giannina,26,11,0,2,32,12,5,6,2,24,16,54,,4141 High pressing,3224-1216,54,26,115_06_22
1st,PAS,Giannina,26,8,3,2,23,11,8,3,2,25,17,54,,4141 High pressing,2325-1117,54,26,88_33_22
1st,PAS,Giannina,26,11,1,1,33,7,8,4,1,26,12,62,,4141 High pressing,3326-712,62,26,118_14_11
1st,PAS,Giannina,26,11,2,0,35,10,7,4,2,22,11,60,,4141 High pressing,3522-1011,60,26,117_24_02
1st,PAS,Giannina,26,9,2,2,24,8,7,2,4,18,15,52,,4141 High pressing,2418-815,52,26,97_22_24
1st,PAS,Giannina,26,11,0,2,35,9,10,1,2,27,14,64,,4141 High pressing,3527-914,64,26,1110_01_22
2nd,PAS,Giannina,26,10,2,1,36,13,8,1,4,29,22,57,,4141 High pressing,3629-1322,57,26,108_21_14
1st,PAS,Giannina,26,7,6,0,21,9,12,0,1,28,12,63,,4141 High pressing,2128-912,63,26,712_60_01
1st,PAS,Giannina,26,10,3,0,28,9,8,3,2,31,14,60,,4141 High pressing,2831-914,60,26,108_33_02
6th,PAS,Giannina,26,7,4,2,26,13,4,4,5,19,22,41,,4141 High pressing,2619-1322,41,26,74_44_25
2nd,PAS,Giannina,26,9,3,1,30,10,6,4,3,18,8,52,,4141 High pressing,3018-108,52,26,96_34_13
1st,PAS,Giannina,26,12,1,0,34,9,7,4,2,24,13,62,,4141 High pressing,3424-913,62,26,127_14_02
1st,PAS,Giannina,26,8,4,1,31,16,6,5,2,23,11,51,,4141 High pressing,3123-1611,51,26,86_45_12
1st,PAS,Giannina,26,10,1,2,34,13,7,5,1,23,10,57,,4141 High pressing,3423-1310,57,26,107_15_21
2nd,PAS,Giannina,26,10,0,3,30,7,7,3,3,24,11,54,,4141 High pressing,3024-711,54,26,107_03_33
1st,PAS,Giannina,26,9,4,0,30,15,10,2,1,28,11,63,,4141 High pressing,3028-1511,63,26,910_42_01
1st,PAS,Giannina,26,12,1,0,31,7,11,1,1,28,11,71,,4141 High pressing,3128-711,71,26,1211_11_01
2nd,PAS,Giannina,26,10,3,0,27,10,6,4,3,18,16,55,,4141 High pressing,2718-1016,55,26,106_34_03
1st,PAS,Giannina,26,13,0,0,33,7,9,3,1,26,12,69,,4141 High pressing,3326-712,69,26,139_03_01
1st,PAS,Giannina,26,12,1,0,29,8,8,4,1,21,12,65,,4141 High pressing,2921-812,65,26,128_14_01
1st,PAS,Giannina,26,10,2,1,26,14,9,1,3,22,16,60,,4141 High pressing,2622-1416,60,26,109_21_13
1st,PAS,Giannina,26,12,1,0,34,12,7,3,3,19,14,61,,4141 High pressing,3419-1214,61,26,127_13_03
1st,PAS,Giannina,26,9,3,1,30,13,9,3,1,34,18,60,,4141 High pressing,3034-1318,60,26,99_33_11
1st,PAS,Giannina,26,10,3,0,25,6,8,2,3,21,14,59,,4141 High pressing,2521-614,59,26,108_32_03
1st,PAS,Giannina,26,9,3,1,26,9,7,4,2,27,16,55,,4141 High pressing,2627-916,55,26,97_34_12
1st,PAS,Giannina,26,12,0,1,34,10,8,3,2,26,15,63,,4141 High pressing,3426-1015,63,26,128_03_12
1st,PAS,Giannina,26,10,1,2,26,12,6,4,3,21,14,53,,4141 High pressing,2621-1214,53,26,106_14_23
1st,PAS,Giannina,26,9,2,2,32,8,8,1,4,25,13,54,,4141 High pressing,3225-813,54,26,98_21_24
1st,PAS,Giannina,26,11,1,1,28,7,8,4,1,23,11,62,,4141 High pressing,2823-711,62,26,118_14_11
2nd,PAS,Giannina,26,11,1,1,29,9,6,2,5,23,21,54,,4141 High pressing,2923-921,54,26,116_12_15
2nd,PAS,Giannina,26,11,2,0,32,9,8,4,1,27,14,63,,4141 High pressing,3227-914,63,26,118_24_01
1st,PAS,Giannina,26,9,4,0,29,11,7,1,5,21,18,53,,4141 High pressing,2921-1118,53,26,97_41_05
1st,PAS,Giannina,26,9,3,1,22,6,8,2,3,28,16,56,,4141 High pressing,2228-616,56,26,98_32_13
1st,PAS,Giannina,26,12,1,0,35,7,8,2,3,21,11,63,,4141 High pressing,3521-711,63,26,128_12_03
2nd,PAS,Giannina,26,7,4,2,29,19,7,3,3,24,15,49,,4141 High pressing,2924-1915,49,26,77_43_23
2nd,PAS,Giannina,26,10,2,1,39,16,7,2,4,26,18,55,,4141 High pressing,3926-1618,55,26,107_22_14
1st,PAS,Giannina,26,12,0,1,29,10,9,3,1,25,10,66,,4141 High pressing,2925-1010,66,26,129_03_11
2nd,PAS,Giannina,26,8,3,2,25,14,8,2,3,24,12,53,,4141 High pressing,2524-1412,53,26,88_32_23
1st,PAS,Giannina,26,11,1,1,35,8,8,3,2,23,10,61,,4141 High pressing,3523-810,61,26,118_13_12
1st,PAS,Giannina,26,11,2,0,34,10,6,3,4,16,13,56,,4141 High pressing,3416-1013,56,26,116_23_04
1st,PAS,Giannina,26,11,1,1,30,7,10,1,2,22,8,65,,4141 High pressing,3022-78,65,26,1110_11_12
1st,PAS,Giannina,26,10,2,1,28,14,10,2,1,22,9,64,,4141 High pressing,2822-149,64,26,1010_22_11
2nd,PAS,Giannina,26,7,4,2,26,14,9,3,1,24,14,55,,4141 High pressing,2624-1414,55,26,79_43_21
3rd,PAS,Giannina,26,8,4,1,31,16,4,3,6,17,21,43,,4141 High pressing,3117-1621,43,26,84_43_16
2nd,PAS,Giannina,26,8,4,1,23,11,6,4,3,18,14,50,,4141 High pressing,2318-1114,50,26,86_44_13
Total,PAS,Giannina,2600,999,193,108,2988,1097,743,281,276,2346,1389,5700, ,4141 High pressing,53,34-24,86,57,26,17,42_4,74_3,84
