1st      PAS Giannina                    26   8    5    0    28   12   9    1    3    25   10   57
2nd     PAS Giannina                    26   10   2    1    34   14   6    5    2    25   15   55
1st      PAS Giannina                    26   11   2    0    35   9    10   2    1    30   11   67
1st      PAS Giannina                    26   11   2    0    34   8    9    2    2    34   10   64
1st      PAS Giannina                    26   10   2    1    26   7    12   1    0    35   6    69
1st      PAS Giannina                    26   11   2    0    36   12   10   1    2    30   10   66
1st      PAS Giannina                    26   12   1    0    31   6    9    3    1    32   9    67
1st      PAS Giannina                    26   11   2    0    36   13   10   2    1    32   10   67
1st      PAS Giannina                    26   13   0    0    43   12   10   2    1    36   11   71
1st      PAS Giannina                    26   11   2    0    47   12   11   0    2    34   15   68
1st      PAS Giannina                    26   10   3    0    33   10   10   3    0    34   12   66
1st      PAS Giannina                    26   12   1    0    41   12   12   0    1    46   14   73
1st      PAS Giannina                    26   10   3    0    28   10   9    2    2    31   13   62
1st      PAS Giannina                    26   11   0    2    36   14   10   2    1    30   11   65
1st      PAS Giannina                    26   11   1    1    42   12   9    3    1    33   15   64
1st      PAS Giannina                    26   10   3    0    29   14   7    6    0    33   19   60
1st      PAS Giannina                    26   10   3    0    35   15   7    2    4    28   21   56
1st      PAS Giannina                    26   9    3    1    29   12   10   3    0    26   8    63
1st      PAS Giannina                    26   11   2    0    37   11   10   0    3    33   14   65
1st      PAS Giannina                    26   12   0    1    42   12   9    1    3    34   15   64
1st      PAS Giannina                    26   11   1    1    36   14   10   1    2    32   11   65
1st      PAS Giannina                    26   9    3    1    28   13   8    3    2    27   14   57
1st      PAS Giannina                    26   9    4    0    36   16   10   2    1    36   15   63
1st      PAS Giannina                    26   10   2    1    40   14   11   1    1    39   12   66
1st      PAS Giannina                    26   12   1    0    33   9    10   2    1    40   13   69
1st      PAS Giannina                    26   10   2    1    36   16   9    3    1    35   10   62
1st      PAS Giannina                    26   10   2    1    38   14   10   1    2    34   12   63
1st      PAS Giannina                    26   11   2    0    34   10   8    2    3    31   17   61
1st      PAS Giannina                    26   12   1    0    35   10   12   0    1    42   14   73
1st      PAS Giannina                    26   9    2    2    32   12   10   1    2    34   16   60
1st      PAS Giannina                    26   12   1    0    39   11   10   2    1    40   16   69
1st      PAS Giannina                    26   12   1    0    36   11   7    2    4    25   10   60
2nd     PAS Giannina                    26   10   2    1    35   10   6    3    4    24   18   53
2nd     PAS Giannina                    26   7    5    1    30   11   8    3    2    29   18   53
1st      PAS Giannina                    26   12   0    1    33   12   7    3    3    25   11   60
1st      PAS Giannina                    26   11   1    1    41   14   10   2    1    30   13   66
1st      PAS Giannina                    26   12   1    0    43   12   11   2    0    28   8    72
1st      PAS Giannina                    26   13   0    0    41   16   11   0    2    32   11   72
1st      PAS Giannina                    26   9    1    3    33   11   11   2    0    37   10   63
1st      PAS Giannina                    26   11   2    0    31   13   10   2    1    33   12   67
1st      PAS Giannina                    26   10   2    1    37   13   8    3    2    30   17   59
1st      PAS Giannina                    26   11   1    1    35   8    11   1    1    38   13   68
1st      PAS Giannina                    26   8    5    0    23   9    11   1    1    33   10   63
1st      PAS Giannina                    26   11   2    0    33   11   11   1    1    34   9    69
2nd     PAS Giannina                    26   10   2    1    41   13   9    2    2    31   17   61
1st      PAS Giannina                    26   12   1    0    41   12   10   2    1    36   13   69
1st      PAS Giannina                    26   12   0    1    36   11   11   1    1    41   11   70
1st      PAS Giannina                    26   11   1    1    31   13   10   1    2    32   14   65
1st      PAS Giannina                    26   11   1    1    40   15   11   1    1    34   13   68
2nd     PAS Giannina                    26   8    3    2    31   12   10   3    0    28   7    60
1st      PAS Giannina                    26   11   2    0    37   15   11   1    1    30   8    69
1st      PAS Giannina                    26   10   1    2    42   16   8    3    2    32   15   58
1st      PAS Giannina                    26   12   1    0    34   7    7    3    3    28   11   61
1st      PAS Giannina                    26   10   2    1    33   12   12   1    0    32   3    69
1st      PAS Giannina                    26   12   1    0    37   9    9    4    0    31   7    68
1st      PAS Giannina                    26   11   1    1    31   10   11   1    1    36   12   68
1st      PAS Giannina                    26   9    3    1    24   14   12   1    0    38   12   67
1st      PAS Giannina                    26   12   0    1    44   10   9    3    1    31   12   66
1st      PAS Giannina                    26   11   0    2    41   11   9    3    1    31   10   63
1st      PAS Giannina                    26   11   1    1    35   14   9    2    2    32   10   63
1st      PAS Giannina                    26   11   1    1    31   12   10   3    0    33   14   67
1st      PAS Giannina                    26   12   1    0    38   10   11   1    1    32   13   71
1st      PAS Giannina                    26   11   1    1    36   8    12   0    1    34   11   70
1st      PAS Giannina                    26   11   0    2    32   13   9    2    2    27   9    62
1st      PAS Giannina                    26   9    2    2    34   14   9    1    3    31   16   57
1st      PAS Giannina                    26   11   2    0    27   6    10   2    1    36   16   67
1st      PAS Giannina                    26   12   0    1    32   7    11   0    2    32   13   69
1st      PAS Giannina                    26   12   1    0    42   13   10   3    0    32   6    70
1st      PAS Giannina                    26   12   1    0    35   8    8    3    2    28   11   64
1st      PAS Giannina                    26   13   0    0    40   13   9    0    4    36   15   66
1st      PAS Giannina                    26   12   1    0    38   7    11   2    0    36   8    72
1st      PAS Giannina                    26   9    4    0    31   11   9    2    2    29   15   60
1st      PAS Giannina                    26   12   0    1    47   11   9    4    0    28   9    67
1st      PAS Giannina                    26   12   1    0    30   6    8    4    1    25   8    65
1st      PAS Giannina                    26   12   1    0    37   10   9    4    0    26   9    68
1st      PAS Giannina                    26   10   2    1    38   12   12   1    0    34   3    69
1st      PAS Giannina                    26   12   1    0    36   12   12   0    1    30   5    73
1st      PAS Giannina                    26   10   1    2    32   14   11   1    1    31   5    65
1st      PAS Giannina                    26   12   1    0    39   6    10   3    0    32   11   70
1st      PAS Giannina                    26   11   0    2    32   12   10   3    0    37   9    66
1st      PAS Giannina                    26   11   1    1    29   9    7    5    1    33   16   60
1st      PAS Giannina                    26   12   1    0    41   10   10   2    1    31   11   69
1st      PAS Giannina                    26   10   3    0    29   12   9    4    0    29   12   64
1st      PAS Giannina                    26   11   0    2    31   12   11   1    1    35   14   67
1st      PAS Giannina                    26   12   1    0    44   15   11   1    1    31   8    71
1st      PAS Giannina                    26   11   1    1    37   10   9    4    0    31   12   65
1st      PAS Giannina                    26   12   0    1    43   12   12   1    0    42   11   73
1st      PAS Giannina                    26   10   2    1    24   9    10   2    1    29   5    64
1st      PAS Giannina                    26   10   3    0    32   12   8    4    1    31   9    61
1st      PAS Giannina                    26   11   0    2    33   8    7    4    2    24   12   58
1st      PAS Giannina                    26   13   0    0    36   9    10   2    1    27   9    71
1st      PAS Giannina                    26   13   0    0    38   10   10   2    1    33   15   71
1st      PAS Giannina                    26   11   2    0    36   13   11   2    0    27   7    70
1st      PAS Giannina                    26   11   2    0    31   10   9    2    2    34   13   64
1st      PAS Giannina                    26   11   1    1    29   9    10   0    3    31   12   64
1st      PAS Giannina                    26   10   1    2    38   14   8    3    2    28   11   58
1st      PAS Giannina                    26   9    3    1    32   14   11   1    1    35   11   64
1st      PAS Giannina                    26   12   1    0    42   10   8    3    2    27   11   64
1st      PAS Giannina                    26   11   1    1    32   12   9    2    2    33   18   63
1st      PAS Giannina                    26   10   2    1    38   14   10   2    1    37   16   64