1st     PAS Giannina                    26   10   2    1    27   15   4    6    3    19   16   50   
2nd     PAS Giannina                    26   8    4    1    30   11   7    3    3    19   9    52   
1st     PAS Giannina                    26   10   3    0    32   13   6    3    4    15   12   54   
2nd     PAS Giannina                    26   10   1    2    22   9    6    5    2    19   15   54   
1st     PAS Giannina                    26   10   3    0    23   8    9    1    3    25   14   61   
1st     PAS Giannina                    26   12   1    0    37   12   4    4    5    16   18   53   
3rd     PAS Giannina                    26   9    2    2    31   15   3    4    6    10   16   42   
2nd     PAS Giannina                    26   11   2    0    32   7    5    5    3    23   16   55   
1st     PAS Giannina                    26   12   0    1    28   11   7    4    2    20   11   61   
1st     PAS Giannina                    26   12   1    0    28   3    5    3    5    18   18   55   
5th     PAS Giannina                    26   8    5    0    28   12   3    3    7    13   19   41   
2nd     PAS Giannina                    26   7    5    1    26   13   5    5    3    17   10   46   
3rd     PAS Giannina                    26   7    3    3    23   12   7    1    5    22   17   46   
2nd     PAS Giannina                    26   8    4    1    24   14   5    3    5    16   20   46   
2nd     PAS Giannina                    26   9    1    3    20   11   7    2    4    17   13   51   
2nd     PAS Giannina                    26   7    2    4    15   10   7    4    2    24   12   48   
3rd     PAS Giannina                    26   9    2    2    25   12   4    2    7    17   20   43   
1st     PAS Giannina                    26   10   1    2    26   7    8    2    3    20   12   57   
5th     PAS Giannina                    26   7    3    3    25   16   5    1    7    16   15   40   
1st     PAS Giannina                    26   12   1    0    26   7    6    2    5    17   16   57   
2nd     PAS Giannina                    26   10   0    3    22   10   7    3    3    15   8    54   
1st     PAS Giannina                    26   12   1    0    29   8    6    3    4    22   17   58   
4th     PAS Giannina                    26   7    3    3    19   13   4    4    5    14   15   40   
6th     PAS Giannina                    26   6    6    1    19   8    4    1    8    20   29   37   
1st     PAS Giannina                    26   8    2    3    21   6    6    4    3    11   9    48   
9th     PAS Giannina                    26   4    5    4    18   16   3    2    8    15   20   28   
3rd     PAS Giannina                    26   6    6    1    19   10   6    5    2    19   15   47   
1st     PAS Giannina                    26   9    4    0    30   7    8    2    3    22   10   57   
2nd     PAS Giannina                    26   10   3    0    27   9    6    3    4    20   13   54   
3rd     PAS Giannina                    26   9    1    3    20   10   3    4    6    13   22   41   
1st     PAS Giannina                    26   10   3    0    31   11   7    2    4    19   17   56   
3rd     PAS Giannina                    26   8    4    1    19   9    5    4    4    15   14   47   
1st     PAS Giannina                    26   9    2    2    24   10   5    3    5    17   13   47   
2nd     PAS Giannina                    26   9    2    2    22   10   6    4    3    16   13   51   
3rd     PAS Giannina                    26   7    6    0    18   7    5    3    5    20   20   45   
3rd     PAS Giannina                    26   8    1    4    20   7    5    3    5    11   12   43   
1st     PAS Giannina                    26   10   3    0    25   10   4    5    4    14   11   50   
1st     PAS Giannina                    26   9    4    0    36   10   9    2    2    26   12   60   
9th     PAS Giannina                    26   6    4    3    21   12   3    2    8    13   20   33   
2nd     PAS Giannina                    26   9    4    0    26   8    4    3    6    11   13   46   
2nd     PAS Giannina                    26   8    4    1    22   12   5    5    3    17   18   48   
1st     PAS Giannina                    26   9    2    2    35   19   8    0    5    22   16   53   
3rd     PAS Giannina                    26   7    4    2    20   12   6    3    4    18   12   46   
5th     PAS Giannina                    26   10   1    2    27   12   2    5    6    10   14   42   
1st     PAS Giannina                    26   11   2    0    24   4    5    3    5    15   15   53   
7th     PAS Giannina                    26   6    4    3    22   14   3    5    5    14   18   36   
2nd     PAS Giannina                    26   8    3    2    23   10   6    2    5    20   16   47   
5th     PAS Giannina                    26   8    2    3    23   8    4    2    7    23   24   40   
1st     PAS Giannina                    26   10   3    0    27   11   6    2    5    15   12   53   
1st     PAS Giannina                    26   8    4    1    20   10   8    4    1    24   12   56   
2nd     PAS Giannina                    26   4    7    2    15   9    8    2    3    19   9    45   
1st     PAS Giannina                    26   9    4    0    30   8    8    3    2    19   9    58   
3rd     PAS Giannina                    26   7    5    1    24   11   6    1    6    13   13   45   
2nd     PAS Giannina                    26   10   2    1    24   14   4    6    3    23   21   50   
3rd     PAS Giannina                    26   8    3    2    23   10   3    4    6    14   15   40   
2nd     PAS Giannina                    26   10   2    1    27   10   5    5    3    19   17   52   
1st     PAS Giannina                    26   8    3    2    25   8    6    3    4    17   15   48   
2nd     PAS Giannina                    26   9    3    1    27   11   7    2    4    18   15   53   
1st     PAS Giannina                    26   10   3    0    33   12   8    3    2    15   8    60   
5th     PAS Giannina                    26   8    3    2    18   10   4    3    6    10   12   42   
1st     PAS Giannina                    26   8    5    0    26   11   6    5    2    18   11   52   
4th     PAS Giannina                    26   7    4    2    25   13   5    4    4    18   11   44   
1st     PAS Giannina                    26   11   1    1    24   9    9    1    3    21   11   62   
5th     PAS Giannina                    26   10   3    0    27   10   1    4    8    8    19   40   
2nd     PAS Giannina                    26   11   1    1    25   7    5    2    6    16   14   51   
1st     PAS Giannina                    26   12   1    0    35   6    3    3    7    14   21   49   
2nd     PAS Giannina                    26   9    1    3    24   8    6    2    5    17   13   48   
2nd     PAS Giannina                    26   9    2    2    21   9    4    3    6    12   14   44   
6th     PAS Giannina                    26   8    2    3    27   11   2    7    4    12   13   39   
2nd     PAS Giannina                    26   10   1    2    30   12   5    5    3    14   12   51   
4th     PAS Giannina                    26   7    3    3    27   12   4    4    5    14   18   40   
2nd     PAS Giannina                    26   8    3    2    18   8    5    2    6    13   15   44   
3rd     PAS Giannina                    26   9    2    2    27   12   5    3    5    18   15   47   
2nd     PAS Giannina                    26   8    3    2    23   8    8    3    2    20   13   54   
1st     PAS Giannina                    26   12   0    1    31   13   3    5    5    18   19   50   
3rd     PAS Giannina                    26   11   2    0    26   6    2    3    8    14   22   44   
3rd     PAS Giannina                    26   8    4    1    27   9    5    6    2    16   12   49   
2nd     PAS Giannina                    26   9    2    2    24   10   6    1    6    15   15   48   
3rd     PAS Giannina                    26   10   1    2    24   8    4    3    6    19   21   46   
2nd     PAS Giannina                    26   8    4    1    25   13   3    6    4    19   22   43   
1st     PAS Giannina                    26   10   3    0    28   5    5    3    5    14   14   51   
1st     PAS Giannina                    26   10   2    1    26   9    6    2    5    20   15   52   
3rd     PAS Giannina                    26   8    2    3    22   8    3    6    4    11   13   41   
1st     PAS Giannina                    26   9    3    1    22   8    5    4    4    16   16   49   
6th     PAS Giannina                    26   5    5    3    18   14   5    3    5    10   11   38   
1st     PAS Giannina                    26   9    4    0    31   8    8    2    3    24   14   57   
3rd     PAS Giannina                    26   9    1    3    27   14   5    2    6    18   21   45   
2nd     PAS Giannina                    26   7    5    1    26   11   7    4    2    22   9    51   
3rd     PAS Giannina                    26   9    1    3    24   10   3    8    2    14   10   45   
5th     PAS Giannina                    26   7    3    3    16   9    4    6    3    15   12   42   
1st     PAS Giannina                    26   10   2    1    20   6    5    2    6    19   17   49   
2nd     PAS Giannina                    26   6    3    4    19   12   5    5    3    20   12   41   
2nd     PAS Giannina                    26   9    4    0    33   11   5    2    6    15   18   48   
1st     PAS Giannina                    26   12   0    1    33   12   6    2    5    18   12   56   
3rd     PAS Giannina                    26   6    5    2    23   14   5    5    3    20   14   43   
1st     PAS Giannina                    26   12   1    0    33   8    6    4    3    19   13   59   
7th     PAS Giannina                    26   9    1    3    22   16   1    6    6    10   20   37   
2nd     PAS Giannina                    26   7    5    1    19   9    4    5    4    12   16   43   
2nd     PAS Giannina                    26   7    5    1    19   10   6    4    3    15   13   48   
1st     PAS Giannina                    26   10   1    2    19   10   7    1    5    18   16   53   