3rd     PAS Giannina                    26   7    4    2    29   22   8    1    4    21   16   50   
2nd     PAS Giannina                    26   8    5    0    31   14   5    2    6    23   22   46   
2nd     PAS Giannina                    26   12   0    1    30   11   8    1    4    29   15   61   
3rd     PAS Giannina                    26   8    2    3    25   13   5    3    5    14   17   44   
1st     PAS Giannina                    26   9    4    0    27   10   10   2    1    29   13   63   
3rd     PAS Giannina                    26   9    3    1    28   14   4    7    2    24   22   49   
2nd     PAS Giannina                    26   10   2    1    26   15   7    4    2    26   19   57   
6th     PAS Giannina                    26   5    6    2    23   20   5    3    5    22   20   39   
2nd     PAS Giannina                    26   7    5    1    27   13   5    6    2    28   21   47   
5th     PAS Giannina                    26   8    3    2    24   10   3    5    5    17   16   41   
1st     PAS Giannina                    26   11   2    0    36   14   6    3    4    21   17   56   
1st     PAS Giannina                    26   12   0    1    32   8    7    3    3    30   13   60   
2nd     PAS Giannina                    26   9    3    1    28   12   5    2    6    22   16   47   
5th     PAS Giannina                    26   5    2    6    29   28   6    4    3    22   19   39   
1st     PAS Giannina                    26   9    2    2    28   13   8    1    4    19   11   54   
5th     PAS Giannina                    26   7    3    3    32   19   3    2    8    15   24   35   
5th     PAS Giannina                    26   7    2    4    26   23   5    4    4    20   18   42   
2nd     PAS Giannina                    26   8    3    2    24   15   7    3    3    23   19   51   
2nd     PAS Giannina                    26   10   2    1    28   13   6    3    4    20   18   53   
2nd     PAS Giannina                    26   8    2    3    22   13   5    5    3    22   14   46   
4th     PAS Giannina                    26   7    5    1    24   10   5    2    6    22   19   43   
1st     PAS Giannina                    26   8    4    1    28   14   6    1    6    18   16   47   
3rd     PAS Giannina                    26   8    4    1    27   12   4    2    7    17   18   42   
2nd     PAS Giannina                    26   8    5    0    30   13   6    2    5    19   17   49   
2nd     PAS Giannina                    26   7    5    1    31   15   6    4    3    27   13   48   
1st     PAS Giannina                    26   7    3    3    20   10   8    2    3    19   16   50   
2nd     PAS Giannina                    26   8    3    2    26   14   5    3    5    24   25   45   
4th     PAS Giannina                    26   8    5    0    29   15   4    3    6    23   24   44   
1st     PAS Giannina                    26   9    0    4    24   12   6    3    4    23   15   48   
2nd     PAS Giannina                    26   7    5    1    26   17   7    3    3    23   13   50   
1st     PAS Giannina                    26   11   2    0    28   10   6    6    1    23   14   59   
3rd     PAS Giannina                    26   8    3    2    28   12   5    2    6    14   15   44   
4th     PAS Giannina                    26   10   1    2    36   14   3    2    8    16   29   42   
2nd     PAS Giannina                    26   7    3    3    25   16   6    4    3    17   12   46   
5th     PAS Giannina                    26   9    2    2    34   17   4    3    6    17   18   44   
1st     PAS Giannina                    26   9    2    2    32   18   9    1    3    23   14   57   
5th     PAS Giannina                    26   6    4    3    26   14   4    4    5    14   15   38   
3rd     PAS Giannina                    26   5    4    4    24   19   8    3    2    26   14   46   
2nd     PAS Giannina                    26   9    2    2    35   20   8    3    2    29   17   56   
1st     PAS Giannina                    26   8    3    2    26   13   7    5    1    22   12   53   
2nd     PAS Giannina                    26   9    1    3    31   13   6    2    5    24   23   48   
7th     PAS Giannina                    26   8    2    3    28   13   3    3    7    15   16   38   
2nd     PAS Giannina                    26   11   1    1    33   15   8    1    4    19   13   59   
3rd     PAS Giannina                    26   11   1    1    38   14   2    7    4    17   20   47   
2nd     PAS Giannina                    26   11   1    1    31   9    4    3    6    22   20   49   
1st     PAS Giannina                    26   10   3    0    31   11   6    4    3    24   19   55   
2nd     PAS Giannina                    26   8    3    2    30   19   6    4    3    25   18   49   
5th     PAS Giannina                    26   7    2    4    28   17   5    2    6    22   25   40   
2nd     PAS Giannina                    26   9    2    2    21   12   5    2    6    21   18   46   
3rd     PAS Giannina                    26   10   2    1    31   12   3    5    5    16   19   46   
2nd     PAS Giannina                    26   8    5    0    29   16   7    4    2    26   16   54   
4th     PAS Giannina                    26   8    4    1    28   16   4    3    6    23   24   43   
1st     PAS Giannina                    26   9    2    2    38   17   6    4    3    20   16   51   
3rd     PAS Giannina                    26   10   2    1    24   10   4    4    5    20   19   48   
2nd     PAS Giannina                    26   8    4    1    28   10   8    3    2    24   15   55   
2nd     PAS Giannina                    26   10   2    1    33   15   4    3    6    13   18   47   
3rd     PAS Giannina                    26   9    2    2    31   11   6    3    4    20   16   50   
3rd     PAS Giannina                    26   11   1    1    33   13   5    2    6    17   20   51   
3rd     PAS Giannina                    26   7    4    2    25   14   6    3    4    26   21   46   
2nd     PAS Giannina                    26   11   2    0    44   16   5    3    5    20   18   53   
1st     PAS Giannina                    26   10   2    1    24   11   6    2    5    24   23   52   
6th     PAS Giannina                    26   7    2    4    22   13   5    1    7    19   22   39   
2nd     PAS Giannina                    26   9    2    2    32   12   7    1    5    23   19   51   
4th     PAS Giannina                    26   8    3    2    29   17   6    3    4    22   15   48   
5th     PAS Giannina                    26   6    1    6    21   16   5    5    3    22   21   39   
2nd     PAS Giannina                    26   10   1    2    28   10   3    5    5    18   24   45   
1st     PAS Giannina                    26   10   1    2    35   18   5    4    4    22   20   50   
4th     PAS Giannina                    26   7    5    1    26   12   4    4    5    18   19   42   
1st     PAS Giannina                    26   9    1    3    33   16   7    2    4    27   23   51   
1st     PAS Giannina                    26   9    3    1    37   19   7    3    3    23   13   54   
1st     PAS Giannina                    26   12   0    1    36   16   6    5    2    21   13   59   
1st     PAS Giannina                    26   9    2    2    26   12   9    3    1    27   11   59   
2nd     PAS Giannina                    26   10   1    2    31   13   6    4    3    23   17   53   
2nd     PAS Giannina                    26   8    4    1    29   15   6    5    2    19   13   51   
1st     PAS Giannina                    26   10   2    1    33   16   9    2    2    26   14   61   
3rd     PAS Giannina                    26   8    1    4    33   13   7    0    6    18   23   46   
1st     PAS Giannina                    26   11   2    0    30   11   7    4    2    18   9    60   
1st     PAS Giannina                    26   12   0    1    25   9    9    2    2    23   10   65   
1st     PAS Giannina                    26   9    2    2    27   12   10   2    1    25   8    61   
2nd     PAS Giannina                    26   10   2    1    31   15   5    4    4    18   14   51   
2nd     PAS Giannina                    26   9    2    2    29   17   9    2    2    21   11   58   
1st     PAS Giannina                    26   10   1    2    29   13   7    4    2    25   16   56   
3rd     PAS Giannina                    26   8    2    3    20   12   7    3    3    25   13   50   
6th     PAS Giannina                    26   8    3    2    28   14   2    6    5    20   24   39   
2nd     PAS Giannina                    26   11   1    1    30   14   8    2    3    28   16   60   
2nd     PAS Giannina                    26   9    2    2    28   11   7    3    3    23   20   53   
5th     PAS Giannina                    26   10   2    1    30   10   3    2    8    20   25   43   
2nd     PAS Giannina                    26   7    3    3    28   18   7    4    2    18   9    49   
1st     PAS Giannina                    26   9    3    1    27   11   8    3    2    27   15   57   
2nd     PAS Giannina                    26   9    3    1    27   13   7    3    3    29   15   54   
1st     PAS Giannina                    26   10   3    0    27   9    6    5    2    21   14   56   
2nd     PAS Giannina                    26   7    3    3    27   17   4    7    2    27   23   43   
9th     PAS Giannina                    26   7    2    4    25   15   3    5    5    15   18   37   
1st     PAS Giannina                    26   7    5    1    25   12   8    1    4    23   19   51   
1st     PAS Giannina                    26   10   3    0    32   8    6    3    4    16   12   54   
2nd     PAS Giannina                    26   9    3    1    27   9    5    4    4    19   15   49   
2nd     PAS Giannina                    26   9    1    3    26   17   4    5    4    25   26   45   
1st     PAS Giannina                    26   9    3    1    26   12   7    4    2    22   12   55   
1st     PAS Giannina                    26   8    4    1    25   15   8    1    4    20   12   53   
2nd     PAS Giannina                    26   10   0    3    25   11   6    0    7    19   20   48   