1st     PAS Giannina                    26   10   2    1    30   14   7    3    3    24   10   56   
3rd     PAS Giannina                    26   10   1    2    23   12   5    4    4    18   19   50   
1st     PAS Giannina                    26   9    3    1    28   9    8    2    3    17   9    56   
1st     PAS Giannina                    26   12   1    0    40   7    6    5    2    21   11   60   
1st     PAS Giannina                    26   10   2    1    33   10   7    3    3    21   7    56   
1st     PAS Giannina                    26   8    4    1    32   15   11   2    0    28   9    63   
2nd     PAS Giannina                    26   10   1    2    30   12   6    3    4    17   9    52   
1st     PAS Giannina                    26   8    4    1    35   14   7    6    0    26   11   55   
2nd     PAS Giannina                    26   11   2    0    29   14   7    3    3    23   15   59   
1st     PAS Giannina                    26   12   1    0    31   6    7    3    3    28   18   61   
1st     PAS Giannina                    26   12   1    0    29   8    8    1    4    27   14   62   
1st     PAS Giannina                    26   12   1    0    27   6    5    5    3    17   14   57   
2nd     PAS Giannina                    26   8    3    2    21   10   5    5    3    17   12   47   
1st     PAS Giannina                    26   12   0    1    27   7    7    5    1    22   12   62   
2nd     PAS Giannina                    26   12   1    0    26   8    6    2    5    12   10   57   
1st     PAS Giannina                    26   10   2    1    26   10   8    2    3    20   11   58   
1st     PAS Giannina                    26   10   2    1    29   10   8    1    4    20   11   57   
2nd     PAS Giannina                    26   9    4    0    29   9    5    5    3    20   16   51   
2nd     PAS Giannina                    26   10   1    2    26   10   7    1    5    21   10   53   
1st     PAS Giannina                    26   10   3    0    24   5    10   2    1    21   8    65   
1st     PAS Giannina                    26   9    3    1    25   8    8    3    2    20   11   57   
1st     PAS Giannina                    26   10   3    0    33   10   8    2    3    23   11   59   
1st     PAS Giannina                    26   11   1    1    36   10   7    3    3    16   11   58   
1st     PAS Giannina                    26   10   1    2    30   10   7    3    3    17   9    55   
1st     PAS Giannina                    26   10   3    0    29   8    5    5    3    12   7    53   
1st     PAS Giannina                    26   7    4    2    25   14   6    5    2    15   8    48   
2nd     PAS Giannina                    26   9    2    2    24   12   5    4    4    17   12   48   
1st     PAS Giannina                    26   10   2    1    27   11   9    2    2    27   14   61   
1st     PAS Giannina                    26   10   3    0    29   13   7    5    1    23   11   59   
1st     PAS Giannina                    26   11   1    1    27   9    6    3    4    15   12   55   
1st     PAS Giannina                    26   8    3    2    25   14   5    6    2    18   11   48   
1st     PAS Giannina                    26   11   2    0    34   11   8    3    2    28   15   62   
2nd     PAS Giannina                    26   9    4    0    30   7    7    2    4    25   18   54   
1st     PAS Giannina                    26   11   0    2    33   11   8    5    0    27   9    62   
2nd     PAS Giannina                    26   10   0    3    36   16   7    2    4    18   11   53   
1st     PAS Giannina                    26   11   0    2    31   11   9    2    2    28   13   62   
1st     PAS Giannina                    26   10   3    0    29   9    6    4    3    18   10   55   
2nd     PAS Giannina                    26   11   0    2    36   8    4    4    5    17   15   49   
1st     PAS Giannina                    26   11   1    1    38   16   9    1    3    26   13   62   
1st     PAS Giannina                    26   9    2    2    29   14   10   3    0    26   7    62   
1st     PAS Giannina                    26   11   2    0    31   8    6    4    3    24   14   57   
1st     PAS Giannina                    26   11   1    1    29   8    8    2    3    17   13   60   
2nd     PAS Giannina                    26   8    3    2    22   6    7    3    3    21   13   51   
2nd     PAS Giannina                    26   9    2    2    27   12   8    2    3    22   10   55   
2nd     PAS Giannina                    26   10   3    0    29   6    7    3    3    16   10   57   
1st     PAS Giannina                    26   12   1    0    33   7    7    3    3    17   12   61   
1st     PAS Giannina                    26   9    2    2    27   14   5    5    3    14   16   49   
1st     PAS Giannina                    26   9    3    1    36   8    5    6    2    16   10   51   
1st     PAS Giannina                    26   9    3    1    28   15   9    2    2    23   13   59   
1st     PAS Giannina                    26   10   3    0    25   7    8    3    2    23   13   60   
2nd     PAS Giannina                    26   11   1    1    31   10   4    5    4    16   16   51   
1st     PAS Giannina                    26   12   0    1    32   10   9    2    2    24   14   65   
2nd     PAS Giannina                    26   8    4    1    22   11   7    2    4    22   9    51   
2nd     PAS Giannina                    26   11   1    1    32   9    6    5    2    22   11   57   
2nd     PAS Giannina                    26   9    3    1    24   8    9    2    2    22   9    59   
1st     PAS Giannina                    26   10   3    0    30   13   6    5    2    21   14   56   
3rd     PAS Giannina                    26   10   2    1    30   7    4    1    8    13   19   45   
2nd     PAS Giannina                    26   11   1    1    34   12   4    4    5    23   20   50   
1st     PAS Giannina                    26   9    3    1    32   13   6    4    3    23   15   52   
2nd     PAS Giannina                    26   9    2    2    23   13   8    2    3    16   5    55   
1st     PAS Giannina                    26   9    4    0    28   9    8    2    3    24   10   57   
1st     PAS Giannina                    26   12   1    0    27   9    10   2    1    21   7    69   
2nd     PAS Giannina                    26   11   2    0    37   11   5    4    4    10   12   54   
1st     PAS Giannina                    26   12   0    1    31   6    7    4    2    15   10   61   
3rd     PAS Giannina                    26   7    5    1    25   13   4    4    5    14   15   42   
1st     PAS Giannina                    26   11   2    0    30   8    8    2    3    21   4    61   
1st     PAS Giannina                    26   11   2    0    26   8    9    0    4    22   14   62   
1st     PAS Giannina                    26   8    4    1    31   14   9    3    1    25   9    58   
1st     PAS Giannina                    26   10   3    0    27   8    8    4    1    19   10   61   
1st     PAS Giannina                    26   13   0    0    31   6    8    3    2    23   9    66   
1st     PAS Giannina                    26   10   1    2    24   10   7    2    4    19   14   54   
1st     PAS Giannina                    26   10   3    0    28   7    7    4    2    21   11   58   
1st     PAS Giannina                    26   10   2    1    25   11   9    0    4    16   7    59   
1st     PAS Giannina                    26   11   1    1    31   10   8    4    1    21   8    62   
2nd     PAS Giannina                    26   12   1    0    32   10   4    4    5    14   18   53   
1st     PAS Giannina                    26   11   2    0    36   14   8    5    0    21   5    64   
2nd     PAS Giannina                    26   8    3    2    23   11   7    3    3    23   13   51   
3rd     PAS Giannina                    26   7    4    2    28   16   5    4    4    19   15   44   
1st     PAS Giannina                    26   9    3    1    32   12   5    2    6    18   14   47   
2nd     PAS Giannina                    26   10   3    0    34   10   5    3    5    15   10   51   
2nd     PAS Giannina                    26   8    3    2    28   17   5    3    5    19   18   45   
2nd     PAS Giannina                    26   11   1    1    31   8    6    4    3    21   14   56   
2nd     PAS Giannina                    26   11   1    1    31   5    6    4    3    17   11   56   
2nd     PAS Giannina                    26   11   1    1    35   12   6    3    4    13   14   55   
2nd     PAS Giannina                    26   9    3    1    34   14   6    4    3    18   10   52   
1st     PAS Giannina                    26   10   2    1    27   9    7    3    3    21   12   56   
1st     PAS Giannina                    26   10   2    1    24   8    8    3    2    17   9    59   
2nd     PAS Giannina                    26   10   1    2    28   10   7    3    3    22   14   55   
1st     PAS Giannina                    26   10   2    1    29   11   4    5    4    16   12   49   
2nd     PAS Giannina                    26   10   2    1    30   10   3    6    4    13   9    47   
1st     PAS Giannina                    26   10   2    1    28   8    7    3    3    21   11   56   
4th     PAS Giannina                    26   9    4    0    26   10   3    3    7    10   14   43   
1st     PAS Giannina                    26   11   2    0    31   8    6    3    4    20   14   56   
1st     PAS Giannina                    26   9    3    1    30   10   6    3    4    19   12   51   
2nd     PAS Giannina                    26   10   2    1    32   15   6    4    3    28   19   54   
3rd     PAS Giannina                    26   9    3    1    27   8    3    5    5    12   14   44   
2nd     PAS Giannina                    26   12   1    0    34   11   4    3    6    11   13   52   
2nd     PAS Giannina                    26   9    3    1    28   13   5    4    4    13   13   49   
2nd     PAS Giannina                    26   10   2    1    28   7    6    3    4    21   13   53   
2nd     PAS Giannina                    26   9    4    0    30   12   7    0    6    20   16   52   