1st     PAS Giannina                    26   10   1    2    35   14   7    2    4    25   15   54   
1st     PAS Giannina                    26   10   2    1    30   14   10   3    0    33   9    65   
1st     PAS Giannina                    26   12   1    0    38   13   9    3    1    27   14   67   
1st     PAS Giannina                    26   11   2    0    36   12   7    2    4    25   16   58   
1st     PAS Giannina                    26   9    3    1    25   13   9    3    1    24   11   60   
2nd     PAS Giannina                    26   11   1    1    36   12   7    3    3    34   20   58   
1st     PAS Giannina                    26   10   2    1    36   16   9    2    2    28   14   61   
1st     PAS Giannina                    26   11   1    1    33   15   9    2    2    26   12   63   
1st     PAS Giannina                    26   11   2    0    39   14   9    3    1    31   18   65   
1st     PAS Giannina                    26   11   1    1    36   12   7    2    4    23   15   57   
2nd     PAS Giannina                    26   12   1    0    37   16   5    5    3    25   22   57   
2nd     PAS Giannina                    26   9    4    0    37   16   8    1    4    27   18   56   
1st     PAS Giannina                    26   10   1    2    38   14   10   1    2    24   14   62   
2nd     PAS Giannina                    26   9    2    2    31   13   6    3    4    23   15   50   
2nd     PAS Giannina                    26   8    2    3    33   16   9    2    2    29   14   55   
1st     PAS Giannina                    26   8    3    2    30   14   10   0    3    28   13   57   
1st     PAS Giannina                    26   12   1    0    35   11   10   2    1    28   6    69   
1st     PAS Giannina                    26   11   1    1    34   10   6    3    4    23   17   55   
1st     PAS Giannina                    26   10   0    3    30   14   8    3    2    29   13   57   
2nd     PAS Giannina                    26   9    1    3    32   13   10   0    3    27   12   58   
1st     PAS Giannina                    26   11   1    1    33   8    10   2    1    24   8    66   
1st     PAS Giannina                    26   10   3    0    33   7    8    3    2    29   14   60   
1st     PAS Giannina                    26   9    2    2    34   10   8    2    3    28   17   55   
1st     PAS Giannina                    26   10   2    1    33   15   9    2    2    30   15   61   
1st     PAS Giannina                    26   13   0    0    34   13   9    3    1    28   9    69   
1st     PAS Giannina                    26   10   1    2    33   13   10   3    0    31   10   64   
1st     PAS Giannina                    26   11   2    0    28   7    6    5    2    22   16   58   
1st     PAS Giannina                    26   9    1    3    40   24   8    4    1    29   10   56   
1st     PAS Giannina                    26   11   0    2    34   10   9    0    4    26   10   60   
1st     PAS Giannina                    26   10   2    1    36   15   7    4    2    22   11   57   
1st     PAS Giannina                    26   12   1    0    34   12   5    4    4    19   17   56   
1st     PAS Giannina                    26   12   0    1    39   14   9    2    2    27   8    65   
2nd     PAS Giannina                    26   10   3    0    40   14   7    5    1    30   16   59   
1st     PAS Giannina                    26   11   1    1    35   11   8    1    4    23   17   59   
2nd     PAS Giannina                    26   8    5    0    24   10   9    3    1    27   11   59   
1st     PAS Giannina                    26   12   1    0    34   10   11   2    0    33   14   72   
1st     PAS Giannina                    26   9    4    0    37   11   8    2    3    24   14   57   
2nd     PAS Giannina                    26   9    2    2    36   15   8    2    3    27   16   55   
1st     PAS Giannina                    26   12   1    0    39   11   7    1    5    27   15   59   
1st     PAS Giannina                    26   9    3    1    34   18   10   1    2    32   14   61   
1st     PAS Giannina                    26   9    2    2    39   23   7    6    0    32   15   56   
1st     PAS Giannina                    26   10   2    1    25   9    6    2    5    24   17   52   
2nd     PAS Giannina                    26   8    3    2    30   16   5    6    2    25   17   48   
1st     PAS Giannina                    26   11   2    0    39   12   10   3    0    28   11   68   
2nd     PAS Giannina                    26   9    2    2    24   10   6    3    4    28   20   50   
1st     PAS Giannina                    26   12   1    0    33   10   9    2    2    29   14   66   
1st     PAS Giannina                    26   10   2    1    35   11   9    3    1    31   16   62   
1st     PAS Giannina                    26   11   1    1    40   11   9    1    3    23   11   62   
1st     PAS Giannina                    26   11   0    2    24   8    8    2    3    31   14   59   
1st     PAS Giannina                    26   11   2    0    30   13   11   2    0    33   13   70   
1st     PAS Giannina                    26   12   0    1    39   11   9    2    2    27   14   65   
1st     PAS Giannina                    26   11   1    1    44   14   10   0    3    29   14   64   
1st     PAS Giannina                    26   10   2    1    34   13   9    4    0    26   10   63   
2nd     PAS Giannina                    26   11   0    2    32   10   8    2    3    26   11   59   
1st     PAS Giannina                    26   11   2    0    37   12   11   1    1    33   9    69   
1st     PAS Giannina                    26   9    3    1    35   15   10   2    1    28   13   62   
1st     PAS Giannina                    26   10   3    0    37   16   6    4    3    22   16   55   
1st     PAS Giannina                    26   9    2    2    28   14   9    3    1    34   11   59   
1st     PAS Giannina                    26   8    3    2    31   16   10   0    3    32   15   57   
1st     PAS Giannina                    26   10   3    0    31   13   10   2    1    35   12   65   
2nd     PAS Giannina                    26   7    4    2    25   17   6    3    4    19   17   46   
2nd     PAS Giannina                    26   9    3    1    31   15   5    3    5    27   24   48   
1st     PAS Giannina                    26   11   1    1    36   13   6    6    1    27   16   58   
1st     PAS Giannina                    26   9    1    3    25   9    8    2    3    29   18   54   
2nd     PAS Giannina                    26   11   0    2    33   10   7    3    3    27   18   57   
1st     PAS Giannina                    26   10   1    2    28   9    9    2    2    29   11   60   
1st     PAS Giannina                    26   11   2    0    38   10   7    4    2    30   19   60   
1st     PAS Giannina                    26   9    3    1    34   15   7    3    3    28   17   54   
2nd     PAS Giannina                    26   7    4    2    26   12   7    2    4    28   16   48   
1st     PAS Giannina                    26   10   1    2    25   10   8    1    4    24   11   56   
1st     PAS Giannina                    26   12   1    0    38   6    8    2    3    27   15   63   
1st     PAS Giannina                    26   12   1    0    34   11   7    1    5    24   19   59   
2nd     PAS Giannina                    26   9    4    0    33   13   8    2    3    28   12   57   
1st     PAS Giannina                    26   10   1    2    35   14   9    1    3    24   14   59   
1st     PAS Giannina                    26   10   2    1    32   17   11   1    1    32   16   66   
1st     PAS Giannina                    26   12   0    1    38   11   9    1    3    31   12   64   
1st     PAS Giannina                    26   12   0    1    27   10   8    3    2    33   12   63   
1st     PAS Giannina                    26   13   0    0    37   15   9    3    1    36   14   69   
1st     PAS Giannina                    26   13   0    0    39   9    7    3    3    23   13   63   
1st     PAS Giannina                    26   13   0    0    38   10   10   0    3    29   14   69   
1st     PAS Giannina                    26   11   2    0    37   11   8    4    1    30   9    63   
1st     PAS Giannina                    26   9    2    2    35   21   7    2    4    19   13   52   
1st     PAS Giannina                    26   11   0    2    35   12   9    2    2    30   15   62   
2nd     PAS Giannina                    26   8    3    2    30   16   6    3    4    24   13   48   
1st     PAS Giannina                    26   10   3    0    35   9    10   2    1    33   13   65   
2nd     PAS Giannina                    26   9    1    3    30   11   4    5    4    27   24   45   
1st     PAS Giannina                    26   10   1    2    42   19   10   2    1    25   9    63   
2nd     PAS Giannina                    26   11   1    1    29   7    5    4    4    22   17   53   
1st     PAS Giannina                    26   10   3    0    33   14   7    4    2    26   16   58   
1st     PAS Giannina                    26   10   3    0    34   7    9    3    1    26   13   63   
1st     PAS Giannina                    26   10   3    0    31   11   9    3    1    31   14   63   
1st     PAS Giannina                    26   10   2    1    30   12   9    4    0    26   8    63   
1st     PAS Giannina                    26   12   1    0    35   11   8    0    5    26   16   61   
1st     PAS Giannina                    26   12   1    0    36   13   7    2    4    27   20   60   
1st     PAS Giannina                    26   10   2    1    25   9    7    4    2    23   13   57   
1st     PAS Giannina                    26   10   0    3    33   13   7    4    2    28   10   55   
1st     PAS Giannina                    26   11   2    0    30   6    10   2    1    34   11   67   
2nd     PAS Giannina                    26   10   1    2    30   11   7    3    3    28   16   55   
1st     PAS Giannina                    26   11   1    1    34   7    8    1    4    31   15   59   
1st     PAS Giannina                    26   11   1    1    30   10   8    1    4    25   20   59   