2nd     PAS Giannina                    26   8    4    1    31   15   8    3    2    21   12   55   
1st     PAS Giannina                    26   7    4    2    19   10   10   1    2    20   9    56   
1st     PAS Giannina                    26   10   2    1    38   17   9    1    3    28   13   60   
1st     PAS Giannina                    26   10   0    3    30   14   9    2    2    16   5    59   
1st     PAS Giannina                    26   11   2    0    33   9    8    3    2    30   12   62   
2nd     PAS Giannina                    26   9    4    0    28   7    9    1    3    22   13   59   
1st     PAS Giannina                    26   10   2    1    29   12   8    4    1    21   10   60   
1st     PAS Giannina                    26   13   0    0    26   4    7    6    0    28   15   66   
1st     PAS Giannina                    26   12   1    0    38   12   7    5    1    25   12   63   
1st     PAS Giannina                    26   11   2    0    30   6    9    3    1    24   9    65   
1st     PAS Giannina                    26   10   2    1    29   8    7    2    4    26   15   55   
3rd     PAS Giannina                    26   10   2    1    24   7    6    2    5    27   20   52   
1st     PAS Giannina                    26   9    3    1    31   16   7    4    2    21   10   55   
1st     PAS Giannina                    26   11   1    1    31   9    11   2    0    39   11   69   
1st     PAS Giannina                    26   12   0    1    33   12   5    3    5    15   14   54   
1st     PAS Giannina                    26   11   1    1    35   14   5    6    2    19   14   55   
1st     PAS Giannina                    26   9    3    1    21   9    10   3    0    23   4    63   
1st     PAS Giannina                    26   11   0    2    26   11   10   1    2    25   8    64   
1st     PAS Giannina                    26   11   1    1    25   6    7    3    3    19   9    58   
1st     PAS Giannina                    26   9    2    2    25   9    6    4    3    24   15   51   
1st     PAS Giannina                    26   10   0    3    22   12   6    6    1    16   8    54   
1st     PAS Giannina                    26   10   0    3    35   21   8    3    2    22   9    57   
1st     PAS Giannina                    26   9    4    0    30   11   12   1    0    29   8    68   
1st     PAS Giannina                    26   10   2    1    22   11   6    4    3    27   14   54   
1st     PAS Giannina                    26   11   1    1    33   9    7    4    2    24   14   59   
1st     PAS Giannina                    26   9    3    1    25   13   12   1    0    31   7    67   
2nd     PAS Giannina                    26   9    4    0    22   5    5    3    5    21   15   49   
1st     PAS Giannina                    26   9    4    0    26   9    7    4    2    24   11   56   
2nd     PAS Giannina                    26   8    2    3    21   11   9    2    2    21   8    55   
1st     PAS Giannina                    26   10   2    1    33   8    8    2    3    22   9    58   
1st     PAS Giannina                    26   9    3    1    30   11   7    2    4    24   20   53   
1st     PAS Giannina                    26   9    2    2    31   9    11   2    0    29   11   64   
1st     PAS Giannina                    26   10   3    0    31   7    8    2    3    21   11   59   
1st     PAS Giannina                    26   9    2    2    29   13   12   0    1    32   13   65   
1st     PAS Giannina                    26   11   2    0    36   10   7    1    5    27   12   57   
1st     PAS Giannina                    26   8    5    0    28   12   10   1    2    24   8    60   
1st     PAS Giannina                    26   12   1    0    41   6    7    4    2    20   10   62   
1st     PAS Giannina                    26   11   1    1    32   14   11   0    2    29   5    67   
1st     PAS Giannina                    26   11   1    1    33   10   7    4    2    23   13   59   
1st     PAS Giannina                    26   11   2    0    29   4    10   3    0    35   11   68   
1st     PAS Giannina                    26   10   0    3    30   11   7    1    5    23   14   52   
2nd     PAS Giannina                    26   10   2    1    29   9    6    4    3    23   15   54   
1st     PAS Giannina                    26   12   1    0    31   6    6    5    2    14   6    60   
2nd     PAS Giannina                    26   10   2    1    34   15   10   2    1    34   10   64   
1st     PAS Giannina                    26   12   0    1    31   9    6    5    2    23   15   59   
1st     PAS Giannina                    26   11   2    0    25   7    7    4    2    24   8    60   
1st     PAS Giannina                    26   9    4    0    31   4    9    2    2    24   11   60   
1st     PAS Giannina                    26   9    3    1    27   13   12   0    1    29   8    66   
1st     PAS Giannina                    26   9    4    0    34   14   9    4    0    24   10   62   
1st     PAS Giannina                    26   10   3    0    32   8    10   2    1    31   9    65   
1st     PAS Giannina                    26   9    4    0    21   8    10   2    1    28   10   63   
1st     PAS Giannina                    26   11   0    2    37   9    8    3    2    25   14   60   
1st     PAS Giannina                    26   12   1    0    36   8    9    4    0    32   9    68   
1st     PAS Giannina                    26   11   1    1    28   7    8    3    2    28   9    61   
1st     PAS Giannina                    26   13   0    0    31   5    8    2    3    22   12   65   
1st     PAS Giannina                    26   11   2    0    31   8    9    1    3    25   11   63   
1st     PAS Giannina                    26   11   1    1    24   6    8    4    1    23   9    62   
1st     PAS Giannina                    26   10   3    0    21   5    9    2    2    29   12   62   
2nd     PAS Giannina                    26   8    4    1    31   11   4    3    6    17   19   43   
1st     PAS Giannina                    26   11   2    0    29   12   5    4    4    19   12   54   
1st     PAS Giannina                    26   10   2    1    34   9    9    2    2    26   10   61   
2nd     PAS Giannina                    26   10   3    0    26   7    6    3    4    20   17   54   
2nd     PAS Giannina                    26   9    4    0    33   13   7    4    2    19   14   56   
2nd     PAS Giannina                    26   11   1    1    28   13   8    3    2    20   8    61   
2nd     PAS Giannina                    26   10   2    1    20   8    8    3    2    21   9    59   
1st     PAS Giannina                    26   12   0    1    31   5    8    2    3    28   15   62   
1st     PAS Giannina                    26   13   0    0    37   5    4    6    3    15   11   57   
2nd     PAS Giannina                    26   11   1    1    40   16   5    4    4    19   13   53   
1st     PAS Giannina                    26   10   0    3    32   12   9    3    1    25   9    60   
1st     PAS Giannina                    26   9    1    3    18   8    9    2    2    16   9    57   
2nd     PAS Giannina                    26   8    3    2    28   13   8    5    0    17   6    56   
1st     PAS Giannina                    26   9    3    1    22   8    9    3    1    26   10   60   
1st     PAS Giannina                    26   12   1    0    30   7    10   2    1    26   12   69   
2nd     PAS Giannina                    26   10   2    1    28   8    7    4    2    19   9    57   
1st     PAS Giannina                    26   10   0    3    23   11   7    3    3    21   12   54   
4th     PAS Giannina                    26   9    3    1    24   8    5    2    6    17   13   47   
1st     PAS Giannina                    26   10   3    0    28   9    9    2    2    25   9    62   
2nd     PAS Giannina                    26   8    4    1    30   12   8    2    3    25   14   54   
1st     PAS Giannina                    26   11   2    0    30   11   8    3    2    20   9    62   
1st     PAS Giannina                    26   10   3    0    34   14   10   2    1    32   13   65   
2nd     PAS Giannina                    26   8    5    0    22   8    6    3    4    20   11   50   
1st     PAS Giannina                    26   10   3    0    32   12   10   1    2    27   8    64   
2nd     PAS Giannina                    26   11   0    2    26   8    8    2    3    23   9    59   
1st     PAS Giannina                    26   9    4    0    24   9    9    3    1    25   11   61   
2nd     PAS Giannina                    26   9    2    2    24   7    6    4    3    13   12   51   
1st     PAS Giannina                    26   9    4    0    32   11   10   2    1    29   10   63   
1st     PAS Giannina                    26   9    4    0    25   9    9    4    0    24   11   62   
1st     PAS Giannina                    26   9    3    1    31   10   11   2    0    31   11   65   
1st     PAS Giannina                    26   12   0    1    28   5    11   2    0    26   6    71   
1st     PAS Giannina                    26   8    4    1    22   7    7    3    3    24   14   52   
3rd     PAS Giannina                    26   6    3    4    19   17   7    2    4    28   20   44   
2nd     PAS Giannina                    26   12   1    0    33   10   2    7    4    14   16   50   
1st     PAS Giannina                    26   9    2    2    33   14   10   3    0    26   10   62   
1st     PAS Giannina                    26   10   1    2    23   7    9    2    2    27   11   60   
1st     PAS Giannina                    26   11   2    0    32   8    9    2    2    23   10   64   
1st     PAS Giannina                    26   11   2    0    28   8    7    3    3    29   18   59   
1st     PAS Giannina                    26   9    4    0    32   14   11   0    2    28   12   64   
1st     PAS Giannina                    26   13   0    0    30   5    8    3    2    21   10   66   
1st     PAS Giannina                    26   10   2    1    27   7    10   2    1    34   10   64   
1st     PAS Giannina                    26   10   2    1    27   7    6    4    3    17   11   54   