13th    PAS Giannina                    26   6    1    6    33   28   2    2    9    24   36   27   
6th     PAS Giannina                    26   5    4    4    29   24   4    3    6    21   30   34   
13th    PAS Giannina                    26   5    2    6    20   20   3    2    8    13   21   28   
11th    PAS Giannina                    26   6    2    5    28   21   3    1    9    21   34   30   
6th     PAS Giannina                    26   7    3    3    42   26   3    2    8    25   35   35   
7th     PAS Giannina                    26   7    2    4    32   23   4    2    7    20   27   37   
8th     PAS Giannina                    26   7    3    3    32   26   2    3    8    17   28   33   
6th     PAS Giannina                    26   5    4    4    28   23   6    1    6    22   25   38   
7th     PAS Giannina                    26   9    3    1    39   23   2    4    7    17   31   40   
12th    PAS Giannina                    26   3    3    7    27   30   3    2    8    19   32   23   
9th     PAS Giannina                    26   7    3    3    36   20   2    3    8    19   32   33   
7th     PAS Giannina                    26   8    1    4    32   25   4    2    7    17   31   39   
3rd     PAS Giannina                    26   10   2    1    41   20   4    3    6    21   34   47   
5th     PAS Giannina                    26   8    1    4    36   21   3    4    6    21   30   38   
11th    PAS Giannina                    26   6    3    4    30   26   3    1    9    16   28   31   
9th     PAS Giannina                    26   7    2    4    30   25   2    3    8    18   24   32   
4th     PAS Giannina                    26   8    4    1    44   21   5    1    7    18   21   44   
8th     PAS Giannina                    26   8    2    3    36   26   1    5    7    20   33   34   
12th    PAS Giannina                    26   6    3    4    32   29   1    1    11   17   40   25   
8th     PAS Giannina                    26   8    2    3    34   21   0    4    9    14   34   30   
5th     PAS Giannina                    26   8    0    5    34   24   3    5    5    28   36   38   
11th    PAS Giannina                    26   6    4    3    27   22   2    2    9    20   33   30   
6th     PAS Giannina                    26   7    2    4    27   23   4    4    5    22   28   39   
9th     PAS Giannina                    26   6    2    5    29   23   4    3    6    21   28   35   
9th     PAS Giannina                    26   6    4    3    32   27   3    4    6    23   32   35   
8th     PAS Giannina                    26   7    2    4    32   26   4    1    8    28   38   36   
7th     PAS Giannina                    26   7    5    1    34   22   4    1    8    17   27   39   
3rd     PAS Giannina                    26   9    1    3    41   24   3    2    8    22   29   39   
9th     PAS Giannina                    26   6    3    4    26   16   3    3    7    18   24   33   
10th    PAS Giannina                    26   8    3    2    32   23   0    2    11   14   41   29   
7th     PAS Giannina                    26   5    5    3    29   28   3    3    7    19   29   32   
10th    PAS Giannina                    26   5    5    3    28   23   4    0    9    21   31   32   
12th    PAS Giannina                    26   8    0    5    27   23   1    1    11   15   35   28   
9th     PAS Giannina                    26   7    2    4    31   22   2    3    8    15   26   32   
13th    PAS Giannina                    26   3    6    4    23   23   1    4    8    17   31   22   
11th    PAS Giannina                    26   7    3    3    35   28   1    3    9    15   29   30   
9th     PAS Giannina                    26   8    0    5    32   27   2    3    8    18   32   33   
8th     PAS Giannina                    26   8    2    3    30   20   2    2    9    19   30   34   
11th    PAS Giannina                    26   6    4    3    30   22   2    2    9    18   33   30   
7th     PAS Giannina                    26   7    4    2    30   23   2    4    7    23   30   35   
14th    PAS Giannina                    26   5    4    4    31   32   1    1    11   16   33   23   
7th     PAS Giannina                    26   6    2    5    27   24   3    6    4    25   31   35   
11th    PAS Giannina                    26   6    2    5    34   31   3    2    8    18   27   31   
12th    PAS Giannina                    26   6    3    4    28   26   1    1    11   13   35   25   
4th     PAS Giannina                    26   8    1    4    37   29   4    2    7    27   28   39   
13th    PAS Giannina                    26   3    5    5    25   29   2    3    8    16   32   23   
10th    PAS Giannina                    26   5    5    3    32   25   3    2    8    19   30   31   
11th    PAS Giannina                    26   6    4    3    27   22   2    4    7    19   30   32   
6th     PAS Giannina                    26   8    3    2    28   17   2    2    9    22   33   35   
7th     PAS Giannina                    26   6    4    3    30   21   2    6    5    21   23   34   
14th    PAS Giannina                    26   5    2    6    30   26   1    2    10   12   32   22   
8th     PAS Giannina                    26   7    2    4    30   23   2    3    8    22   34   32   
8th     PAS Giannina                    26   6    4    3    32   30   4    3    6    18   29   37   
4th     PAS Giannina                    26   8    3    2    31   18   4    3    6    19   25   42   
8th     PAS Giannina                    26   7    3    3    28   23   3    1    9    21   32   34   
9th     PAS Giannina                    26   7    3    3    35   24   3    2    8    21   32   35   
13th    PAS Giannina                    26   4    0    9    23   30   2    3    8    17   35   21   
13th    PAS Giannina                    26   4    5    4    30   24   1    5    7    19   32   25   
12th    PAS Giannina                    26   5    3    5    25   25   4    0    9    18   35   30   
3rd     PAS Giannina                    26   11   1    1    38   24   0    5    8    23   34   39   
14th    PAS Giannina                    26   5    1    7    33   27   2    3    8    18   29   25   
6th     PAS Giannina                    26   7    3    3    39   27   3    3    7    23   29   36   
9th     PAS Giannina                    26   6    3    4    31   21   3    4    6    22   29   34   
14th    PAS Giannina                    26   3    6    4    29   25   2    1    10   18   32   22   
7th     PAS Giannina                    26   6    2    5    25   25   5    0    8    15   21   35   
12th    PAS Giannina                    26   7    2    4    30   23   2    0    11   14   38   29   
4th     PAS Giannina                    26   8    2    3    26   20   5    3    5    30   31   44   
9th     PAS Giannina                    26   4    6    3    22   22   4    2    7    22   27   32   
13th    PAS Giannina                    26   5    1    7    23   24   1    3    9    16   29   22   
11th    PAS Giannina                    26   8    1    4    37   29   1    3    9    20   33   31   
8th     PAS Giannina                    26   4    5    4    28   23   6    0    7    16   25   35   
6th     PAS Giannina                    26   10   2    1    45   24   3    1    9    16   32   42   
10th    PAS Giannina                    26   6    4    3    28   19   4    2    7    24   31   36   
5th     PAS Giannina                    26   4    5    4    28   24   4    8    1    29   27   37   
14th    PAS Giannina                    26   5    1    7    27   32   2    2    9    16   34   24   
5th     PAS Giannina                    26   9    0    4    32   18   3    1    9    14   24   37   
13th    PAS Giannina                    26   5    4    4    23   20   1    1    11   19   39   23   
4th     PAS Giannina                    26   8    4    1    33   20   2    5    6    18   26   39   
11th    PAS Giannina                    26   7    3    3    34   28   1    1    11   21   38   28   
9th     PAS Giannina                    26   8    1    4    30   24   2    5    6    23   26   36   
12th    PAS Giannina                    26   6    5    2    31   27   1    3    9    19   34   29   
1st     PAS Giannina                    26   9    1    3    35   22   7    1    5    27   24   50   
13th    PAS Giannina                    26   7    0    6    29   26   1    3    9    11   33   27   
14th    PAS Giannina                    26   3    1    9    16   21   2    3    8    15   26   19   
11th    PAS Giannina                    26   5    6    2    39   29   3    1    9    20   31   31   
10th    PAS Giannina                    26   7    4    2    31   23   3    0    10   13   31   34   
8th     PAS Giannina                    26   8    0    5    27   20   2    5    6    24   36   35   
12th    PAS Giannina                    26   5    1    7    28   29   2    4    7    13   29   26   
11th    PAS Giannina                    26   4    2    7    17   21   2    5    6    15   26   25   
3rd     PAS Giannina                    26   8    3    2    41   24   5    4    4    35   31   46   
7th     PAS Giannina                    26   6    3    4    36   30   4    2    7    25   27   35   
12th    PAS Giannina                    26   5    5    3    27   20   2    2    9    15   34   28   
7th     PAS Giannina                    26   7    3    3    32   22   3    4    6    21   29   37   
13th    PAS Giannina                    26   4    2    7    24   26   3    4    6    23   31   27   
7th     PAS Giannina                    26   6    3    4    28   23   3    4    6    21   28   34   
14th    PAS Giannina                    26   3    5    5    24   26   1    3    9    13   30   20   
11th    PAS Giannina                    26   5    3    5    24   22   3    2    8    19   28   29   
10th    PAS Giannina                    26   4    3    6    27   32   4    1    8    23   30   28   
13th    PAS Giannina                    26   5    3    5    24   23   0    6    7    19   35   24   
6th     PAS Giannina                    26   8    2    3    36   24   3    1    9    23   31   36   