1st     PAS Giannina                    26   11   0    2    42   13   11   1    1    38   15   67   
1st     PAS Giannina                    26   11   2    0    46   14   11   1    1    39   13   69   
1st     PAS Giannina                    26   9    2    2    34   15   11   1    1    36   12   63   
1st     PAS Giannina                    26   11   2    0    42   9    10   1    2    31   12   66   
1st     PAS Giannina                    26   9    3    1    31   11   11   0    2    33   9    63   
1st     PAS Giannina                    26   12   1    0    37   4    12   0    1    39   15   73   
1st     PAS Giannina                    26   10   3    0    33   12   12   0    1    39   15   69   
1st     PAS Giannina                    26   11   2    0    43   9    11   1    1    41   13   69   
1st     PAS Giannina                    26   12   0    1    36   14   11   2    0    34   11   71   
1st     PAS Giannina                    26   10   3    0    36   10   11   2    0    33   15   68   
1st     PAS Giannina                    26   12   1    0    42   11   13   0    0    36   4    76   
1st     PAS Giannina                    26   11   1    1    34   7    11   0    2    36   13   67   
1st     PAS Giannina                    26   13   0    0    41   12   11   0    2    35   10   72   
1st     PAS Giannina                    26   10   3    0    40   13   9    3    1    44   21   63   
1st     PAS Giannina                    26   11   2    0    39   12   12   1    0    38   12   72   
1st     PAS Giannina                    26   12   1    0    33   7    8    3    2    29   21   64   
1st     PAS Giannina                    26   12   1    0    35   12   12   0    1    37   9    73   
1st     PAS Giannina                    26   11   2    0    38   8    11   0    2    36   13   68   
1st     PAS Giannina                    26   13   0    0    41   12   11   1    1    40   13   73   
1st     PAS Giannina                    26   13   0    0    42   11   11   0    2    36   12   72   
1st     PAS Giannina                    26   13   0    0    47   12   7    5    1    33   18   65   
1st     PAS Giannina                    26   12   1    0    34   7    12   1    0    37   11   74   
1st     PAS Giannina                    26   13   0    0    38   10   10   2    1    36   15   71   
1st     PAS Giannina                    26   10   2    1    39   15   10   1    2    31   14   63   
1st     PAS Giannina                    26   11   2    0    41   20   9    2    2    32   11   64   
1st     PAS Giannina                    26   12   0    1    41   12   7    4    2    32   16   61   
1st     PAS Giannina                    26   11   0    2    28   14   10   2    1    39   12   65   
1st     PAS Giannina                    26   13   0    0    46   9    7    3    3    33   17   63   
1st     PAS Giannina                    26   11   1    1    36   10   12   1    0    42   8    71   
1st     PAS Giannina                    26   11   1    1    37   17   12   0    1    43   11   70   
1st     PAS Giannina                    26   10   2    1    38   16   11   1    1    35   8    66   
1st     PAS Giannina                    26   11   1    1    32   12   9    0    4    31   21   61   
1st     PAS Giannina                    26   12   0    1    34   9    11   1    1    36   9    70   
1st     PAS Giannina                    26   12   1    0    38   11   9    3    1    30   16   67   
1st     PAS Giannina                    26   11   2    0    36   10   10   2    1    41   15   67   
1st     PAS Giannina                    26   12   0    1    43   12   10   0    3    37   16   66   
1st     PAS Giannina                    26   11   2    0    33   9    10   3    0    38   15   68   
1st     PAS Giannina                    26   11   1    1    36   11   11   2    0    40   14   69   
1st     PAS Giannina                    26   12   1    0    46   12   9    2    2    41   12   66   
1st     PAS Giannina                    26   10   2    1    36   12   11   2    0    35   6    67   
1st     PAS Giannina                    26   12   1    0    32   12   12   0    1    37   13   73   
1st     PAS Giannina                    26   11   2    0    38   14   12   1    0    44   15   72   
1st     PAS Giannina                    26   9    4    0    37   17   12   0    1    34   7    67   
1st     PAS Giannina                    26   11   1    1    42   12   12   1    0    42   6    71   
1st     PAS Giannina                    26   9    3    1    29   12   11   2    0    34   8    65   
1st     PAS Giannina                    26   13   0    0    46   9    12   1    0    49   11   76   
1st     PAS Giannina                    26   12   1    0    36   7    11   2    0    36   9    72   
1st     PAS Giannina                    26   11   2    0    36   11   10   3    0    36   15   68   
1st     PAS Giannina                    26   12   0    1    41   11   11   2    0    36   10   71   
1st     PAS Giannina                    26   11   2    0    40   11   11   0    2    38   15   68   
1st     PAS Giannina                    26   10   2    1    28   11   12   1    0    39   10   69   
1st     PAS Giannina                    26   13   0    0    41   9    10   1    2    28   10   70   
1st     PAS Giannina                    26   11   2    0    36   8    12   1    0    37   12   72   
1st     PAS Giannina                    26   11   2    0    30   10   11   1    1    40   12   69   
1st     PAS Giannina                    26   11   2    0    34   12   11   2    0    42   14   70   
1st     PAS Giannina                    26   12   0    1    36   13   12   0    1    37   10   72   
1st     PAS Giannina                    26   13   0    0    47   9    11   2    0    40   9    74   
1st     PAS Giannina                    26   12   1    0    35   9    11   1    1    35   9    71   
1st     PAS Giannina                    26   11   2    0    38   10   10   2    1    39   18   67   
1st     PAS Giannina                    26   9    2    2    35   10   9    1    3    33   17   57   
1st     PAS Giannina                    26   10   2    1    38   14   11   1    1    43   13   66   
1st     PAS Giannina                    26   12   0    1    41   14   10   2    1    43   13   68   
1st     PAS Giannina                    26   13   0    0    41   10   8    4    1    30   12   67   
1st     PAS Giannina                    26   11   2    0    38   5    10   1    2    34   15   66   
1st     PAS Giannina                    26   13   0    0    38   13   8    5    0    25   9    68   
1st     PAS Giannina                    26   10   2    1    37   12   11   2    0    41   8    67   
1st     PAS Giannina                    26   9    2    2    32   12   10   1    2    34   7    60   
1st     PAS Giannina                    26   12   1    0    37   8    12   0    1    47   21   73   
1st     PAS Giannina                    26   12   0    1    35   8    9    1    3    32   15   64   
1st     PAS Giannina                    26   12   1    0    44   17   11   1    1    33   6    71   
1st     PAS Giannina                    26   12   1    0    41   17   10   3    0    42   12   70   
1st     PAS Giannina                    26   10   3    0    42   15   10   3    0    43   11   66   
1st     PAS Giannina                    26   12   0    1    42   10   11   1    1    24   7    70   
1st     PAS Giannina                    26   12   1    0    41   12   12   0    1    43   10   73   
1st     PAS Giannina                    26   12   1    0    40   6    11   2    0    40   12   72   
1st     PAS Giannina                    26   10   3    0    36   14   9    3    1    30   14   63   
1st     PAS Giannina                    26   11   2    0    39   7    10   2    1    38   14   67   
1st     PAS Giannina                    26   11   2    0    36   8    10   1    2    39   16   66   
1st     PAS Giannina                    26   12   1    0    47   12   7    4    2    30   15   62   
1st     PAS Giannina                    26   13   0    0    53   11   11   1    1    37   14   73   
1st     PAS Giannina                    26   13   0    0    40   9    12   1    0    39   13   76   
1st     PAS Giannina                    26   13   0    0    45   6    9    2    2    35   17   68   
1st     PAS Giannina                    26   12   1    0    40   9    10   1    2    40   22   68   
1st     PAS Giannina                    26   11   0    2    37   15   10   2    1    33   9    65   
1st     PAS Giannina                    26   11   2    0    30   7    12   0    1    48   8    71   
1st     PAS Giannina                    26   11   2    0    34   7    9    2    2    31   17   64   
1st     PAS Giannina                    26   12   0    1    37   8    11   1    1    37   8    70   
1st     PAS Giannina                    26   12   0    1    45   10   8    4    1    29   14   64   
1st     PAS Giannina                    26   13   0    0    48   12   10   1    2    36   11   70   
1st     PAS Giannina                    26   8    4    1    29   15   9    2    2    37   15   57   
1st     PAS Giannina                    26   12   1    0    39   10   11   1    1    34   8    71   
1st     PAS Giannina                    26   12   1    0    41   11   7    5    1    28   14   63   
1st     PAS Giannina                    26   12   0    1    36   6    11   2    0    41   11   71   
1st     PAS Giannina                    26   10   3    0    38   6    9    2    2    38   16   62   
1st     PAS Giannina                    26   11   1    1    31   11   12   1    0    45   13   71   
1st     PAS Giannina                    26   12   1    0    41   9    11   1    1    39   13   71   
1st     PAS Giannina                    26   13   0    0    49   8    10   0    3    34   11   69   
1st     PAS Giannina                    26   12   1    0    43   14   12   1    0    32   5    74   
1st     PAS Giannina                    26   11   2    0    34   8    11   1    1    40   10   69   
1st     PAS Giannina                    26   12   0    1    38   12   10   3    0    34   11   69   