11th    PAS Giannina                    26   5    3    5    30   25   4    1    8    16   29   31   
5th     PAS Giannina                    26   6    4    3    33   29   5    2    6    19   23   39   
4th     PAS Giannina                    26   9    2    2    30   20   4    3    6    25   30   44   
2nd     PAS Giannina                    26   7    3    3    32   19   8    0    5    25   21   48   
9th     PAS Giannina                    26   5    4    4    28   25   3    3    7    22   28   31   
2nd     PAS Giannina                    26   7    4    2    31   20   7    5    1    32   18   51   
3rd     PAS Giannina                    26   9    2    2    33   23   7    1    5    32   24   51   
3rd     PAS Giannina                    26   9    1    3    28   21   4    5    4    19   20   45   
13th    PAS Giannina                    26   6    4    3    27   21   2    2    9    18   27   30   
14th    PAS Giannina                    26   6    3    4    24   22   1    2    10   12   34   26   
6th     PAS Giannina                    26   7    4    2    25   15   4    1    8    25   28   38   
5th     PAS Giannina                    26   9    2    2    41   23   4    2    7    22   28   43   
4th     PAS Giannina                    26   8    1    4    25   14   5    4    4    25   25   44   
2nd     PAS Giannina                    26   9    1    3    34   20   5    2    6    25   23   45   
3rd     PAS Giannina                    26   7    2    4    29   16   6    1    6    23   21   42   
12th    PAS Giannina                    26   5    3    5    28   27   2    3    8    16   29   27   
7th     PAS Giannina                    26   6    2    5    23   24   5    3    5    18   20   38   
3rd     PAS Giannina                    26   7    4    2    36   23   5    3    5    18   22   43   
3rd     PAS Giannina                    26   7    2    4    23   20   5    2    6    16   22   40   
3rd     PAS Giannina                    26   9    1    3    33   21   5    3    5    24   23   46   
8th     PAS Giannina                    26   6    1    6    24   21   5    1    7    25   24   35   
5th     PAS Giannina                    26   7    3    3    27   21   3    6    4    26   24   39   
7th     PAS Giannina                    26   6    3    4    29   24   3    4    6    19   25   34   
2nd     PAS Giannina                    26   8    4    1    28   15   5    5    3    22   17   48   
6th     PAS Giannina                    26   7    3    3    27   19   3    3    7    19   23   36   
2nd     PAS Giannina                    26   7    4    2    29   18   4    6    3    24   23   43   
4th     PAS Giannina                    26   9    2    2    33   17   3    4    6    22   27   42   
3rd     PAS Giannina                    26   8    3    2    30   17   5    3    5    27   21   45   
3rd     PAS Giannina                    26   8    2    3    26   19   5    3    5    25   27   44   
14th    PAS Giannina                    26   4    1    8    18   23   2    2    9    17   27   21   
7th     PAS Giannina                    26   5    5    3    26   19   3    4    6    19   28   33   
5th     PAS Giannina                    26   6    4    3    31   21   5    2    6    20   21   39   
2nd     PAS Giannina                    26   9    3    1    29   19   6    1    6    25   20   49   
9th     PAS Giannina                    26   6    4    3    22   17   2    3    8    17   27   31   
5th     PAS Giannina                    26   10   1    2    44   27   3    2    8    17   19   42   
2nd     PAS Giannina                    26   9    3    1    34   16   2    5    6    16   25   41   
4th     PAS Giannina                    26   9    2    2    30   16   3    3    7    16   24   41   
6th     PAS Giannina                    26   10   1    2    32   15   1    4    8    19   30   38   
1st     PAS Giannina                    26   10   2    1    35   17   7    2    4    22   16   55   
8th     PAS Giannina                    26   5    3    5    27   26   5    1    7    18   21   34   
7th     PAS Giannina                    26   6    4    3    24   17   3    4    6    15   18   35   
5th     PAS Giannina                    26   10   0    3    24   17   3    0    10   18   28   39   
6th     PAS Giannina                    26   8    4    1    25   13   2    3    8    15   27   37   
2nd     PAS Giannina                    26   8    2    3    30   18   7    2    4    25   20   49   
4th     PAS Giannina                    26   6    3    4    25   19   5    2    6    16   20   38   
6th     PAS Giannina                    26   8    1    4    27   11   3    3    7    22   33   37   
5th     PAS Giannina                    26   6    3    4    29   24   3    5    5    21   25   35   
4th     PAS Giannina                    26   7    6    0    28   17   5    3    5    24   23   45   
9th     PAS Giannina                    26   6    4    3    29   24   4    1    8    16   23   35   
1st     PAS Giannina                    26   9    2    2    39   21   7    3    3    30   17   53   
6th     PAS Giannina                    26   9    3    1    37   23   3    1    9    13   23   40   
5th     PAS Giannina                    26   8    2    3    28   19   4    3    6    18   17   41   
2nd     PAS Giannina                    26   9    3    1    30   13   5    2    6    17   20   47   
3rd     PAS Giannina                    26   8    2    3    33   25   6    1    6    18   22   45   
5th     PAS Giannina                    26   7    4    2    25   14   5    2    6    17   23   42   
7th     PAS Giannina                    26   7    3    3    32   23   3    2    8    21   34   35   
4th     PAS Giannina                    26   11   1    1    31   12   2    2    9    14   29   42   
2nd     PAS Giannina                    26   10   2    1    34   18   5    3    5    23   22   50   
4th     PAS Giannina                    26   6    5    2    24   20   6    1    6    16   17   42   
4th     PAS Giannina                    26   6    6    1    27   20   4    4    5    19   29   40   
2nd     PAS Giannina                    26   10   0    3    31   20   5    3    5    22   29   48   
6th     PAS Giannina                    26   6    3    4    26   24   5    2    6    19   20   38   
4th     PAS Giannina                    26   8    2    3    30   21   4    2    7    14   19   40   
4th     PAS Giannina                    26   8    1    4    26   22   4    4    5    19   23   41   
2nd     PAS Giannina                    26   10   0    3    28   14   3    3    7    17   22   42   
6th     PAS Giannina                    26   8    2    3    34   18   4    2    7    19   23   40   
3rd     PAS Giannina                    26   7    4    2    27   14   5    2    6    22   25   42   
5th     PAS Giannina                    26   8    1    4    33   19   5    2    6    23   29   42   
7th     PAS Giannina                    26   6    3    4    26   21   5    2    6    17   22   38   
3rd     PAS Giannina                    26   11   1    1    34   14   4    3    6    21   23   49   
5th     PAS Giannina                    26   7    2    4    30   20   5    2    6    21   25   40   
8th     PAS Giannina                    26   7    4    2    30   21   4    0    9    18   25   37   
1st     PAS Giannina                    26   11   2    0    34   14   7    2    4    27   22   58   
2nd     PAS Giannina                    26   9    3    1    39   21   4    3    6    21   25   45   
9th     PAS Giannina                    26   7    3    3    27   19   2    5    6    12   18   35   
8th     PAS Giannina                    26   7    1    5    25   20   3    5    5    21   26   36   
2nd     PAS Giannina                    26   11   1    1    28   10   3    7    3    22   24   50   
3rd     PAS Giannina                    26   10   2    1    31   16   2    6    5    14   20   44   
9th     PAS Giannina                    26   7    2    4    28   18   5    0    8    21   25   38   
2nd     PAS Giannina                    26   11   1    1    28   13   6    5    2    25   21   57   
3rd     PAS Giannina                    26   10   1    2    32   18   4    3    6    21   24   46   
4th     PAS Giannina                    26   8    3    2    31   19   4    3    6    22   23   42   
6th     PAS Giannina                    26   9    3    1    32   22   3    2    8    19   34   41   
10th    PAS Giannina                    26   8    1    4    25   16   2    4    7    16   27   35   
3rd     PAS Giannina                    26   9    2    2    39   20   2    7    4    21   23   42   
4th     PAS Giannina                    26   9    3    1    31   16   3    3    7    21   29   42   
6th     PAS Giannina                    26   7    1    5    34   23   4    3    6    24   31   37   
7th     PAS Giannina                    26   9    3    1    29   15   2    2    9    20   28   38   
5th     PAS Giannina                    26   7    2    4    29   20   4    4    5    19   23   39   
5th     PAS Giannina                    26   9    2    2    31   17   2    2    9    19   37   37   
7th     PAS Giannina                    26   7    2    4    25   18   4    3    6    22   22   38   
6th     PAS Giannina                    26   6    5    2    32   23   4    4    5    21   22   39   
3rd     PAS Giannina                    26   10   2    1    33   18   4    3    6    15   21   47   
4th     PAS Giannina                    26   8    0    5    23   16   5    3    5    23   27   42   
2nd     PAS Giannina                    26   9    3    1    30   14   5    3    5    19   20   48   
3rd     PAS Giannina                    26   10   2    1    30   16   4    4    5    21   23   48   
3rd     PAS Giannina                    26   7    4    2    34   21   4    4    5    16   19   41   
7th     PAS Giannina                    26   8    3    2    32   15   2    5    6    16   23   38   
9th     PAS Giannina                    26   8    1    4    31   21   2    3    8    14   19   34   
8th     PAS Giannina                    26   5    5    3    22   19   2    4    7    15   25   30   