12th    PAS Giannina                    26   5    4    4    23   15   2    3    8    16   28   28
8th     PAS Giannina                    26   5    2    6    19   19   5    2    6    20   25   34
11th    PAS Giannina                    26   5    2    6    17   16   3    1    9    17   29   27
9th     PAS Giannina                    26   7    4    2    25   16   2    2    9    18   27   33
12th    PAS Giannina                    26   5    4    4    24   18   3    1    9    15   28   29
7th     PAS Giannina                    26   7    3    3    24   17   4    3    6    17   23   39
7th     PAS Giannina                    26   7    5    1    23   16   1    3    9    15   31   32
8th     PAS Giannina                    26   8    2    3    26   18   1    5    7    21   33   34
4th     PAS Giannina                    26   6    5    2    23   18   4    5    4    22   21   40
10th    PAS Giannina                    26   5    5    3    22   15   2    5    6    18   27   31
7th     PAS Giannina                    26   6    5    2    25   21   3    4    6    21   32   36
12th    PAS Giannina                    26   6    2    5    18   18   2    2    9    16   28   28
11th    PAS Giannina                    26   6    2    5    22   25   1    5    7    16   26   28
13th    PAS Giannina                    26   7    1    5    24   18   2    1    10   17   30   29
9th     PAS Giannina                    26   10   2    1    30   11   0    2    11   15   31   34
9th     PAS Giannina                    26   4    5    4    26   23   3    5    5    20   25   31
7th     PAS Giannina                    26   8    3    2    32   21   3    2    8    17   26   38
7th     PAS Giannina                    26   4    4    5    21   18   5    4    4    16   16   35
8th     PAS Giannina                    26   5    4    4    23   20   4    3    6    21   22   34
7th     PAS Giannina                    26   8    2    3    28   21   1    5    7    11   24   34
9th     PAS Giannina                    26   7    5    1    35   16   2    2    9    17   30   34
2nd     PAS Giannina                    26   11   2    0    31   15   4    4    5    24   24   51
11th    PAS Giannina                    26   5    6    2    31   20   2    3    8    18   26   30
5th     PAS Giannina                    26   7    3    3    27   19   5    2    6    21   26   41
5th     PAS Giannina                    26   7    2    4    24   19   3    5    5    18   24   37
13th    PAS Giannina                    26   6    4    3    21   14   1    2    10   16   30   27
10th    PAS Giannina                    26   6    3    4    28   22   3    4    6    18   21   34
11th    PAS Giannina                    26   3    2    8    18   21   5    1    7    20   21   27
9th     PAS Giannina                    26   8    1    4    28   17   3    2    8    14   24   36
11th    PAS Giannina                    26   6    4    3    25   17   2    3    8    20   29   31
6th     PAS Giannina                    26   6    6    1    29   19   4    5    4    24   25   41
8th     PAS Giannina                    26   6    5    2    20   13   3    3    7    17   24   35
10th    PAS Giannina                    26   6    4    3    26   17   3    0    10   19   33   31
8th     PAS Giannina                    26   7    2    4    24   12   3    2    8    23   28   34
5th     PAS Giannina                    26   9    1    3    32   21   4    2    7    18   26   42
7th     PAS Giannina                    26   6    3    4    16   11   4    3    6    14   19   36
13th    PAS Giannina                    26   6    1    6    25   19   2    2    9    15   26   27
3rd     PAS Giannina                    26   7    3    3    26   17   5    3    5    22   24   42
7th     PAS Giannina                    26   8    1    4    25   20   2    3    8    10   30   34
5th     PAS Giannina                    26   10   2    1    26   9    2    2    9    17   28   40
5th     PAS Giannina                    26   6    2    5    21   19   5    4    4    14   15   39
14th    PAS Giannina                    26   7    1    5    21   16   0    4    9    15   28   26
8th     PAS Giannina                    26   5    4    4    27   26   5    1    7    19   23   35
10th    PAS Giannina                    26   6    4    3    24   23   1    6    6    14   22   31
8th     PAS Giannina                    26   9    3    1    28   14   1    1    11   11   28   34
8th     PAS Giannina                    26   5    4    4    24   22   2    4    7    12   23   29
7th     PAS Giannina                    26   7    1    5    26   20   3    2    8    17   28   33
5th     PAS Giannina                    26   8    2    3    28   18   3    2    8    19   29   37
13th    PAS Giannina                    26   4    5    4    26   24   2    3    8    16   33   26
12th    PAS Giannina                    26   7    1    5    21   19   2    1    10   15   35   29
10th    PAS Giannina                    26   7    2    4    22   18   2    3    8    13   25   32
8th     PAS Giannina                    26   6    2    5    22   17   4    3    6    20   23   35
8th     PAS Giannina                    26   10   1    2    29   19   1    3    9    10   24   37
10th    PAS Giannina                    26   5    4    4    20   20   3    1    9    16   32   29
7th     PAS Giannina                    26   6    4    3    25   22   3    6    4    18   24   37
8th     PAS Giannina                    26   6    4    3    27   22   3    4    6    16   23   35
12th    PAS Giannina                    26   6    4    3    22   16   2    3    8    17   24   31
7th     PAS Giannina                    26   8    2    3    31   21   2    3    8    18   25   35
6th     PAS Giannina                    26   9    1    3    32   19   2    4    7    17   29   38
10th    PAS Giannina                    26   8    1    4    28   17   1    5    7    15   28   33
9th     PAS Giannina                    26   7    2    4    23   20   2    3    8    15   26   32
7th     PAS Giannina                    26   7    4    2    27   17   2    3    8    18   26   34
8th     PAS Giannina                    26   7    5    1    28   19   2    3    8    15   28   35
14th    PAS Giannina                    26   5    2    6    12   14   2    2    9    17   28   25
9th     PAS Giannina                    26   5    4    4    27   21   3    2    8    17   27   30
11th    PAS Giannina                    26   7    1    5    30   23   1    5    7    17   30   30
9th     PAS Giannina                    26   5    3    5    27   25   4    2    7    15   20   32
12th    PAS Giannina                    26   3    3    7    19   23   4    2    7    19   22   26
7th     PAS Giannina                    26   6    5    2    23   15   3    3    7    17   22   35
10th    PAS Giannina                    26   7    1    5    24   16   2    4    7    15   22   32
12th    PAS Giannina                    26   6    2    5    26   20   2    4    7    19   30   30
7th     PAS Giannina                    26   8    2    3    27   20   2    3    8    13   32   35
11th    PAS Giannina                    26   6    4    3    26   19   1    4    8    16   33   29
9th     PAS Giannina                    26   7    3    3    25   19   4    1    8    16   29   37
8th     PAS Giannina                    26   8    2    3    27   18   1    2    10   16   34   31
8th     PAS Giannina                    26   7    2    4    22   17   3    3    7    18   23   35
4th     PAS Giannina                    26   7    5    1    27   15   5    2    6    17   18   43
5th     PAS Giannina                    26   7    3    3    22   17   4    1    8    11   20   37
11th    PAS Giannina                    26   5    3    5    21   24   3    1    9    18   24   28
10th    PAS Giannina                    26   5    3    5    20   20   3    5    5    20   23   32
6th     PAS Giannina                    26   7    2    4    28   21   3    5    5    24   25   37
3rd     PAS Giannina                    26   8    3    2    31   17   3    4    6    14   19   40
3rd     PAS Giannina                    26   10   1    2    30   13   4    2    7    24   32   45
8th     PAS Giannina                    26   4    5    4    25   25   4    2    7    23   27   31
10th    PAS Giannina                    26   5    3    5    17   19   3    4    6    19   27   31
4th     PAS Giannina                    26   10   3    0    26   11   3    2    8    13   22   44
4th     PAS Giannina                    26   8    2    3    29   15   4    3    6    25   29   41
7th     PAS Giannina                    26   7    1    5    24   21   4    3    6    20   25   37
9th     PAS Giannina                    26   5    5    3    16   17   3    5    5    22   21   34
6th     PAS Giannina                    26   7    3    3    23   16   3    4    6    14   21   37
13th    PAS Giannina                    26   3    5    5    22   23   3    3    7    16   24   26
11th    PAS Giannina                    26   7    0    6    20   23   2    5    6    14   21   32
6th     PAS Giannina                    26   7    1    5    21   21   4    3    6    20   24   37
14th    PAS Giannina                    26   5    5    3    29   25   0    2    11   8    26   22
10th    PAS Giannina                    26   5    6    2    23   17   2    6    5    22   29   33
11th    PAS Giannina                    26   4    3    6    24   24   4    1    8    20   26   28
3rd     PAS Giannina                    26   10   1    2    30   15   3    4    6    20   22   44
7th     PAS Giannina                    26   7    3    3    25   22   4    1    8    17   25   37
12th    PAS Giannina                    26   4    4    5    19   20   3    4    6    18   24   29
9th     PAS Giannina                    26   6    3    4    30   23   2    3    8    12   24   30