1st     PAS Giannina                    26   9    4    0    26   7    8    3    2    26   15   58   
1st     PAS Giannina                    26   10   2    1    32   6    10   1    2    28   10   63   
1st     PAS Giannina                    26   11   2    0    30   10   8    3    2    23   14   62   
2nd     PAS Giannina                    26   6    4    3    26   15   7    5    1    20   9    48   
1st     PAS Giannina                    26   11   2    0    30   10   10   2    1    24   8    67   
2nd     PAS Giannina                    26   12   0    1    27   5    5    5    3    21   15   56   
1st     PAS Giannina                    26   12   0    1    34   9    9    2    2    30   12   65   
4th     PAS Giannina                    26   6    5    2    21   10   7    2    4    20   14   46   
1st     PAS Giannina                    26   12   0    1    31   4    7    3    3    23   13   60   
2nd     PAS Giannina                    26   8    4    1    31   14   6    5    2    18   10   51   
1st     PAS Giannina                    26   12   0    1    42   11   12   1    0    27   8    73   
1st     PAS Giannina                    26   11   1    1    33   10   10   2    1    32   14   66   
1st     PAS Giannina                    26   9    1    3    29   17   8    4    1    25   10   56   
1st     PAS Giannina                    26   12   0    1    34   9    9    2    2    25   10   65   
1st     PAS Giannina                    26   13   0    0    39   8    10   2    1    34   16   71   
1st     PAS Giannina                    26   11   2    0    38   13   12   1    0    27   7    72   
1st     PAS Giannina                    26   8    5    0    32   16   9    3    1    25   10   59   
1st     PAS Giannina                    26   11   2    0    31   4    8    4    1    27   10   63   
1st     PAS Giannina                    26   10   2    1    35   9    8    2    3    25   10   58   
1st     PAS Giannina                    26   10   1    2    25   8    7    4    2    30   15   56   
1st     PAS Giannina                    26   10   2    1    32   12   9    4    0    28   8    63   
1st     PAS Giannina                    26   12   0    1    32   12   9    1    3    29   16   64   
1st     PAS Giannina                    26   11   2    0    36   9    8    3    2    29   17   62   
1st     PAS Giannina                    26   13   0    0    34   5    6    4    3    29   19   61   
2nd     PAS Giannina                    26   10   3    0    32   8    6    3    4    18   12   54   
1st     PAS Giannina                    26   10   2    1    32   14   8    3    2    25   12   59   
2nd     PAS Giannina                    26   8    2    3    30   16   8    1    4    29   14   51   
1st     PAS Giannina                    26   10   3    0    30   7    8    5    0    24   8    62   
2nd     PAS Giannina                    26   9    3    1    35   8    7    3    3    21   17   54   
1st     PAS Giannina                    26   8    3    2    27   10   10   3    0    29   8    60   
2nd     PAS Giannina                    26   9    3    1    26   10   5    5    3    23   15   50   
1st     PAS Giannina                    26   11   0    2    31   10   7    4    2    25   11   58   
2nd     PAS Giannina                    26   10   1    2    32   12   6    3    4    29   20   52   
1st     PAS Giannina                    26   10   2    1    31   12   9    2    2    25   10   61   
1st     PAS Giannina                    26   11   2    0    31   7    11   2    0    26   6    70   
1st     PAS Giannina                    26   9    3    1    32   11   8    2    3    26   14   56   
2nd     PAS Giannina                    26   9    3    1    28   10   6    4    3    22   14   52   
3rd     PAS Giannina                    26   8    3    2    29   15   7    1    5    24   16   49   
1st     PAS Giannina                    26   12   0    1    36   9    8    5    0    26   11   65   
1st     PAS Giannina                    26   9    2    2    29   13   9    2    2    21   10   58   
2nd     PAS Giannina                    26   9    3    1    29   8    10   1    2    29   8    61   
1st     PAS Giannina                    26   10   3    0    28   6    8    3    2    29   17   60   
1st     PAS Giannina                    26   9    3    1    33   9    9    2    2    22   14   59   
3rd     PAS Giannina                    26   6    3    4    24   16   9    1    3    35   14   49   
2nd     PAS Giannina                    26   10   2    1    33   16   8    3    2    24   11   59   
2nd     PAS Giannina                    26   10   1    2    33   12   7    2    4    26   16   54   
1st     PAS Giannina                    26   12   1    0    31   7    8    3    2    23   10   64   
1st     PAS Giannina                    26   12   1    0    28   8    9    2    2    24   12   66   
2nd     PAS Giannina                    26   8    3    2    30   19   8    4    1    31   13   55   
1st     PAS Giannina                    26   12   0    1    29   7    10   1    2    26   9    67   
1st     PAS Giannina                    26   11   2    0    39   6    9    1    3    25   11   63   
2nd     PAS Giannina                    26   7    6    0    24   11   8    4    1    26   16   55   
1st     PAS Giannina                    26   11   2    0    31   10   7    4    2    23   17   60   
1st     PAS Giannina                    26   11   1    1    29   10   10   2    1    29   9    66   
1st     PAS Giannina                    26   8    4    1    26   9    7    4    2    24   18   53   
1st     PAS Giannina                    26   10   2    1    31   10   8    2    3    25   8    58   
2nd     PAS Giannina                    26   9    4    0    30   10   7    3    3    22   11   55   
2nd     PAS Giannina                    26   8    4    1    27   14   6    3    4    17   13   49   
2nd     PAS Giannina                    26   10   2    1    25   11   7    5    1    20   9    58   
1st     PAS Giannina                    26   12   0    1    32   7    6    6    1    21   10   60   
1st     PAS Giannina                    26   12   0    1    39   15   7    6    0    26   9    63   
1st     PAS Giannina                    26   12   1    0    26   5    7    5    1    26   12   63   
1st     PAS Giannina                    26   9    4    0    32   13   11   1    1    30   12   65   
1st     PAS Giannina                    26   12   1    0    35   12   6    5    2    23   19   60   
1st     PAS Giannina                    26   9    4    0    29   13   9    2    2    28   11   60   
1st     PAS Giannina                    26   11   2    0    33   13   8    2    3    20   8    61   
1st     PAS Giannina                    26   11   2    0    26   7    5    3    5    31   24   53   
1st     PAS Giannina                    26   8    3    2    26   15   8    3    2    32   15   54   
1st     PAS Giannina                    26   11   1    1    35   10   6    4    3    23   17   56   
1st     PAS Giannina                    26   9    3    1    22   6    9    1    3    26   9    58   
1st     PAS Giannina                    26   10   2    1    27   9    7    5    1    27   12   58   
1st     PAS Giannina                    26   9    3    1    26   6    8    4    1    20   8    58   
1st     PAS Giannina                    26   11   2    0    32   13   10   2    1    26   10   67   
1st     PAS Giannina                    26   11   1    1    33   14   10   0    3    18   7    64   
1st     PAS Giannina                    26   11   1    1    33   11   9    2    2    27   13   63   
1st     PAS Giannina                    26   11   1    1    24   11   6    5    2    20   10   57   
1st     PAS Giannina                    26   11   2    0    36   9    9    2    2    24   11   64   
1st     PAS Giannina                    26   11   0    2    29   13   10   1    2    24   10   64
2nd     PAS Giannina                    26   8    3    2    25   9    8    3    2    25   11   54   
1st     PAS Giannina                    26   8    5    0    26   10   6    4    3    24   16   51   
1st     PAS Giannina                    26   11   1    1    29   9    10   3    0    25   7    67   
1st     PAS Giannina                    26   12   1    0    29   5    7    3    3    25   11   61   
1st     PAS Giannina                    26   11   0    2    34   11   11   1    1    38   13   67   
1st     PAS Giannina                    26   10   3    0    30   11   8    2    3    19   14   59   
1st     PAS Giannina                    26   9    2    2    30   14   9    4    0    30   14   60   
1st     PAS Giannina                    26   13   0    0    31   4    8    3    2    26   16   66   
1st     PAS Giannina                    26   10   2    1    34   10   6    4    3    19   16   54   
1st     PAS Giannina                    26   11   0    2    32   12   12   0    1    34   10   69   
1st     PAS Giannina                    26   12   1    0    34   6    11   2    0    32   4    72   
2nd     PAS Giannina                    26   10   2    1    34   12   7    2    4    30   19   55   
3rd     PAS Giannina                    26   10   2    1    28   10   4    6    3    18   16   50   
1st     PAS Giannina                    26   11   1    1    44   11   8    2    3    30   12   60   
1st     PAS Giannina                    26   13   0    0    39   12   11   1    1    31   10   73   
2nd     PAS Giannina                    26   11   1    1    29   9    6    6    1    28   16   58   
1st     PAS Giannina                    26   12   1    0    30   10   9    2    2    25   9    66   
1st     PAS Giannina                    26   12   1    0    38   14   6    3    4    23   19   58   
1st     PAS Giannina                    26   9    3    1    30   11   11   0    2    29   15   63   
1st     PAS Giannina                    26   12   1    0    37   7    7    3    3    23   14   61   
1st     PAS Giannina                    26   12   0    1    35   9    6    5    2    29   13   59   
1st     PAS Giannina                    26   12   0    1    34   10   5    5    3    21   18   56   