2nd     PAS Giannina                    26   8    4    1    29   18   6    3    4    18   13   49
1st    PAS Giannina                    26   9    4    0    29   16   9    2    2    31   12   60
2nd     PAS Giannina                    26   9    1    3    30   15   4    6    3    21   19   46
2nd     PAS Giannina                    26   6    6    1    29   19   7    2    4    24   19   47
3rd     PAS Giannina                    26   9    2    2    27   14   5    4    4    17   22   48
2nd     PAS Giannina                    26   8    0    5    27   19   7    3    3    24   14   48
2nd     PAS Giannina                    26   10   1    2    26   11   8    2    3    27   18   57
1st    PAS Giannina                    26   11   2    0    33   14   8    2    3    32   23   61
1st    PAS Giannina                    26   12   1    0    39   11   5    4    4    18   15   56
2nd     PAS Giannina                    26   6    6    1    27   17   7    4    2    24   13   49
2nd     PAS Giannina                    26   10   2    1    29   17   5    4    4    20   18   51
3rd     PAS Giannina                    26   10   1    2    33   22   4    5    4    21   19   48
2nd     PAS Giannina                    26   8    3    2    33   17   7    3    3    31   20   51
1st    PAS Giannina                    26   9    3    1    34   13   9    1    3    24   13   58
3rd     PAS Giannina                    26   8    4    1    28   17   4    6    3    21   17   46
2nd     PAS Giannina                    26   9    2    2    23   13   6    4    3    23   20   51
2nd     PAS Giannina                    26   9    2    2    24   13   6    2    5    22   19   49
4th     PAS Giannina                    26   6    5    2    25   16   6    3    4    20   17   44
1st    PAS Giannina                    26   10   2    1    29   15   8    2    3    32   17   58
3rd     PAS Giannina                    26   7    3    3    35   21   5    5    3    23   18   44
1st    PAS Giannina                    26   9    3    1    39   20   6    5    2    22   18   53
2nd     PAS Giannina                    26   10   2    1    31   13   5    3    5    19   18   50
3rd     PAS Giannina                    26   9    3    1    29   14   6    2    5    23   19   50
2nd     PAS Giannina                    26   9    3    1    31   15   7    4    2    29   16   55
2nd     PAS Giannina                    26   7    4    2    27   13   5    5    3    29   16   45
3rd     PAS Giannina                    26   9    4    0    33   20   6    3    4    23   22   52
4th     PAS Giannina                    26   7    2    4    27   21   6    2    5    27   19   43
2nd     PAS Giannina                    26   10   1    2    28   18   6    2    5    25   24   51
3rd     PAS Giannina                    26   9    2    2    33   15   5    3    5    25   24   47
1st    PAS Giannina                    26   9    2    2    28   13   9    0    4    32   24   56
3rd     PAS Giannina                    26   9    1    3    31   18   3    4    6    17   20   41
2nd     PAS Giannina                    26   11   0    2    31   9    5    6    2    23   16   54
1st    PAS Giannina                    26   11   2    0    34   15   7    5    1    27   16   61
6th     PAS Giannina                    26   8    2    3    33   18   2    5    6    21   30   37
3rd     PAS Giannina                    26   7    2    4    26   20   6    3    4    20   21   44
5th     PAS Giannina                    26   5    7    1    22   13   4    6    3    23   17   40
2nd     PAS Giannina                    26   8    2    3    32   19   6    4    3    24   16   48
1st    PAS Giannina                    26   9    2    2    28   15   7    4    2    21   17   54
1st    PAS Giannina                    26   6    4    3    21   15   7    4    2    19   11   47
2nd     PAS Giannina                    26   9    1    3    27   14   7    5    1    30   20   54
2nd     PAS Giannina                    26   9    2    2    29   15   6    2    5    18   18   49
2nd     PAS Giannina                    26   11   0    2    34   12   5    4    4    17   19   52
2nd     PAS Giannina                    26   9    3    1    34   18   5    4    4    23   16   49
4th     PAS Giannina                    26   7    3    3    31   22   5    4    4    21   16   43
2nd     PAS Giannina                    26   11   1    1    35   17   6    1    6    18   18   53
1st    PAS Giannina                    26   10   1    2    27   13   9    1    3    27   13   59
3rd     PAS Giannina                    26   8    2    3    29   20   5    3    5    25   24   44
7th     PAS Giannina                    26   8    2    3    34   23   3    3    7    19   22   38
3rd     PAS Giannina                    26   6    4    3    20   14   6    4    3    26   20   44
2nd     PAS Giannina                    26   9    2    2    24   14   8    3    2    22   18   56
7th     PAS Giannina                    26   7    5    1    26   9    2    5    6    17   25   37
1st    PAS Giannina                    26   9    3    1    27   14   8    4    1    32   19   58
2nd     PAS Giannina                    26   9    2    2    30   19   8    3    2    24   17   56
5th     PAS Giannina                    26   7    3    3    26   14   4    2    7    18   23   38
3rd     PAS Giannina                    26   8    2    3    30   19   4    4    5    21   25   42
2nd     PAS Giannina                    26   10   1    2    30   12   6    1    6    22   21   50
2nd     PAS Giannina                    26   11   1    1    36   19   7    2    4    23   19   57
4th     PAS Giannina                    26   8    1    4    30   22   6    3    4    23   20   46
1st    PAS Giannina                    26   10   2    1    28   13   6    2    5    28   20   52
2nd     PAS Giannina                    26   10   2    1    32   14   7    2    4    30   20   55
1st    PAS Giannina                    26   12   0    1    35   13   8    3    2    26   17   63
3rd     PAS Giannina                    26   7    5    1    31   17   6    1    6    18   18   45
2nd     PAS Giannina                    26   9    2    2    29   12   7    4    2    25   16   54
3rd     PAS Giannina                    26   9    2    2    36   20   6    1    6    21   19   48
1st    PAS Giannina                    26   8    4    1    34   18   9    3    1    28   14   58
3rd     PAS Giannina                    26   6    5    2    26   23   9    2    2    31   14   52
2nd     PAS Giannina                    26   10   1    2    31   15   7    3    3    20   14   55
6th     PAS Giannina                    26   6    3    4    25   20   4    3    6    19   22   36
2nd     PAS Giannina                    26   5    5    3    21   16   7    1    5    19   16   42
3rd     PAS Giannina                    26   6    6    1    21   13   6    3    4    24   17   45
2nd     PAS Giannina                    26   7    4    2    28   16   7    2    4    21   16   48
1st    PAS Giannina                    26   10   3    0    29   9    6    3    4    32   21   54
1st    PAS Giannina                    26   9    2    2    28   14   8    2    3    29   18   55
1st    PAS Giannina                    26   9    1    3    28   14   8    3    2    28   18   55
2nd     PAS Giannina                    26   6    6    1    27   16   8    1    4    27   20   49
3rd     PAS Giannina                    26   6    2    5    32   22   8    4    1    28   15   48
2nd     PAS Giannina                    26   9    2    2    27   11   6    5    2    24   15   52
3rd     PAS Giannina                    26   8    1    4    27   19   6    3    4    22   19   46
3rd     PAS Giannina                    26   11   1    1    41   15   3    5    5    15   18   48
5th     PAS Giannina                    26   6    4    3    35   20   3    6    4    21   22   37
1st    PAS Giannina                    26   12   1    0    37   14   7    1    5    21   17   59
2nd     PAS Giannina                    26   10   1    2    30   12   5    4    4    18   12   50
1st    PAS Giannina                    26   11   2    0    29   6    5    5    3    25   24   55
3rd     PAS Giannina                    26   11   1    1    32   13   2    3    8    17   27   43
2nd     PAS Giannina                    26   7    3    3    33   22   7    1    5    21   17   46
2nd     PAS Giannina                    26   8    2    3    27   15   6    2    5    20   19   46
3rd     PAS Giannina                    26   8    3    2    27   12   5    4    4    20   18   46
2nd     PAS Giannina                    26   8    2    3    30   16   7    3    3    21   15   50
1st    PAS Giannina                    26   11   1    1    38   17   7    5    1    20   12   60
1st    PAS Giannina                    26   10   1    2    28   12   10   2    1    31   18   63
2nd     PAS Giannina                    26   10   2    1    33   13   6    3    4    20   18   53
1st    PAS Giannina                    26   11   1    1    34   12   9    1    3    31   12   62
1st    PAS Giannina                    26   11   2    0    33   11   4    2    7    21   24   49
2nd     PAS Giannina                    26   9    2    2    33   21   5    5    3    22   18   49
3rd     PAS Giannina                    26   8    3    2    32   18   4    6    3    24   23   45
3rd     PAS Giannina                    26   7    3    3    32   19   7    3    3    23   21   48
2nd     PAS Giannina                    26   10   2    1    22   12   8    1    4    27   23   57
2nd     PAS Giannina                    26   9    1    3    30   17   6    1    6    21   21   47
1st    PAS Giannina                    26   11   2    0    36   15   9    1    3    27   17   63
2nd     PAS Giannina                    26   7    2    4    24   19   6    4    3    19   13   45