2nd     PAS Giannina                    26   9    4    0    37   15   6    2    5    22   18   51   
3rd     PAS Giannina                    26   9    2    2    29   17   6    3    4    14   16   50   
1st     PAS Giannina                    26   11   1    1    38   14   6    3    4    22   19   55   
1st     PAS Giannina                    26   8    4    1    31   14   7    2    4    18   12   51   
4th     PAS Giannina                    26   7    4    2    21   13   5    5    3    21   17   45   
1st     PAS Giannina                    26   9    2    2    30   17   9    0    4    26   11   56   
1st     PAS Giannina                    26   7    4    2    24   11   8    4    1    17   8    53   
1st     PAS Giannina                    26   9    3    1    31   13   5    2    6    21   20   47   
1st     PAS Giannina                    26   10   1    2    32   16   11   2    0    32   7    66   
2nd     PAS Giannina                    26   10   3    0    30   8    4    5    4    18   18   50   
1st     PAS Giannina                    26   12   0    1    33   14   7    4    2    24   12   61   
1st     PAS Giannina                    26   9    4    0    25   9    9    3    1    26   9    61   
2nd     PAS Giannina                    26   10   2    1    37   14   6    2    5    26   21   52   
2nd     PAS Giannina                    26   10   1    2    23   14   8    0    5    22   17   55   
4th     PAS Giannina                    26   6    5    2    29   20   5    2    6    21   19   40   
2nd     PAS Giannina                    26   7    4    2    30   13   7    2    4    17   14   48   
1st     PAS Giannina                    26   9    2    2    36   17   9    2    2    24   19   58   
2nd     PAS Giannina                    26   5    7    1    23   14   4    7    2    19   17   41   
1st     PAS Giannina                    26   10   2    1    31   17   6    5    2    29   21   55   
2nd     PAS Giannina                    26   9    3    1    34   15   5    4    4    20   21   49   
3rd     PAS Giannina                    26   7    5    1    30   19   4    5    4    21   19   43   
2nd     PAS Giannina                    26   10   0    3    37   17   3    7    3    17   18   46   
1st     PAS Giannina                    26   8    3    2    30   15   9    3    1    26   14   57   
1st     PAS Giannina                    26   11   1    1    36   18   8    3    2    25   11   61   
4th     PAS Giannina                    26   6    5    2    33   22   5    2    6    22   19   40   
2nd     PAS Giannina                    26   10   2    1    36   17   5    3    5    20   12   50   
1st     PAS Giannina                    26   10   3    0    32   14   5    5    3    25   17   53   
1st     PAS Giannina                    26   9    3    1    24   11   7    3    3    25   17   54   
3rd     PAS Giannina                    26   7    4    2    27   15   4    5    4    17   17   42   
4th     PAS Giannina                    26   6    4    3    26   16   6    3    4    24   20   43   
1st     PAS Giannina                    26   11   2    0    33   15   11   2    0    35   14   70   
1st     PAS Giannina                    26   10   3    0    32   10   7    5    1    30   18   59   
1st     PAS Giannina                    26   13   0    0    42   13   7    4    2    21   13   64   
1st     PAS Giannina                    26   10   2    1    34   17   10   0    3    25   13   62   
3rd     PAS Giannina                    26   9    3    1    33   12   3    4    6    15   16   43   
1st     PAS Giannina                    26   10   2    1    32   12   7    2    4    17   14   55   
4th     PAS Giannina                    26   8    4    1    38   18   5    4    4    24   16   47   
2nd     PAS Giannina                    26   7    3    3    23   17   6    5    2    19   12   47   
4th     PAS Giannina                    26   11   0    2    27   15   2    3    8    15   27   42   
2nd     PAS Giannina                    26   8    4    1    32   16   7    1    5    20   16   50   
1st     PAS Giannina                    26   8    4    1    33   11   5    4    4    20   19   47   
2nd     PAS Giannina                    26   9    1    3    34   19   5    4    4    19   20   47   
2nd     PAS Giannina                    26   7    5    1    27   13   7    3    3    31   21   50   
2nd     PAS Giannina                    26   10   0    3    40   18   4    3    6    16   20   45   
2nd     PAS Giannina                    26   7    1    5    29   22   8    2    3    20   15   48   
2nd     PAS Giannina                    26   9    3    1    31   14   8    2    3    26   22   56   
5th     PAS Giannina                    26   7    1    5    30   25   5    2    6    15   17   39   
2nd     PAS Giannina                    26   9    2    2    26   12   6    3    4    17   15   50   
1st     PAS Giannina                    26   10   2    1    31   14   9    2    2    27   14   61   
2nd     PAS Giannina                    26   9    3    1    29   11   7    3    3    20   8    54   
1st     PAS Giannina                    26   11   0    2    32   14   9    2    2    31   17   62   
1st     PAS Giannina                    26   9    2    2    36   18   7    2    4    27   22   52   
1st     PAS Giannina                    26   9    4    0    30   12   8    3    2    31   19   58   
1st     PAS Giannina                    26   11   1    1    35   16   7    4    2    23   15   59   
1st     PAS Giannina                    26   10   1    2    37   18   9    2    2    28   14   60   
2nd     PAS Giannina                    26   11   0    2    37   14   5    3    5    17   18   51   
1st     PAS Giannina                    26   12   0    1    36   11   5    3    5    21   20   54   
4th     PAS Giannina                    26   9    2    2    30   14   2    6    5    16   18   41   
1st     PAS Giannina                    26   8    2    3    32   17   10   2    1    32   13   58   
2nd     PAS Giannina                    26   8    4    1    34   21   8    3    2    31   19   55   
2nd     PAS Giannina                    26   8    3    2    38   19   7    4    2    18   10   52   
4th     PAS Giannina                    26   7    2    4    27   21   3    7    3    23   19   39   
3rd     PAS Giannina                    26   9    3    1    31   10   5    1    7    22   25   46   
1st     PAS Giannina                    26   8    3    2    29   15   7    2    4    21   14   50   
1st     PAS Giannina                    26   10   3    0    29   10   7    4    2    26   14   58   
6th     PAS Giannina                    26   5    3    5    25   20   5    3    5    17   19   36   
1st     PAS Giannina                    26   10   3    0    33   15   8    2    3    28   19   59   
3rd     PAS Giannina                    26   8    2    3    28   14   8    2    3    25   18   52   
2nd     PAS Giannina                    26   7    4    2    26   18   9    2    2    27   15   54   
1st     PAS Giannina                    26   9    4    0    29   12   7    0    6    25   17   52   
2nd     PAS Giannina                    26   9    2    2    32   15   6    1    6    25   23   48   
2nd     PAS Giannina                    26   10   2    1    40   15   7    2    4    17   11   55   
1st     PAS Giannina                    26   11   1    1    40   14   8    2    3    25   14   60   
1st     PAS Giannina                    26   11   1    1    37   12   7    2    4    26   20   57   
2nd     PAS Giannina                    26   6    6    1    37   20   8    2    3    23   15   50   
1st     PAS Giannina                    26   12   0    1    37   10   6    4    3    18   14   58   
2nd     PAS Giannina                    26   9    2    2    31   14   5    4    4    21   19   48   
2nd     PAS Giannina                    26   9    2    2    32   17   6    4    3    21   16   51   
2nd     PAS Giannina                    26   7    6    0    27   11   7    2    4    21   14   50   
1st     PAS Giannina                    26   9    4    0    37   15   6    2    5    23   20   51   
1st     PAS Giannina                    26   10   1    2    34   14   6    3    4    18   16   52   
1st     PAS Giannina                    26   11   1    1    35   13   7    3    3    25   13   58   
1st     PAS Giannina                    26   10   2    1    33   15   10   1    2    29   14   63   
2nd     PAS Giannina                    26   11   1    1    34   10   5    2    6    17   21   51   
1st     PAS Giannina                    26   10   3    0    34   15   9    2    2    22   11   62   
1st     PAS Giannina                    26   12   0    1    37   13   7    3    3    18   13   60   
7th     PAS Giannina                    26   6    5    2    22   14   3    6    4    12   12   38   
1st     PAS Giannina                    26   12   1    0    37   8    9    2    2    30   11   66   
2nd     PAS Giannina                    26   11   0    2    37   18   5    2    6    25   27   50   
2nd     PAS Giannina                    26   10   0    3    32   17   6    0    7    19   16   48   
1st     PAS Giannina                    26   11   1    1    35   11   7    2    4    31   24   57   
2nd     PAS Giannina                    26   9    2    2    30   14   5    6    2    19   18   50   
2nd     PAS Giannina                    26   8    3    2    27   14   7    3    3    28   17   51   
1st     PAS Giannina                    26   11   0    2    34   7    8    2    3    29   21   59   
4th     PAS Giannina                    26   9    1    3    31   19   4    5    4    19   16   45   
6th     PAS Giannina                    26   6    0    7    27   21   7    1    5    28   26   40   
5th     PAS Giannina                    26   5    5    3    22   18   6    5    2    24   18   43   
2nd     PAS Giannina                    26   11   0    2    33   19   6    3    4    24   20   54   
1st     PAS Giannina                    26   9    3    1    30   13   10   1    2    29   16   61   
3rd     PAS Giannina                    26   7    4    2    27   17   6    2    5    22   16   45   