4th     PAS Giannina                    26   6    4    3    9    6    5    2    6    10   10   39
8th     PAS Giannina                    26   5    2    6    13   12   3    7    3    8    7    33
13th     PAS Giannina                    26   3    4    6    7    12   2    3    8    7    16   22
4th     PAS Giannina                    26   6    6    1    13   4    4    3    6    11   13   39
11th    PAS Giannina                    26   3    7    3    9    8    2    6    5    3    9    28
7th     PAS Giannina                    26   4    8    1    10   4    3    4    6    7    11   33
5th     PAS Giannina                    26   7    3    3    13   9    2    7    4    6    8    37
12th    PAS Giannina                    26   3    9    1    6    3    1    8    4    7    11   29
9th     PAS Giannina                    26   5    3    5    11   11   3    5    5    5    10   32
4th     PAS Giannina                    26   7    4    2    14   5    3    5    5    5    7    39
8th     PAS Giannina                    26   4    5    4    12   11   2    8    3    6    7    31
5th     PAS Giannina                    26   7    2    4    17   9    4    5    4    6    8    40
11th    PAS Giannina                    26   5    4    4    9    10   1    5    7    2    11   27
8th     PAS Giannina                    26   5    6    2    14   7    3    5    5    11   12   35
9th     PAS Giannina                    26   6    4    3    13   7    1    8    4    6    12   33
12th    PAS Giannina                    26   3    6    4    6    9    1    6    6    6    11   24
3rd     PAS Giannina                    26   6    6    1    8    3    5    6    2    10   5    45
7th     PAS Giannina                    26   7    2    4    12   9    3    5    5    4    7    37
10th    PAS Giannina                    26   5    3    5    12   10   3    6    4    6    10   33
6th     PAS Giannina                    26   7    4    2    12   4    3    4    6    8    13   38
10th    PAS Giannina                    26   5    4    4    10   9    2    6    5    10   14   31
12th    PAS Giannina                    26   2    6    5    3    8    2    5    6    3    11   23
12th    PAS Giannina                    26   6    3    4    11   9    2    6    5    6    10   33
12th    PAS Giannina                    26   3    7    3    11   11   2    6    5    7    9    28
4th     PAS Giannina                    26   9    4    0    13   4    1    6    6    7    19   40
9th     PAS Giannina                    26   7    2    4    13   8    2    5    6    8    12   34
10th    PAS Giannina                    26   5    6    2    13   7    1    6    6    4    12   30
13th     PAS Giannina                    26   4    3    6    6    9    1    7    5    5    9    25
13th     PAS Giannina                    26   3    4    6    9    10   2    5    6    8    15   24
11th    PAS Giannina                    26   2    8    3    7    7    3    5    5    6    12   28
10th    PAS Giannina                    26   6    4    3    11   9    2    5    6    5    11   33
10th    PAS Giannina                    26   4    4    5    7    9    3    6    4    7    8    31
11th    PAS Giannina                    26   2    5    6    5    11   5    6    2    5    4    32
9th     PAS Giannina                    26   4    5    4    9    9    3    7    3    7    7    33
9th     PAS Giannina                    26   6    4    3    14   9    3    4    6    5    11   35
10th    PAS Giannina                    26   6    6    1    9    5    2    4    7    6    14   34
13th     PAS Giannina                    26   3    4    6    9    12   2    4    7    7    11   23
11th    PAS Giannina                    26   2    7    4    10   13   5    3    5    10   9    31
8th     PAS Giannina                    26   4    7    2    8    6    4    3    6    7    13   34
4th     PAS Giannina                    26   8    3    2    21   11   4    2    7    8    13   41
11th    PAS Giannina                    26   3    7    3    8    13   4    5    4    9    8    33
5th     PAS Giannina                    26   7    5    1    15   8    2    5    6    5    11   37
3rd     PAS Giannina                    26   7    5    1    14   4    4    4    5    7    10   42
10th    PAS Giannina                    26   4    3    6    6    9    3    7    3    6    6    31
10th    PAS Giannina                    26   3    6    4    5    7    2    7    4    7    11   28
9th     PAS Giannina                    26   5    8    0    8    3    3    2    8    5    11   34
11th    PAS Giannina                    26   4    8    1    9    4    2    3    8    5    13   29
5th     PAS Giannina                    26   5    6    2    11   7    5    4    4    9    11   40
12th    PAS Giannina                    26   4    3    6    7    8    4    1    8    7    14   28
6th     PAS Giannina                    26   3    8    2    5    5    5    4    4    7    5    36
6th     PAS Giannina                    26   7    4    2    12   4    4    2    7    12   15   39
8th     PAS Giannina                    26   5    5    3    10   8    2    6    5    5    7    32
14th     PAS Giannina                    26   5    4    4    9    7    1    6    6    5    14   28
8th     PAS Giannina                    26   7    3    3    13   6    2    5    6    6    10   35
7th     PAS Giannina                    26   4    4    5    9    10   4    6    3    10   9    34
7th     PAS Giannina                    26   5    6    2    18   13   3    5    5    10   11   35
7th     PAS Giannina                    26   3    7    3    10   9    4    6    3    9    5    34
7th     PAS Giannina                    26   8    4    1    13   4    2    2    9    4    15   36
8th     PAS Giannina                    26   6    5    2    11   6    2    6    5    4    9    35
7th     PAS Giannina                    26   5    6    2    9    5    4    4    5    10   13   37
11th    PAS Giannina                    26   1    7    5    4    8    2    7    4    7    9    23
14th     PAS Giannina                    26   2    5    6    10   14   2    4    7    8    12   21
2nd     PAS Giannina                    26   9    2    2    17   8    4    3    6    9    13   44
2nd     PAS Giannina                    26   10   2    1    14   3    3    4    6    4    10   45
4th     PAS Giannina                    26   6    4    3    11   6    4    5    4    7    8    39
7th     PAS Giannina                    26   6    6    1    9    3    2    5    6    7    12   35
7th     PAS Giannina                    26   5    5    3    13   10   4    4    5    6    10   36
10th    PAS Giannina                    26   3    5    5    8    8    2    4    7    11   21   24
4th     PAS Giannina                    26   9    3    1    16   6    3    4    6    6    13   43
5th     PAS Giannina                    26   6    5    2    9    4    4    5    4    8    9    40
10th    PAS Giannina                    26   5    5    3    15   10   1    6    6    3    12   29
9th     PAS Giannina                    26   3    7    3    10   11   4    4    5    11   14   32
13th     PAS Giannina                    26   2    7    4    8    9    3    2    8    8    18   24
7th     PAS Giannina                    26   5    7    1    8    5    2    8    3    6    8    36
3rd     PAS Giannina                    26   7    4    2    16   8    5    5    3    10   7    45
10th    PAS Giannina                    26   3    5    5    5    6    4    3    6    6    9    29
12th    PAS Giannina                    26   5    4    4    12   9    3    2    8    8    16   30
11th    PAS Giannina                    26   5    4    4    11   10   1    8    4    5    10   30
5th     PAS Giannina                    26   8    3    2    15   7    3    6    4    7    6    42
6th     PAS Giannina                    26   6    4    3    11   10   3    4    6    8    14   35
13th     PAS Giannina                    26   4    5    4    10   10   0    9    4    3    10   26
8th     PAS Giannina                    26   4    5    4    12   11   3    7    3    11   9    33
11th    PAS Giannina                    26   5    5    3    9    5    2    6    5    4    8    32
10th    PAS Giannina                    26   5    4    4    8    7    2    5    6    9    12   30
13th     PAS Giannina                    26   2    4    7    8    13   1    5    7    5    14   18
8th     PAS Giannina                    26   4    5    4    10   9    3    7    3    10   13   33
11th    PAS Giannina                    26   4    4    5    11   11   2    3    8    4    12   25
11th    PAS Giannina                    26   4    4    5    10   10   3    6    4    10   13   31
6th     PAS Giannina                    26   5    5    3    9    6    4    4    5    8    8    36
8th     PAS Giannina                    26   6    4    3    11   4    2    5    6    7    16   33
12th    PAS Giannina                    26   4    8    1    12   6    1    6    6    5    11   29
11th    PAS Giannina                    26   7    5    1    15   5    0    2    11   1    19   28
8th     PAS Giannina                    26   5    3    5    9    8    4    5    4    9    11   35
6th     PAS Giannina                    26   6    4    3    11   6    3    4    6    10   16   35
5th     PAS Giannina                    26   5    7    1    10   5    5    4    4    11   13   41
6th     PAS Giannina                    26   5    4    4    8    8    6    1    6    11   13   38
14th     PAS Giannina                    26   0    8    5    5    11   3    7    3    10   11   24
5th     PAS Giannina                    26   7    4    2    11   5    3    5    5    8    12   39
13th     PAS Giannina                    26   4    5    4    7    8    2    2    9    7    19   25
5th     PAS Giannina                    26   6    6    1    15   7    3    4    6    8    13   37