1st     PAS Giannina                    26   12   0    1    42   15   9    3    1    30   19   66   
1st     PAS Giannina                    26   11   2    0    43   16   7    5    1    35   17   61   
1st     PAS Giannina                    26   12   0    1    40   14   10   1    2    28   12   67   
1st     PAS Giannina                    26   10   3    0    35   12   10   2    1    29   11   65   
1st     PAS Giannina                    26   10   1    2    33   9    8    2    3    26   11   57   
1st     PAS Giannina                    26   9    3    1    37   19   9    3    1    33   13   60   
1st     PAS Giannina                    26   10   1    2    29   15   10   2    1    29   9    63   
1st     PAS Giannina                    26   13   0    0    36   9    8    3    2    27   13   66   
1st     PAS Giannina                    26   11   0    2    35   10   10   2    1    32   12   65   
1st     PAS Giannina                    26   12   0    1    29   9    10   1    2    33   11   67   
1st     PAS Giannina                    26   10   2    1    36   16   10   1    2    32   17   63   
1st     PAS Giannina                    26   10   1    2    32   14   10   1    2    30   11   62   
1st     PAS Giannina                    26   8    2    3    33   17   8    4    1    29   14   54   
2nd     PAS Giannina                    26   8    2    3    26   17   9    3    1    28   11   56   
1st     PAS Giannina                    26   12   1    0    33   10   7    4    2    19   11   62   
1st     PAS Giannina                    26   8    3    2    29   10   9    2    2    28   14   56   
2nd     PAS Giannina                    26   10   2    1    36   12   9    2    2    26   15   61   
2nd     PAS Giannina                    26   10   2    1    28   9    8    3    2    30   13   59   
1st     PAS Giannina                    26   8    1    4    25   15   9    2    2    30   16   54   
1st     PAS Giannina                    26   13   0    0    41   7    10   2    1    32   12   71   
1st     PAS Giannina                    26   10   1    2    30   14   9    3    1    27   15   61   
1st     PAS Giannina                    26   13   0    0    30   9    10   2    1    31   14   71   
1st     PAS Giannina                    26   10   2    1    32   13   12   0    1    29   5    68   
1st     PAS Giannina                    26   9    3    1    25   12   10   1    2    25   11   61   
1st     PAS Giannina                    26   11   2    0    26   5    6    6    1    30   14   59   
1st     PAS Giannina                    26   12   1    0    31   9    7    4    2    35   16   62   
1st     PAS Giannina                    26   9    3    1    27   8    8    2    3    25   19   56   
1st     PAS Giannina                    26   11   1    1    37   11   12   0    1    34   12   70   
3rd     PAS Giannina                    26   9    0    4    27   12   5    6    2    26   17   48   
1st     PAS Giannina                    26   10   2    1    30   11   8    2    3    28   18   58   
1st     PAS Giannina                    26   10   2    1    33   8    11   1    1    28   12   66   
1st     PAS Giannina                    26   10   3    0    29   6    10   2    1    30   6    65   
1st     PAS Giannina                    26   10   3    0    33   9    7    4    2    25   12   58   
2nd     PAS Giannina                    26   8    2    3    31   20   8    4    1    27   15   54   
1st     PAS Giannina                    26   12   1    0    43   13   10   0    3    35   19   67   
1st     PAS Giannina                    26   11   1    1    38   16   8    3    2    27   10   61   
1st     PAS Giannina                    26   11   1    1    40   16   6    5    2    20   11   57   
1st     PAS Giannina                    26   13   0    0    36   10   8    0    5    27   17   63   
1st     PAS Giannina                    26   10   1    2    34   9    6    6    1    24   15   55   
1st     PAS Giannina                    26   10   2    1    31   10   7    5    1    27   15   58   
1st     PAS Giannina                    26   12   1    0    26   9    11   1    1    32   10   71   
1st     PAS Giannina                    26   10   2    1    29   12   9    1    3    29   15   60   
1st     PAS Giannina                    26   13   0    0    38   9    9    1    3    26   10   67   
1st     PAS Giannina                    26   11   2    0    35   7    9    3    1    29   15   65   
1st     PAS Giannina                    26   10   2    1    39   15   6    6    1    20   12   56   
1st     PAS Giannina                    26   8    4    1    32   16   9    3    1    32   12   58   
1st     PAS Giannina                    26   9    3    1    30   14   10   2    1    33   15   62   
1st     PAS Giannina                    26   10   2    1    32   11   10   2    1    28   8    64   
1st     PAS Giannina                    26   12   0    1    41   9    9    2    2    28   9    65   
1st     PAS Giannina                    26   11   1    1    36   14   9    2    2    25   13   63   
1st     PAS Giannina                    26   10   2    1    38   9    7    3    3    24   12   56   
1st     PAS Giannina                    26   11   1    1    25   8    8    4    1    25   12   62   
1st     PAS Giannina                    26   10   3    0    29   14   9    1    3    28   16   61   
1st     PAS Giannina                    26   9    2    2    33   14   10   3    0    37   12   62   
1st     PAS Giannina                    26   13   0    0    35   7    9    4    0    31   8    70   
1st     PAS Giannina                    26   11   1    1    31   9    8    5    0    31   9    63   
1st     PAS Giannina                    26   11   1    1    34   13   7    2    4    21   14   57   
1st     PAS Giannina                    26   11   2    0    34   11   11   0    2    32   9    68   
1st     PAS Giannina                    26   10   2    1    39   18   10   2    1    30   9    64   
2nd     PAS Giannina                    26   8    1    4    27   11   7    2    4    23   21   48   
1st     PAS Giannina                    26   11   1    1    38   13   12   1    0    32   12   71   
1st     PAS Giannina                    26   11   1    1    34   14   8    5    0    27   13   63   
2nd     PAS Giannina                    26   9    3    1    36   11   7    3    3    31   18   54   
1st     PAS Giannina                    26   12   0    1    39   7    10   1    2    24   13   67   
1st     PAS Giannina                    26   10   2    1    27   9    11   1    1    29   8    66   
1st     PAS Giannina                    26   11   2    0    32   7    7    5    1    26   13   61   
1st     PAS Giannina                    26   10   2    1    37   14   6    3    4    22   18   53   
1st     PAS Giannina                    26   10   1    2    28   13   9    3    1    31   12   61   
1st     PAS Giannina                    26   12   0    1    40   13   8    3    2    25   16   63   
1st     PAS Giannina                    26   11   0    2    31   13   8    3    2    29   17   60   
1st     PAS Giannina                    26   10   2    1    34   11   8    5    0    26   12   61   
1st     PAS Giannina                    26   12   1    0    27   7    9    3    1    33   15   67   
1st     PAS Giannina                    26   13   0    0    36   11   9    2    2    29   15   68   
1st     PAS Giannina                    26   10   1    2    30   12   11   0    2    38   15   64   
1st     PAS Giannina                    26   12   1    0    35   12   8    4    1    34   14   65   
2nd     PAS Giannina                    26   10   2    1    35   14   7    2    4    27   18   55   
1st     PAS Giannina                    26   11   2    0    30   8    8    5    0    26   13   64   
1st     PAS Giannina                    26   9    3    1    33   11   10   2    1    25   9    62   
1st     PAS Giannina                    26   10   3    0    35   13   11   2    0    35   12   68   
1st     PAS Giannina                    26   11   2    0    35   15   11   0    2    38   15   68   
2nd     PAS Giannina                    26   8    4    1    31   14   8    2    3    24   19   54   
1st     PAS Giannina                    26   9    4    0    34   13   9    3    1    37   14   61   
3rd     PAS Giannina                    26   9    0    4    29   14   5    6    2    28   14   48   
1st     PAS Giannina                    26   13   0    0    38   13   8    2    3    22   13   65   
1st     PAS Giannina                    26   10   1    2    38   12   7    4    2    28   21   56   
1st     PAS Giannina                    26   12   1    0    36   12   9    2    2    26   13   66   
1st     PAS Giannina                    26   11   2    0    27   5    9    2    2    32   11   64   
1st     PAS Giannina                    26   9    3    1    30   14   10   0    3    22   10   60   
1st     PAS Giannina                    26   12   1    0    36   11   10   2    1    27   9    69   
1st     PAS Giannina                    26   10   3    0    39   17   11   1    1    36   15   67   
1st     PAS Giannina                    26   11   2    0    33   10   8    3    2    31   19   62   
3rd     PAS Giannina                    26   8    1    4    28   13   6    4    3    35   19   47   
1st     PAS Giannina                    26   9    4    0    30   10   9    4    0    30   10   62   
1st     PAS Giannina                    26   9    3    1    36   15   6    5    2    22   12   53   
1st     PAS Giannina                    26   12   1    0    40   11   7    4    2    23   11   62   
1st     PAS Giannina                    26   9    2    2    30   8    10   1    2    28   14   60   
1st     PAS Giannina                    26   11   2    0    32   14   9    3    1    30   11   65   
1st     PAS Giannina                    26   12   1    0    38   11   9    2    2    30   16   66   
1st     PAS Giannina                    26   10   1    2    25   9    10   3    0    28   11   64   
1st     PAS Giannina                    26   10   3    0    32   14   9    1    3    28   13   61   