1st     PAS Giannina                    26   10   1    2    26   14   9    1    3    15   12   59   
1st     PAS Giannina                    26   9    3    1    27   13   8    3    2    20   9    57   
4th     PAS Giannina                    26   9    2    2    28   11   4    4    5    21   23   45   
1st     PAS Giannina                    26   9    4    0    28   14   8    3    2    22   9    58   
4th     PAS Giannina                    26   8    3    2    27   13   4    6    3    15   14   45   
3rd     PAS Giannina                    26   9    2    2    20   6    6    4    3    18   10   51   
3rd     PAS Giannina                    26   9    2    2    21   10   4    5    4    14   12   46   
3rd     PAS Giannina                    26   5    7    1    19   14   5    5    3    15   10   42   
2nd     PAS Giannina                    26   9    2    2    27   15   4    5    4    11   12   46   
2nd     PAS Giannina                    26   11   2    0    30   12   5    2    6    18   18   52   
2nd     PAS Giannina                    26   12   1    0    26   10   5    4    4    22   19   56   
2nd     PAS Giannina                    26   8    4    1    19   7    9    2    2    17   7    57   
1st     PAS Giannina                    26   12   1    0    27   8    6    3    4    16   13   58   
7th     PAS Giannina                    26   7    3    3    25   14   3    3    7    9    16   36   
1st     PAS Giannina                    26   10   2    1    33   14   6    2    5    16   14   52   
1st     PAS Giannina                    26   10   2    1    28   12   5    5    3    16   11   52   
1st     PAS Giannina                    26   12   0    1    29   7    6    2    5    16   13   56   
2nd     PAS Giannina                    26   11   2    0    34   6    4    4    5    13   14   51   
2nd     PAS Giannina                    26   6    6    1    21   13   6    3    4    15   12   45   
1st     PAS Giannina                    26   13   0    0    36   10   5    3    5    17   14   57   
2nd     PAS Giannina                    26   9    2    2    29   14   4    6    3    17   17   47   
3rd     PAS Giannina                    26   8    3    2    26   16   5    3    5    10   9    45   
2nd     PAS Giannina                    26   10   1    2    27   10   4    3    6    13   13   46   
5th     PAS Giannina                    26   10   3    0    32   13   2    4    7    13   20   43   
3rd     PAS Giannina                    26   9    1    3    27   12   4    4    5    17   13   44   
2nd     PAS Giannina                    26   12   1    0    25   8    3    7    3    15   15   53   
3rd     PAS Giannina                    26   8    3    2    25   12   6    3    4    18   18   48   
3rd     PAS Giannina                    26   8    4    1    24   13   4    7    2    16   16   47   
2nd     PAS Giannina                    26   9    2    2    31   15   4    7    2    19   14   48   
2nd     PAS Giannina                    26   7    5    1    19   8    6    3    4    24   15   47   
1st     PAS Giannina                    26   9    4    0    20   7    7    4    2    27   14   56   
2nd     PAS Giannina                    26   6    3    4    22   13   9    3    1    22   6    51   
2nd     PAS Giannina                    26   12   0    1    31   9    3    7    3    13   14   52   
3rd     PAS Giannina                    26   8    3    2    24   12   4    5    4    15   18   44   
1st     PAS Giannina                    26   10   1    2    24   10   7    4    2    20   16   56   
2nd     PAS Giannina                    26   10   2    1    27   11   5    4    4    17   15   51   
1st     PAS Giannina                    26   10   2    1    32   7    5    3    5    16   19   50   
1st     PAS Giannina                    26   11   1    1    27   3    4    6    3    22   19   52   
8th     PAS Giannina                    26   9    2    2    22   6    0    8    5    11   16   37   
1st     PAS Giannina                    26   8    4    1    30   13   7    2    4    22   16   51   
5th     PAS Giannina                    26   6    7    0    24   12   4    4    5    10   11   41   
1st     PAS Giannina                    26   8    4    1    21   11   9    2    2    22   15   57   
3rd     PAS Giannina                    26   10   1    2    29   12   4    4    5    13   14   47   
3rd     PAS Giannina                    26   6    5    2    19   12   8    2    3    18   14   49   
1st     PAS Giannina                    26   8    3    2    22   12   6    5    2    12   8    50   
1st     PAS Giannina                    26   9    3    1    24   7    7    2    4    19   12   53   
2nd     PAS Giannina                    26   10   2    1    30   13   6    3    4    16   16   53   
2nd     PAS Giannina                    26   8    2    3    24   10   6    4    3    17   17   48   
2nd     PAS Giannina                    26   12   1    0    29   10   3    4    6    15   20   50   
5th     PAS Giannina                    26   10   2    1    22   10   1    6    6    14   21   41   
3rd     PAS Giannina                    26   10   1    2    28   14   3    4    6    15   13   44   
1st     PAS Giannina                    26   12   1    0    38   12   7    1    5    22   17   59   
3rd     PAS Giannina                    26   9    3    1    27   9    2    9    2    13   12   45   
3rd     PAS Giannina                    26   8    4    1    22   9    3    5    5    16   15   42   
3rd     PAS Giannina                    26   9    1    3    23   15   6    4    3    17   12   50   
2nd     PAS Giannina                    26   11   2    0    32   11   4    4    5    13   13   51   
1st     PAS Giannina                    26   11   2    0    31   9    6    3    4    14   12   56   
1st     PAS Giannina                    26   11   1    1    27   6    5    3    5    15   17   52   
1st     PAS Giannina                    26   7    2    4    28   17   6    5    2    14   5    46   
3rd     PAS Giannina                    26   8    3    2    22   9    4    5    4    14   13   44   
3rd     PAS Giannina                    26   6    3    4    22   16   6    4    3    17   12   43   
2nd     PAS Giannina                    26   12   0    1    28   9    3    5    5    14   9    50   
3rd     PAS Giannina                    26   6    5    2    18   12   7    2    4    14   8    46   
5th     PAS Giannina                    26   6    3    4    26   18   6    2    5    18   12   41   
2nd     PAS Giannina                    26   8    5    0    25   8    7    1    5    13   10   51   
2nd     PAS Giannina                    26   8    3    2    22   7    7    4    2    18   10   52   
3rd     PAS Giannina                    26   7    4    2    21   7    6    5    2    17   10   48   
3rd     PAS Giannina                    26   8    4    1    23   13   4    5    4    14   13   45   
1st     PAS Giannina                    26   8    3    2    28   12   7    3    3    24   17   51   
6th     PAS Giannina                    26   6    5    2    24   18   3    5    5    17   16   37   
6th     PAS Giannina                    26   8    2    3    24   11   3    4    6    9    16   39   
1st     PAS Giannina                    26   8    4    1    30   20   10   1    2    23   11   59   
2nd     PAS Giannina                    26   9    3    1    33   12   6    3    4    17   13   51   
1st     PAS Giannina                    26   10   1    2    30   11   8    2    3    19   10   57   
3rd     PAS Giannina                    26   5    7    1    21   15   5    4    4    12   10   41   
1st     PAS Giannina                    26   12   0    1    28   9    7    2    4    16   16   59   
1st     PAS Giannina                    26   8    4    1    28   11   7    2    4    18   12   51   
4th     PAS Giannina                    26   8    1    4    21   14   5    3    5    17   16   43   
2nd     PAS Giannina                    26   11   1    1    36   13   5    3    5    18   18   52   
2nd     PAS Giannina                    26   9    2    2    23   8    5    3    5    15   12   47   
2nd     PAS Giannina                    26   8    2    3    31   15   5    5    3    14   12   46   
3rd     PAS Giannina                    26   7    5    1    23   7    7    2    4    15   10   49   
4th     PAS Giannina                    26   9    2    2    29   10   2    6    5    11   17   41   
2nd     PAS Giannina                    26   8    4    1    26   15   6    6    1    15   9    52   
1st     PAS Giannina                    26   8    3    2    29   18   8    2    3    23   15   53   
3rd     PAS Giannina                    26   8    3    2    24   14   6    3    4    20   15   48   
2nd     PAS Giannina                    26   11   2    0    27   4    4    6    3    22   14   53   
3rd     PAS Giannina                    26   10   2    1    29   13   5    1    7    11   10   48   
3rd     PAS Giannina                    26   8    2    3    25   11   4    5    4    15   14   43   
2nd     PAS Giannina                    26   10   0    3    29   13   3    4    6    12   20   43   
2nd     PAS Giannina                    26   9    2    2    23   17   5    4    4    13   10   48   
2nd     PAS Giannina                    26   9    3    1    23   8    6    5    2    16   11   53   
3rd     PAS Giannina                    26   9    1    3    27   12   3    6    4    13   15   43   
1st     PAS Giannina                    26   9    1    3    25   9    7    3    3    20   8    52   
4th     PAS Giannina                    26   8    2    3    25   17   4    3    6    12   14   41   
2nd     PAS Giannina                    26   7    5    1    21   12   5    3    5    18   15   44   
2nd     PAS Giannina                    26   9    1    3    31   13   8    3    2    21   9    55   
2nd     PAS Giannina                    26   11   2    0    27   11   5    4    4    11   15   54   
4th     PAS Giannina                    26   8    3    2    28   14   5    0    8    15   16   42   
3rd     PAS Giannina                    26   9    2    2    22   5    4    3    6    11   12   44   