2nd     PAS Giannina                    26   11   0    2    37   10   5    4    4    20   16   52   
1st     PAS Giannina                    26   11   0    2    35   9    7    2    4    25   14   56   
10th    PAS Giannina                    26   6    2    5    21   18   2    2    9    12   20   28   
3rd     PAS Giannina                    26   8    3    2    26   13   7    0    6    17   15   48   
2nd     PAS Giannina                    26   10   1    2    29   9    6    4    3    16   13   53   
5th     PAS Giannina                    26   6    4    3    25   15   6    0    7    12   15   40   
5th     PAS Giannina                    26   8    1    4    27   13   4    3    6    14   13   40   
1st     PAS Giannina                    26   8    4    1    29   14   8    2    3    26   15   54   
2nd     PAS Giannina                    26   8    3    2    29   17   7    2    4    19   12   50   
1st     PAS Giannina                    26   11   1    1    35   12   7    3    3    20   9    58   
2nd     PAS Giannina                    26   9    2    2    27   16   7    2    4    21   13   52   
1st     PAS Giannina                    26   9    4    0    31   15   7    2    4    21   14   54   
1st     PAS Giannina                    26   10   2    1    30   13   4    5    4    21   17   49   
1st     PAS Giannina                    26   9    3    1    33   12   7    3    3    18   9    54   
2nd     PAS Giannina                    26   9    2    2    30   11   7    2    4    19   14   52   
1st     PAS Giannina                    26   9    4    0    25   8    4    3    6    17   19   46   
1st     PAS Giannina                    26   9    4    0    31   12   5    6    2    16   12   52   
2nd     PAS Giannina                    26   10   2    1    32   10   3    5    5    13   18   46   
8th     PAS Giannina                    26   7    5    1    20   8    1    5    7    11   21   34   
4th     PAS Giannina                    26   7    4    2    24   16   6    2    5    16   13   45   
4th     PAS Giannina                    26   6    6    1    26   15   5    3    5    17   17   42   
6th     PAS Giannina                    26   9    3    1    27   12   2    4    7    17   23   40   
2nd     PAS Giannina                    26   8    5    0    36   16   5    4    4    16   13   48   
2nd     PAS Giannina                    26   10   2    1    32   11   4    4    5    20   20   48   
1st     PAS Giannina                    26   12   1    0    37   10   6    4    3    16   11   59   
2nd     PAS Giannina                    26   9    0    4    31   20   4    4    5    18   17   43   
4th     PAS Giannina                    26   11   0    2    36   13   3    4    6    14   22   46   
1st     PAS Giannina                    26   10   2    1    28   10   6    4    3    17   13   54   
2nd     PAS Giannina                    26   10   1    2    32   17   3    6    4    13   14   46   
8th     PAS Giannina                    26   8    2    3    32   19   3    2    8    13   20   37   
3rd     PAS Giannina                    26   8    1    4    30   19   6    2    5    14   13   45   
4th     PAS Giannina                    26   9    3    1    28   14   3    6    4    19   19   45   
1st     PAS Giannina                    26   10   1    2    33   16   6    6    1    19   12   55   
2nd     PAS Giannina                    26   9    2    2    32   15   5    5    3    18   15   49   
8th     PAS Giannina                    26   7    2    4    29   20   2    4    7    20   27   33   
2nd     PAS Giannina                    26   11   1    1    26   9    5    0    8    20   24   49   
3rd     PAS Giannina                    26   6    3    4    19   16   6    4    3    23   16   43   
2nd     PAS Giannina                    26   9    2    2    26   9    4    6    3    23   19   47   
2nd     PAS Giannina                    26   9    2    2    28   15   6    6    1    25   14   53   
1st     PAS Giannina                    26   12   1    0    35   12   7    4    2    27   20   62   
2nd     PAS Giannina                    26   7    4    2    19   11   6    5    2    21   14   48   
1st     PAS Giannina                    26   10   1    2    30   13   6    2    5    21   21   51   
6th     PAS Giannina                    26   5    3    5    20   14   7    1    5    22   15   40   
1st     PAS Giannina                    26   8    4    1    24   9    6    5    2    23   15   51   
3rd     PAS Giannina                    26   7    2    4    25   16   5    5    3    21   17   43   
2nd     PAS Giannina                    26   9    2    2    29   10   6    5    2    22   14   52   
1st     PAS Giannina                    26   10   0    3    27   14   5    4    4    21   20   49   
3rd     PAS Giannina                    26   9    3    1    25   9    7    3    3    21   14   54   
2nd     PAS Giannina                    26   9    1    3    29   11   7    4    2    18   10   53   
1st     PAS Giannina                    26   11   1    1    33   13   5    4    4    24   21   53   
2nd     PAS Giannina                    26   8    3    2    22   13   4    5    4    21   18   44   
2nd     PAS Giannina                    26   11   1    1    32   12   4    4    5    14   18   50   
3rd     PAS Giannina                    26   9    2    2    27   14   4    3    6    19   21   44   
4th     PAS Giannina                    26   8    3    2    29   18   4    2    7    20   23   41   
2nd     PAS Giannina                    26   11   1    1    29   11   3    4    6    11   16   47   
3rd     PAS Giannina                    26   8    4    1    27   15   5    1    7    21   22   44   
3rd     PAS Giannina                    26   9    3    1    26   10   5    4    4    13   14   49   
2nd     PAS Giannina                    26   7    5    1    23   12   6    4    3    21   14   48   
3rd     PAS Giannina                    26   8    2    3    27   18   5    4    4    23   20   45   
2nd     PAS Giannina                    26   9    2    2    32   12   6    4    3    20   15   51   
1st     PAS Giannina                    26   11   2    0    39   11   6    6    1    24   16   59   
6th     PAS Giannina                    26   7    4    2    27   13   3    6    4    9    12   40   
3rd     PAS Giannina                    26   11   0    2    31   14   1    5    7    13   23   41   
3rd     PAS Giannina                    26   9    2    2    26   15   3    4    6    18   19   42   
5th     PAS Giannina                    26   8    1    4    33   19   4    4    5    22   23   41   
2nd     PAS Giannina                    26   10   3    0    30   7    5    3    5    17   18   51   
8th     PAS Giannina                    26   9    1    3    25   10   1    3    9    10   19   34   
3rd     PAS Giannina                    26   8    2    3    23   14   6    1    6    22   16   45   
9th     PAS Giannina                    26   5    4    4    21   15   4    4    5    19   23   35   
2nd     PAS Giannina                    26   9    1    3    32   11   5    5    3    17   11   48   
2nd     PAS Giannina                    26   8    4    1    32   14   5    4    4    19   15   47   
1st     PAS Giannina                    26   10   2    1    29   15   5    1    7    18   21   48   
2nd     PAS Giannina                    26   8    4    1    32   16   5    4    4    17   16   47   
3rd     PAS Giannina                    26   10   1    2    25   9    4    2    7    18   23   45   
4th     PAS Giannina                    26   6    3    4    26   17   3    6    4    15   18   36   
1st     PAS Giannina                    26   9    2    2    33   19   8    3    2    24   14   56   
3rd     PAS Giannina                    26   9    2    2    25   10   6    1    6    18   19   48   
2nd     PAS Giannina                    26   10   2    1    26   10   3    3    7    19   22   44   
4th     PAS Giannina                    26   9    2    2    29   16   4    3    6    18   19   44   
2nd     PAS Giannina                    26   9    4    0    33   16   5    4    4    16   17   50   
1st     PAS Giannina                    26   11   0    2    27   12   5    4    4    20   18   52   
4th     PAS Giannina                    26   10   0    3    24   11   3    3    7    10   18   42   
7th     PAS Giannina                    26   9    2    2    28   15   0    6    7    14   25   35   
2nd     PAS Giannina                    26   10   3    0    30   6    9    3    1    25   10   63   
3rd     PAS Giannina                    26   9    3    1    28   10   4    2    7    14   24   44   
2nd     PAS Giannina                    26   12   1    0    30   7    5    2    6    16   21   54   
2nd     PAS Giannina                    26   8    2    3    29   16   5    5    3    15   12   46   
3rd     PAS Giannina                    26   7    3    3    23   14   5    3    5    21   22   42   
5th     PAS Giannina                    26   8    3    2    29   13   4    2    7    13   20   41   
3rd     PAS Giannina                    26   10   2    1    34   19   4    4    5    18   28   48   
6th     PAS Giannina                    26   7    3    3    25   16   4    4    5    15   22   40   
4th     PAS Giannina                    26   8    2    3    32   17   5    3    5    22   22   44   
2nd     PAS Giannina                    26   11   1    1    35   15   6    3    4    21   19   55   
4th     PAS Giannina                    26   8    3    2    32   17   2    7    4    14   17   40   
5th     PAS Giannina                    26   8    4    1    25   8    3    5    5    16   17   42   
2nd     PAS Giannina                    26   5    6    2    25   18   7    4    2    23   14   46   
2nd     PAS Giannina                    26   9    3    1    25   11   8    1    4    27   17   55   
8th     PAS Giannina                    26   7    4    2    20   9    3    2    8    15   23   36   
2nd     PAS Giannina                    26   8    3    2    25   12   6    3    4    15   16   48   
3rd     PAS Giannina                    26   9    3    1    28   12   3    7    3    18   16   46   