10th    PAS Giannina                    26   6    2    5    25   21   2    4    7    18   32   30   
4th     PAS Giannina                    26   10   1    2    27   14   3    1    9    11   23   41   
1st     PAS Giannina                    26   10   2    1    36   11   6    1    6    29   30   51   
8th     PAS Giannina                    26   8    2    3    34   22   1    5    7    26   39   34   
8th     PAS Giannina                    26   8    3    2    26   11   2    2    9    13   30   35   
11th    PAS Giannina                    26   5    3    5    23   25   2    4    7    16   25   28   
10th    PAS Giannina                    26   8    2    3    29   22   2    1    10   17   37   33   
5th     PAS Giannina                    26   5    2    6    26   24   5    4    4    28   28   36   
7th     PAS Giannina                    26   6    4    3    28   19   4    2    7    23   23   36   
10th    PAS Giannina                    26   9    1    3    26   13   0    3    10   9    30   31   
1st     PAS Giannina                    26   10   2    1    38   14   4    1    8    24   30   45   
4th     PAS Giannina                    26   9    2    2    31   19   2    5    6    19   27   40   
5th     PAS Giannina                    26   9    1    3    29   15   2    5    6    15   21   39   
6th     PAS Giannina                    26   8    1    4    25   16   3    4    6    13   19   38   
4th     PAS Giannina                    26   10   1    2    29   18   1    6    6    22   33   40   
5th     PAS Giannina                    26   8    1    4    31   19   4    1    8    15   20   38   
3rd     PAS Giannina                    26   9    2    2    30   11   5    3    5    23   29   47   
5th     PAS Giannina                    26   8    3    2    22   12   3    2    8    12   21   38   
10th    PAS Giannina                    26   4    6    3    23   24   3    3    7    13   21   30   
7th     PAS Giannina                    26   5    5    3    20   18   4    3    6    19   25   35   
8th     PAS Giannina                    26   5    4    4    25   17   3    3    7    21   32   31   
4th     PAS Giannina                    26   8    5    0    28   14   4    4    5    19   26   45   
9th     PAS Giannina                    26   6    4    3    24   18   3    3    7    21   25   34   
9th     PAS Giannina                    26   6    2    5    30   25   3    4    6    16   24   33   
7th     PAS Giannina                    26   8    0    5    19   13   3    3    7    17   22   36   
3rd     PAS Giannina                    26   11   2    0    36   17   4    0    9    25   31   47   
5th     PAS Giannina                    26   9    1    3    30   21   3    4    6    18   21   41   
12th    PAS Giannina                    26   6    3    4    26   18   2    1    10   18   30   28   
2nd     PAS Giannina                    26   11   1    1    30   10   3    2    8    20   31   45   
2nd     PAS Giannina                    26   11   1    1    33   16   4    1    8    26   34   47   
3rd     PAS Giannina                    26   8    3    2    33   18   6    3    4    23   21   48   
4th     PAS Giannina                    26   6    5    2    23   18   4    1    8    15   26   36   
5th     PAS Giannina                    26   7    2    4    30   23   6    1    6    22   23   42   
7th     PAS Giannina                    26   7    0    6    24   17   4    3    6    20   28   36   
3rd     PAS Giannina                    26   9    1    3    28   20   4    5    4    20   24   45   
12th    PAS Giannina                    26   3    5    5    24   26   2    4    7    18   25   24   
3rd     PAS Giannina                    26   9    3    1    29   14   3    2    8    19   31   41   
2nd     PAS Giannina                    26   9    1    3    40   23   6    3    4    22   23   49   
9th     PAS Giannina                    26   7    1    5    27   23   3    4    6    16   22   35   
9th     PAS Giannina                    26   5    4    4    23   23   4    3    6    14   20   34   
5th     PAS Giannina                    26   8    2    3    24   18   5    1    7    24   30   42   
5th     PAS Giannina                    26   7    4    2    25   19   4    3    6    17   22   40   
3rd     PAS Giannina                    26   9    2    2    30   16   6    3    4    25   23   50   
5th     PAS Giannina                    26   10   1    2    26   10   0    7    6    18   28   38   
7th     PAS Giannina                    26   7    3    3    23   12   1    7    5    20   27   34   
3rd     PAS Giannina                    26   10   1    2    28   12   4    4    5    24   22   47   
11th    PAS Giannina                    26   6    2    5    21   21   2    5    6    14   23   31   
9th     PAS Giannina                    26   6    5    2    29   15   3    3    7    20   23   35   
6th     PAS Giannina                    26   7    1    5    23   19   5    1    7    16   24   38   
5th     PAS Giannina                    26   6    4    3    19   11   5    4    4    21   23   41   
10th    PAS Giannina                    26   6    3    4    34   27   3    2    8    15   30   32   
3rd     PAS Giannina                    26   8    3    2    26   14   5    2    6    20   22   44   
10th    PAS Giannina                    26   7    4    2    36   27   3    3    7    15   25   37   
3rd     PAS Giannina                    26   11   1    1    31   10   2    5    6    18   22   45   
4th     PAS Giannina                    26   10   2    1    29   9    2    5    6    17   24   43   
13th    PAS Giannina                    26   4    3    6    22   23   1    2    10   13   33   20   
9th     PAS Giannina                    26   9    3    1    31   18   0    5    8    15   28   35   
6th     PAS Giannina                    26   9    1    3    29   20   2    4    7    9    22   38   
3rd     PAS Giannina                    26   8    2    3    28   14   5    4    4    29   24   45   
11th    PAS Giannina                    26   5    2    6    21   19   4    2    7    16   18   31   
12th    PAS Giannina                    26   6    3    4    23   15   2    3    8    13   30   30   
5th     PAS Giannina                    26   8    2    3    33   22   4    2    7    20   28   40   
6th     PAS Giannina                    26   9    3    1    35   15   1    6    6    16   23   39   
8th     PAS Giannina                    26   7    2    4    26   16   3    2    8    13   28   34   
4th     PAS Giannina                    26   9    2    2    31   21   4    2    7    17   23   43   
3rd     PAS Giannina                    26   8    2    3    24   13   5    2    6    23   25   43   
5th     PAS Giannina                    26   9    3    1    30   8    2    2    9    14   30   38   
7th     PAS Giannina                    26   6    3    4    24   21   4    3    6    17   23   36   
7th     PAS Giannina                    26   9    1    3    32   20   2    2    9    18   33   36   
4th     PAS Giannina                    26   7    5    1    30   16   5    2    6    20   24   43   
4th     PAS Giannina                    26   7    2    4    27   19   7    1    5    22   23   45   
6th     PAS Giannina                    26   9    1    3    31   18   2    3    8    11   24   37   
5th     PAS Giannina                    26   7    5    1    27   18   4    2    7    21   29   40   
4th     PAS Giannina                    26   7    5    1    29   17   4    5    4    22   22   43   
7th     PAS Giannina                    26   6    3    4    23   18   6    1    6    15   18   40   
7th     PAS Giannina                    26   6    5    2    28   19   4    2    7    19   26   37   
8th     PAS Giannina                    26   7    4    2    26   20   2    4    7    18   27   35   
5th     PAS Giannina                    26   8    2    3    31   19   3    1    9    13   30   36   
7th     PAS Giannina                    26   8    5    0    28   15   2    2    9    20   31   37   
5th     PAS Giannina                    26   6    3    4    27   23   6    3    4    23   22   42   
8th     PAS Giannina                    26   7    4    2    25   13   2    4    7    19   28   35   
9th     PAS Giannina                    26   4    6    3    27   22   4    1    8    16   24   31   
11th    PAS Giannina                    26   5    4    4    19   17   2    3    8    14   26   28   
2nd     PAS Giannina                    26   10   3    0    39   14   2    5    6    20   32   44   
4th     PAS Giannina                    26   7    6    0    35   19   5    1    7    21   26   43   
1st     PAS Giannina                    26   11   0    2    40   20   5    5    3    23   23   53   
3rd     PAS Giannina                    26   10   2    1    28   13   3    3    7    17   27   44   
3rd     PAS Giannina                    26   10   1    2    31   13   3    2    8    21   25   42   
5th     PAS Giannina                    26   10   0    3    31   19   2    4    7    15   26   40   
7th     PAS Giannina                    26   6    4    3    25   22   4    5    4    21   20   39   
4th     PAS Giannina                    26   8    2    3    20   15   4    4    5    27   23   42   
6th     PAS Giannina                    26   8    2    3    35   19   2    4    7    22   26   36   
8th     PAS Giannina                    26   8    3    2    25   15   2    3    8    19   33   36   
12th    PAS Giannina                    26   3    6    4    16   18   4    1    8    20   29   28   
5th     PAS Giannina                    26   8    2    3    27   17   5    2    6    18   27   43   
3rd     PAS Giannina                    26   9    3    1    25   14   4    4    5    23   25   46   
5th     PAS Giannina                    26   9    2    2    28   16   3    3    7    18   28   41   
11th    PAS Giannina                    26   7    2    4    28   24   2    2    9    14   28   31   
6th     PAS Giannina                    26   6    1    6    26   23   4    1    8    24   23   32   
2nd     PAS Giannina                    26   9    2    2    25   13   4    3    6    22   24   44   