1st      PAS Giannina                    26   12   1    0    40   9    9    2    2    26   14   66
1st      PAS Giannina                    26   10   1    2    32   14   8    1    4    25   11   56
3rd     PAS Giannina                    26   9    2    2    27   7    6    1    6    16   16   48
1st      PAS Giannina                    26   12   1    0    35   11   7    4    2    25   13   62
1st      PAS Giannina                    26   11   0    2    31   8    10   1    2    33   9    64
1st      PAS Giannina                    26   12   1    0    39   8    9    2    2    25   13   66
1st      PAS Giannina                    26   11   2    0    33   5    6    4    3    21   11   57
1st      PAS Giannina                    26   12   1    0    40   6    9    2    2    33   14   66
1st      PAS Giannina                    26   12   0    1    37   11   7    5    1    27   14   62
1st      PAS Giannina                    26   12   1    0    30   9    11   2    0    29   8    72
1st      PAS Giannina                    26   13   0    0    39   8    10   2    1    28   10   71
1st      PAS Giannina                    26   13   0    0    37   4    8    3    2    26   14   66
1st      PAS Giannina                    26   10   3    0    38   12   10   2    1    30   13   65
1st      PAS Giannina                    26   10   3    0    30   9    10   2    1    26   7    65
1st      PAS Giannina                    26   11   1    1    32   8    9    2    2    32   14   63
1st      PAS Giannina                    26   10   1    2    31   10   9    4    0    23   7    62
1st      PAS Giannina                    26   11   2    0    31   8    10   3    0    31   12   68
1st      PAS Giannina                    26   12   1    0    33   6    9    3    1    29   11   67
1st      PAS Giannina                    26   10   2    1    29   8    9    3    1    28   10   62
1st      PAS Giannina                    26   10   2    1    38   13   7    4    2    27   14   57
3rd     PAS Giannina                    26   8    3    2    32   15   6    1    6    16   11   46
1st      PAS Giannina                    26   12   0    1    34   9    9    3    1    31   13   66
1st      PAS Giannina                    26   11   2    0    30   8    11   2    0    31   10   70
1st      PAS Giannina                    26   10   3    0    32   10   9    2    2    28   10   62
1st      PAS Giannina                    26   8    3    2    25   12   9    3    1    23   7    57
1st      PAS Giannina                    26   11   1    1    35   9    10   3    0    39   11   67
1st      PAS Giannina                    26   11   1    1    30   8    8    3    2    27   16   61
1st      PAS Giannina                    26   10   2    1    34   15   7    3    3    21   12   56
1st      PAS Giannina                    26   11   2    0    35   8    8    2    3    26   13   61
1st      PAS Giannina                    26   11   2    0    32   7    7    5    1    19   7    61
1st      PAS Giannina                    26   9    3    1    27   8    9    2    2    26   15   59
1st      PAS Giannina                    26   9    2    2    32   8    11   1    1    28   16   63
1st      PAS Giannina                    26   10   2    1    32   12   6    4    3    17   13   54
2nd     PAS Giannina                    26   10   2    1    33   9    8    3    2    25   11   59
1st      PAS Giannina                    26   9    4    0    27   10   10   1    2    35   15   62
1st      PAS Giannina                    26   12   1    0    32   5    8    2    3    25   17   63
1st      PAS Giannina                    26   10   2    1    33   9    8    4    1    22   10   60
1st      PAS Giannina                    26   13   0    0    34   10   7    3    3    27   18   63
1st      PAS Giannina                    26   10   2    1    30   6    9    1    3    32   13   60
1st      PAS Giannina                    26   10   3    0    28   8    6    5    2    24   11   56
1st      PAS Giannina                    26   12   1    0    38   15   10   1    2    30   15   68
1st      PAS Giannina                    26   12   0    1    34   9    8    3    2    27   12   63
2nd     PAS Giannina                    26   9    3    1    38   15   7    4    2    24   14   55
1st      PAS Giannina                    26   9    3    1    26   13   10   2    1    31   13   62
2nd     PAS Giannina                    26   9    4    0    32   11   8    2    3    27   11   57
1st      PAS Giannina                    26   9    3    1    29   11   10   1    2    29   9    61
1st      PAS Giannina                    26   11   1    1    28   9    7    4    2    26   13   59
1st      PAS Giannina                    26   9    3    1    30   14   12   0    1    32   11   66
1st      PAS Giannina                    26   11   1    1    34   9    6    3    4    18   13   55
1st      PAS Giannina                    26   10   1    2    31   13   11   1    1    28   8    65
1st      PAS Giannina                    26   9    3    1    32   12   8    3    2    24   10   57
1st      PAS Giannina                    26   10   3    0    33   15   11   0    2    29   11   66
1st      PAS Giannina                    26   11   0    2    33   15   9    3    1    26   10   63
2nd     PAS Giannina                    26   11   1    1    32   9    6    3    4    23   16   55
1st      PAS Giannina                    26   9    3    1    34   13   8    3    2    25   16   57
2nd     PAS Giannina                    26   9    2    2    28   12   6    5    2    19   11   52
1st      PAS Giannina                    26   12   1    0    35   11   8    2    3    16   12   63
1st      PAS Giannina                    26   13   0    0    40   8    8    2    3    26   12   65
1st      PAS Giannina                    26   13   0    0    38   12   7    4    2    28   11   64
1st      PAS Giannina                    26   12   1    0    41   15   11   1    1    34   13   71
1st      PAS Giannina                    26   10   3    0    29   5    9    2    2    28   11   62
1st      PAS Giannina                    26   12   1    0    32   11   10   2    1    32   10   69
2nd     PAS Giannina                    26   9    2    2    30   14   7    2    4    26   17   52
1st      PAS Giannina                    26   11   1    1    29   9    8    2    3    24   10   60
1st      PAS Giannina                    26   10   1    2    34   15   10   1    2    29   11   62
1st      PAS Giannina                    26   13   0    0    46   10   7    1    5    27   21   61
2nd     PAS Giannina                    26   11   2    0    35   12   6    3    4    21   14   56
1st      PAS Giannina                    26   9    1    3    31   12   7    5    1    23   14   54
2nd     PAS Giannina                    26   9    3    1    26   9    5    4    4    21   16   49
1st      PAS Giannina                    26   9    3    1    28   14   8    2    3    20   12   56
1st      PAS Giannina                    26   9    2    2    28   13   10   3    0    26   9    62
1st      PAS Giannina                    26   10   1    2    27   16   8    3    2    22   11   58
1st      PAS Giannina                    26   10   2    1    31   14   10   2    1    27   9    64
1st      PAS Giannina                    26   11   0    2    32   16   8    4    1    28   14   61
1st      PAS Giannina                    26   8    3    2    31   18   5    6    2    21   15   48
1st      PAS Giannina                    26   11   1    1    30   10   9    3    1    22   6    64
1st      PAS Giannina                    26   11   1    1    36   11   7    3    3    23   16   58
1st      PAS Giannina                    26   9    4    0    34   11   9    3    1    32   9    61
1st      PAS Giannina                    26   10   1    2    37   13   9    4    0    27   9    62
1st      PAS Giannina                    26   12   1    0    36   8    9    1    3    21   14   65
1st      PAS Giannina                    26   12   1    0    38   3    6    4    3    25   14   59
1st      PAS Giannina                    26   12   1    0    39   8    5    6    2    20   13   58
1st      PAS Giannina                    26   13   0    0    37   11   8    2    3    27   17   65
2nd     PAS Giannina                    26   7    4    2    25   17   7    3    3    17   10   49
2nd     PAS Giannina                    26   9    1    3    29   11   6    3    4    25   13   49
1st      PAS Giannina                    26   12   0    1    30   7    10   2    1    25   11   68
1st      PAS Giannina                    26   12   0    1    34   13   8    3    2    19   11   63
2nd     PAS Giannina                    26   13   0    0    36   8    6    2    5    23   13   59
1st      PAS Giannina                    26   12   1    0    30   6    5    3    5    18   16   55
1st      PAS Giannina                    26   12   0    1    35   9    9    3    1    28   11   66
1st      PAS Giannina                    26   11   2    0    30   8    5    4    4    21   17   54
1st      PAS Giannina                    26   12   1    0    43   14   9    3    1    30   14   67
1st      PAS Giannina                    26   11   2    0    32   8    9    2    2    33   12   64
1st      PAS Giannina                    26   13   0    0    38   10   8    3    2    26   14   66
1st      PAS Giannina                    26   9    3    1    26   9    9    0    4    22   13   57
1st      PAS Giannina                    26   11   2    0    27   6    10   2    1    30   10   67
2nd     PAS Giannina                    26   9    4    0    34   14   9    2    2    29   13   60
2nd     PAS Giannina                    26   8    2    3    27   13   8    2    3    29   15   52
1st      PAS Giannina                    26   10   1    2    32   9    8    2    3    28   17   57
1st      PAS Giannina                    26   8    1    4    28   14   9    2    2    29   10   54