2nd     PAS Giannina                    26   9    2    2    37   20   6    3    4    22   25   50
11th    PAS Giannina                    26   4    3    6    22   22   5    0    8    18   22   30
6th     PAS Giannina                    26   7    4    2    32   24   3    4    6    19   24   38
3rd     PAS Giannina                    26   10   0    3    38   25   2    4    7    21   31   40
7th     PAS Giannina                    26   9    3    1    32   15   2    1    10   13   34   37
2nd     PAS Giannina                    26   9    3    1    34   15   5    1    7    22   25   46
10th    PAS Giannina                    26   6    1    6    23   24   4    0    9    12   27   31
5th     PAS Giannina                    26   9    3    1    34   13   3    4    6    13   20   43
8th     PAS Giannina                    26   8    5    0    27   13   1    2    10   15   25   34
2nd     PAS Giannina                    26   9    1    3    29   21   5    2    6    23   31   45
8th     PAS Giannina                    26   7    2    4    26   16   4    2    7    21   27   37
3rd     PAS Giannina                    26   9    3    1    32   20   5    3    5    26   28   48
7th     PAS Giannina                    26   8    2    3    28   16   2    4    7    16   28   36
4th     PAS Giannina                    26   8    1    4    27   21   5    1    7    22   31   41
10th    PAS Giannina                    26   6    4    3    23   21   1    6    6    15   25   31
9th     PAS Giannina                    26   5    2    6    22   25   3    4    6    19   28   30
2nd     PAS Giannina                    26   10   3    0    33   16   3    3    7    20   28   45
3rd     PAS Giannina                    26   9    1    3    26   17   6    1    6    21   20   47
6th     PAS Giannina                    26   7    1    5    24   17   5    2    6    24   23   39
5th     PAS Giannina                    26   8    2    3    35   23   4    1    8    16   25   39
4th     PAS Giannina                    26   9    2    2    30   16   3    2    8    21   24   40
6th     PAS Giannina                    26   8    3    2    31   15   3    3    7    17   24   39
13th     PAS Giannina                    26   6    2    5    24   21   1    3    9    19   38   26
7th     PAS Giannina                    26   6    6    1    28   18   1    6    6    16   26   33
6th     PAS Giannina                    26   7    2    4    27   20   4    2    7    15   22   37
6th     PAS Giannina                    26   5    5    3    30   23   3    6    4    21   26   35
2nd     PAS Giannina                    26   8    4    1    30   19   6    4    3    23   19   50
4th     PAS Giannina                    26   8    2    3    25   13   4    4    5    20   20   42
9th     PAS Giannina                    26   5    4    4    24   22   3    5    5    25   31   33
10th    PAS Giannina                    26   6    4    3    28   19   3    2    8    18   31   33
9th     PAS Giannina                    26   6    2    5    30   27   3    3    7    16   21   32
8th     PAS Giannina                    26   7    2    4    28   18   2    4    7    19   27   33
8th     PAS Giannina                    26   7    4    2    30   21   3    2    8    18   31   36
10th    PAS Giannina                    26   7    3    3    33   22   2    2    9    20   30   32
7th     PAS Giannina                    26   6    4    3    25   17   3    4    6    23   25   35
12th    PAS Giannina                    26   6    2    5    28   27   3    0    10   17   32   29
4th     PAS Giannina                    26   7    3    3    26   15   4    4    5    19   20   40
7th     PAS Giannina                    26   5    4    4    23   17   4    4    5    20   23   35
4th     PAS Giannina                    26   8    2    3    31   18   4    1    8    17   29   39
2nd     PAS Giannina                    26   8    5    0    31   13   4    3    6    17   24   44
2nd     PAS Giannina                    26   8    1    4    33   21   6    4    3    26   24   47
12th    PAS Giannina                    26   6    2    5    28   23   2    3    8    15   27   29
7th     PAS Giannina                    26   7    1    5    28   27   4    3    6    19   24   37
3rd     PAS Giannina                    26   10   1    2    32   13   5    1    7    19   21   47
6th     PAS Giannina                    26   7    5    1    33   21   4    2    7    22   24   40
12th    PAS Giannina                    26   6    3    4    28   21   1    4    8    22   30   28
4th     PAS Giannina                    26   7    4    2    42   28   4    1    8    22   28   38
4th     PAS Giannina                    26   6    6    1    28   18   4    3    6    24   21   39
14th     PAS Giannina                    26   4    6    3    30   25   1    2    10   12   32   23
9th     PAS Giannina                    26   6    3    4    29   20   3    4    6    18   22   34
9th     PAS Giannina                    26   7    3    3    27   19   1    3    9    18   29   30
3rd     PAS Giannina                    26   10   0    3    31   14   3    4    6    20   27   43
5th     PAS Giannina                    26   7    4    2    29   16   4    4    5    29   26   41
4th     PAS Giannina                    26   7    4    2    26   20   5    4    4    25   21   44
7th     PAS Giannina                    26   9    0    4    32   22   2    3    8    18   32   36
2nd     PAS Giannina                    26   10   1    2    30   16   4    3    6    13   17   46
3rd     PAS Giannina                    26   7    5    1    30   18   4    2    7    16   28   40
8th     PAS Giannina                    26   5    6    2    21   17   4    2    7    22   27   35
3rd     PAS Giannina                    26   10   2    1    32   15   4    2    7    17   29   46
8th     PAS Giannina                    26   8    4    1    31   19   1    3    9    17   31   34
6th     PAS Giannina                    26   8    1    4    28   19   3    4    6    16   20   38
6th     PAS Giannina                    26   8    5    0    38   19   3    2    8    17   24   40
8th     PAS Giannina                    26   6    3    4    31   23   3    4    6    21   25   34
12th    PAS Giannina                    26   7    3    3    29   17   1    1    11   16   34   28
10th    PAS Giannina                    26   7    3    3    25   19   1    4    8    17   33   31
5th     PAS Giannina                    26   7    4    2    39   26   4    4    5    21   24   41
3rd     PAS Giannina                    26   8    3    2    32   16   4    3    6    20   26   42
5th     PAS Giannina                    26   10   1    2    31   15   1    5    7    16   27   39
8th     PAS Giannina                    26   7    4    2    27   17   1    5    7    22   36   33
3rd     PAS Giannina                    26   8    3    2    38   23   3    3    7    24   32   39
8th     PAS Giannina                    26   9    3    1    43   20   1    1    11   16   32   34
9th     PAS Giannina                    26   6    4    3    33   27   2    5    6    20   29   33
6th     PAS Giannina                    26   8    3    2    28   20   2    4    7    23   33   37
9th     PAS Giannina                    26   6    4    3    25   18   3    5    5    17   19   36
6th     PAS Giannina                    26   7    2    4    27   23   5    1    7    22   28   39
5th     PAS Giannina                    26   7    5    1    30   17   2    5    6    17   24   37
8th     PAS Giannina                    26   6    4    3    34   26   3    2    8    23   28   33
2nd     PAS Giannina                    26   10   1    2    25   9    4    5    4    26   28   48
5th     PAS Giannina                    26   8    2    3    34   28   4    2    7    22   30   40
13th     PAS Giannina                    26   4    3    6    23   25   2    3    8    16   25   24
10th    PAS Giannina                    26   6    5    2    30   20   2    3    8    16   29   32
3rd     PAS Giannina                    26   9    3    1    32   21   4    2    7    20   31   44
12th    PAS Giannina                    26   3    5    5    26   26   2    4    7    17   27   24
6th     PAS Giannina                    26   7    2    4    29   17   3    4    6    17   27   36
8th     PAS Giannina                    26   5    2    6    23   27   5    2    6    22   24   34
9th     PAS Giannina                    26   6    4    3    23   18   2    5    6    24   31   33
12th    PAS Giannina                    26   7    2    4    27   23   0    6    7    12   23   29
3rd     PAS Giannina                    26   9    4    0    38   20   3    3    7    20   32   43
5th     PAS Giannina                    26   6    4    3    24   14   5    1    7    24   29   38
8th     PAS Giannina                    26   6    4    3    30   23   4    2    7    23   29   36
7th     PAS Giannina                    26   6    2    5    25   23   5    2    6    21   24   37
1st     PAS Giannina                    26   7    5    1    34   21   7    5    1    30   22   52
4th     PAS Giannina                    26   7    1    5    31   19   5    4    4    24   24   41
10th    PAS Giannina                    26   5    2    6    27   22   3    3    7    19   26   29
2nd     PAS Giannina                    26   10   1    2    32   15   3    5    5    21   21   45
5th     PAS Giannina                    26   9    2    2    32   18   3    3    7    20   30   41
4th     PAS Giannina                    26   7    3    3    33   27   4    5    4    19   22   41
5th     PAS Giannina                    26   4    4    5    27   25   7    1    5    24   21   38
11th    PAS Giannina                    26   2    6    5    24   29   5    4    4    23   29   31
8th     PAS Giannina                    26   8    3    2    31   19   2    1    10   16   31   34