1st      PAS Giannina            26   12   1    0    36   9    6    2    5    20   13   57
1st      PAS Giannina            26   12   1    0    29   7    8    3    2    29   12   64
1st      PAS Giannina            26   9    2    2    23   9    10   0    3    31   15   59
1st      PAS Giannina            26   10   1    2    27   9    7    5    1    27   13   57
1st      PAS Giannina            26   10   3    0    35   15   10   2    1    25   8    65
1st      PAS Giannina            26   11   1    1    38   10   6    5    2    20   17   57
2nd     PAS Giannina            26   10   2    1    38   13   7    4    2    27   13   57
1st      PAS Giannina            26   11   0    2    30   11   9    2    2    24   13   62
1st      PAS Giannina            26   9    2    2    25   11   8    3    2    19   9    56
2nd     PAS Giannina            26   9    2    2    29   16   11   0    2    29   9    62
1st      PAS Giannina            26   9    2    2    22   12   8    3    2    23   12   56
2nd     PAS Giannina            26   11   2    0    33   4    6    5    2    30   16   58
1st      PAS Giannina            26   13   0    0    37   4    8    2    3    14   7    65
1st      PAS Giannina            26   7    4    2    24   15   8    1    4    25   13   50
1st      PAS Giannina            26   11   1    1    34   15   9    2    2    25   11   63
1st      PAS Giannina            26   10   2    1    33   11   7    4    2    27   16   57
1st      PAS Giannina            26   12   1    0    39   9    5    6    2    20   16   58
1st      PAS Giannina            26   10   2    1    39   16   9    1    3    27   14   60
2nd     PAS Giannina            26   7    4    2    25   14   7    2    4    19   11   48
1st      PAS Giannina            26   9    3    1    31   17   7    4    2    30   19   55
1st      PAS Giannina            26   10   1    2    35   16   10   0    3    24   10   61
1st      PAS Giannina            26   9    3    1    31   12   10   1    2    26   12   61
2nd     PAS Giannina            26   9    3    1    35   14   6    3    4    19   12   51
2nd     PAS Giannina            26   9    2    2    30   17   8    1    4    20   13   54
1st      PAS Giannina            26   12   1    0    33   5    9    3    1    31   12   67
2nd     PAS Giannina            26   11   1    1    36   14   6    3    4    17   11   55
1st      PAS Giannina            26   10   3    0    30   8    11   2    0    34   14   68
1st      PAS Giannina            26   10   2    1    39   18   7    4    2    20   12   57
1st      PAS Giannina            26   11   2    0    36   12   8    1    4    19   11   60
1st      PAS Giannina            26   11   1    1    29   7    7    4    2    26   11   59
1st      PAS Giannina            26   9    3    1    29   12   9    3    1    28   14   60
1st      PAS Giannina            26   12   1    0    29   9    5    7    1    22   14   59
2nd     PAS Giannina            26   7    2    4    24   13   8    3    2    30   19   50
1st      PAS Giannina            26   11   1    1    29   10   7    4    2    18   8    59
1st      PAS Giannina            26   13   0    0    33   9    7    4    2    24   13   64
1st      PAS Giannina            26   8    3    2    29   11   8    4    1    20   8    55
1st      PAS Giannina            26   9    2    2    33   19   7    2    4    21   16   52
1st      PAS Giannina            26   9    3    1    32   14   8    2    3    22   14   56
2nd     PAS Giannina            26   10   1    2    29   8    6    3    4    26   18   52
1st      PAS Giannina            26   10   1    2    28   16   11   1    1    24   9    65
1st      PAS Giannina            26   11   2    0    36   9    7    3    3    23   12   59
1st      PAS Giannina            26   12   0    1    34   9    6    4    3    23   14   58
1st      PAS Giannina            26   11   0    2    32   10   9    3    1    37   16   63
1st      PAS Giannina            26   9    2    2    25   13   10   3    0    31   11   62
2nd     PAS Giannina            26   13   0    0    30   10   2    7    4    18   19   52
1st      PAS Giannina            26   12   1    0    41   9    7    3    3    20   10   61
2nd     PAS Giannina            26   8    5    0    29   11   8    3    2    29   16   56
1st      PAS Giannina            26   11   2    0    33   4    6    2    5    23   15   55
2nd     PAS Giannina            26   12   0    1    37   10   7    5    1    26   14   62
2nd     PAS Giannina            26   8    3    2    28   16   6    3    4    20   16   48
1st      PAS Giannina            26   11   2    0    29   7    6    5    2    25   13   58
1st      PAS Giannina            26   11   2    0    27   7    10   2    1    32   10   67
1st      PAS Giannina            26   12   1    0    31   7    10   3    0    30   9    70
1st      PAS Giannina            26   11   1    1    27   8    6    5    2    15   8    57
1st      PAS Giannina            26   10   1    2    35   11   9    0    4    30   15   58
1st      PAS Giannina            26   11   1    1    33   10   8    5    0    23   10   63
2nd     PAS Giannina            26   11   2    0    34   8    7    3    3    32   18   59
1st      PAS Giannina            26   11   2    0    39   12   6    5    2    21   14   58
1st      PAS Giannina            26   11   1    1    35   7    8    3    2    30   11   61
1st      PAS Giannina            26   13   0    0    33   9    9    2    2    27   13   68
2nd     PAS Giannina            26   8    1    4    25   13   5    6    2    21   15   46
1st      PAS Giannina            26   10   3    0    37   16   10   1    2    27   14   64
1st      PAS Giannina            26   10   1    2    34   19   8    4    1    23   9    59
1st      PAS Giannina            26   10   2    1    31   9    7    3    3    25   15   56
1st      PAS Giannina            26   10   2    1    27   8    7    3    3    15   11   56
1st      PAS Giannina            26   11   0    2    32   15   7    5    1    19   10   59
1st      PAS Giannina            26   10   3    0    36   15   9    4    0    31   11   64
2nd     PAS Giannina            26   8    3    2    25   10   7    5    1    19   10   53
1st      PAS Giannina            26   10   3    0    33   9    5    4    4    19   15   52
1st      PAS Giannina            26   9    3    1    29   10   9    3    1    24   15   60
1st      PAS Giannina            26   13   0    0    41   13   6    4    3    24   19   61
2nd     PAS Giannina            26   8    5    0    33   13   7    5    1    27   15   55
1st      PAS Giannina            26   11   1    1    29   10   8    4    1    22   10   62
1st      PAS Giannina            26   10   2    1    31   11   11   2    0    29   8    67
2nd     PAS Giannina            26   9    3    1    30   15   7    4    2    26   12   55
1st      PAS Giannina            26   11   2    0    43   9    8    2    3    21   13   61
1st      PAS Giannina            26   11   2    0    26   9    12   0    1    24   9    71
1st      PAS Giannina            26   11   2    0    28   7    9    3    1    24   9    65
1st      PAS Giannina            26   11   2    0    28   9    8    1    4    26   17   60
1st      PAS Giannina            26   9    3    1    38   22   6    7    0    17   9    55
1st      PAS Giannina            26   12   0    1    33   5    8    2    3    27   16   62
1st      PAS Giannina            26   12   1    0    37   10   8    4    1    26   12   65
1st      PAS Giannina            26   11   1    1    26   8    6    3    4    24   16   55
2nd     PAS Giannina            26   8    3    2    29   12   9    2    2    27   12   56
1st      PAS Giannina            26   10   3    0    34   12   7    1    5    19   11   55
1st      PAS Giannina            26   7    6    0    23   12   7    6    0    29   14   54
2nd     PAS Giannina            26   10   1    2    22   8    4    6    3    26   17   49
1st      PAS Giannina            26   11   2    0    32   9    7    4    2    28   19   60
1st      PAS Giannina            26   11   1    1    33   10   8    1    4    23   15   59
1st      PAS Giannina            26   8    4    1    34   13   6    4    3    23   14   50
1st      PAS Giannina            26   8    3    2    27   13   9    2    2    31   18   56
1st      PAS Giannina            26   9    2    2    34   17   6    3    4    18   13   50
1st      PAS Giannina            26   11   0    2    28   11   9    3    1    29   11   63
2nd     PAS Giannina            26   10   1    2    34   9    6    5    2    22   14   54
1st      PAS Giannina            26   9    3    1    32   14   11   0    2    24   9    63
1st      PAS Giannina            26   9    2    2    27   10   9    1    3    31   20   57
3rd     PAS Giannina            26   8    2    3    28   14   6    3    4    22   14   47
2nd     PAS Giannina            26   10   1    2    29   16   6    3    4    20   15   52
1st      PAS Giannina            26   12   1    0    39   13   7    2    4    22   16   60
1st      PAS Giannina            26   12   0    1    36   9    7    3    3    30   16   60