7th     PAS Giannina                    26   6    4    3    28   21   4    1    8    21   29   35
9th     PAS Giannina                    26   7    2    4    29   20   3    2    8    18   29   34
12th    PAS Giannina                    26   5    3    5    26   32   2    5    6    19   28   29
10th    PAS Giannina                    26   7    0    6    23   22   3    2    8    21   33   32
10th    PAS Giannina                    26   7    2    4    26   24   3    0    10   15   36   32
8th     PAS Giannina                    26   5    3    5    23   23   5    2    6    22   28   35
10th    PAS Giannina                    26   7    3    3    27   23   2    1    10   19   32   31
12th    PAS Giannina                    26   4    3    6    36   39   3    2    8    19   32   26
6th     PAS Giannina                    26   5    2    6    27   30   8    0    5    25   25   41
4th     PAS Giannina                    26   7    4    2    27   20   6    1    6    20   23   44
10th    PAS Giannina                    26   6    4    3    25   20   2    4    7    21   28   32
13th    PAS Giannina                    26   4    4    5    29   31   2    5    6    21   31   27
5th     PAS Giannina                    26   7    4    2    27   17   4    3    6    21   28   40
12th    PAS Giannina                    26   4    2    7    19   23   3    2    8    22   36   25
5th     PAS Giannina                    26   9    0    4    25   20   3    3    7    22   30   39
11th    PAS Giannina                    26   2    5    6    28   37   5    1    7    25   32   27
14th    PAS Giannina                    26   4    2    7    27   27   2    1    10   18   27   21
8th     PAS Giannina                    26   6    4    3    27   26   3    4    6    21   30   35
3rd     PAS Giannina                    26   9    2    2    34   24   3    6    4    28   31   44
11th    PAS Giannina                    26   5    2    6    27   30   1    7    5    21   31   27
10th    PAS Giannina                    26   4    6    3    26   23   3    2    8    14   31   29
3rd     PAS Giannina                    26   5    4    4    22   21   7    2    4    26   23   42
12th    PAS Giannina                    26   3    4    6    21   25   2    5    6    18   27   24
8th     PAS Giannina                    26   7    1    5    26   23   3    4    6    24   34   35
9th     PAS Giannina                    26   7    1    5    29   25   2    5    6    15   28   33
6th     PAS Giannina                    26   6    4    3    24   20   3    3    7    26   35   34
2nd     PAS Giannina                    26   9    0    4    36   22   5    2    6    18   23   44
2nd     PAS Giannina                    26   9    2    2    34   26   5    2    6    29   25   46
7th     PAS Giannina                    26   5    5    3    31   31   3    6    4    25   28   35
8th     PAS Giannina                    26   4    3    6    20   22   5    3    5    29   27   33
5th     PAS Giannina                    26   6    4    3    26   19   4    3    6    23   28   37
10th    PAS Giannina                    26   5    3    5    29   35   2    4    7    19   29   28
7th     PAS Giannina                    26   7    4    2    34   23   3    2    8    21   31   36
7th     PAS Giannina                    26   5    3    5    25   25   5    4    4    28   26   37
11th    PAS Giannina                    26   4    5    4    22   23   3    2    8    21   29   28
13th    PAS Giannina                    26   2    4    7    25   33   3    3    7    17   35   22
11th    PAS Giannina                    26   6    6    1    32   16   1    4    8    21   29   31
10th    PAS Giannina                    26   6    1    6    32   25   3    4    6    20   25   32
4th     PAS Giannina                    26   7    4    2    27   20   4    3    6    23   31   40
9th     PAS Giannina                    26   5    2    6    32   27   5    2    6    27   33   34
10th    PAS Giannina                    26   5    4    4    30   31   3    3    7    23   30   31
9th     PAS Giannina                    26   7    1    5    30   24   3    3    7    22   28   34
8th     PAS Giannina                    26   5    5    3    29   25   3    4    6    23   30   33
10th    PAS Giannina                    26   7    2    4    26   18   2    6    5    22   30   35
12th    PAS Giannina                    26   6    1    6    31   28   3    3    7    18   32   31
12th    PAS Giannina                    26   5    4    4    22   22   1    3    9    24   36   25
6th     PAS Giannina                    26   10   2    1    37   19   1    4    8    18   32   39
10th    PAS Giannina                    26   6    2    5    22   30   3    0    10   20   31   29
9th     PAS Giannina                    26   8    2    3    31   18   2    2    9    23   31   34
10th    PAS Giannina                    26   7    1    5    30   26   2    3    8    23   33   31
13th    PAS Giannina                    26   7    3    3    27   18   1    2    10   20   35   29
9th     PAS Giannina                    26   10   1    2    39   22   0    5    8    17   36   36
13th    PAS Giannina                    26   4    4    5    22   22   2    2    9    24   39   24
6th     PAS Giannina                    26   6    2    5    26   23   5    2    6    24   24   37
8th     PAS Giannina                    26   6    1    6    27   29   5    0    8    26   31   34
11th    PAS Giannina                    26   4    5    4    25   23   3    2    8    12   25   28
3rd     PAS Giannina                    26   7    4    2    26   19   3    6    4    22   23   40
9th     PAS Giannina                    26   5    4    4    23   23   3    3    7    25   38   31
14th    PAS Giannina                    26   3    4    6    25   31   3    2    8    19   28   24
7th     PAS Giannina                    26   6    2    5    29   24   6    1    6    20   23   39
9th     PAS Giannina                    26   7    2    4    21   15   2    1    10   16   33   30
6th     PAS Giannina                    26   7    2    4    24   19   3    4    6    23   29   36
8th     PAS Giannina                    26   8    2    3    27   24   2    3    8    21   29   35
14th    PAS Giannina                    26   3    6    4    25   26   0    2    11   12   27   17
12th    PAS Giannina                    26   5    4    4    29   31   1    4    8    16   29   26
7th     PAS Giannina                    26   5    5    3    24   20   4    3    6    24   29   35
12th    PAS Giannina                    26   5    2    6    24   23   3    4    6    16   26   30
10th    PAS Giannina                    26   4    4    5    25   23   4    3    6    24   25   31
11th    PAS Giannina                    26   7    1    5    22   19   1    2    10   14   31   27
5th     PAS Giannina                    26   4    5    4    25   23   7    2    4    28   20   40
10th    PAS Giannina                    26   8    1    4    35   28   3    2    8    15   26   36
11th    PAS Giannina                    26   7    3    3    30   22   1    2    10   24   39   29
13th    PAS Giannina                    26   5    4    4    28   29   2    2    9    17   31   27
8th     PAS Giannina                    26   7    3    3    30   26   1    7    5    20   27   34
8th     PAS Giannina                    26   5    3    5    28   24   6    1    6    25   28   37
11th    PAS Giannina                    26   6    1    6    27   29   3    2    8    21   29   30
3rd     PAS Giannina                    26   8    4    1    29   18   4    6    3    21   21   46
10th    PAS Giannina                    26   1    6    6    23   33   6    4    3    26   23   31
10th    PAS Giannina                    26   9    1    3    32   20   0    4    9    17   35   32
11th    PAS Giannina                    26   5    5    3    27   25   1    6    6    20   27   29
4th     PAS Giannina                    26   7    3    3    23   19   6    2    5    26   24   44
13th    PAS Giannina                    26   2    5    6    30   31   3    4    6    20   27   24
5th     PAS Giannina                    26   8    2    3    29   19   4    2    7    22   26   40
8th     PAS Giannina                    26   4    3    6    23   22   2    6    5    26   32   27
12th    PAS Giannina                    26   7    2    4    27   24   2    2    9    20   32   31
12th    PAS Giannina                    26   5    3    5    27   27   2    0    11   17   33   24
6th     PAS Giannina                    26   7    3    3    29   25   3    4    6    14   20   37
9th     PAS Giannina                    26   6    6    1    27   18   2    2    9    16   35   32
6th     PAS Giannina                    26   7    2    4    27   23   5    1    7    24   24   39
7th     PAS Giannina                    26   7    2    4    30   25   3    3    7    20   26   35
12th    PAS Giannina                    26   7    3    3    32   28   0    4    9    17   32   28
11th    PAS Giannina                    26   5    1    7    20   25   4    2    7    19   23   30
9th     PAS Giannina                    26   5    2    6    28   32   5    1    7    19   26   33
3rd     PAS Giannina                    26   8    3    2    31   24   5    3    5    24   25   45
14th    PAS Giannina                    26   2    3    8    20   33   3    4    6    21   23   22
4th     PAS Giannina                    26   5    4    4    29   26   7    2    4    24   21   42
11th    PAS Giannina                    26   5    2    6    26   31   3    4    6    22   28   30
13th    PAS Giannina                    26   4    3    6    19   23   3    2    8    17   37   26
9th     PAS Giannina                    26   7    2    4    36   30   3    2    8    20   29   34
13th    PAS Giannina                    26   6    3    4    33   23   0    4    9    15   30   25