1st     PAS Giannina                    26   10   2    1    29   9    7    4    2    29   19   57   
1st     PAS Giannina                    26   10   2    1    30   8    7    4    2    19   12   57   
1st     PAS Giannina                    26   10   3    0    31   12   8    2    3    24   12   59   
1st     PAS Giannina                    26   12   1    0    30   6    10   1    2    21   8    68   
1st     PAS Giannina                    26   9    2    2    25   11   8    1    4    27   15   54   
1st     PAS Giannina                    26   11   1    1    31   12   7    5    1    21   11   60   
1st     PAS Giannina                    26   10   2    1    31   10   10   3    0    36   13   65   
1st     PAS Giannina                    26   11   2    0    30   6    10   0    3    30   14   65   
1st     PAS Giannina                    26   9    2    2    23   13   8    3    2    27   12   56   
1st     PAS Giannina                    26   12   0    1    32   9    8    3    2    25   12   63   
1st     PAS Giannina                    26   11   0    2    31   11   11   0    2    36   14   66   
1st     PAS Giannina                    26   9    3    1    32   12   9    3    1    26   7    60   
2nd     PAS Giannina                    26   10   1    2    25   9    4    4    5    16   15   47   
2nd     PAS Giannina                    26   10   0    3    30   13   9    2    2    22   9    59   
1st     PAS Giannina                    26   12   0    1    29   8    7    6    0    28   15   63   
1st     PAS Giannina                    26   9    2    2    31   10   9    2    2    24   14   58   
2nd     PAS Giannina                    26   12   1    0    31   9    5    3    5    22   18   55   
1st     PAS Giannina                    26   11   1    1    36   10   8    1    4    23   14   59   
2nd     PAS Giannina                    26   10   2    1    31   8    8    0    5    21   15   56   
1st     PAS Giannina                    26   10   3    0    39   12   6    4    3    20   17   55   
1st     PAS Giannina                    26   12   1    0    25   6    10   1    2    32   12   68   
1st     PAS Giannina                    26   10   3    0    24   6    11   2    0    32   12   68   
1st     PAS Giannina                    26   10   3    0    30   12   8    3    2    19   9    60   
1st     PAS Giannina                    26   10   2    1    28   12   6    3    4    26   17   53   
1st     PAS Giannina                    26   11   1    1    32   10   9    1    3    32   11   62   
2nd     PAS Giannina                    26   10   3    0    30   6    5    1    7    18   14   49   
1st     PAS Giannina                    26   11   2    0    36   7    10   2    1    27   6    67   
1st     PAS Giannina                    26   11   1    1    34   14   10   3    0    30   8    67   
1st     PAS Giannina                    26   10   1    2    26   11   7    2    4    23   14   54   
1st     PAS Giannina                    26   9    3    1    27   4    6    3    4    23   17   51   
1st     PAS Giannina                    26   11   2    0    30   9    9    2    2    31   14   64   
1st     PAS Giannina                    26   10   2    1    23   8    9    0    4    26   14   59   
1st     PAS Giannina                    26   11   2    0    30   6    8    3    2    27   12   62   
1st     PAS Giannina                    26   10   3    0    32   11   7    3    3    25   15   57   
1st     PAS Giannina                    26   9    2    2    27   11   8    4    1    30   14   57   
1st     PAS Giannina                    26   8    4    1    31   15   6    4    3    23   15   50   
2nd     PAS Giannina                    26   8    4    1    31   16   7    5    1    26   12   54   
1st     PAS Giannina                    26   9    2    2    31   13   5    5    3    24   18   49   
1st     PAS Giannina                    26   11   2    0    33   7    10   0    3    27   15   65   
1st     PAS Giannina                    26   11   2    0    32   8    8    2    3    26   17   61   
1st     PAS Giannina                    26   9    3    1    27   10   9    2    2    28   12   59   
2nd     PAS Giannina                    26   8    4    1    30   11   8    3    2    26   11   55   
1st     PAS Giannina                    26   11   1    1    35   7    7    3    3    20   12   58   
1st     PAS Giannina                    26   9    2    2    28   10   11   1    1    30   11   63   
2nd     PAS Giannina                    26   10   2    1    30   8    5    5    3    22   12   52   
1st     PAS Giannina                    26   11   2    0    34   12   9    3    1    28   13   65   
1st     PAS Giannina                    26   9    3    1    31   10   6    4    3    28   18   52   
1st     PAS Giannina                    26   10   2    1    35   17   8    4    1    20   6    60   
3rd     PAS Giannina                    26   8    2    3    27   13   7    3    3    24   7    50   
1st     PAS Giannina                    26   7    4    2    24   13   11   1    1    30   12   59   
1st     PAS Giannina                    26   8    4    1    22   5    9    3    1    35   13   58   
1st     PAS Giannina                    26   12   0    1    32   6    6    5    2    17   10   59   
1st     PAS Giannina                    26   12   0    1    35   11   6    6    1    23   14   60   
1st     PAS Giannina                    26   10   3    0    24   6    7    4    2    21   13   58   
1st     PAS Giannina                    26   11   1    1    41   10   7    3    3    30   14   58   
1st     PAS Giannina                    26   12   1    0    32   5    6    6    1    29   18   61   
1st     PAS Giannina                    26   11   2    0    30   10   8    2    3    24   13   61   
1st     PAS Giannina                    26   12   1    0    37   5    10   2    1    21   9    69   
2nd     PAS Giannina                    26   9    4    0    32   9    7    2    4    26   22   54   
1st     PAS Giannina                    26   11   1    1    36   8    3    4    6    18   18   47   
2nd     PAS Giannina                    26   11   1    1    30   6    5    4    4    21   19   53   
2nd     PAS Giannina                    26   9    4    0    22   6    7    4    2    28   13   56   
1st     PAS Giannina                    26   13   0    0    37   6    6    1    6    22   15   58   
1st     PAS Giannina                    26   8    3    2    31   13   11   1    1    22   9    61   
1st     PAS Giannina                    26   11   2    0    32   11   8    4    1    25   13   63   
2nd     PAS Giannina                    26   10   3    0    36   13   6    5    2    25   15   56   
1st     PAS Giannina                    26   10   3    0    31   7    9    2    2    27   13   62   
2nd     PAS Giannina                    26   11   2    0    36   7    5    1    7    23   21   51   
1st     PAS Giannina                    26   11   1    1    29   9    11   2    0    32   12   69   
1st     PAS Giannina                    26   11   2    0    34   8    4    4    5    20   16   51   
1st     PAS Giannina                    26   11   1    1    35   11   9    2    2    30   12   63   
1st     PAS Giannina                    26   12   1    0    31   12   10   2    1    30   14   69   
1st     PAS Giannina                    26   12   0    1    35   8    8    2    3    23   15   62   
1st     PAS Giannina                    26   11   2    0    28   7    8    3    2    25   12   62   
1st     PAS Giannina                    26   7    2    4    23   13   11   2    0    28   10   58   
2nd     PAS Giannina                    26   9    2    2    34   17   6    1    6    22   20   48   
3rd     PAS Giannina                    26   4    5    4    24   20   8    4    1    24   8    45   
2nd     PAS Giannina                    26   8    3    2    22   8    6    2    5    24   15   47   
1st     PAS Giannina                    26   12   1    0    39   12   10   3    0    30   11   70   
1st     PAS Giannina                    26   10   3    0    31   13   11   0    2    25   8    66   
2nd     PAS Giannina                    26   10   0    3    24   11   9    2    2    29   13   59   
1st     PAS Giannina                    26   7    6    0    35   14   11   2    0    31   10   62   
1st     PAS Giannina                    26   12   1    0    29   8    10   1    2    23   11   68   
1st     PAS Giannina                    26   11   2    0    33   9    9    4    0    28   9    66   
1st     PAS Giannina                    26   9    3    1    30   11   9    2    2    24   10   59   
1st     PAS Giannina                    26   10   3    0    36   12   10   1    2    25   9    64   
1st     PAS Giannina                    26   12   1    0    33   7    8    3    2    25   11   64   
1st     PAS Giannina                    26   9    4    0    37   17   9    4    0    30   12   62   
1st     PAS Giannina                    26   11   1    1    30   7    6    4    3    13   10   56   
2nd     PAS Giannina                    26   11   2    0    29   5    8    2    3    20   9    61   
1st     PAS Giannina                    26   8    4    1    33   18   4    7    2    17   13   47   
1st     PAS Giannina                    26   10   1    2    29   11   6    2    5    14   9    51   
2nd     PAS Giannina                    26   10   2    1    32   11   6    7    0    23   10   57   
1st     PAS Giannina                    26   10   1    2    29   13   7    2    4    22   18   54   
1st     PAS Giannina                    26   11   2    0    26   7    11   2    0    26   6    70   
1st     PAS Giannina                    26   10   2    1    35   13   8    2    3    24   13   58   
2nd     PAS Giannina                    26   9    3    1    26   8    6    3    4    25   16   51   
1st     PAS Giannina                    26   10   2    1    30   10   7    5    1    25   10   58   
1st     PAS Giannina                    26   12   1    0    28   8    9    2    2    32   16   66   
1st     PAS Giannina                    26   11   1    1    30   5    10   2    1    28   11   66