1st     PAS Giannina                    26   11   2    0    42   9    6    2    5    25   18   55
1st     PAS Giannina                    26   12   1    0    37   10   8    4    1    28   15   65
1st     PAS Giannina                    26   11   0    2    32   8    10   1    2    39   16   64
1st     PAS Giannina                    26   13   0    0    42   11   10   3    0    36   13   72
1st     PAS Giannina                    26   12   0    1    46   10   10   1    2    35   10   67
1st     PAS Giannina                    26   11   0    2    32   9    10   2    1    30   11   65
1st     PAS Giannina                    26   9    3    1    33   18   11   1    1    35   16   64
1st     PAS Giannina                    26   10   2    1    39   13   12   0    1    36   13   68
2nd     PAS Giannina                    26   11   1    1    39   12   9    3    1    30   14   64
1st     PAS Giannina                    26   10   3    0    38   15   12   0    1    45   16   69
1st     PAS Giannina                    26   13   0    0    41   6    8    2    3    32   19   65
1st     PAS Giannina                    26   12   1    0    42   13   11   1    1    29   9    71
1st     PAS Giannina                    26   10   1    2    34   7    8    2    3    33   15   57
1st     PAS Giannina                    26   12   1    0    42   16   11   1    1    34   11   71
1st     PAS Giannina                    26   10   1    2    38   15   11   0    2    37   13   64
1st     PAS Giannina                    26   10   3    0    35   14   10   0    3    32   19   63
1st     PAS Giannina                    26   10   2    1    34   11   10   1    2    32   13   63
1st     PAS Giannina                    26   11   2    0    36   15   12   1    0    47   10   72
1st     PAS Giannina                    26   12   0    1    33   9    4    8    1    23   17   56
1st     PAS Giannina                    26   11   0    2    36   17   11   2    0    33   11   68
1st     PAS Giannina                    26   11   2    0    39   13   12   1    0    40   10   72
1st     PAS Giannina                    26   11   2    0    32   8    11   1    1    35   14   69
1st     PAS Giannina                    26   10   2    1    26   14   11   1    1    40   9    66
1st     PAS Giannina                    26   12   1    0    33   11   12   1    0    34   12   74
1st     PAS Giannina                    26   12   1    0    41   15   11   2    0    31   13   72
1st     PAS Giannina                    26   11   2    0    35   15   12   1    0    43   17   72
1st     PAS Giannina                    26   9    4    0    32   14   11   2    0    34   11   66
1st     PAS Giannina                    26   12   1    0    37   11   9    1    3    39   18   65
1st     PAS Giannina                    26   12   0    1    44   15   10   1    2    34   19   67
1st     PAS Giannina                    26   9    4    0    35   14   8    2    3    28   17   57
1st     PAS Giannina                    26   10   2    1    34   16   11   0    2    39   12   65
1st     PAS Giannina                    26   13   0    0    38   10   11   0    2    46   25   72
1st     PAS Giannina                    26   12   0    1    33   7    10   1    2    29   14   67
1st     PAS Giannina                    26   12   0    1    34   8    11   0    2    29   11   69
1st     PAS Giannina                    26   10   3    0    39   14   9    1    3    30   15   61
1st     PAS Giannina                    26   11   2    0    39   12   11   1    1    34   9    69
1st     PAS Giannina                    26   11   2    0    41   14   13   0    0    39   10   74
1st     PAS Giannina                    26   10   3    0    39   12   11   1    1    39   8    67
1st     PAS Giannina                    26   10   2    1    41   15   9    1    3    35   16   60
1st     PAS Giannina                    26   11   0    2    40   13   9    3    1    33   10   63
1st     PAS Giannina                    26   11   2    0    41   13   9    1    3    35   19   63
1st     PAS Giannina                    26   9    4    0    31   15   12   0    1    28   9    67
1st     PAS Giannina                    26   9    4    0    34   14   10   1    2    36   14   62
1st     PAS Giannina                    26   11   1    1    37   10   10   1    2    35   14   65
1st     PAS Giannina                    26   11   1    1    42   14   9    3    1    28   11   64
1st     PAS Giannina                    26   10   2    1    38   14   8    3    2    34   16   59
1st     PAS Giannina                    26   11   2    0    35   12   8    4    1    28   10   63
1st     PAS Giannina                    26   10   3    0    40   13   8    1    4    29   17   58
1st     PAS Giannina                    26   11   2    0    34   8    8    4    1    37   17   63
1st     PAS Giannina                    26   11   1    1    33   9    10   1    2    31   15   65
1st     PAS Giannina                    26   10   2    1    36   12   10   1    2    36   14   63
1st     PAS Giannina                    26   11   2    0    33   10   10   3    0    47   17   68
1st     PAS Giannina                    26   12   0    1    41   14   11   1    1    40   14   70
1st     PAS Giannina                    26   11   2    0    36   11   10   1    2    34   14   66
1st     PAS Giannina                    26   11   2    0    36   12   11   2    0    37   10   70
1st     PAS Giannina                    26   12   1    0    41   9    11   2    0    37   9    72
1st     PAS Giannina                    26   12   1    0    39   11   9    3    1    35   15   67
1st     PAS Giannina                    26   10   1    2    37   14   11   2    0    35   9    66
1st     PAS Giannina                    26   12   1    0    35   8    11   1    1    41   20   71
1st     PAS Giannina                    26   11   1    1    38   17   12   1    0    41   17   71
1st     PAS Giannina                    26   12   0    1    36   8    6    4    3    34   19   58
1st     PAS Giannina                    26   12   0    1    42   17   11   1    1    46   13   70
1st     PAS Giannina                    26   10   2    1    33   13   9    2    2    30   9    61
1st     PAS Giannina                    26   11   0    2    36   17   8    4    1    28   12   61
1st     PAS Giannina                    26   10   3    0    37   13   7    5    1    29   19   59
1st     PAS Giannina                    26   11   2    0    40   12   9    1    3    30   16   63
1st     PAS Giannina                    26   12   1    0    46   18   10   1    2    35   14   68
1st     PAS Giannina                    26   11   1    1    41   15   9    3    1    35   16   64
1st     PAS Giannina                    26   12   1    0    40   9    8    2    3    30   15   63
1st     PAS Giannina                    26   9    3    1    35   14   12   1    0    47   19   67
1st     PAS Giannina                    26   12   1    0    43   12   10   0    3    38   12   67
1st     PAS Giannina                    26   10   2    1    47   15   10   1    2    30   9    63
1st     PAS Giannina                    26   11   0    2    40   14   11   2    0    36   12   68
1st     PAS Giannina                    26   13   0    0    38   11   11   2    0    33   12   74
1st     PAS Giannina                    26   11   1    1    39   10   10   2    1    30   10   66
1st     PAS Giannina                    26   10   2    1    40   13   9    2    2    29   13   61
1st     PAS Giannina                    26   9    3    1    34   13   9    1    3    29   13   58
1st     PAS Giannina                    26   10   3    0    32   8    10   1    2    36   13   64
1st     PAS Giannina                    26   11   2    0    34   10   10   0    3    32   21   65
1st     PAS Giannina                    26   11   2    0    42   10   9    2    2    28   16   64
1st     PAS Giannina                    26   12   1    0    38   8    10   3    0    33   8    70
1st     PAS Giannina                    26   11   1    1    34   10   11   2    0    37   10   69
1st     PAS Giannina                    26   13   0    0    41   12   6    3    4    30   21   60
1st     PAS Giannina                    26   11   2    0    31   8    9    3    1    33   14   65
1st     PAS Giannina                    26   9    3    1    40   16   10   2    1    33   16   62
1st     PAS Giannina                    26   11   1    1    33   10   9    4    0    37   12   65
1st     PAS Giannina                    26   11   1    1    34   10   9    4    0    35   12   65
1st     PAS Giannina                    26   10   2    1    40   16   10   1    2    26   13   63
1st     PAS Giannina                    26   10   0    3    30   12   9    3    1    33   15   60
1st     PAS Giannina                    26   12   1    0    42   10   7    6    0    30   16   64
1st     PAS Giannina                    26   10   3    0    42   13   8    4    1    37   14   61
1st     PAS Giannina                    26   13   0    0    44   7    9    2    2    35   19   68
1st     PAS Giannina                    26   13   0    0    33   7    10   2    1    36   10   71
1st     PAS Giannina                    26   12   1    0    37   8    11   1    1    41   15   71
1st     PAS Giannina                    26   11   1    1    34   14   9    3    1    31   8    64
1st     PAS Giannina                    26   11   2    0    33   14   11   2    0    37   15   70
1st     PAS Giannina                    26   12   1    0    36   8    10   2    1    34   12   69
2nd     PAS Giannina                    26   10   2    1    45   15   10   2    1    34   15   64
1st     PAS Giannina                    26   12   0    1    38   8    9    2    2    34   11   65
1st     PAS Giannina                    26   10   3    0    37   18   9    3    1    32   10   63