1st     PAS Giannina                    26   9    3    1    22   11   8    3    2    20   8    57   
1st     PAS Giannina                    26   9    3    1    35   12   9    3    1    27   7    60   
1st     PAS Giannina                    26   12   0    1    38   9    8    3    2    22   9    63   
1st     PAS Giannina                    26   9    3    1    36   17   9    2    2    19   8    59   
1st     PAS Giannina                    26   9    3    1    26   10   8    5    0    26   13   59   
1st     PAS Giannina                    26   11   2    0    31   5    8    2    3    28   10   61   
1st     PAS Giannina                    26   12   1    0    35   6    9    2    2    21   5    66   
1st     PAS Giannina                    26   12   1    0    30   8    9    2    2    29   10   66   
2nd     PAS Giannina                    26   10   3    0    30   5    7    4    2    28   11   58   
2nd     PAS Giannina                    26   10   2    1    34   9    6    3    4    19   13   53   
1st     PAS Giannina                    26   11   0    2    29   14   9    3    1    30   13   63   
1st     PAS Giannina                    26   13   0    0    41   6    7    5    1    22   11   65   
1st     PAS Giannina                    26   10   2    1    28   14   11   0    2    35   14   65   
1st     PAS Giannina                    26   9    4    0    28   7    12   1    0    29   7    68   
1st     PAS Giannina                    26   9    3    1    30   11   8    4    1    24   11   58   
1st     PAS Giannina                    26   11   1    1    37   10   8    3    2    28   8    61   
1st     PAS Giannina                    26   12   1    0    32   6    9    4    0    28   9    68   
1st     PAS Giannina                    26   9    2    2    30   14   9    2    2    28   13   58   
2nd     PAS Giannina                    26   9    4    0    26   13   6    6    1    18   12   55   
1st     PAS Giannina                    26   10   3    0    28   7    6    2    5    21   14   53   
1st     PAS Giannina                    26   12   1    0    38   6    10   2    1    24   5    69   
1st     PAS Giannina                    26   9    2    2    28   10   6    6    1    18   10   53   
1st     PAS Giannina                    26   10   3    0    28   13   10   2    1    23   10   65   
1st     PAS Giannina                    26   12   0    1    31   6    7    4    2    25   12   61   
2nd     PAS Giannina                    26   9    4    0    33   9    6    2    5    23   17   51   
1st     PAS Giannina                    26   9    3    1    22   8    8    3    2    25   14   57   
1st     PAS Giannina                    26   11   1    1    37   13   9    4    0    27   11   65   
1st     PAS Giannina                    26   9    4    0    28   10   8    2    3    23   16   57   
1st     PAS Giannina                    26   11   2    0    32   8    7    4    2    23   15   60   
1st     PAS Giannina                    26   10   3    0    29   11   9    3    1    25   9    63   
1st     PAS Giannina                    26   8    2    3    22   12   7    3    3    21   16   50   
1st     PAS Giannina                    26   11   1    1    29   7    7    5    1    27   12   60   
1st     PAS Giannina                    26   11   1    1    32   10   7    3    3    22   11   58   
2nd     PAS Giannina                    26   12   1    0    36   9    5    5    3    23   16   57   
1st     PAS Giannina                    26   12   1    0    32   10   10   1    2    26   10   68   
1st     PAS Giannina                    26   9    3    1    27   13   7    3    3    22   14   54   
1st     PAS Giannina                    26   13   0    0    28   6    8    4    1    26   13   67   
2nd     PAS Giannina                    26   10   3    0    27   11   10   2    1    28   9    65   
1st     PAS Giannina                    26   9    3    1    29   10   8    2    3    23   10   56   
1st     PAS Giannina                    26   9    3    1    33   14   10   2    1    29   6    62   
1st     PAS Giannina                    26   10   2    1    27   12   10   3    0    26   9    65   
2nd     PAS Giannina                    26   9    2    2    26   8    10   1    2    23   7    60   
1st     PAS Giannina                    26   11   2    0    32   4    8    2    3    20   6    61   
1st     PAS Giannina                    26   13   0    0    32   4    9    2    2    24   8    68   
1st     PAS Giannina                    26   10   1    2    33   11   11   1    1    25   7    65   
1st     PAS Giannina                    26   11   2    0    30   4    6    5    2    18   10   58   
1st     PAS Giannina                    26   8    5    0    19   9    7    5    1    18   10   55   
1st     PAS Giannina                    26   10   1    2    35   13   11   1    1    29   8    65   
1st     PAS Giannina                    26   9    2    2    21   7    7    3    3    16   8    53   
1st     PAS Giannina                    26   9    2    2    33   9    7    4    2    17   9    54   
1st     PAS Giannina                    26   12   1    0    33   9    9    2    2    29   15   66   
1st     PAS Giannina                    26   12   0    1    36   11   8    3    2    22   6    63   
2nd     PAS Giannina                    26   10   1    2    30   10   9    1    3    28   11   59   
1st     PAS Giannina                    26   10   2    1    29   10   10   3    0    28   8    65   
1st     PAS Giannina                    26   11   2    0    28   6    6    5    2    22   7    58   
1st     PAS Giannina                    26   11   2    0    26   6    7    2    4    18   10   58   
1st     PAS Giannina                    26   11   1    1    31   9    10   3    0    23   8    67   
1st     PAS Giannina                    26   10   2    1    31   13   8    0    5    26   15   56   
1st     PAS Giannina                    26   11   2    0    29   5    9    2    2    25   11   64   
1st     PAS Giannina                    26   11   1    1    29   9    10   3    0    33   16   67   
1st     PAS Giannina                    26   10   2    1    23   9    9    2    2    31   8    61   
1st     PAS Giannina                    26   9    3    1    30   13   7    5    1    24   9    56   
1st     PAS Giannina                    26   8    2    3    27   12   9    3    1    25   7    56   
1st     PAS Giannina                    26   10   2    1    23   9    9    4    0    24   11   63   
1st     PAS Giannina                    26   12   1    0    35   7    7    6    0    22   11   64   
1st     PAS Giannina                    26   13   0    0    32   4    8    4    1    21   10   67   
1st     PAS Giannina                    26   11   2    0    26   5    6    4    3    19   14   57   
1st     PAS Giannina                    26   11   0    2    34   13   10   0    3    23   10   63   
1st     PAS Giannina                    26   11   0    2    32   14   8    4    1    22   10   61   
1st     PAS Giannina                    26   11   2    0    29   6    9    3    1    28   17   65   
1st     PAS Giannina                    26   12   1    0    32   6    7    3    3    18   13   61   
1st     PAS Giannina                    26   10   2    1    28   8    10   1    2    23   7    63   
1st     PAS Giannina                    26   8    5    0    27   9    8    3    2    27   9    56   
1st     PAS Giannina                    26   11   1    1    34   14   7    3    3    21   14   58   
1st     PAS Giannina                    26   11   1    1    26   7    9    4    0    29   8    65   
1st     PAS Giannina                    26   11   1    1    29   7    7    3    3    20   12   58   
2nd     PAS Giannina                    26   11   2    0    31   6    6    4    3    19   15   57   
1st     PAS Giannina                    26   11   2    0    36   10   10   2    1    26   9    67   
1st     PAS Giannina                    26   8    3    2    25   13   12   1    0    29   6    64   
1st     PAS Giannina                    26   11   1    1    25   10   8    3    2    23   14   61   
1st     PAS Giannina                    26   10   1    2    27   8    9    2    2    29   8    60   
1st     PAS Giannina                    26   12   1    0    30   8    11   1    1    33   10   71   
1st     PAS Giannina                    26   8    3    2    29   12   8    4    1    25   9    55   
1st     PAS Giannina                    26   10   2    1    29   8    12   1    0    28   7    69   
2nd     PAS Giannina                    26   8    3    2    22   11   6    4    3    16   11   49   
1st     PAS Giannina                    26   9    3    1    28   8    9    2    2    22   11   59   
1st     PAS Giannina                    26   11   2    0    24   6    9    2    2    22   11   64   
1st     PAS Giannina                    26   12   0    1    32   8    8    3    2    24   11   63   
1st     PAS Giannina                    26   12   1    0    26   3    7    3    3    29   14   61   
1st     PAS Giannina                    26   13   0    0    35   8    11   1    1    33   9    73   
1st     PAS Giannina                    26   9    3    1    30   10   6    5    2    20   12   53   
1st     PAS Giannina                    26   10   2    1    32   8    8    4    1    28   11   60   
1st     PAS Giannina                    26   12   0    1    34   6    8    2    3    31   12   62   
1st     PAS Giannina                    26   11   2    0    27   7    9    1    3    26   14   63   
1st     PAS Giannina                    26   8    3    2    29   15   10   2    1    22   3    59   
1st     PAS Giannina                    26   8    3    2    26   8    10   2    1    26   9    59   
1st     PAS Giannina                    26   8    2    3    24   17   9    2    2    22   11   55   
1st     PAS Giannina                    26   11   2    0    33   11   11   1    1    27   6    69   
1st     PAS Giannina                    26   11   2    0    29   7    9    2    2    24   10   64   
1st     PAS Giannina                    26   10   3    0    37   10   11   1    1    28   5    67   