1st     PAS Giannina                    26   12   0    1    31   10   7    3    3    22   16   60   
2nd     PAS Giannina                    26   11   2    0    27   7    7    4    2    20   12   60   
1st     PAS Giannina                    26   10   2    1    33   11   6    5    2    18   12   55   
1st     PAS Giannina                    26   10   2    1    29   10   8    2    3    20   9    58   
1st     PAS Giannina                    26   12   0    1    30   9    9    1    3    26   12   64   
1st     PAS Giannina                    26   9    2    2    25   8    6    3    4    21   17   50   
2nd     PAS Giannina                    26   7    4    2    27   14   8    3    2    25   11   52   
1st     PAS Giannina                    26   11   2    0    26   8    9    2    2    19   8    64   
1st     PAS Giannina                    26   12   0    1    29   12   8    1    4    21   15   61   
2nd     PAS Giannina                    26   11   0    2    35   10   5    4    4    16   12   52   
1st     PAS Giannina                    26   10   3    0    34   13   7    5    1    21   12   59   
1st     PAS Giannina                    26   10   1    2    26   8    7    2    4    21   13   54   
3rd     PAS Giannina                    26   8    2    3    25   10   4    6    3    20   15   44   
2nd     PAS Giannina                    26   9    2    2    32   13   6    3    4    21   13   50   
1st     PAS Giannina                    26   10   3    0    24   7    6    5    2    15   11   56   
2nd     PAS Giannina                    26   9    2    2    25   9    7    5    1    18   9    55   
1st     PAS Giannina                    26   9    2    2    25   6    8    4    1    27   11   57   
1st     PAS Giannina                    26   11   1    1    31   10   5    4    4    22   17   53   
2nd     PAS Giannina                    26   8    2    3    25   11   6    2    5    19   16   46   
1st     PAS Giannina                    26   10   2    1    31   11   7    6    0    22   12   59   
4th     PAS Giannina                    26   8    4    1    27   11   5    2    6    18   14   45   
1st     PAS Giannina                    26   10   1    2    31   13   8    4    1    27   8    59   
1st     PAS Giannina                    26   10   3    0    27   6    6    2    5    19   12   53   
1st     PAS Giannina                    26   12   1    0    26   6    9    1    3    16   8    65   
1st     PAS Giannina                    26   9    2    2    24   10   8    1    4    17   13   54   
2nd     PAS Giannina                    26   11   2    0    28   8    5    7    1    15   9    57   
1st     PAS Giannina                    26   12   1    0    33   6    6    5    2    18   10   60   
2nd     PAS Giannina                    26   6    5    2    21   11   4    6    3    17   14   41   
1st     PAS Giannina                    26   12   1    0    30   5    5    5    3    22   15   57   
1st     PAS Giannina                    26   10   3    0    29   8    6    6    1    21   13   57   
2nd     PAS Giannina                    26   11   1    1    26   11   5    4    4    17   13   53   
1st     PAS Giannina                    26   10   2    1    26   9    8    2    3    25   15   58   
1st     PAS Giannina                    26   9    4    0    29   10   8    4    1    23   10   59   
1st     PAS Giannina                    26   11   2    0    37   9    5    4    4    22   11   54   
3rd     PAS Giannina                    26   10   2    1    29   10   3    6    4    13   12   47   
3rd     PAS Giannina                    26   8    1    4    27   12   5    5    3    24   17   45   
2nd     PAS Giannina                    26   12   1    0    36   5    3    5    5    17   20   51   
2nd     PAS Giannina                    26   12   1    0    30   6    4    3    6    14   15   52   
1st     PAS Giannina                    26   11   2    0    36   13   8    3    2    31   11   62   
1st     PAS Giannina                    26   12   1    0    31   8    7    4    2    31   12   62   
4th     PAS Giannina                    26   8    2    3    23   13   4    6    3    18   18   44   
1st     PAS Giannina                    26   9    3    1    30   6    6    2    5    18   12   50   
2nd     PAS Giannina                    26   9    3    1    27   7    7    4    2    14   7    55   
1st     PAS Giannina                    26   13   0    0    38   11   8    3    2    18   10   66   
1st     PAS Giannina                    26   10   2    1    28   11   7    3    3    19   12   56   
7th     PAS Giannina                    26   7    4    2    24   13   2    4    7    11   20   35   
2nd     PAS Giannina                    26   11   1    1    35   10   6    6    1    19   13   58   
2nd     PAS Giannina                    26   9    4    0    32   8    6    4    3    19   16   53   
1st     PAS Giannina                    26   12   0    1    34   9    10   1    2    27   14   67   
1st     PAS Giannina                    26   7    4    2    24   10   7    4    2    21   13   50   
2nd     PAS Giannina                    26   11   1    1    27   7    6    1    6    16   12   53   
2nd     PAS Giannina                    26   9    3    1    21   5    5    3    5    17   18   48   
2nd     PAS Giannina                    26   10   2    1    26   5    5    5    3    23   18   52   
3rd     PAS Giannina                    26   6    4    3    25   19   5    3    5    16   15   40   
2nd     PAS Giannina                    26   10   1    2    27   10   5    6    2    18   11   52   
2nd     PAS Giannina                    26   11   2    0    29   6    6    3    4    22   13   56   
1st     PAS Giannina                    26   11   2    0    32   8    6    2    5    20   19   55   
1st     PAS Giannina                    26   11   1    1    34   12   6    1    6    19   21   53   
1st     PAS Giannina                    26   12   0    1    35   12   9    1    3    28   14   64   
1st     PAS Giannina                    26   10   1    2    29   14   9    3    1    22   8    61   
2nd     PAS Giannina                    26   9    1    3    29   10   8    5    0    27   9    57   
2nd     PAS Giannina                    26   10   2    1    31   10   7    2    4    21   12   55   
2nd     PAS Giannina                    26   10   1    2    25   8    7    1    5    23   14   53   
2nd     PAS Giannina                    26   11   1    1    28   4    7    2    4    19   12   57   
1st     PAS Giannina                    26   13   0    0    38   6    5    4    4    20   14   58   
2nd     PAS Giannina                    26   9    2    2    23   8    6    5    2    15   10   52   
2nd     PAS Giannina                    26   6    5    2    29   13   7    4    2    20   10   48   
1st     PAS Giannina                    26   10   2    1    28   8    9    1    3    22   9    60   
1st     PAS Giannina                    26   11   1    1    26   9    4    8    1    15   11   54   
1st     PAS Giannina                    26   12   0    1    33   7    5    4    4    19   16   55   
1st     PAS Giannina                    26   10   3    0    29   6    10   0    3    24   10   63   
1st     PAS Giannina                    26   10   3    0    34   13   7    3    3    23   13   57   
1st     PAS Giannina                    26   12   0    1    30   6    9    2    2    22   15   65   
3rd     PAS Giannina                    26   8    3    2    22   9    6    1    6    24   19   46   
2nd     PAS Giannina                    26   7    5    1    27   15   5    6    2    13   10   47   
1st     PAS Giannina                    26   9    3    1    30   12   6    2    5    17   13   50   
1st     PAS Giannina                    26   9    3    1    30   14   9    0    4    28   18   57   
1st     PAS Giannina                    26   10   3    0    35   10   6    1    6    20   19   52   
1st     PAS Giannina                    26   10   2    1    28   10   8    4    1    21   12   60   
1st     PAS Giannina                    26   9    3    1    29   10   8    3    2    21   13   57   
1st     PAS Giannina                    26   9    3    1    26   13   4    8    1    19   14   50   
1st     PAS Giannina                    26   11   1    1    41   12   8    4    1    25   14   62   
1st     PAS Giannina                    26   10   2    1    35   9    5    4    4    22   16   51   
2nd     PAS Giannina                    26   7    4    2    31   17   6    4    3    11   7    47   
1st     PAS Giannina                    26   11   2    0    34   8    7    3    3    25   16   59   
1st     PAS Giannina                    26   11   1    1    34   7    4    4    5    12   15   50   
1st     PAS Giannina                    26   11   1    1    29   14   8    4    1    26   13   62   
2nd     PAS Giannina                    26   9    2    2    28   8    6    2    5    20   15   49   
2nd     PAS Giannina                    26   8    3    2    24   9    11   1    1    23   4    61   
1st     PAS Giannina                    26   9    2    2    27   8    6    5    2    15   8    52   
2nd     PAS Giannina                    26   8    4    1    25   7    6    4    3    17   12   50   
1st     PAS Giannina                    26   10   3    0    30   11   6    6    1    26   12   57   
4th     PAS Giannina                    26   9    2    2    21   8    6    3    4    19   12   50   
1st     PAS Giannina                    26   10   1    2    25   7    8    3    2    26   14   58   
1st     PAS Giannina                    26   12   1    0    31   8    6    3    4    20   13   58   
2nd     PAS Giannina                    26   8    3    2    28   8    9    0    4    25   12   54   
1st     PAS Giannina                    26   11   2    0    33   7    2    7    4    19   22   48   
1st     PAS Giannina                    26   11   2    0    35   10   9    2    2    25   7    64   
2nd     PAS Giannina                    26   10   3    0    27   4    7    2    4    22   12   56   
1st     PAS Giannina                    26   10   3    0    31   13   8    3    2    24   12   60   