1st     PAS Giannina                    26   10   2    1    33   12   8    2    3    33   17   58   
1st     PAS Giannina                    26   9    2    2    31   16   11   1    1    36   16   63   
1st     PAS Giannina                    26   11   2    0    35   10   10   2    1    27   13   67   
1st     PAS Giannina                    26   10   2    1    27   11   6    6    1    20   14   56   
1st     PAS Giannina                    26   9    1    3    30   14   9    4    0    26   9    59   
1st     PAS Giannina                    26   10   3    0    40   15   7    4    2    28   14   58   
1st     PAS Giannina                    26   11   1    1    24   7    9    3    1    30   12   64   
1st     PAS Giannina                    26   12   0    1    36   12   11   1    1    34   20   70   
1st     PAS Giannina                    26   8    3    2    26   10   8    2    3    37   15   53   
1st     PAS Giannina                    26   12   0    1    33   12   9    4    0    32   11   67   
1st     PAS Giannina                    26   10   1    2    37   16   11   1    1    30   11   65   
1st     PAS Giannina                    26   7    5    1    25   11   7    5    1    34   12   52   
2nd     PAS Giannina                    26   9    3    1    34   13   6    5    2    26   18   53   
1st     PAS Giannina                    26   7    4    2    27   12   8    3    2    27   11   52   
1st     PAS Giannina                    26   9    3    1    30   10   9    2    2    34   19   59   
1st     PAS Giannina                    26   11   2    0    37   10   7    2    4    23   19   58   
3rd     PAS Giannina                    26   7    4    2    22   8    5    6    2    26   17   46   
1st     PAS Giannina                    26   9    3    1    30   11   6    2    5    24   14   50   
2nd     PAS Giannina                    26   10   3    0    28   11   7    2    4    24   13   56   
1st     PAS Giannina                    26   12   1    0    34   6    8    2    3    26   17   63   
1st     PAS Giannina                    26   12   0    1    32   8    8    3    2    26   16   63   
2nd     PAS Giannina                    26   8    3    2    27   11   6    4    3    26   17   49   
1st     PAS Giannina                    26   10   1    2    31   17   9    3    1    29   9    61   
2nd     PAS Giannina                    26   9    1    3    33   15   8    2    3    25   11   54   
1st     PAS Giannina                    26   12   1    0    30   8    8    3    2    33   16   64   
1st     PAS Giannina                    26   11   0    2    39   20   9    1    3    24   18   61   
1st     PAS Giannina                    26   9    3    1    26   10   10   2    1    25   12   62   
1st     PAS Giannina                    26   11   1    1    32   12   6    4    3    24   17   56   
1st     PAS Giannina                    26   12   1    0    38   11   8    1    4    21   12   62   
1st     PAS Giannina                    26   9    2    2    36   17   10   3    0    27   10   62   
1st     PAS Giannina                    26   10   2    1    32   10   9    2    2    37   21   61   
1st     PAS Giannina                    26   10   3    0    31   11   11   0    2    33   10   66   
1st     PAS Giannina                    26   11   2    0    38   9    8    2    3    26   11   61   
1st     PAS Giannina                    26   9    4    0    33   8    7    2    4    27   21   54   
1st     PAS Giannina                    26   11   2    0    31   8    10   2    1    30   9    67   
1st     PAS Giannina                    26   10   2    1    32   12   9    3    1    35   17   62   
1st     PAS Giannina                    26   11   1    1    34   14   8    3    2    26   10   61   
2nd     PAS Giannina                    26   7    2    4    27   18   9    1    3    32   12   51   
2nd     PAS Giannina                    26   10   0    3    31   12   9    3    1    25   9    60   
1st     PAS Giannina                    26   11   0    2    30   9    10   2    1    27   10   65   
1st     PAS Giannina                    26   12   0    1    40   16   8    2    3    30   15   62   
1st     PAS Giannina                    26   10   2    1    31   14   9    0    4    29   15   59   
1st     PAS Giannina                    26   10   2    1    22   6    7    4    2    27   15   57   
1st     PAS Giannina                    26   11   1    1    36   12   7    4    2    30   15   59   
1st     PAS Giannina                    26   10   3    0    26   9    7    3    3    21   10   57   
1st     PAS Giannina                    26   11   1    1    35   10   10   2    1    28   13   66   
1st     PAS Giannina                    26   11   1    1    33   12   10   1    2    40   19   65   
1st     PAS Giannina                    26   9    1    3    33   14   10   1    2    34   11   59   
1st     PAS Giannina                    26   11   1    1    29   10   9    4    0    30   11   65   
1st     PAS Giannina                    26   13   0    0    30   5    7    3    3    28   18   63   
1st     PAS Giannina                    26   11   2    0    29   8    9    1    3    33   12   63   
1st     PAS Giannina                    26   10   1    2    26   13   9    2    2    31   10   60   
1st     PAS Giannina                    26   9    2    2    27   9    9    3    1    27   11   59   
2nd     PAS Giannina                    26   8    4    1    25   11   7    5    1    26   17   54   
1st     PAS Giannina                    26   9    2    2    32   13   7    3    3    30   11   53   
2nd     PAS Giannina                    26   11   1    1    30   12   8    1    4    26   18   59   
1st     PAS Giannina                    26   9    2    2    33   16   9    3    1    24   7    59   
1st     PAS Giannina                    26   8    3    2    30   15   9    3    1    31   17   57   
1st     PAS Giannina                    26   11   1    1    34   10   7    3    3    32   16   58   
1st     PAS Giannina                    26   9    3    1    28   14   9    1    3    25   12   58   
1st     PAS Giannina                    26   10   3    0    28   9    7    4    2    29   16   58   
1st     PAS Giannina                    26   13   0    0    34   8    9    3    1    27   17   69   
1st     PAS Giannina                    26   11   2    0    34   11   10   2    1    29   9    67   
1st     PAS Giannina                    26   11   1    1    41   11   10   1    2    36   18   65   
1st     PAS Giannina                    26   9    3    1    28   10   10   2    1    36   16   62   
1st     PAS Giannina                    26   12   1    0    37   9    9    4    0    30   13   68   
2nd     PAS Giannina                    26   11   1    1    31   14   5    4    4    23   18   53   
1st     PAS Giannina                    26   10   3    0    32   13   11   1    1    31   10   67   
1st     PAS Giannina                    26   12   1    0    43   9    8    2    3    28   17   63   
1st     PAS Giannina                    26   13   0    0    34   7    9    2    2    29   14   68   
1st     PAS Giannina                    26   8    4    1    29   14   8    3    2    27   18   55   
1st     PAS Giannina                    26   10   1    2    34   14   8    4    1    25   12   59   
2nd     PAS Giannina                    26   7    6    0    29   12   6    3    4    23   13   48   
1st     PAS Giannina                    26   10   3    0    36   12   7    3    3    28   16   57   
1st     PAS Giannina                    26   12   1    0    36   13   10   1    2    33   17   68   
1st     PAS Giannina                    26   12   0    1    38   10   11   2    0    31   11   71   
1st     PAS Giannina                    26   9    3    1    30   13   7    5    1    30   16   56   
2nd     PAS Giannina                    26   12   0    1    33   10   6    3    4    28   23   57   
1st     PAS Giannina                    26   11   1    1    36   12   9    3    1    32   18   64   
1st     PAS Giannina                    26   10   2    1    26   13   10   2    1    24   9    64   
1st     PAS Giannina                    26   8    4    1    30   15   8    4    1    31   12   56   
1st     PAS Giannina                    26   10   2    1    31   14   9    3    1    29   13   62   
1st     PAS Giannina                    26   11   0    2    34   14   5    5    3    27   19   53   
1st     PAS Giannina                    26   9    3    1    24   8    10   1    2    32   11   61   
1st     PAS Giannina                    26   9    2    2    30   15   8    3    2    26   11   56   
2nd     PAS Giannina                    26   8    5    0    32   10   6    4    3    25   16   51   
2nd     PAS Giannina                    26   8    2    3    28   16   7    3    3    34   16   50   
1st     PAS Giannina                    26   10   3    0    28   9    9    1    3    26   12   61   
1st     PAS Giannina                    26   9    2    2    33   13   10   3    0    41   15   62   
1st     PAS Giannina                    26   11   1    1    31   11   10   3    0    29   9    67   
1st     PAS Giannina                    26   10   1    2    30   15   8    2    3    36   22   57   
1st     PAS Giannina                    26   9    3    1    28   13   9    3    1    35   15   60   
1st     PAS Giannina                    26   11   2    0    32   14   9    1    3    30   14   63   
1st     PAS Giannina                    26   9    4    0    28   11   9    3    1    31   10   61   
1st     PAS Giannina                    26   10   2    1    29   8    7    2    4    24   15   55   
1st     PAS Giannina                    26   13   0    0    37   13   10   3    0    30   12   72   
1st     PAS Giannina                    26   11   2    0    29   6    9    3    1    30   10   65   
1st     PAS Giannina                    26   7    5    1    29   10   6    3    4    30   27   47   
1st     PAS Giannina                    26   8    2    3    22   11   8    2    3    28   14   52   
1st     PAS Giannina                    26   10   1    2    28   13   5    5    3    29   23   51   