3rd     PAS Giannina                    26   8    4    1    23   8    5    3    5    15   15   46   
2nd     PAS Giannina                    26   9    1    3    33   14   8    2    3    18   14   54   
3rd     PAS Giannina                    26   10   1    2    25   5    4    3    6    18   17   46   
2nd     PAS Giannina                    26   11   2    0    32   6    5    4    4    15   15   54   
4th     PAS Giannina                    26   8    3    2    21   10   4    3    6    16   18   42   
2nd     PAS Giannina                    26   9    2    2    22   8    8    1    4    21   17   54   
2nd     PAS Giannina                    26   10   2    1    22   6    4    5    4    17   17   49   
1st     PAS Giannina                    26   8    4    1    24   10   4    8    1    14   9    48   
1st     PAS Giannina                    26   9    1    3    25   14   6    5    2    19   13   51   
1st     PAS Giannina                    26   11   0    2    26   8    5    5    3    17   17   53   
1st     PAS Giannina                    26   8    4    1    27   16   6    7    0    31   17   53   
7th     PAS Giannina                    26   8    3    2    29   14   3    2    8    8    15   38   
2nd     PAS Giannina                    26   9    2    2    29   15   5    7    1    19   11   51   
3rd     PAS Giannina                    26   9    2    2    28   13   4    5    4    13   12   46   
1st     PAS Giannina                    26   10   2    1    28   13   6    3    4    22   17   53   
3rd     PAS Giannina                    26   9    2    2    23   11   5    4    4    14   13   48   
1st     PAS Giannina                    26   10   2    1    22   7    6    4    3    20   13   54   
1st     PAS Giannina                    26   11   1    1    26   11   6    3    4    20   12   55   
2nd     PAS Giannina                    26   9    2    2    17   6    7    2    4    16   12   52   
2nd     PAS Giannina                    26   11   1    1    25   10   6    4    3    19   12   56   
1st     PAS Giannina                    26   10   2    1    27   9    5    4    4    15   14   51   
1st     PAS Giannina                    26   10   2    1    26   12   7    3    3    17   8    56   
4th     PAS Giannina                    26   8    2    3    17   7    6    3    4    17   12   47   
2nd     PAS Giannina                    26   8    3    2    18   7    7    4    2    18   7    52   
3rd     PAS Giannina                    26   8    4    1    23   10   4    7    2    20   17   47   
3rd     PAS Giannina                    26   9    2    2    26   12   3    7    3    13   12   45   
1st     PAS Giannina                    26   10   1    2    32   13   8    3    2    22   13   58   
3rd     PAS Giannina                    26   11   2    0    26   5    1    5    7    11   17   43   
1st     PAS Giannina                    26   10   1    2    31   11   5    6    2    17   10   52   
2nd     PAS Giannina                    26   7    3    3    25   15   5    6    2    16   10   45   
1st     PAS Giannina                    26   8    5    0    30   10   6    3    4    14   11   50   
1st     PAS Giannina                    26   12   1    0    33   4    5    4    4    23   16   56   
2nd     PAS Giannina                    26   10   2    1    30   11   6    3    4    19   12   53   
2nd     PAS Giannina                    26   10   0    3    24   8    6    6    1    13   7    54   
2nd     PAS Giannina                    26   7    5    1    24   12   7    3    3    17   12   50   
2nd     PAS Giannina                    26   9    4    0    28   12   5    5    3    18   14   51   
1st     PAS Giannina                    26   7    6    0    21   9    5    6    2    13   9    48   
2nd     PAS Giannina                    26   10   1    2    28   14   7    5    1    17   5    57   
1st     PAS Giannina                    26   9    4    0    29   8    7    2    4    18   13   54   
2nd     PAS Giannina                    26   9    4    0    30   10   5    4    4    19   13   50   
2nd     PAS Giannina                    26   8    4    1    29   11   6    3    4    17   12   49   
3rd     PAS Giannina                    26   10   1    2    24   9    3    5    5    13   12   45   
8th     PAS Giannina                    26   7    3    3    28   15   3    2    8    13   19   35   
1st     PAS Giannina                    26   9    1    3    21   10   6    3    4    15   14   49   
2nd     PAS Giannina                    26   9    3    1    21   7    8    4    1    15   6    58   
2nd     PAS Giannina                    26   8    3    2    22   12   7    2    4    23   18   50   
3rd     PAS Giannina                    26   9    1    3    23   11   6    3    4    15   14   49   
2nd     PAS Giannina                    26   8    2    3    20   10   6    3    4    16   12   47   
9th     PAS Giannina                    26   5    5    3    21   14   4    2    7    14   21   34   
2nd     PAS Giannina                    26   8    5    0    22   5    5    3    5    14   12   47   
2nd     PAS Giannina                    26   6    5    2    23   12   8    4    1    21   10   51   
2nd     PAS Giannina                    26   7    3    3    27   11   6    5    2    19   10   47   
1st     PAS Giannina                    26   11   2    0    26   8    7    6    0    21   7    62   
2nd     PAS Giannina                    26   8    2    3    24   10   6    5    2    18   6    49   
1st     PAS Giannina                    26   9    2    2    28   13   6    5    2    21   11   52   
2nd     PAS Giannina                    26   8    1    4    24   16   7    3    3    17   11   49   
4th     PAS Giannina                    26   6    4    3    26   17   6    4    3    16   11   44   
1st     PAS Giannina                    26   9    3    1    24   10   8    2    3    24   12   56   
2nd     PAS Giannina                    26   10   1    2    28   12   8    4    1    19   10   59   
1st     PAS Giannina                    26   7    5    1    33   16   6    5    2    16   11   49   
2nd     PAS Giannina                    26   10   3    0    25   4    3    5    5    14   15   47   
4th     PAS Giannina                    26   7    3    3    27   15   6    2    5    18   15   44   
2nd     PAS Giannina                    26   10   2    1    23   9    4    4    5    17   20   48   
2nd     PAS Giannina                    26   10   2    1    24   7    3    4    6    17   21   45   
7th     PAS Giannina                    26   6    6    1    13   9    2    5    6    12   19   35   
2nd     PAS Giannina                    26   7    5    1    23   11   7    4    2    20   11   51   
4th     PAS Giannina                    26   8    2    3    23   12   6    4    3    21   18   48   
1st     PAS Giannina                    26   10   2    1    30   17   7    3    3    17   12   56   
3rd     PAS Giannina                    26   7    3    3    30   20   7    1    5    21   17   46   
3rd     PAS Giannina                    26   9    2    2    28   18   3    6    4    13   14   44   
1st     PAS Giannina                    26   10   1    2    26   10   8    1    4    17   12   56   
1st     PAS Giannina                    26   12   1    0    27   7    6    5    2    25   12   60   
1st     PAS Giannina                    26   10   1    2    25   11   8    3    2    18   6    58   
3rd     PAS Giannina                    26   8    2    3    20   11   6    3    4    13   9    47   
2nd     PAS Giannina                    26   10   1    2    23   13   6    5    2    15   12   54   
1st     PAS Giannina                    26   11   2    0    29   8    8    2    3    25   9    61   
1st     PAS Giannina                    26   11   1    1    27   6    9    3    1    17   6    64   
1st     PAS Giannina                    26   9    0    4    25   9    6    5    2    15   7    50   
1st     PAS Giannina                    26   12   0    1    33   14   3    7    3    14   13   52   
6th     PAS Giannina                    26   7    3    3    26   14   2    6    5    7    10   36   
1st     PAS Giannina                    26   10   1    2    24   10   6    5    2    15   12   54   
5th     PAS Giannina                    26   9    2    2    24   7    4    3    6    14   19   44   
2nd     PAS Giannina                    26   10   2    1    33   13   5    2    6    17   19   49   
1st     PAS Giannina                    26   10   2    1    25   7    5    5    3    17   13   52   
2nd     PAS Giannina                    26   11   2    0    32   8    6    4    3    18   14   57   
2nd     PAS Giannina                    26   7    6    0    22   7    6    4    3    18   6    49   
1st     PAS Giannina                    26   10   2    1    32   9    6    4    3    24   19   54   
2nd     PAS Giannina                    26   8    4    1    25   10   6    4    3    16   11   50   
1st     PAS Giannina                    26   9    4    0    26   13   5    4    4    12   11   50   
2nd     PAS Giannina                    26   11   1    1    32   7    4    7    2    16   11   53   
2nd     PAS Giannina                    26   10   1    2    25   8    4    6    3    13   9    49   
2nd     PAS Giannina                    26   11   2    0    30   8    4    6    3    14   12   53   
5th     PAS Giannina                    26   6    5    2    25   15   3    6    4    17   22   38   
1st     PAS Giannina                    26   7    3    3    23   14   8    2    3    19   9    50   
1st     PAS Giannina                    26   10   1    2    25   7    8    2    3    16   8    57   
1st     PAS Giannina                    26   11   2    0    31   8    6    3    4    19   14   56   
6th     PAS Giannina                    26   8    4    1    19   10   2    4    7    9    19   38   
2nd     PAS Giannina                    26   9    4    0    29   10   3    4    6    16   18   44   
5th     PAS Giannina                    26   8    1    4    21   10   4    3    6    14   15   40   
1st     PAS Giannina                    26   8    4    1    21   13   7    3    3    23   17   52   