1st     PAS Giannina                    26   12   1    0    34   7    9    2    2    33   15   66   
2nd     PAS Giannina                    26   8    5    0    29   15   5    6    2    19   12   50   
1st     PAS Giannina                    26   12   1    0    37   12   8    2    3    27   21   63   
1st     PAS Giannina                    26   10   2    1    28   11   9    3    1    32   16   62   
1st     PAS Giannina                    26   10   2    1    34   18   10   3    0    27   12   65   
2nd     PAS Giannina                    26   9    4    0    33   11   4    6    3    20   17   49   
2nd     PAS Giannina                    26   10   2    1    43   10   5    3    5    25   18   50   
2nd     PAS Giannina                    26   10   2    1    31   13   6    2    5    23   16   52   
1st     PAS Giannina                    26   11   1    1    35   9    7    3    3    24   16   58   
1st     PAS Giannina                    26   13   0    0    32   8    8    3    2    27   17   66   
1st     PAS Giannina                    26   9    2    2    35   16   7    4    2    25   18   54   
1st     PAS Giannina                    26   12   1    0    37   11   5    4    4    25   10   56   
1st     PAS Giannina                    26   10   1    2    32   14   9    2    2    30   10   60   
1st     PAS Giannina                    26   12   0    1    30   4    7    5    1    30   12   62   
1st     PAS Giannina                    26   11   1    1    35   9    9    3    1    33   13   64   
1st     PAS Giannina                    26   11   1    1    37   12   11   0    2    35   14   67   
1st     PAS Giannina                    26   8    4    1    25   8    8    4    1    29   13   56   
1st     PAS Giannina                    26   11   2    0    42   13   8    2    3    26   13   61   
1st     PAS Giannina                    26   8    2    3    28   19   11   0    2    31   12   59   
1st     PAS Giannina                    26   11   2    0    35   13   10   1    2    30   10   66   
1st     PAS Giannina                    26   10   3    0    35   15   7    4    2    23   10   58   
1st     PAS Giannina                    26   10   2    1    33   15   8    4    1    32   20   60   
1st     PAS Giannina                    26   10   3    0    35   13   6    2    5    24   15   53   
1st     PAS Giannina                    26   7    5    1    26   14   7    6    0    29   15   53   
1st     PAS Giannina                    26   9    2    2    26   14   7    5    1    23   17   55   
2nd     PAS Giannina                    26   10   3    0    31   8    5    4    4    21   16   52   
1st     PAS Giannina                    26   10   3    0    34   10   8    2    3    27   16   59   
1st     PAS Giannina                    26   11   1    1    35   13   10   3    0    32   12   67   
1st     PAS Giannina                    26   10   2    1    34   11   12   1    0    33   11   69   
2nd     PAS Giannina                    26   9    0    4    29   16   8    2    3    28   16   53   
1st     PAS Giannina                    26   9    3    1    37   14   6    4    3    20   13   52   
1st     PAS Giannina                    26   9    2    2    29   16   9    3    1    29   9    59   
2nd     PAS Giannina                    26   11   1    1    28   14   5    4    4    12   11   53   
1st     PAS Giannina                    26   11   1    1    26   8    8    1    4    27   16   59   
1st     PAS Giannina                    26   10   2    1    30   7    9    2    2    27   14   61   
1st     PAS Giannina                    26   10   2    1    24   11   6    1    6    21   19   51   
2nd     PAS Giannina                    26   9    2    2    25   10   7    3    3    25   15   53   
1st     PAS Giannina                    26   9    3    1    31   13   6    2    5    22   20   50   
1st     PAS Giannina                    26   11   1    1    27   9    8    3    2    29   14   61   
1st     PAS Giannina                    26   13   0    0    40   12   7    4    2    27   14   64   
1st     PAS Giannina                    26   11   1    1    37   16   7    4    2    23   13   59   
1st     PAS Giannina                    26   13   0    0    39   10   10   2    1    29   12   71   
2nd     PAS Giannina                    26   9    3    1    35   13   7    2    4    21   15   53   
1st     PAS Giannina                    26   9    3    1    27   9    10   1    2    30   13   61   
1st     PAS Giannina                    26   13   0    0    36   3    9    1    3    27   13   67   
8th     PAS Giannina                    26   5    5    3    25   19   4    3    6    17   17   35   
2nd     PAS Giannina                    26   8    3    2    23   10   7    5    1    22   13   53   
1st     PAS Giannina                    26   11   2    0    33   10   8    2    3    32   14   61   
2nd     PAS Giannina                    26   10   1    2    32   17   6    2    5    21   21   51   
1st     PAS Giannina                    26   12   1    0    32   7    8    3    2    27   15   64   
1st     PAS Giannina                    26   8    5    0    31   13   9    1    3    27   13   57   
1st     PAS Giannina                    26   11   1    1    34   14   9    1    3    22   13   62   
1st     PAS Giannina                    26   8    2    3    30   13   9    0    4    25   17   53   
1st     PAS Giannina                    26   9    2    2    30   13   8    3    2    23   11   56   
1st     PAS Giannina                    26   11   2    0    33   12   10   1    2    30   11   66   
1st     PAS Giannina                    26   11   2    0    27   9    8    4    1    31   15   63   
2nd     PAS Giannina                    26   11   1    1    29   6    7    1    5    28   18   56   
2nd     PAS Giannina                    26   10   2    1    36   11   8    1    4    28   13   57   
1st     PAS Giannina                    26   9    2    2    29   15   8    4    1    30   15   57   
1st     PAS Giannina                    26   11   0    2    33   10   8    3    2    29   14   60   
1st     PAS Giannina                    26   9    4    0    39   17   5    3    5    27   19   49   
4th     PAS Giannina                    26   9    2    2    32   11   4    3    6    17   18   44   
1st     PAS Giannina                    26   9    3    1    26   6    9    3    1    25   9    60   
1st     PAS Giannina                    26   11   1    1    35   12   7    3    3    26   16   58   
2nd     PAS Giannina                    26   9    3    1    33   15   7    3    3    25   19   54   
1st     PAS Giannina                    26   8    3    2    30   15   10   3    0    38   15   60   
2nd     PAS Giannina                    26   9    1    3    28   12   6    4    3    23   17   50   
2nd     PAS Giannina                    26   11   2    0    35   11   7    2    4    17   11   58   
1st     PAS Giannina                    26   11   2    0    38   12   9    2    2    29   16   64   
1st     PAS Giannina                    26   8    3    2    29   15   10   2    1    24   8    59   
1st     PAS Giannina                    26   10   1    2    37   12   8    3    2    21   10   58   
1st     PAS Giannina                    26   11   2    0    30   7    8    3    2    31   17   62   
1st     PAS Giannina                    26   10   1    2    33   12   6    4    3    26   21   53   
1st     PAS Giannina                    26   11   1    1    23   8    10   1    2    33   11   65   
2nd     PAS Giannina                    26   9    4    0    30   13   10   1    2    24   8    62   
1st     PAS Giannina                    26   11   2    0    30   6    8    4    1    23   11   63   
1st     PAS Giannina                    26   12   1    0    36   10   6    5    2    26   16   60   
1st     PAS Giannina                    26   9    2    2    32   15   11   2    0    28   9    64   
1st     PAS Giannina                    26   11   2    0    33   12   9    2    2    26   19   64   
2nd     PAS Giannina                    26   11   0    2    38   15   7    3    3    26   17   57   
1st     PAS Giannina                    26   11   1    1    36   10   7    3    3    24   10   58   
1st     PAS Giannina                    26   10   3    0    37   13   7    3    3    29   18   57   
2nd     PAS Giannina                    26   6    5    2    28   13   8    3    2    32   11   50   
1st     PAS Giannina                    26   12   0    1    28   10   7    2    4    21   17   59   
1st     PAS Giannina                    26   9    2    2    34   16   5    5    3    16   8    49   
2nd     PAS Giannina                    26   8    4    1    28   12   7    2    4    23   18   51   
2nd     PAS Giannina                    26   12   1    0    36   7    7    2    4    20   14   60   
1st     PAS Giannina                    26   8    2    3    27   16   10   2    1    24   8    58   
1st     PAS Giannina                    26   10   1    2    35   9    8    3    2    31   19   58   
1st     PAS Giannina                    26   10   1    2    34   13   8    3    2    23   11   58   
1st     PAS Giannina                    26   8    2    3    33   17   7    4    2    30   12   51   
1st     PAS Giannina                    26   11   1    1    36   10   5    3    5    23   19   52   
2nd     PAS Giannina                    26   11   2    0    29   7    6    2    5    25   19   55   
1st     PAS Giannina                    26   13   0    0    37   9    7    2    4    23   14   62   
1st     PAS Giannina                    26   12   0    1    36   11   8    3    2    29   16   63   
1st     PAS Giannina                    26   11   1    1    33   9    10   2    1    36   15   66   
1st     PAS Giannina                    26   9    2    2    33   15   9    3    1    31   15   59   
1st     PAS Giannina                    26   10   2    1    29   10   7    3    3    23   13   56   
1st     PAS Giannina                    26   12   1    0    39   11   6    5    2    24   11   60   
1st     PAS Giannina                    26   12   1    0    37   12   8    1    4    30   20   62   