9th     PAS Giannina                    26   6    3    4    19   10   3    3    7    18   24   33   
2nd     PAS Giannina                    26   7    5    1    22   12   8    2    3    24   13   52   
4th     PAS Giannina                    26   8    3    2    22   14   4    3    6    17   21   42   
2nd     PAS Giannina                    26   9    3    1    33   15   5    4    4    16   15   49   
3rd     PAS Giannina                    26   9    3    1    28   14   4    4    5    18   21   46   
2nd     PAS Giannina                    26   9    3    1    27   10   4    4    5    13   14   46   
8th     PAS Giannina                    26   6    4    3    21   13   4    2    7    11   20   36   
3rd     PAS Giannina                    26   9    1    3    27   17   5    2    6    14   13   45   
6th     PAS Giannina                    26   8    2    3    18   11   2    5    6    11   18   37   
5th     PAS Giannina                    26   8    0    5    21   12   3    4    6    17   22   37   
13th    PAS Giannina                    26   4    6    3    22   17   3    1    9    10   25   28   
9th     PAS Giannina                    26   7    5    1    22   12   3    1    9    12   21   36   
5th     PAS Giannina                    26   7    2    4    22   15   3    4    6    16   20   36   
7th     PAS Giannina                    26   7    3    3    17   12   2    4    7    11   19   34   
1st     PAS Giannina                    26   7    4    2    25   11   7    4    2    24   15   50   
8th     PAS Giannina                    26   7    1    5    20   14   2    4    7    17   23   32   
12th    PAS Giannina                    26   5    5    3    23   17   3    2    8    12   21   31   
10th    PAS Giannina                    26   5    5    3    22   17   3    2    8    14   23   31   
1st     PAS Giannina                    26   9    2    2    25   14   4    5    4    18   21   46   
9th     PAS Giannina                    26   7    4    2    23   9    2    3    8    10   20   34   
8th     PAS Giannina                    26   7    1    5    21   14   2    5    6    15   21   33   
11th    PAS Giannina                    26   6    3    4    22   19   2    3    8    15   26   30   
10th    PAS Giannina                    26   7    2    4    20   14   2    3    8    19   20   32   
2nd     PAS Giannina                    26   9    3    1    32   16   5    3    5    15   16   48   
7th     PAS Giannina                    26   6    3    4    18   11   3    5    5    14   17   35   
6th     PAS Giannina                    26   8    3    2    21   15   3    5    5    12   18   41   
4th     PAS Giannina                    26   10   2    1    32   12   1    5    7    12   26   40   
8th     PAS Giannina                    26   6    4    3    16   7    3    2    8    9    19   33   
10th    PAS Giannina                    26   7    3    3    18   10   0    4    9    5    20   28   
5th     PAS Giannina                    26   10   1    2    25   12   2    2    9    11   18   39   
9th     PAS Giannina                    26   5    3    5    15   17   3    5    5    13   20   32   
2nd     PAS Giannina                    26   8    3    2    26   14   6    2    5    18   17   47   
5th     PAS Giannina                    26   6    4    3    17   12   3    5    5    13   17   36   
5th     PAS Giannina                    26   7    2    4    20   15   5    5    3    19   16   43   
10th    PAS Giannina                    26   4    7    2    18   15   3    2    8    11   21   30   
5th     PAS Giannina                    26   7    5    1    25   10   3    5    5    15   20   40   
8th     PAS Giannina                    26   5    3    5    13   16   4    7    2    20   17   37   
6th     PAS Giannina                    26   7    1    5    19   14   4    3    6    13   18   37   
2nd     PAS Giannina                    26   9    3    1    23   11   6    2    5    19   17   50   
4th     PAS Giannina                    26   9    3    1    27   13   4    4    5    14   17   46   
1st     PAS Giannina                    26   7    6    0    22   10   6    2    5    19   14   47   
1st     PAS Giannina                    26   8    5    0    23   9    6    1    6    23   18   48   
6th     PAS Giannina                    26   6    5    2    23   15   3    3    7    10   18   35   
10th    PAS Giannina                    26   7    4    2    27   20   1    4    8    11   29   32   
9th     PAS Giannina                    26   7    5    1    21   14   2    2    9    10   23   34   
11th    PAS Giannina                    26   4    5    4    19   18   3    4    6    18   24   30   
4th     PAS Giannina                    26   9    3    1    23   5    2    4    7    14   26   40   
10th    PAS Giannina                    26   4    4    5    24   25   4    2    7    13   17   30   
9th     PAS Giannina                    26   7    4    2    26   17   2    4    7    11   21   35   
6th     PAS Giannina                    26   8    1    4    29   17   2    4    7    13   22   35   
5th     PAS Giannina                    26   7    2    4    20   14   5    4    4    18   16   42   
3rd     PAS Giannina                    26   10   3    0    28   13   4    2    7    14   22   47   
2nd     PAS Giannina                    26   9    1    3    29   14   6    1    6    19   18   47   
8th     PAS Giannina                    26   6    2    5    16   10   4    3    6    16   19   35   
2nd     PAS Giannina                    26   6    5    2    21   11   6    5    2    21   12   46   
8th     PAS Giannina                    26   2    5    6    16   20   6    4    3    19   15   33   
6th     PAS Giannina                    26   8    3    2    17   8    2    5    6    14   21   38   
10th    PAS Giannina                    26   7    2    4    18   16   2    1    10   11   27   30   
11th    PAS Giannina                    26   4    4    5    22   21   2    4    7    9    17   26   
7th     PAS Giannina                    26   8    2    3    22   13   3    1    9    13   24   36   
4th     PAS Giannina                    26   7    3    3    29   16   5    4    4    16   16   43   
4th     PAS Giannina                    26   8    4    1    21   9    3    4    6    19   23   41   
7th     PAS Giannina                    26   9    1    3    24   14   3    1    9    14   25   38   
6th     PAS Giannina                    26   7    2    4    25   18   4    3    6    18   22   38   
5th     PAS Giannina                    26   7    3    3    23   16   1    7    5    15   24   34   
5th     PAS Giannina                    26   8    4    1    26   13   4    2    7    13   23   42   
8th     PAS Giannina                    26   7    5    1    23   10   2    2    9    12   24   34   
4th     PAS Giannina                    26   8    2    3    23   14   4    3    6    14   17   41   
5th     PAS Giannina                    26   5    5    3    27   18   5    3    5    16   14   38   
3rd     PAS Giannina                    26   7    2    4    21   14   6    5    2    18   14   46   
3rd     PAS Giannina                    26   9    1    3    27   14   3    5    5    12   16   42   
5th     PAS Giannina                    26   6    4    3    14   10   4    3    6    17   14   37   
5th     PAS Giannina                    26   7    3    3    22   13   5    4    4    15   14   43   
5th     PAS Giannina                    26   7    4    2    24   15   3    5    5    11   18   39   
3rd     PAS Giannina                    26   10   3    0    29   10   5    2    6    17   20   50   
6th     PAS Giannina                    26   7    5    1    20   11   2    4    7    17   24   36   
4th     PAS Giannina                    26   8    1    4    22   12   4    5    4    18   18   42   
12th    PAS Giannina                    26   5    4    4    21   17   2    5    6    13   18   30   
4th     PAS Giannina                    26   10   1    2    30   18   3    5    5    11   13   45   
2nd     PAS Giannina                    26   7    4    2    31   14   5    5    3    26   23   45   
9th     PAS Giannina                    26   5    5    3    19   15   4    3    6    16   22   35   
9th     PAS Giannina                    26   7    2    4    29   22   2    5    6    17   24   34   
10th    PAS Giannina                    26   6    2    5    14   9    3    2    8    17   26   31   
2nd     PAS Giannina                    26   9    2    2    28   14   6    4    3    17   15   51   
4th     PAS Giannina                    26   8    4    1    26   8    4    0    9    17   27   40   
5th     PAS Giannina                    26   9    2    2    21   8    3    2    8    13   20   40   
12th    PAS Giannina                    26   5    4    4    20   18   1    3    9    14   25   25   
7th     PAS Giannina                    26   10   1    2    28   12   2    1    10   9    25   38   
9th     PAS Giannina                    26   6    4    3    21   14   3    3    7    15   22   34   
9th     PAS Giannina                    26   5    3    5    24   17   2    6    5    15   17   30   
14th    PAS Giannina                    26   5    6    2    15   9    1    4    8    8    17   28   
6th     PAS Giannina                    26   7    5    1    27   15   2    5    6    15   18   37   
13th    PAS Giannina                    26   4    4    5    18   18   1    6    6    14   24   25   
2nd     PAS Giannina                    26   11   1    1    28   12   2    3    8    11   22   43   
10th    PAS Giannina                    26   6    3    4    23   13   2    4    7    11   17   31   
11th    PAS Giannina                    26   6    5    2    24   13   2    1    10   15   29   30   
3rd     PAS Giannina                    26   8    4    1    32   16   5    5    3    19   17   48   
12th    PAS Giannina                    26   5    3    5    13   14   1    6    6    18   24   27   
3rd     PAS Giannina                    26   8    4    1    31   21   5    0    8    17   23   43   
1st     PAS Giannina                    26   9    3    1    29   12   6    4    3    17   12   52   