1st     PAS Giannina                    26   10   2    1    25   8    12   0    1    36   11   68   
1st     PAS Giannina                    26   9    2    2    37   16   7    5    1    29   19   55   
2nd     PAS Giannina                    26   11   2    0    34   4    6    5    2    23   14   58   
1st     PAS Giannina                    26   10   2    1    24   9    8    4    1    25   7    60   
2nd     PAS Giannina                    26   7    4    2    23   9    7    4    2    25   13   50   
1st     PAS Giannina                    26   12   1    0    34   7    5    5    3    19   13   57   
1st     PAS Giannina                    26   12   0    1    35   9    11   0    2    35   14   69   
1st     PAS Giannina                    26   13   0    0    33   7    8    1    4    19   10   64   
1st     PAS Giannina                    26   11   1    1    35   11   8    3    2    27   16   61   
1st     PAS Giannina                    26   11   1    1    27   6    10   2    1    21   9    66   
1st     PAS Giannina                    26   13   0    0    36   9    7    4    2    26   13   64   
1st     PAS Giannina                    26   10   3    0    29   14   10   1    2    29   8    64   
1st     PAS Giannina                    26   10   1    2    35   11   11   2    0    34   10   66   
3rd     PAS Giannina                    26   8    3    2    33   14   5    3    5    17   11   45   
1st     PAS Giannina                    26   12   0    1    30   8    9    0    4    27   14   63   
1st     PAS Giannina                    26   7    5    1    25   12   9    2    2    25   10   55   
1st     PAS Giannina                    26   9    2    2    30   14   8    3    2    30   11   56   
1st     PAS Giannina                    26   11   2    0    31   7    9    2    2    28   12   64   
1st     PAS Giannina                    26   10   3    0    34   12   8    3    2    28   15   60   
1st     PAS Giannina                    26   10   0    3    34   14   7    4    2    26   14   55   
2nd     PAS Giannina                    26   8    2    3    27   14   9    2    2    33   18   55   
1st     PAS Giannina                    26   11   2    0    33   12   10   3    0    28   9    68   
1st     PAS Giannina                    26   7    3    3    27   17   10   2    1    27   9    56   
1st     PAS Giannina                    26   12   1    0    32   9    7    3    3    26   16   61   
1st     PAS Giannina                    26   12   1    0    33   7    8    2    3    23   13   63   
1st     PAS Giannina                    26   11   1    1    36   14   8    1    4    23   14   59   
1st     PAS Giannina                    26   10   3    0    36   11   9    2    2    28   11   62   
1st     PAS Giannina                    26   13   0    0    32   6    7    3    3    21   8    63   
1st     PAS Giannina                    26   12   1    0    36   14   10   2    1    26   9    69   
1st     PAS Giannina                    26   12   1    0    28   7    7    5    1    23   11   63   
1st     PAS Giannina                    26   13   0    0    36   12   9    3    1    35   16   69   
1st     PAS Giannina                    26   10   2    1    31   10   10   0    3    29   8    62   
1st     PAS Giannina                    26   13   0    0    34   7    9    2    2    37   19   68   
1st     PAS Giannina                    26   12   0    1    27   8    5    4    4    22   14   55   
1st     PAS Giannina                    26   12   1    0    36   5    8    1    4    27   15   62   
2nd     PAS Giannina                    26   9    3    1    34   12   7    4    2    19   10   55   
1st     PAS Giannina                    26   11   1    1    33   17   10   3    0    28   8    67   
1st     PAS Giannina                    26   10   2    1    35   17   10   2    1    26   8    64   
1st     PAS Giannina                    26   10   2    1    33   12   10   3    0    25   6    65   
1st     PAS Giannina                    26   10   2    1    35   9    9    2    2    30   11   61   
1st     PAS Giannina                    26   12   0    1    33   10   10   1    2    33   11   67   
1st     PAS Giannina                    26   10   3    0    36   11   10   1    2    25   13   64   
1st     PAS Giannina                    26   13   0    0    35   8    9    0    4    29   15   66   
1st     PAS Giannina                    26   10   1    2    34   12   11   2    0    32   13   66   
1st     PAS Giannina                    26   11   1    1    37   15   11   1    1    26   12   68   
1st     PAS Giannina                    26   10   1    2    32   15   8    3    2    28   13   58   
1st     PAS Giannina                    26   9    3    1    29   11   7    3    3    21   15   54   
2nd     PAS Giannina                    26   9    4    0    26   11   7    1    5    26   20   53   
1st     PAS Giannina                    26   13   0    0    30   7    8    3    2    30   11   66   
1st     PAS Giannina                    26   13   0    0    33   6    7    3    3    25   11   63   
1st     PAS Giannina                    26   13   0    0    36   8    10   2    1    29   8    71   
1st     PAS Giannina                    26   11   2    0    29   7    10   0    3    21   12   65   
1st     PAS Giannina                    26   11   0    2    33   16   7    4    2    28   17   58   
1st     PAS Giannina                    26   11   2    0    30   8    7    4    2    14   8    60   
2nd     PAS Giannina                    26   7    5    1    25   10   8    2    3    26   13   52   
1st     PAS Giannina                    26   10   3    0    31   6    8    2    3    25   13   59   
1st     PAS Giannina                    26   13   0    0    40   10   9    3    1    28   7    69   
1st     PAS Giannina                    26   12   1    0    30   7    5    3    5    14   12   55   
1st     PAS Giannina                    26   13   0    0    33   12   8    5    0    34   16   68   
1st     PAS Giannina                    26   8    4    1    34   20   8    2    3    20   10   54   
1st     PAS Giannina                    26   11   2    0    32   9    10   1    2    32   12   66   
1st     PAS Giannina                    26   12   0    1    31   11   10   0    3    30   12   66   
1st     PAS Giannina                    26   11   2    0    31   11   8    2    3    23   15   61   
2nd     PAS Giannina                    26   7    4    2    20   10   9    1    3    30   10   53   
1st     PAS Giannina                    26   10   1    2    32   8    7    1    5    26   21   53   
1st     PAS Giannina                    26   7    5    1    26   16   8    4    1    23   9    54   
1st     PAS Giannina                    26   9    3    1    31   10   7    3    3    24   13   54   
1st     PAS Giannina                    26   13   0    0    40   5    7    1    5    22   13   61   
1st     PAS Giannina                    26   13   0    0    34   3    9    2    2    25   11   68   
1st     PAS Giannina                    26   10   2    1    28   9    9    3    1    25   9    62   
1st     PAS Giannina                    26   11   2    0    34   12   5    5    3    18   14   55   
1st     PAS Giannina                    26   11   2    0    31   7    11   0    2    31   15   68   
1st     PAS Giannina                    26   8    2    3    23   12   10   1    2    28   12   57   
1st     PAS Giannina                    26   7    4    2    25   12   8    2    3    22   16   51   
1st     PAS Giannina                    26   10   3    0    34   9    7    3    3    25   14   57   
1st     PAS Giannina                    26   9    1    3    33   19   10   2    1    35   13   60   
2nd     PAS Giannina                    26   8    4    1    26   8    5    4    4    27   23   47   
1st     PAS Giannina                    26   11   1    1    36   13   12   1    0    26   5    71   
1st     PAS Giannina                    26   13   0    0    31   5    8    4    1    27   13   67   
1st     PAS Giannina                    26   10   3    0    23   4    8    5    0    20   9    62   
1st     PAS Giannina                    26   10   3    0    29   11   10   1    2    28   12   64   
1st     PAS Giannina                    26   9    1    3    31   12   8    4    1    22   8    56   
2nd     PAS Giannina                    26   11   2    0    34   12   9    1    3    20   8    63   
1st     PAS Giannina                    26   11   2    0    30   13   9    3    1    24   7    65   
2nd     PAS Giannina                    26   8    4    1    28   12   6    2    5    26   21   48   
1st     PAS Giannina                    26   12   1    0    38   12   9    1    3    29   13   65   
1st     PAS Giannina                    26   8    4    1    25   11   7    3    3    20   12   52   
1st     PAS Giannina                    26   10   2    1    28   12   9    3    1    30   10   62   
2nd     PAS Giannina                    26   7    4    2    27   9    6    3    4    21   11   46   
1st     PAS Giannina                    26   9    1    3    32   13   8    5    0    30   11   57   
1st     PAS Giannina                    26   9    4    0    30   10   8    5    0    18   10   60   
2nd     PAS Giannina                    26   10   2    1    32   13   7    4    2    22   13   57   
2nd     PAS Giannina                    26   13   0    0    35   7    3    5    5    18   22   53   
1st     PAS Giannina                    26   13   0    0    37   8    8    2    3    27   15   65   
1st     PAS Giannina                    26   11   1    1    32   9    8    4    1    19   9    62   
1st     PAS Giannina                    26   10   2    1    33   13   10   2    1    28   6    64   
1st     PAS Giannina                    26   11   1    1    38   9    8    5    0    24   9    63   
1st     PAS Giannina                    26   11   2    0    28   9    11   1    1    28   8    69   
2nd     PAS Giannina                    26   9    2    2    28   14   8    2    3    26   15   55   
1st     PAS Giannina                    26   9    3    1    27   8    12   0    1    32   7    66   