2nd     PAS Giannina                    26   9    2    2    31   11   5    2    6    16   22   46
2nd     PAS Giannina                    26   11   0    2    39   19   5    3    5    16   19   51
1st      PAS Giannina                    26   11   0    2    32   11   6    1    6    22   18   52
6th     PAS Giannina                    26   6    4    3    24   15   3    5    5    16   20   36
1st      PAS Giannina                    26   11   2    0    36   11   5    4    4    19   19   54
2nd     PAS Giannina                    26   11   0    2    38   16   3    8    2    24   21   50
3rd     PAS Giannina                    26   7    3    3    22   12   6    3    4    23   19   45
2nd     PAS Giannina                    26   9    4    0    27   13   8    2    3    26   18   57
1st      PAS Giannina                    26   8    3    2    34   19   8    2    3    24   15   53
4th     PAS Giannina                    26   8    4    1    30   12   4    2    7    19   23   42
1st      PAS Giannina                    26   11   1    1    38   16   4    5    4    13   11   51
5th     PAS Giannina                    26   6    2    5    23   20   6    2    5    19   18   40
2nd     PAS Giannina                    26   8    2    3    32   19   7    1    5    33   21   48
1st      PAS Giannina                    26   10   2    1    26   9    10   1    2    28   12   63
3rd     PAS Giannina                    26   9    3    1    26   9    4    5    4    19   18   47
1st      PAS Giannina                    26   8    3    2    24   10   6    3    4    27   20   48
2nd     PAS Giannina                    26   9    2    2    28   13   6    2    5    19   17   49
1st      PAS Giannina                    26   8    4    1    32   14   7    3    3    23   15   52
3rd     PAS Giannina                    26   10   1    2    27   13   3    5    5    22   21   45
1st      PAS Giannina                    26   9    2    2    27   15   7    1    5    23   15   51
3rd     PAS Giannina                    26   9    2    2    33   13   4    5    4    20   16   46
1st      PAS Giannina                    26   9    3    1    26   7    7    3    3    21   14   54
1st      PAS Giannina                    26   10   2    1    36   14   8    2    3    26   19   58
3rd     PAS Giannina                    26   6    6    1    23   13   5    5    3    21   21   44
4th     PAS Giannina                    26   8    3    2    30   16   4    4    5    22   23   43
3rd     PAS Giannina                    26   9    2    2    26   13   5    2    6    24   23   46
2nd     PAS Giannina                    26   11   2    0    28   8    7    1    5    24   18   57
1st      PAS Giannina                    26   11   2    0    35   12   6    5    2    30   19   58
2nd     PAS Giannina                    26   8    4    1    32   17   8    2    3    20   12   54
4th     PAS Giannina                    26   7    2    4    28   16   5    6    2    21   17   44
1st      PAS Giannina                    26   8    4    1    26   12   7    4    2    24   18   53
1st      PAS Giannina                    26   11   2    0    32   8    6    5    2    19   9    58
2nd     PAS Giannina                    26   8    1    4    27   12   6    4    3    16   14   47
2nd     PAS Giannina                    26   7    3    3    19   12   7    6    0    26   13   51
9th     PAS Giannina                    26   8    3    2    28   17   3    1    9    16   21   37
1st      PAS Giannina                    26   11   0    2    27   13   7    4    2    19   16   58
1st      PAS Giannina                    26   11   1    1    39   20   7    5    1    27   19   60
1st      PAS Giannina                    26   6    4    3    28   16   7    5    1    31   14   48
2nd     PAS Giannina                    26   9    3    1    31   11   8    2    3    26   18   56
1st      PAS Giannina                    26   11   1    1    39   15   9    1    3    32   20   62
2nd     PAS Giannina                    26   7    3    3    29   15   8    1    4    30   20   49
2nd     PAS Giannina                    26   11   2    0    25   8    6    3    4    17   13   56
1st      PAS Giannina                    26   10   0    3    34   14   5    7    1    23   14   52
1st      PAS Giannina                    26   7    5    1    25   15   8    3    2    24   13   53
2nd     PAS Giannina                    26   8    3    2    25   15   9    1    3    27   15   55
2nd     PAS Giannina                    26   8    4    1    25   7    5    3    5    21   19   46
2nd     PAS Giannina                    26   9    1    3    29   17   5    5    3    21   19   48
2nd     PAS Giannina                    26   7    4    2    24   16   5    5    3    22   15   45
5th     PAS Giannina                    26   8    3    2    30   18   2    5    6    20   20   38
1st      PAS Giannina                    26   10   2    1    31   14   5    3    5    17   19   50
4th     PAS Giannina                    26   8    3    2    28   11   4    2    7    22   28   41
3rd     PAS Giannina                    26   8    4    1    22   9    5    3    5    16   16   46
2nd     PAS Giannina                    26   9    4    0    36   17   7    4    2    30   19   56
2nd     PAS Giannina                    26   8    3    2    31   16   7    2    4    19   15   50
4th     PAS Giannina                    26   7    4    2    24   11   4    3    6    18   18   40
1st      PAS Giannina                    26   9    3    1    26   13   6    3    4    23   16   51
4th     PAS Giannina                    26   9    1    3    25   16   5    3    5    25   17   46
4th     PAS Giannina                    26   8    4    1    29   11   5    3    5    25   26   46
1st      PAS Giannina                    26   8    3    2    33   14   6    5    2    27   14   50
2nd     PAS Giannina                    26   10   2    1    36   19   5    5    3    28   22   52
2nd     PAS Giannina                    26   8    3    2    25   11   6    2    5    17   18   47
2nd     PAS Giannina                    26   8    3    2    25   11   8    1    4    23   17   52
1st      PAS Giannina                    26   12   1    0    30   4    5    2    6    25   20   54
1st      PAS Giannina                    26   13   0    0    33   5    7    1    5    25   16   61
2nd     PAS Giannina                    26   12   1    0    33   12   6    2    5    22   20   57
3rd     PAS Giannina                    26   9    3    1    33   16   4    4    5    29   26   46
1st      PAS Giannina                    26   9    2    2    32   16   6    1    6    20   19   48
1st      PAS Giannina                    26   9    2    2    30   12   6    3    4    20   16   50
4th     PAS Giannina                    26   8    2    3    27   18   5    3    5    21   21   44
1st      PAS Giannina                    26   8    2    3    30   18   4    6    3    14   14   44
1st      PAS Giannina                    26   13   0    0    39   12   6    4    3    24   19   61
1st      PAS Giannina                    26   12   1    0    31   10   5    4    4    21   18   56
1st      PAS Giannina                    26   11   2    0    31   14   8    1    4    23   15   60
2nd     PAS Giannina                    26   10   2    1    30   14   5    2    6    18   19   49
1st      PAS Giannina                    26   7    5    1    28   13   11   1    1    33   12   60
2nd     PAS Giannina                    26   8    3    2    28   16   8    0    5    22   18   51
2nd     PAS Giannina                    26   11   1    1    32   14   3    5    5    15   19   48
1st      PAS Giannina                    26   10   3    0    31   8    7    4    2    29   17   58
2nd     PAS Giannina                    26   7    3    3    33   21   4    4    5    19   21   40
3rd     PAS Giannina                    26   9    1    3    27   13   5    5    3    22   19   48
2nd     PAS Giannina                    26   6    3    4    21   19   8    1    4    30   23   46
1st      PAS Giannina                    26   7    5    1    25   14   8    3    2    23   13   53
2nd     PAS Giannina                    26   8    3    2    24   12   6    4    3    17   13   49
3rd     PAS Giannina                    26   8    4    1    25   8    6    3    4    15   16   49
3rd     PAS Giannina                    26   9    1    3    26   16   6    2    5    22   19   48
3rd     PAS Giannina                    26   7    2    4    21   19   6    2    5    23   21   43
9th     PAS Giannina                    26   5    5    3    20   17   3    4    6    10   19   33
2nd     PAS Giannina                    26   9    3    1    29   12   5    7    1    25   20   52
4th     PAS Giannina                    26   6    4    3    25   17   5    3    5    19   18   40
3rd     PAS Giannina                    26   8    0    5    24   16   5    5    3    23   20   44
1st      PAS Giannina                    26   10   2    1    29   11   8    4    1    21   7    60
1st      PAS Giannina                    26   10   2    1    31   14   8    2    3    23   15   58
1st      PAS Giannina                    26   9    2    2    25   8    5    3    5    25   24   47
1st      PAS Giannina                    26   8    2    3    27   18   9    2    2    22   11   55
2nd     PAS Giannina                    26   9    3    1    33   7    5    5    3    24   22   50
1st      PAS Giannina                    26   7    5    1    31   15   8    3    2    26   17   53
5th     PAS Giannina                    26   9    3    1    30   16   3    3    7    18   22   42
3rd     PAS Giannina                    26   9    2    2    21   10   4    6    3    24   14   47
2nd     PAS Giannina                    26   7    3    3    25   16   8    1    4    22   15   49
3rd     PAS Giannina                    26   8    3    2    31   20   5    2    6    20   17   44