1st      PAS Giannina            26   11   2    0    22   5    10   1    2    28   12   66
1st      PAS Giannina            26   9    3    1    34   15   7    4    2    21   11   55
3rd     PAS Giannina            26   6    3    4    23   12   8    2    3    27   15   47
1st      PAS Giannina            26   11   2    0    34   12   5    6    2    27   25   56
1st      PAS Giannina            26   11   2    0    35   9    8    3    2    21   16   62
2nd     PAS Giannina            26   8    3    2    24   8    6    5    2    20   13   50
1st      PAS Giannina            26   9    3    1    29   14   12   0    1    32   11   66
1st      PAS Giannina            26   12   1    0    35   11   9    0    4    28   20   64
1st      PAS Giannina            26   9    3    1    31   15   10   2    1    26   12   62
1st      PAS Giannina            26   9    3    1    28   10   8    4    1    27   14   58
1st      PAS Giannina            26   11   2    0    37   9    8    2    3    26   16   61
1st      PAS Giannina            26   12   0    1    34   12   8    3    2    25   14   63
1st      PAS Giannina            26   11   1    1    39   11   9    0    4    28   15   61
1st      PAS Giannina            26   11   2    0    34   15   9    2    2    32   18   64
1st      PAS Giannina            26   12   0    1    30   10   7    4    2    27   13   61
1st      PAS Giannina            26   9    2    2    32   14   9    4    0    28   12   60
1st      PAS Giannina            26   11   1    1    31   8    7    4    2    20   12   59
1st      PAS Giannina            26   9    3    1    27   9    9    0    4    21   14   57
1st      PAS Giannina            26   11   1    1    28   10   9    1    3    25   9    62
2nd     PAS Giannina            26   13   0    0    28   4    4    1    8    12   21   52
2nd     PAS Giannina            26   10   3    0    30   11   8    3    2    24   13   60
2nd     PAS Giannina            26   9    3    1    34   17   5    5    3    23   23   50
1st      PAS Giannina            26   11   1    1    33   11   8    4    1    27   13   62
1st      PAS Giannina            26   11   2    0    40   15   8    1    4    26   14   60
1st      PAS Giannina            26   12   1    0    30   7    9    3    1    26   13   67
4th     PAS Giannina            26   8    1    4    24   11   5    3    5    22   17   43
1st      PAS Giannina            26   10   2    1    33   13   8    5    0    30   19   61
2nd     PAS Giannina            26   10   3    0    34   12   6    3    4    26   21   54
2nd     PAS Giannina            26   7    3    3    25   14   6    4    3    24   18   46
2nd     PAS Giannina            26   7    5    1    22   5    6    4    3    26   14   48
1st      PAS Giannina            26   10   2    1    32   13   9    0    4    24   13   59
1st      PAS Giannina            26   12   0    1    38   12   7    3    3    27   17   60
1st      PAS Giannina            26   12   1    0    31   7    4    4    5    20   17   53
1st      PAS Giannina            26   11   2    0    34   7    7    2    4    18   13   58
1st      PAS Giannina            26   10   3    0    31   10   9    3    1    27   14   63
1st      PAS Giannina            26   11   2    0    38   11   8    2    3    29   16   61
1st      PAS Giannina            26   8    3    2    23   11   8    1    4    23   14   52
1st      PAS Giannina            26   8    1    4    23   19   7    5    1    30   11   51
1st      PAS Giannina            26   7    4    2    28   13   9    3    1    24   12   55
1st      PAS Giannina            26   9    3    1    27   10   8    4    1    30   12   58
1st      PAS Giannina            26   12   1    0    32   6    6    3    4    29   22   58
1st      PAS Giannina            26   11   0    2    32   14   4    4    5    17   18   49
1st      PAS Giannina            26   10   3    0    31   9    10   2    1    33   11   65
1st      PAS Giannina            26   12   0    1    39   10   6    6    1    26   16   60
1st      PAS Giannina            26   12   1    0    34   10   6    1    6    27   21   56
2nd     PAS Giannina            26   10   2    1    31   15   5    4    4    23   18   51
1st      PAS Giannina            26   11   1    1    26   10   9    0    4    28   16   61
3rd     PAS Giannina            26   8    4    1    29   15   5    5    3    29   20   48
2nd     PAS Giannina            26   10   3    0    31   13   5    2    6    21   22   50
4th     PAS Giannina            26   6    4    3    21   12   5    2    6    17   20   39
3rd     PAS Giannina            26   7    3    3    27   18   5    5    3    22   21   44
2nd     PAS Giannina            26   12   0    1    35   9    5    2    6    23   18   53
1st      PAS Giannina            26   12   1    0    33   10   7    2    4    19   11   60
1st      PAS Giannina            26   12   1    0    32   10   8    2    3    25   15   63
1st      PAS Giannina            26   10   2    1    42   17   7    4    2    22   14   57
1st      PAS Giannina            26   7    5    1    27   12   11   2    0    32   9    61
1st      PAS Giannina            26   7    3    3    30   22   7    3    3    25   11   48
1st      PAS Giannina            26   10   2    1    30   9    6    2    5    18   18   52
1st      PAS Giannina            26   10   2    1    25   12   8    3    2    30   19   59
2nd     PAS Giannina            26   11   1    1    37   10   5    2    6    16   15   51
1st      PAS Giannina            26   9    3    1    37   16   8    3    2    25   12   57
1st      PAS Giannina            26   9    2    2    25   12   7    2    4    21   16   52
1st      PAS Giannina            26   10   2    1    36   14   10   2    1    26   10   64
2nd     PAS Giannina            26   10   3    0    27   7    8    1    4    16   11   58
1st      PAS Giannina            26   11   2    0    31   13   8    1    4    20   15   60
1st      PAS Giannina            26   10   3    0    32   13   8    2    3    29   17   59
1st      PAS Giannina            26   9    3    1    31   13   10   2    1    28   13   62
2nd     PAS Giannina            26   10   3    0    28   7    5    4    4    20   18   52
1st      PAS Giannina            26   10   1    2    28   8    9    2    2    26   9    60
1st      PAS Giannina            26   9    3    1    27   11   9    2    2    23   9    59
1st      PAS Giannina            26   12   1    0    36   15   8    3    2    30   15   64
1st      PAS Giannina            26   9    2    2    30   11   9    1    3    28   11   57
2nd     PAS Giannina            26   8    5    0    22   7    8    1    4    28   14   54
1st      PAS Giannina            26   12   1    0    37   10   10   3    0    29   10   70
1st      PAS Giannina            26   9    2    2    24   13   9    0    4    27   9    56
2nd     PAS Giannina            26   10   1    2    35   14   5    3    5    22   19   49
1st      PAS Giannina            26   10   1    2    27   14   7    4    2    26   17   56
1st      PAS Giannina            26   9    3    1    34   11   8    2    3    24   12   56
1st      PAS Giannina            26   7    3    3    23   12   10   1    2    31   17   55
1st      PAS Giannina            26   13   0    0    31   7    7    2    4    26   14   62
1st      PAS Giannina            26   10   2    1    30   15   9    2    2    30   17   61
1st      PAS Giannina            26   11   1    1    31   12   6    3    4    20   16   55
2nd     PAS Giannina            26   8    5    0    36   16   8    3    2    32   21   56
1st      PAS Giannina            26   12   0    1    35   9    8    1    4    27   13   61
1st      PAS Giannina            26   10   2    1    27   10   6    2    5    22   19   52
1st      PAS Giannina            26   9    3    1    30   18   8    2    3    23   13   56
1st      PAS Giannina            26   12   1    0    31   7    6    3    4    21   17   58
2nd     PAS Giannina            26   9    2    2    34   26   8    3    2    26   14   56
2nd     PAS Giannina            26   10   3    0    35   12   7    3    3    25   14   57
1st      PAS Giannina            26   10   1    2    34   13   10   2    1    29   10   63
2nd     PAS Giannina            26   9    2    2    29   12   6    3    4    22   16   50
1st      PAS Giannina            26   11   1    1    37   14   10   1    2    31   14   65
1st      PAS Giannina            26   10   3    0    30   13   8    2    3    25   13   59
1st      PAS Giannina            26   12   0    1    38   13   11   1    1    32   11   70
2nd     PAS Giannina            26   9    0    4    26   17   7    5    1    19   7    53
1st      PAS Giannina            26   10   3    0    38   15   8    4    1    26   13   61
1st      PAS Giannina            26   9    4    0    34   20   10   1    2    27   11   62
1st      PAS Giannina            26   9    3    1    34   16   9    4    0    28   8    61
4th     PAS Giannina            26   8    3    2    29   14   4    6    3    22   21   45
1st      PAS Giannina            26   9    3    1    31   10   8    2    3    25   15   56