1st     PAS Giannina                    26   9    2    2    36   16   12   1    0    36   13   66   
1st     PAS Giannina                    26   11   1    1    38   6    6    6    1    29   14   58   
1st     PAS Giannina                    26   11   0    2    36   6    10   3    0    34   8    66   
1st     PAS Giannina                    26   11   1    1    30   9    6    6    1    28   15   58   
1st     PAS Giannina                    26   11   1    1    30   9    11   0    2    33   7    67   
1st     PAS Giannina                    26   11   2    0    38   10   10   1    2    31   13   66   
1st     PAS Giannina                    26   12   0    1    39   11   9    2    2    28   11   65   
1st     PAS Giannina                    26   9    3    1    28   13   10   1    2    33   11   61   
1st     PAS Giannina                    26   12   0    1    29   8    8    4    1    24   10   64   
2nd     PAS Giannina                    26   9    4    0    32   10   7    3    3    18   15   55   
1st     PAS Giannina                    26   10   2    1    33   7    9    4    0    29   13   63   
1st     PAS Giannina                    26   9    3    1    28   10   10   3    0    31   8    63   
1st     PAS Giannina                    26   10   3    0    31   10   10   1    2    30   10   64   
1st     PAS Giannina                    26   10   1    2    30   10   10   2    1    28   8    63   
1st     PAS Giannina                    26   13   0    0    40   8    10   1    2    36   17   70   
1st     PAS Giannina                    26   12   0    1    34   10   10   1    2    33   16   67   
1st     PAS Giannina                    26   12   1    0    38   7    9    2    2    34   22   66   
1st     PAS Giannina                    26   12   0    1    46   15   11   2    0    34   12   71   
1st     PAS Giannina                    26   11   2    0    27   8    10   2    1    32   7    67   
1st     PAS Giannina                    26   8    4    1    30   9    10   1    2    28   6    59   
1st     PAS Giannina                    26   9    4    0    35   19   10   2    1    29   14   63   
1st     PAS Giannina                    26   12   0    1    33   8    7    5    1    21   7    62   
1st     PAS Giannina                    26   13   0    0    47   12   8    2    3    27   12   65   
1st     PAS Giannina                    26   11   1    1    41   12   9    2    2    29   17   63   
1st     PAS Giannina                    26   10   3    0    33   10   8    3    2    29   15   60   
1st     PAS Giannina                    26   13   0    0    43   12   10   1    2    33   14   70   
1st     PAS Giannina                    26   11   1    1    35   12   8    4    1    31   16   62   
1st     PAS Giannina                    26   9    4    0    26   12   10   1    2    31   9    62   
1st     PAS Giannina                    26   13   0    0    42   10   9    2    2    29   13   68   
1st     PAS Giannina                    26   11   1    1    35   12   9    4    0    31   13   65   
1st     PAS Giannina                    26   13   0    0    37   3    8    2    3    30   15   65   
1st     PAS Giannina                    26   11   1    1    35   9    9    1    3    33   14   62   
1st     PAS Giannina                    26   11   1    1    34   12   11   2    0    33   11   69   
1st     PAS Giannina                    26   12   1    0    37   8    9    1    3    27   15   65   
2nd     PAS Giannina                    26   11   0    2    38   11   7    3    3    25   15   57   
1st     PAS Giannina                    26   8    4    1    33   19   8    2    3    24   12   54   
1st     PAS Giannina                    26   13   0    0    40   7    8    4    1    32   11   67   
1st     PAS Giannina                    26   11   2    0    44   12   9    1    3    26   18   63   
2nd     PAS Giannina                    26   10   2    1    34   9    9    4    0    28   11   63   
1st     PAS Giannina                    26   8    3    2    28   9    11   1    1    35   16   61   
1st     PAS Giannina                    26   11   2    0    28   6    6    5    2    27   19   58   
2nd     PAS Giannina                    26   11   1    1    39   14   8    3    2    33   19   61   
1st     PAS Giannina                    26   12   1    0    37   6    9    2    2    27   8    66   
1st     PAS Giannina                    26   8    4    1    28   13   10   2    1    35   10   60   
2nd     PAS Giannina                    26   10   2    1    31   9    5    7    1    16   14   54   
1st     PAS Giannina                    26   11   1    1    29   7    12   0    1    37   11   70   
1st     PAS Giannina                    26   11   2    0    32   11   9    2    2    29   14   64   
1st     PAS Giannina                    26   11   2    0    35   11   8    4    1    29   14   63   
1st     PAS Giannina                    26   9    2    2    36   16   13   0    0    33   4    68   
1st     PAS Giannina                    26   13   0    0    48   16   10   1    2    38   18   70   
1st     PAS Giannina                    26   10   3    0    28   8    11   1    1    30   6    67   
1st     PAS Giannina                    26   12   1    0    33   6    9    2    2    26   13   66   
1st     PAS Giannina                    26   12   1    0    36   12   11   2    0    32   8    72   
1st     PAS Giannina                    26   12   1    0    38   8    10   2    1    26   13   69   
1st     PAS Giannina                    26   10   2    1    32   12   9    3    1    31   10   62   
1st     PAS Giannina                    26   13   0    0    43   10   6    5    2    24   14   62   
1st     PAS Giannina                    26   13   0    0    37   6    6    2    5    22   18   59   
1st     PAS Giannina                    26   11   1    1    35   7    9    2    2    24   10   63   
1st     PAS Giannina                    26   9    3    1    31   8    12   1    0    40   9    67   
1st     PAS Giannina                    26   12   0    1    35   5    11   0    2    34   12   69   
1st     PAS Giannina                    26   12   1    0    45   13   10   2    1    34   11   69   
1st     PAS Giannina                    26   10   1    2    34   10   9    2    2    30   9    60   
1st     PAS Giannina                    26   10   3    0    34   9    10   1    2    34   16   64   
1st     PAS Giannina                    26   12   1    0    40   13   9    0    4    24   14   64   
2nd     PAS Giannina                    26   10   1    2    40   12   5    5    3    20   15   51   
1st     PAS Giannina                    26   10   0    3    35   16   9    2    2    26   11   59   
1st     PAS Giannina                    26   11   1    1    34   5    7    5    1    24   13   60   
2nd     PAS Giannina                    26   7    5    1    31   11   10   2    1    25   10   58   
1st     PAS Giannina                    26   13   0    0    40   15   8    2    3    27   13   65   
1st     PAS Giannina                    26   9    4    0    32   8    11   2    0    29   6    66   
1st     PAS Giannina                    26   12   1    0    38   6    10   2    1    36   11   69   
1st     PAS Giannina                    26   12   1    0    33   9    9    3    1    38   15   67   
1st     PAS Giannina                    26   13   0    0    35   8    10   1    2    24   7    70   
1st     PAS Giannina                    26   11   2    0    41   7    7    5    1    29   13   61   
1st     PAS Giannina                    26   12   1    0    37   12   11   1    1    31   12   71   
1st     PAS Giannina                    26   10   1    2    31   13   10   2    1    40   17   63   
1st     PAS Giannina                    26   11   1    1    39   12   11   2    0    34   11   69   
1st     PAS Giannina                    26   12   1    0    34   9    6    4    3    21   13   59   
1st     PAS Giannina                    26   12   0    1    38   9    11   2    0    38   12   71   
1st     PAS Giannina                    26   12   1    0    42   9    10   2    1    26   12   69   
1st     PAS Giannina                    26   10   3    0    26   11   8    5    0    27   11   62   
1st     PAS Giannina                    26   11   1    1    34   12   10   2    1    32   11   66   
1st     PAS Giannina                    26   13   0    0    36   11   9    2    2    25   11   68   
1st     PAS Giannina                    26   11   1    1    37   13   7    4    2    21   12   59   
1st     PAS Giannina                    26   11   1    1    37   14   9    2    2    20   8    63   
1st     PAS Giannina                    26   11   1    1    30   10   9    1    3    30   9    62   
1st     PAS Giannina                    26   12   0    1    45   11   8    2    3    25   10   62   
1st     PAS Giannina                    26   12   1    0    37   9    9    4    0    39   15   68   
1st     PAS Giannina                    26   10   1    2    27   8    10   1    2    30   9    62   
1st     PAS Giannina                    26   10   2    1    30   10   9    1    3    27   10   60   
1st     PAS Giannina                    26   11   2    0    36   12   5    4    4    23   17   54   
1st     PAS Giannina                    26   13   0    0    35   3    7    1    5    27   20   61   
1st     PAS Giannina                    26   11   1    1    30   7    9    3    1    29   11   64   
1st     PAS Giannina                    26   13   0    0    36   13   9    2    2    32   16   68   
1st     PAS Giannina                    26   9    2    2    28   15   8    2    3    28   12   55   
1st     PAS Giannina                    26   11   2    0    34   8    10   2    1    27   11   67   
1st     PAS Giannina                    26   12   0    1    38   10   9    4    0    40   14   67   
1st     PAS Giannina                    26   11   1    1    30   13   12   1    0    36   8    71   
1st     PAS Giannina                    26   11   0    2    39   11   8    1    4    29   14   58   
1st     PAS Giannina                    26   13   0    0    34   5    12   1    0    31   7    76   