2nd     PAS Giannina                    26   7    3    3    28   15   7    4    2    20   14   49   
3rd     PAS Giannina                    26   8    3    2    26   11   6    2    5    33   24   47   
2nd     PAS Giannina                    26   7    5    1    33   23   5    5    3    26   19   46   
2nd     PAS Giannina                    26   9    3    1    29   16   6    2    5    26   21   50   
4th     PAS Giannina                    26   5    4    4    28   16   7    2    4    18   17   42   
2nd     PAS Giannina                    26   9    3    1    38   19   7    2    4    21   17   53   
2nd     PAS Giannina                    26   8    1    4    33   23   7    4    2    23   13   50   
4th     PAS Giannina                    26   7    2    4    31   19   6    3    4    27   22   44   
1st     PAS Giannina                    26   8    4    1    37   17   5    5    3    24   22   48   
1st     PAS Giannina                    26   7    4    2    36   20   7    3    3    16   11   49   
3rd     PAS Giannina                    26   7    3    3    30   19   5    4    4    30   24   43   
2nd     PAS Giannina                    26   10   0    3    29   15   5    3    5    17   18   48   
1st     PAS Giannina                    26   9    2    2    34   17   8    2    3    28   17   55   
3rd     PAS Giannina                    26   9    3    1    33   14   5    5    3    23   16   50   
1st     PAS Giannina                    26   10   2    1    33   16   7    3    3    29   22   56   
3rd     PAS Giannina                    26   9    3    1    30   16   7    2    4    30   26   53   
1st     PAS Giannina                    26   10   2    1    39   17   7    5    1    31   20   58   
2nd     PAS Giannina                    26   7    2    4    25   21   7    4    2    27   16   48   
2nd     PAS Giannina                    26   7    6    0    31   19   7    2    4    29   25   50   
2nd     PAS Giannina                    26   9    3    1    30   12   8    3    2    24   16   57   
2nd     PAS Giannina                    26   9    3    1    34   20   6    2    5    24   19   50   
1st     PAS Giannina                    26   9    2    2    34   17   4    6    3    25   24   47   
1st     PAS Giannina                    26   13   0    0    41   10   8    2    3    27   17   65   
1st     PAS Giannina                    26   11   2    0    39   18   10   1    2    32   16   66   
2nd     PAS Giannina                    26   9    3    1    37   13   6    4    3    25   21   52   
2nd     PAS Giannina                    26   10   2    1    36   18   6    4    3    19   15   54   
1st     PAS Giannina                    26   11   2    0    34   15   8    2    3    27   14   61   
1st     PAS Giannina                    26   10   3    0    39   16   9    2    2    25   14   62   
8th     PAS Giannina                    26   6    3    4    30   27   3    4    6    26   29   34   
1st     PAS Giannina                    26   9    1    3    38   19   7    4    2    26   20   53   
3rd     PAS Giannina                    26   6    3    4    27   22   7    3    3    26   19   45   
1st     PAS Giannina                    26   9    3    1    39   19   6    5    2    32   22   53   
1st     PAS Giannina                    26   10   2    1    27   13   10   2    1    29   16   64   
3rd     PAS Giannina                    26   6    3    4    26   20   7    5    1    29   21   47   
1st     PAS Giannina                    26   11   0    2    34   14   8    2    3    26   15   59   
1st     PAS Giannina                    26   9    3    1    32   16   9    2    2    25   13   59   
1st     PAS Giannina                    26   11   1    1    31   12   7    2    4    25   18   57   
3rd     PAS Giannina                    26   7    5    1    27   17   7    3    3    26   23   50   
2nd     PAS Giannina                    26   7    2    4    32   18   9    2    2    34   13   52   
1st     PAS Giannina                    26   11   1    1    35   14   6    3    4    23   21   55   
5th     PAS Giannina                    26   4    5    4    24   24   6    4    3    23   14   39   
1st     PAS Giannina                    26   10   0    3    35   16   8    4    1    31   18   58   
1st     PAS Giannina                    26   11   1    1    40   18   7    2    4    28   16   57   
2nd     PAS Giannina                    26   7    4    2    29   21   5    5    3    30   21   45   
2nd     PAS Giannina                    26   10   2    1    34   15   6    4    3    25   21   54   
1st     PAS Giannina                    26   11   2    0    33   11   8    3    2    33   16   62   
1st     PAS Giannina                    26   12   0    1    36   17   8    3    2    25   14   63   
1st     PAS Giannina                    26   9    3    1    34   16   8    3    2    29   22   57   
2nd     PAS Giannina                    26   11   0    2    38   15   8    2    3    27   11   59   
2nd     PAS Giannina                    26   9    3    1    35   17   7    3    3    26   22   54   
1st     PAS Giannina                    26   11   0    2    30   14   7    4    2    35   16   58   
2nd     PAS Giannina                    26   11   1    1    34   15   8    3    2    23   12   61   
1st     PAS Giannina                    26   10   3    0    29   13   6    5    2    33   16   56   
4th     PAS Giannina                    26   7    3    3    30   19   4    5    4    23   23   41   
1st     PAS Giannina                    26   8    4    1    30   16   8    4    1    30   17   56   
1st     PAS Giannina                    26   7    3    3    27   23   8    4    1    29   16   52   
2nd     PAS Giannina                    26   7    3    3    26   20   8    2    3    22   14   50   
2nd     PAS Giannina                    26   8    4    1    35   21   7    3    3    29   18   52   
2nd     PAS Giannina                    26   9    2    2    42   23   7    1    5    24   20   51   
1st     PAS Giannina                    26   11   1    1    30   14   10   0    3    25   14   64   
4th     PAS Giannina                    26   9    3    1    35   16   4    4    5    22   19   46   
1st     PAS Giannina                    26   8    3    2    28   18   6    3    4    28   25   48   
1st     PAS Giannina                    26   10   1    2    34   16   8    5    0    28   16   60   
1st     PAS Giannina                    26   9    3    1    33   15   10   0    3    37   18   60   
1st     PAS Giannina                    26   12   1    0    36   15   7    3    3    30   21   61   
1st     PAS Giannina                    26   13   0    0    36   14   6    1    6    21   19   58   
1st     PAS Giannina                    26   9    4    0    30   17   8    3    2    30   15   58   
1st     PAS Giannina                    26   11   1    1    36   15   5    3    5    22   20   52   
2nd     PAS Giannina                    26   10   2    1    34   16   8    0    5    28   18   56   
1st     PAS Giannina                    26   8    4    1    32   18   8    2    3    26   14   54   
2nd     PAS Giannina                    26   11   2    0    37   14   6    4    3    25   25   57   
1st     PAS Giannina                    26   10   3    0    32   13   8    4    1    27   15   61   
1st     PAS Giannina                    26   10   2    1    38   16   10   1    2    28   17   63   
5th     PAS Giannina                    26   7    1    5    26   21   6    1    6    21   22   41   
2nd     PAS Giannina                    26   9    3    1    32   14   9    2    2    31   19   59   
2nd     PAS Giannina                    26   11   2    0    35   11   3    4    6    24   26   48   
2nd     PAS Giannina                    26   8    4    1    37   23   7    2    4    27   19   51   
2nd     PAS Giannina                    26   9    3    1    32   15   6    2    5    27   23   50   
2nd     PAS Giannina                    26   9    2    2    34   15   7    2    4    25   18   52   
1st     PAS Giannina                    26   8    1    4    34   16   8    4    1    27   16   53   
1st     PAS Giannina                    26   9    2    2    36   18   8    0    5    25   23   53   
4th     PAS Giannina                    26   7    3    3    31   21   5    4    4    29   25   43   
1st     PAS Giannina                    26   12   0    1    29   13   9    3    1    33   17   66   
1st     PAS Giannina                    26   11   1    1    34   14   8    3    2    31   18   61   
4th     PAS Giannina                    26   9    1    3    38   15   4    4    5    24   21   44   
1st     PAS Giannina                    26   7    5    1    27   16   7    5    1    23   13   52   
2nd     PAS Giannina                    26   9    3    1    32   19   7    1    5    23   16   52   
1st     PAS Giannina                    26   10   0    3    38   18   9    1    3    37   22   58   
3rd     PAS Giannina                    26   8    1    4    27   13   6    3    4    28   24   46   
2nd     PAS Giannina                    26   11   2    0    32   13   6    6    1    29   18   59   
1st     PAS Giannina                    26   11   2    0    32   11   9    3    1    29   15   65   
2nd     PAS Giannina                    26   8    4    1    28   14   6    6    1    27   20   52   
1st     PAS Giannina                    26   10   2    1    37   17   8    2    3    24   18   58   
1st     PAS Giannina                    26   10   1    2    36   15   6    2    5    31   25   51   
1st     PAS Giannina                    26   9    4    0    35   17   10   0    3    37   17   61   
1st     PAS Giannina                    26   10   1    2    33   13   9    2    2    29   14   60   
1st     PAS Giannina                    26   9    3    1    35   18   7    1    5    33   22   52   
1st     PAS Giannina                    26   11   2    0    33   13   7    3    3    25   19   59   
2nd     PAS Giannina                    26   10   2    1    26   9    8    1    4    34   21   57   
2nd     PAS Giannina                    26   9    2    2    36   16   7    4    2    26   20   54   