2nd     PAS Giannina                    26   10   1    2    38   14   10   1    2    41   13   62   
1st     PAS Giannina                    26   11   2    0    32   8    8    3    2    32   11   62   
1st     PAS Giannina                    26   10   1    2    41   18   7    3    3    33   18   55   
1st     PAS Giannina                    26   10   1    2    34   16   9    4    0    35   9    62   
1st     PAS Giannina                    26   10   1    2    29   13   11   1    1    32   13   65   
1st     PAS Giannina                    26   12   1    0    42   12   10   1    2    39   15   68   
1st     PAS Giannina                    26   13   0    0    45   11   12   1    0    48   10   76   
1st     PAS Giannina                    26   12   1    0    45   12   12   1    0    44   14   74   
1st     PAS Giannina                    26   13   0    0    44   15   11   2    0    39   12   74   
1st     PAS Giannina                    26   11   0    2    35   10   11   2    0    39   9    68   
1st     PAS Giannina                    26   13   0    0    46   12   11   2    0    40   10   74   
1st     PAS Giannina                    26   12   1    0    43   12   12   0    1    43   11   73   
1st     PAS Giannina                    26   12   1    0    46   12   11   0    2    40   14   70   
1st     PAS Giannina                    26   10   2    1    43   23   11   0    2    45   18   65   
1st     PAS Giannina                    26   11   0    2    39   17   10   1    2    37   18   64   
1st     PAS Giannina                    26   10   3    0    37   11   7    3    3    33   18   57   
1st     PAS Giannina                    26   11   1    1    40   10   13   0    0    44   12   73   
1st     PAS Giannina                    26   12   0    1    40   14   12   0    1    33   8    72   
1st     PAS Giannina                    26   10   2    1    42   14   10   1    2    30   13   63   
1st     PAS Giannina                    26   9    2    2    36   14   11   0    2    35   10   62   
1st     PAS Giannina                    26   12   1    0    35   14   11   1    1    36   12   71   
1st     PAS Giannina                    26   11   2    0    39   14   8    3    2    24   13   62   
1st     PAS Giannina                    26   12   0    1    33   6    8    1    4    36   21   61   
1st     PAS Giannina                    26   12   0    1    41   9    11   1    1    46   15   70   
1st     PAS Giannina                    26   12   0    1    44   23   10   2    1    34   12   68   
1st     PAS Giannina                    26   9    2    2    41   18   11   1    1    35   14   63   
1st     PAS Giannina                    26   10   3    0    39   16   10   2    1    34   13   65   
1st     PAS Giannina                    26   11   1    1    38   10   7    5    1    34   16   60   
1st     PAS Giannina                    26   9    3    1    50   25   9    2    2    41   20   59   
1st     PAS Giannina                    26   11   1    1    36   16   12   1    0    44   13   71   
1st     PAS Giannina                    26   11   2    0    43   14   9    2    2    36   16   64   
1st     PAS Giannina                    26   12   1    0    29   8    12   1    0    46   11   74   
1st     PAS Giannina                    26   9    4    0    30   9    9    3    1    30   12   61   
1st     PAS Giannina                    26   10   3    0    33   14   12   0    1    45   13   69   
1st     PAS Giannina                    26   12   1    0    37   11   9    2    2    33   14   66   
1st     PAS Giannina                    26   13   0    0    45   11   10   2    1    39   19   71   
1st     PAS Giannina                    26   9    3    1    38   16   12   1    0    38   12   67   
1st     PAS Giannina                    26   12   0    1    43   13   7    1    5    25   14   58   
1st     PAS Giannina                    26   11   1    1    39   12   10   3    0    33   11   67   
1st     PAS Giannina                    26   10   1    2    39   15   12   0    1    38   8    67   
1st     PAS Giannina                    26   11   2    0    42   11   13   0    0    44   14   74   
1st     PAS Giannina                    26   10   3    0    38   7    8    2    3    37   20   59   
1st     PAS Giannina                    26   11   1    1    43   16   10   3    0    41   13   67   
1st     PAS Giannina                    26   12   1    0    38   9    9    3    1    40   13   67   
1st     PAS Giannina                    26   13   0    0    50   17   11   2    0    43   14   74   
1st     PAS Giannina                    26   12   0    1    34   8    11   1    1    44   14   70   
1st     PAS Giannina                    26   13   0    0    38   9    11   1    1    42   16   73   
1st     PAS Giannina                    26   11   1    1    41   16   11   2    0    39   12   69   
1st     PAS Giannina                    26   12   1    0    45   13   6    4    3    33   19   59   
1st     PAS Giannina                    26   13   0    0    41   13   10   2    1    41   19   71   
1st     PAS Giannina                    26   11   1    1    41   13   12   1    0    42   10   71   
1st     PAS Giannina                    26   9    1    3    35   22   11   0    2    35   7    61   
1st     PAS Giannina                    26   9    2    2    33   11   11   2    0    35   9    64   
1st     PAS Giannina                    26   13   0    0    45   12   11   1    1    33   11   73   
1st     PAS Giannina                    26   11   0    2    40   14   11   2    0    43   10   68   
1st     PAS Giannina                    26   11   1    1    44   16   8    4    1    30   11   62   
1st     PAS Giannina                    26   12   1    0    48   9    10   2    1    40   16   69   
1st     PAS Giannina                    26   11   1    1    35   15   10   1    2    39   16   65   
1st     PAS Giannina                    26   12   1    0    36   12   11   2    0    38   9    72   
1st     PAS Giannina                    26   11   2    0    39   15   12   0    1    35   15   71   
1st     PAS Giannina                    26   9    1    3    36   19   11   1    1    39   14   62   
1st     PAS Giannina                    26   9    2    2    31   10   9    3    1    33   12   59   
1st     PAS Giannina                    26   12   1    0    39   13   12   1    0    44   13   74   
1st     PAS Giannina                    26   12   0    1    39   7    10   1    2    33   13   67   
1st     PAS Giannina                    26   12   0    1    46   16   10   3    0    27   7    69   
1st     PAS Giannina                    26   9    4    0    31   10   9    2    2    32   10   60   
1st     PAS Giannina                    26   11   2    0    32   6    11   1    1    40   10   69   
1st     PAS Giannina                    26   12   0    1    35   10   11   2    0    39   14   71   
1st     PAS Giannina                    26   11   2    0    40   15   12   1    0    43   15   72   
1st     PAS Giannina                    26   13   0    0    42   11   9    1    3    32   16   67   
1st     PAS Giannina                    26   11   2    0    45   17   10   3    0    42   18   68   
1st     PAS Giannina                    26   13   0    0    47   14   10   2    1    44   16   71   
1st     PAS Giannina                    26   10   3    0    38   11   9    1    3    32   18   61   
1st     PAS Giannina                    26   12   1    0    33   13   12   1    0    37   10   74   
1st     PAS Giannina                    26   11   2    0    48   15   9    1    3    35   12   63   
1st     PAS Giannina                    26   11   0    2    46   16   11   0    2    43   12   66   
1st     PAS Giannina                    26   13   0    0    40   12   12   0    1    36   10   75   
1st     PAS Giannina                    26   12   1    0    43   9    8    3    2    32   16   64   
1st     PAS Giannina                    26   12   1    0    45   9    9    1    3    33   18   65   
1st     PAS Giannina                    26   12   1    0    44   11   10   0    3    34   11   67   
1st     PAS Giannina                    26   11   1    1    36   10   11   1    1    37   9    68   
1st     PAS Giannina                    26   11   1    1    44   15   11   1    1    35   8    68   
1st     PAS Giannina                    26   10   2    1    35   15   10   3    0    36   13   65   
1st     PAS Giannina                    26   12   1    0    43   10   12   0    1    38   12   73   
1st     PAS Giannina                    26   10   0    3    32   19   11   1    1    41   12   64   
1st     PAS Giannina                    26   7    3    3    23   12   10   2    1    31   10   56   
1st     PAS Giannina                    26   12   1    0    40   10   11   1    1    39   12   71   
1st     PAS Giannina                    26   11   2    0    41   14   12   1    0    37   6    72   
1st     PAS Giannina                    26   12   1    0    38   11   10   3    0    32   8    70   
1st     PAS Giannina                    26   12   0    1    41   9    9    4    0    37   13   67   
1st     PAS Giannina                    26   11   2    0    44   17   12   0    1    50   9    71   
1st     PAS Giannina                    26   9    3    1    31   12   11   1    1    34   15   64   
1st     PAS Giannina                    26   13   0    0    40   9    11   2    0    42   7    74   
1st     PAS Giannina                    26   12   0    1    42   13   11   0    2    36   12   69   
1st     PAS Giannina                    26   11   2    0    43   12   11   1    1    33   11   69   
1st     PAS Giannina                    26   11   1    1    38   15   11   2    0    45   15   69   
1st     PAS Giannina                    26   11   2    0    38   14   9    3    1    33   12   65   
1st     PAS Giannina                    26   12   1    0    41   14   11   2    0    36   12   72   
1st     PAS Giannina                    26   12   1    0    45   12   12   0    1    40   9    73   
1st     PAS Giannina                    26   7    4    2    34   15   10   2    1    40   12   57   