1st     PAS Giannina                    26   8    2    3    26   16   5    5    3    25   17   46
3rd     PAS Giannina                    26   8    1    4    29   15   6    4    3    24   19   47
2nd     PAS Giannina                    26   10   2    1    38   14   6    2    5    20   18   52
3rd     PAS Giannina                    26   7    4    2    27   18   4    5    4    19   17   42
1st     PAS Giannina                    26   11   2    0    31   13   5    6    2    19   14   56
2nd     PAS Giannina                    26   8    3    2    32   18   7    1    5    28   15   49
2nd     PAS Giannina                    26   9    3    1    35   16   4    4    5    23   24   46
3rd     PAS Giannina                    26   8    4    1    30   14   4    3    6    20   22   43
1st     PAS Giannina                    26   8    3    2    34   16   8    0    5    22   20   51
3rd     PAS Giannina                    26   9    2    2    30   16   6    2    5    17   15   49
2nd     PAS Giannina                    26   10   2    1    27   9    8    1    4    26   21   57
2nd     PAS Giannina                    26   9    3    1    40   17   3    5    5    21   22   44
2nd     PAS Giannina                    26   8    3    2    30   20   4    4    5    20   19   43
2nd     PAS Giannina                    26   11   0    2    27   11   4    4    5    22   22   49
3rd     PAS Giannina                    26   9    1    3    32   15   5    1    7    20   21   44
1st     PAS Giannina                    26   9    3    1    27   15   5    4    4    18   16   49
4th     PAS Giannina                    26   9    2    2    33   17   3    4    6    20   23   42
2nd     PAS Giannina                    26   10   2    1    39   18   4    4    5    20   19   48
1st     PAS Giannina                    26   11   2    0    38   13   9    2    2    28   20   64
1st     PAS Giannina                    26   12   1    0    40   14   7    2    4    23   16   60
3rd     PAS Giannina                    26   9    2    2    29   18   8    0    5    22   16   53
2nd     PAS Giannina                    26   8    0    5    30   23   7    2    4    22   15   47
1st     PAS Giannina                    26   10   1    2    35   17   6    2    5    21   20   51
1st     PAS Giannina                    26   11   1    1    33   12   6    2    5    29   19   54
4th     PAS Giannina                    26   7    3    3    31   24   6    3    4    25   20   45
2nd     PAS Giannina                    26   7    2    4    24   20   7    5    1    25   14   49
4th     PAS Giannina                    26   10   2    1    33   13   3    5    5    18   20   46
2nd     PAS Giannina                    26   10   2    1    25   10   3    7    3    21   17   48
2nd     PAS Giannina                    26   9    2    2    36   17   4    2    7    21   22   43
2nd     PAS Giannina                    26   8    4    1    26   12   5    4    4    18   15   47
2nd     PAS Giannina                    26   10   1    2    36   18   5    4    4    19   14   50
1st     PAS Giannina                    26   10   3    0    34   16   5    3    5    16   16   51
1st     PAS Giannina                    26   12   1    0    30   7    8    1    4    21   12   62
1st     PAS Giannina                    26   10   1    2    28   16   6    2    5    22   20   51
7th     PAS Giannina                    26   8    3    2    28   18   3    1    9    18   30   37
7th     PAS Giannina                    26   8    2    3    30   13   3    3    7    24   30   38
1st     PAS Giannina                    26   9    2    2    25   15   9    3    1    20   6    59
1st     PAS Giannina                    26   10   1    2    34   19   8    4    1    22   10   59
3rd     PAS Giannina                    26   10   1    2    33   15   4    4    5    23   24   47
2nd     PAS Giannina                    26   10   2    1    35   19   3    5    5    15   23   46
4th     PAS Giannina                    26   7    5    1    30   15   5    3    5    21   22   44
5th     PAS Giannina                    26   8    3    2    30   13   5    2    6    17   19   44
1st     PAS Giannina                    26   12   1    0    35   8    8    1    4    24   14   62
1st     PAS Giannina                    26   10   3    0    35   14   5    2    6    17   18   50
4th     PAS Giannina                    26   8    4    1    22   8    4    1    8    13   22   41
2nd     PAS Giannina                    26   11   1    1    35   16   5    5    3    21   18   54
2nd     PAS Giannina                    26   10   1    2    34   19   6    2    5    20   16   51
1st     PAS Giannina                    26   9    3    1    27   16   6    4    3    18   10   52
3rd     PAS Giannina                    26   8    3    2    37   20   5    5    3    28   21   47
4th     PAS Giannina                    26   7    1    5    21   16   7    1    5    26   17   44
1st     PAS Giannina                    26   10   0    3    31   12   8    1    4    26   20   55
7th     PAS Giannina                    26   6    4    3    25   18   3    5    5    23   22   36
9th     PAS Giannina                    26   5    5    3    23   24   4    2    7    12   13   34
2nd     PAS Giannina                    26   11   1    1    35   17   7    2    4    23   21   57
4th     PAS Giannina                    26   6    4    3    22   18   6    2    5    21   18   42
1st     PAS Giannina                    26   11   2    0    31   10   6    3    4    27   16   56
3rd     PAS Giannina                    26   10   1    2    32   10   4    2    7    13   24   45
2nd     PAS Giannina                    26   6    4    3    29   23   6    2    5    21   17   42
4th     PAS Giannina                    26   9    2    2    35   16   3    3    7    21   27   41
1st     PAS Giannina                    26   11   1    1    35   11   4    5    4    17   16   51
1st     PAS Giannina                    26   12   1    0    31   12   6    2    5    25   20   57
1st     PAS Giannina                    26   13   0    0    41   9    6    3    4    23   21   60
4th     PAS Giannina                    26   7    3    3    25   17   5    3    5    21   22   42
3rd     PAS Giannina                    26   9    2    2    31   14   3    5    5    16   22   43
1st     PAS Giannina                    26   8    4    1    26   12   6    5    2    28   17   51
1st     PAS Giannina                    26   10   2    1    39   16   7    4    2    25   14   57
2nd     PAS Giannina                    26   9    2    2    32   18   6    3    4    21   20   50
1st     PAS Giannina                    26   10   2    1    30   15   6    1    6    28   22   51
4th     PAS Giannina                    26   10   2    1    31   12   2    5    6    23   26   43
1st     PAS Giannina                    26   10   2    1    32   16   7    3    3    24   14   56
2nd     PAS Giannina                    26   12   1    0    41   17   6    3    4    21   16   58
1st     PAS Giannina                    26   13   0    0    38   10   5    3    5    19   17   57
4th     PAS Giannina                    26   7    2    4    27   19   6    1    6    20   18   42
1st     PAS Giannina                    26   11   0    2    32   16   5    3    5    19   20   51
6th     PAS Giannina                    26   10   2    1    30   10   1    4    8    15   24   39
3rd     PAS Giannina                    26   7    2    4    35   20   5    4    4    19   19   42
1st     PAS Giannina                    26   12   1    0    41   10   6    3    4    20   15   58
4th     PAS Giannina                    26   5    5    3    26   25   4    6    3    14   11   38
1st     PAS Giannina                    26   12   1    0    39   15   6    4    3    35   22   59
1st     PAS Giannina                    26   12   1    0    36   11   5    4    4    20   15   56
4th     PAS Giannina                    26   7    2    4    26   20   4    3    6    23   24   38
3rd     PAS Giannina                    26   9    2    2    31   22   7    1    5    22   18   51
2nd     PAS Giannina                    26   11   1    1    37   11   2    5    6    16   22   45
3rd     PAS Giannina                    26   8    2    3    31   18   4    5    4    17   20   43
5th     PAS Giannina                    26   6    4    3    33   22   5    4    4    22   18   41
2nd     PAS Giannina                    26   9    3    1    25   10   5    4    4    21   16   49
2nd     PAS Giannina                    26   10   1    2    36   21   4    7    2    19   18   50
1st     PAS Giannina                    26   10   0    3    31   16   6    4    3    23   17   52
2nd     PAS Giannina                    26   9    2    2    28   15   5    3    5    21   23   47
2nd     PAS Giannina                    26   9    3    1    29   10   6    2    5    25   20   50
2nd     PAS Giannina                    26   9    1    3    29   18   7    4    2    20   14   53
1st     PAS Giannina                    26   10   0    3    33   12   7    5    1    25   11   56
2nd     PAS Giannina                    26   11   1    1    32   16   4    6    3    24   22   52
1st     PAS Giannina                    26   9    2    2    25   15   8    3    2    26   16   56
1st     PAS Giannina                    26   11   1    1    29   17   5    5    3    20   18   54
1st     PAS Giannina                    26   10   2    1    25   9    6    5    2    22   16   55
1st     PAS Giannina                    26   9    3    1    34   17   10   2    1    19   9    62
1st     PAS Giannina                    26   8    5    0    30   12   9    0    4    25   14   56
6th     PAS Giannina                    26   8    3    2    36   21   2    7    4    20   25   40
6th     PAS Giannina                    26   10   0    3    38   21   4    1    8    17   26   43