1st     PAS Giannina                    26   12   0    1    41   13   8    2    3    23   8    62   
1st     PAS Giannina                    26   10   0    3    36   9    9    3    1    38   16   60   
1st     PAS Giannina                    26   12   1    0    39   10   8    2    3    29   16   63   
1st     PAS Giannina                    26   11   2    0    38   8    10   0    3    31   19   65   
1st     PAS Giannina                    26   10   1    2    39   21   9    2    2    28   13   60   
1st     PAS Giannina                    26   10   2    1    34   12   11   1    1    31   14   66   
1st     PAS Giannina                    26   12   0    1    35   10   11   1    1    50   15   70   
1st     PAS Giannina                    26   10   2    1    34   11   7    3    3    31   18   56   
1st     PAS Giannina                    26   12   0    1    45   12   9    4    0    27   12   67   
1st     PAS Giannina                    26   13   0    0    46   11   9    2    2    39   19   68   
1st     PAS Giannina                    26   11   2    0    37   15   8    4    1    24   13   63   
1st     PAS Giannina                    26   11   2    0    38   13   10   2    1    35   13   67   
1st     PAS Giannina                    26   11   1    1    39   12   8    2    3    31   19   60   
1st     PAS Giannina                    26   12   1    0    44   15   6    4    3    28   14   59   
1st     PAS Giannina                    26   11   0    2    45   17   10   1    2    34   11   64   
1st     PAS Giannina                    26   10   2    1    38   14   8    3    2    33   19   59   
1st     PAS Giannina                    26   12   1    0    37   14   9    1    3    30   15   65   
1st     PAS Giannina                    26   11   2    0    42   14   8    3    2    28   13   62   
1st     PAS Giannina                    26   8    2    3    31   16   9    4    0    41   14   57   
1st     PAS Giannina                    26   11   2    0    35   17   9    3    1    33   14   65   
1st     PAS Giannina                    26   12   0    1    39   14   10   2    1    35   12   68   
1st     PAS Giannina                    26   10   2    1    34   17   9    0    4    32   16   59   
1st     PAS Giannina                    26   13   0    0    43   8    11   1    1    36   16   73   
1st     PAS Giannina                    26   11   2    0    43   12   6    3    4    21   21   56   
1st     PAS Giannina                    26   12   1    0    34   11   9    3    1    26   9    67   
1st     PAS Giannina                    26   12   0    1    47   12   9    1    3    37   19   64   
1st     PAS Giannina                    26   10   2    1    36   16   9    3    1    31   14   62   
1st     PAS Giannina                    26   10   1    2    38   12   8    1    4    29   21   56   
1st     PAS Giannina                    26   9    3    1    33   16   9    1    3    28   17   58   
1st     PAS Giannina                    26   12   0    1    45   14   9    1    3    30   14   64   
2nd     PAS Giannina                    26   9    2    2    37   14   7    4    2    25   17   54   
1st     PAS Giannina                    26   9    2    2    36   18   8    4    1    28   15   57   
1st     PAS Giannina                    26   12   1    0    37   13   10   1    2    36   16   68   
1st     PAS Giannina                    26   11   1    1    33   13   9    2    2    31   14   63   
1st     PAS Giannina                    26   13   0    0    40   14   8    2    3    31   18   65   
1st     PAS Giannina                    26   10   2    1    43   18   8    3    2    27   17   59   
1st     PAS Giannina                    26   10   2    1    40   15   11   0    2    38   20   65   
2nd     PAS Giannina                    26   7    3    3    34   21   9    1    3    24   14   52   
2nd     PAS Giannina                    26   10   3    0    29   12   8    0    5    31   16   57   
1st     PAS Giannina                    26   10   3    0    43   16   11   2    0    41   13   68   
1st     PAS Giannina                    26   9    4    0    37   14   8    3    2    28   14   58   
1st     PAS Giannina                    26   11   2    0    37   17   10   2    1    30   10   67   
1st     PAS Giannina                    26   10   2    1    36   13   8    2    3    26   15   58   
1st     PAS Giannina                    26   12   1    0    44   13   8    2    3    28   17   63   
1st     PAS Giannina                    26   12   1    0    45   12   9    2    2    32   15   66   
1st     PAS Giannina                    26   9    3    1    43   22   8    2    3    28   15   56   
1st     PAS Giannina                    26   12   0    1    42   9    11   1    1    33   12   70   
1st     PAS Giannina                    26   10   3    0    36   15   11   2    0    31   10   68   
1st     PAS Giannina                    26   10   3    0    38   13   9    3    1    26   12   63   
1st     PAS Giannina                    26   13   0    0    41   11   10   2    1    35   13   71   
2nd     PAS Giannina                    26   9    2    2    29   14   8    4    1    24   14   57   
1st     PAS Giannina                    26   12   1    0    40   16   9    1    3    27   16   65   
1st     PAS Giannina                    26   11   0    2    39   16   11   0    2    33   11   66   
2nd     PAS Giannina                    26   12   0    1    42   15   4    3    6    24   26   51   
1st     PAS Giannina                    26   8    4    1    41   16   10   0    3    34   13   58   
1st     PAS Giannina                    26   11   2    0    34   12   12   1    0    41   10   72   
1st     PAS Giannina                    26   11   2    0    48   20   7    2    4    21   13   58   
1st     PAS Giannina                    26   10   2    1    43   20   10   2    1    36   11   64   
1st     PAS Giannina                    26   9    4    0    43   18   9    2    2    27   15   60   
2nd     PAS Giannina                    26   8    2    3    27   15   7    3    3    26   19   50   
1st     PAS Giannina                    26   11   2    0    34   12   12   1    0    40   11   72   
2nd     PAS Giannina                    26   10   2    1    34   16   7    4    2    32   14   57   
1st     PAS Giannina                    26   13   0    0    37   11   7    5    1    25   13   65   
1st     PAS Giannina                    26   12   1    0    45   11   12   1    0    44   13   74   
1st     PAS Giannina                    26   10   1    2    40   17   7    2    4    36   23   54   
1st     PAS Giannina                    26   10   0    3    37   16   9    3    1    35   16   60   
1st     PAS Giannina                    26   6    6    1    31   18   9    2    2    32   15   53   
1st     PAS Giannina                    26   13   0    0    45   10   8    2    3    26   17   65   
2nd     PAS Giannina                    26   10   1    2    40   17   9    2    2    37   17   60   
1st     PAS Giannina                    26   11   2    0    42   10   8    1    4    32   18   60   
1st     PAS Giannina                    26   13   0    0    32   8    5    3    5    24   25   57   
1st     PAS Giannina                    26   9    3    1    28   14   8    3    2    32   15   57   
1st     PAS Giannina                    26   12   0    1    44   15   5    6    2    19   13   57   
1st     PAS Giannina                    26   9    1    3    27   13   8    3    2    29   11   55   
1st     PAS Giannina                    26   12   0    1    40   13   10   2    1    33   11   68   
1st     PAS Giannina                    26   10   2    1    38   18   11   1    1    37   11   66   
1st     PAS Giannina                    26   10   3    0    42   17   10   1    2    31   14   64   
1st     PAS Giannina                    26   9    2    2    32   17   9    0    4    33   19   56   
1st     PAS Giannina                    26   12   0    1    37   12   8    5    0    32   10   65   
1st     PAS Giannina                    26   9    3    1    35   14   6    6    1    30   15   54   
1st     PAS Giannina                    26   12   1    0    44   12   7    1    5    33   20   59   
1st     PAS Giannina                    26   11   2    0    36   12   10   2    1    36   18   67   
1st     PAS Giannina                    26   12   1    0    42   18   9    1    3    27   13   65   
1st     PAS Giannina                    26   11   2    0    36   11   9    1    3    33   14   63   
1st     PAS Giannina                    26   11   1    1    41   13   7    4    2    27   14   59   
1st     PAS Giannina                    26   10   1    2    37   16   7    3    3    28   14   55   
1st     PAS Giannina                    26   10   3    0    41   14   10   0    3    33   16   63   
1st     PAS Giannina                    26   9    2    2    31   10   8    4    1    25   16   57   
1st     PAS Giannina                    26   12   0    1    45   17   10   3    0    38   13   69   
1st     PAS Giannina                    26   10   2    1    36   18   8    2    3    31   21   58   
1st     PAS Giannina                    26   12   0    1    48   14   6    2    5    22   17   56   
1st     PAS Giannina                    26   12   1    0    36   8    7    3    3    27   17   61   
1st     PAS Giannina                    26   13   0    0    44   8    9    1    3    26   13   67   
1st     PAS Giannina                    26   10   2    1    40   14   8    3    2    26   16   59   
1st     PAS Giannina                    26   13   0    0    46   14   9    2    2    35   18   68   
1st     PAS Giannina                    26   11   1    1    36   13   7    3    3    36   21   58   
2nd     PAS Giannina                    26   11   2    0    38   16   7    3    3    22   16   59   
1st     PAS Giannina                    26   13   0    0    43   11   11   0    2    35   10   72   
1st     PAS Giannina                    26   12   0    1    46   17   8    2    3    33   20   62   
1st     PAS Giannina                    26   12   0    1    39   13   9    2    2    40   13   65   