1st     PAS Giannina                    26   10   2    1    35   13   10   1    2    31   11   63   
1st     PAS Giannina                    26   11   2    0    40   15   8    2    3    34   15   61   
1st     PAS Giannina                    26   11   2    0    32   14   6    4    3    25   17   57   
1st     PAS Giannina                    26   10   3    0    39   13   6    3    4    26   23   54   
1st     PAS Giannina                    26   12   1    0    28   8    8    2    3    23   15   63   
1st     PAS Giannina                    26   9    3    1    29   15   7    4    2    32   17   55   
1st     PAS Giannina                    26   11   0    2    37   10   10   2    1    43   16   65   
1st     PAS Giannina                    26   9    2    2    30   14   10   3    0    29   6    62   
1st     PAS Giannina                    26   10   3    0    35   13   5    2    6    31   26   50   
1st     PAS Giannina                    26   10   2    1    37   15   6    3    4    25   21   53   
1st     PAS Giannina                    26   10   1    2    34   14   10   2    1    36   13   63   
1st     PAS Giannina                    26   10   3    0    30   10   6    4    3    24   15   55   
1st     PAS Giannina                    26   12   0    1    39   6    9    3    1    37   13   66   
1st     PAS Giannina                    26   11   1    1    31   8    9    2    2    30   12   63   
1st     PAS Giannina                    26   12   1    0    32   6    9    3    1    34   12   67   
1st     PAS Giannina                    26   11   1    1    40   13   9    1    3    31   15   62   
1st     PAS Giannina                    26   12   0    1    39   13   10   2    1    34   11   68   
1st     PAS Giannina                    26   10   2    1    33   10   8    4    1    31   14   60   
1st     PAS Giannina                    26   12   1    0    42   16   10   1    2    27   12   68   
1st     PAS Giannina                    26   10   2    1    38   11   8    2    3    25   8    58   
1st     PAS Giannina                    26   12   1    0    35   12   6    5    2    20   12   60   
1st     PAS Giannina                    26   10   2    1    31   12   11   0    2    31   11   65   
3rd     PAS Giannina                    26   9    3    1    29   9    5    2    6    25   27   47   
1st     PAS Giannina                    26   10   3    0    29   12   6    4    3    30   27   55   
1st     PAS Giannina                    26   11   2    0    38   13   8    3    2    30   19   62   
1st     PAS Giannina                    26   12   1    0    37   7    9    2    2    25   12   66   
1st     PAS Giannina                    26   11   0    2    30   10   6    4    3    21   12   55   
1st     PAS Giannina                    26   11   1    1    35   19   8    2    3    34   22   60   
1st     PAS Giannina                    26   12   0    1    39   10   6    4    3    24   23   58   
1st     PAS Giannina                    26   10   3    0    36   12   8    3    2    26   14   60   
1st     PAS Giannina                    26   12   1    0    35   9    9    2    2    38   17   66   
1st     PAS Giannina                    26   11   2    0    35   13   8    3    2    26   13   62   
1st     PAS Giannina                    26   9    3    1    41   19   12   0    1    38   12   66   
1st     PAS Giannina                    26   12   0    1    36   12   9    2    2    27   11   65   
1st     PAS Giannina                    26   10   2    1    40   12   10   3    0    33   12   65   
1st     PAS Giannina                    26   12   0    1    29   16   11   1    1    34   8    70   
1st     PAS Giannina                    26   9    1    3    31   12   8    3    2    33   16   55   
1st     PAS Giannina                    26   10   2    1    36   11   11   1    1    28   11   66   
3rd     PAS Giannina                    26   9    2    2    33   11   6    2    5    27   23   49   
1st     PAS Giannina                    26   10   3    0    36   12   10   1    2    28   12   64   
1st     PAS Giannina                    26   10   1    2    30   13   10   3    0    35   13   64   
1st     PAS Giannina                    26   10   2    1    39   15   9    2    2    31   13   61   
1st     PAS Giannina                    26   10   1    2    27   9    11   2    0    38   10   66   
1st     PAS Giannina                    26   11   0    2    32   13   10   0    3    32   14   63   
1st     PAS Giannina                    26   10   3    0    32   12   10   2    1    36   16   65   
1st     PAS Giannina                    26   10   1    2    31   11   8    5    0    32   12   60   
1st     PAS Giannina                    26   9    2    2    28   12   7    4    2    26   11   54   
1st     PAS Giannina                    26   10   2    1    37   12   6    5    2    27   17   55   
1st     PAS Giannina                    26   12   1    0    46   21   10   2    1    34   17   69   
1st     PAS Giannina                    26   8    4    1    33   16   7    1    5    24   19   50   
2nd     PAS Giannina                    26   9    3    1    28   13   9    1    3    32   13   58   
2nd     PAS Giannina                    26   8    3    2    31   15   5    5    3    23   13   47   
1st     PAS Giannina                    26   10   1    2    28   14   8    3    2    30   18   58   
1st     PAS Giannina                    26   9    2    2    31   16   11   1    1    36   12   63   
1st     PAS Giannina                    26   9    2    2    30   13   7    3    3    26   17   53   
1st     PAS Giannina                    26   8    3    2    27   14   9    3    1    31   16   57   
1st     PAS Giannina                    26   12   1    0    40   13   8    3    2    38   18   64   
1st     PAS Giannina                    26   12   1    0    34   10   9    2    2    29   14   66   
3rd     PAS Giannina                    26   7    1    5    27   15   9    2    2    31   13   51   
1st     PAS Giannina                    26   12   0    1    36   8    9    2    2    25   12   65   
1st     PAS Giannina                    26   12   1    0    36   13   9    1    3    22   15   65   
1st     PAS Giannina                    26   11   2    0    41   19   11   0    2    35   12   68   
1st     PAS Giannina                    26   12   1    0    38   12   7    2    4    32   19   60   
1st     PAS Giannina                    26   11   1    1    38   16   9    2    2    33   16   63   
1st     PAS Giannina                    26   10   1    2    36   17   10   2    1    33   19   63   
2nd     PAS Giannina                    26   8    2    3    30   19   8    3    2    29   13   53   
1st     PAS Giannina                    26   11   0    2    43   12   9    3    1    29   12   63   
1st     PAS Giannina                    26   12   1    0    41   9    10   1    2    29   11   68   
1st     PAS Giannina                    26   10   1    2    36   14   7    3    3    28   17   55   
2nd     PAS Giannina                    26   10   1    2    37   16   9    2    2    27   12   60   
1st     PAS Giannina                    26   12   1    0    35   14   7    4    2    33   17   62   
2nd     PAS Giannina                    26   11   0    2    34   10   7    4    2    24   9    58   
1st     PAS Giannina                    26   12   1    0    35   14   11   2    0    39   12   72   
1st     PAS Giannina                    26   11   2    0    34   10   7    2    4    28   17   58   
1st     PAS Giannina                    26   9    3    1    35   13   10   2    1    40   15   62   
2nd     PAS Giannina                    26   9    2    2    27   10   7    3    3    24   17   53   
1st     PAS Giannina                    26   12   1    0    32   11   9    1    3    28   17   65   
1st     PAS Giannina                    26   11   1    1    35   8    8    3    2    29   16   61   
1st     PAS Giannina                    26   11   2    0    38   12   7    1    5    20   14   57   
1st     PAS Giannina                    26   11   1    1    35   13   11   0    2    36   10   67   
1st     PAS Giannina                    26   9    4    0    37   12   7    3    3    29   18   55   
1st     PAS Giannina                    26   11   1    1    40   13   12   0    1    37   15   70   
1st     PAS Giannina                    26   11   1    1    34   12   7    4    2    28   17   59   
1st     PAS Giannina                    26   10   3    0    34   11   8    2    3    29   17   59   
2nd     PAS Giannina                    26   10   1    2    35   16   8    0    5    29   18   55   
1st     PAS Giannina                    26   11   1    1    37   14   9    0    4    29   20   61   
1st     PAS Giannina                    26   11   2    0    34   13   10   2    1    42   15   67   
2nd     PAS Giannina                    26   11   1    1    37   16   6    5    2    25   17   57   
1st     PAS Giannina                    26   11   1    1    40   11   6    4    3    26   17   56   
1st     PAS Giannina                    26   10   1    2    36   15   10   3    0    36   16   64   
1st     PAS Giannina                    26   11   1    1    25   10   7    1    5    33   24   56   
1st     PAS Giannina                    26   11   0    2    40   16   8    1    4    35   21   58   
1st     PAS Giannina                    26   10   1    2    31   18   10   1    2    32   18   62   
1st     PAS Giannina                    26   10   2    1    40   15   9    3    1    23   12   62   
1st     PAS Giannina                    26   13   0    0    42   16   8    4    1    27   10   67   
1st     PAS Giannina                    26   10   3    0    30   7    7    4    2    25   14   58   
1st     PAS Giannina                    26   11   2    0    38   8    9    3    1    33   12   65   
1st     PAS Giannina                    26   12   1    0    44   12   8    3    2    27   12   64   
1st     PAS Giannina                    26   10   2    1    35   11   7    4    2    32   24   57   
1st     PAS Giannina                    26   12   0    1    40   10   10   2    1    28   11   68   