14th    PAS Giannina                    26   3    6    4    20   18   0    4    9    11   25   19
11th    PAS Giannina                    26   3    8    2    16   15   3    3    7    16   21   29
8th     PAS Giannina                    26   6    2    5    23   19   3    3    7    15   21   32
9th     PAS Giannina                    26   6    4    3    23   16   4    1    8    15   22   35
5th     PAS Giannina                    26   6    5    2    19   13   5    3    5    19   19   41
11th    PAS Giannina                    26   4    6    3    22   18   3    1    9    14   29   28
8th     PAS Giannina                    26   4    6    3    20   19   3    4    6    15   20   31
11th    PAS Giannina                    26   7    1    5    26   20   1    2    10   14   26   27
11th    PAS Giannina                    26   4    6    3    20   14   3    1    9    13   27   28
9th     PAS Giannina                    26   6    3    4    15   14   4    2    7    10   13   35
13th    PAS Giannina                    26   3    5    5    15   18   2    3    8    11   20   23
7th     PAS Giannina                    26   7    2    4    17   14   3    4    6    17   22   36
5th     PAS Giannina                    26   6    3    4    24   17   4    5    4    23   19   38
13th    PAS Giannina                    26   6    1    6    23   18   1    5    7    14   24   27
8th     PAS Giannina                    26   5    4    4    21   19   5    1    7    20   21   35
8th     PAS Giannina                    26   8    3    2    26   18   1    6    6    19   25   36
14th    PAS Giannina                    26   3    3    7    21   25   1    2    10   10   27   17
4th     PAS Giannina                    26   8    2    3    29   17   4    5    4    17   20   43
5th     PAS Giannina                    26   7    4    2    23   14   3    5    5    16   19   39
7th     PAS Giannina                    26   6    3    4    23   16   4    3    6    17   21   36
8th     PAS Giannina                    26   6    4    3    27   22   4    4    5    19   20   38
10th    PAS Giannina                    26   7    3    3    27   16   1    3    9    10   20   30
11th    PAS Giannina                    26   7    4    2    20   11   2    1    10   12   29   32
9th     PAS Giannina                    26   3    5    5    18   21   3    7    3    19   20   30
9th     PAS Giannina                    26   5    3    5    23   17   2    5    6    19   22   29
5th     PAS Giannina                    26   8    1    4    23   17   4    2    7    17   21   39
6th     PAS Giannina                    26   8    2    3    22   14   2    4    7    13   22   36
9th     PAS Giannina                    26   3    4    6    17   21   6    2    5    21   21   33
11th    PAS Giannina                    26   5    4    4    21   16   2    2    9    10   23   27
5th     PAS Giannina                    26   7    3    3    27   22   3    6    4    18   18   39
8th     PAS Giannina                    26   6    3    4    22   19   3    4    6    21   32   34
7th     PAS Giannina                    26   7    0    6    20   16   4    3    6    13   19   36
10th    PAS Giannina                    26   4    8    1    23   17   2    4    7    17   25   30
7th     PAS Giannina                    26   8    2    3    34   18   3    0    10   13   23   35
9th     PAS Giannina                    26   7    4    2    18   15   3    1    9    15   25   35
14th    PAS Giannina                    26   3    2    8    13   21   0    4    9    14   29   15
11th    PAS Giannina                    26   7    2    4    24   17   2    2    9    10   25   31
6th     PAS Giannina                    26   4    6    3    20   17   5    3    5    18   22   36
9th     PAS Giannina                    26   7    4    2    23   16   2    3    8    12   24   34
3rd     PAS Giannina                    26   9    1    3    24   15   3    6    4    20   22   43
14th    PAS Giannina                    26   4    5    4    22   21   1    3    9    9    25   23
8th     PAS Giannina                    26   7    4    2    22   14   2    2    9    13   28   33
10th    PAS Giannina                    26   6    4    3    21   19   3    3    7    16   29   34
8th     PAS Giannina                    26   5    6    2    24   17   3    3    7    17   23   33
8th     PAS Giannina                    26   9    2    2    21   12   0    5    8    9    26   34
8th     PAS Giannina                    26   7    5    1    28   14   1    6    6    15   26   35
8th     PAS Giannina                    26   9    3    1    28   16   1    3    9    12   25   36
2nd     PAS Giannina                    26   8    2    3    32   18   6    3    4    21   19   47
9th     PAS Giannina                    26   7    3    3    22   12   2    2    9    10   21   32
2nd     PAS Giannina                    26   9    2    2    29   14   4    4    5    21   19   45
2nd     PAS Giannina                    26   11   1    1    29   17   5    3    5    14   16   52
9th     PAS Giannina                    26   8    2    3    22   12   2    2    9    12   25   34
7th     PAS Giannina                    26   8    1    4    29   18   4    2    7    16   25   39
12th    PAS Giannina                    26   4    5    4    20   19   3    3    7    12   24   29
9th     PAS Giannina                    26   5    6    2    21   16   3    2    8    13   19   32
12th    PAS Giannina                    26   2    6    5    20   22   3    2    8    14   30   23
5th     PAS Giannina                    26   5    5    3    20   15   5    2    6    15   14   37
4th     PAS Giannina                    26   8    4    1    24   12   3    3    7    12   19   40
12th    PAS Giannina                    26   5    3    5    28   26   1    5    7    13   24   26
5th     PAS Giannina                    26   6    2    5    19   21   6    3    4    17   15   41
8th     PAS Giannina                    26   7    4    2    22   15   2    2    9    14   29   33
11th    PAS Giannina                    26   5    2    6    24   26   3    5    5    19   26   31
4th     PAS Giannina                    26   7    4    2    19   14   4    3    6    15   19   40
9th     PAS Giannina                    26   5    4    4    21   15   4    2    7    17   25   33
2nd     PAS Giannina                    26   8    4    1    30   17   4    4    5    16   18   44
11th    PAS Giannina                    26   6    2    5    27   22   1    4    8    11   22   27
3rd     PAS Giannina                    26   9    2    2    28   10   3    5    5    19   24   43
12th    PAS Giannina                    26   5    6    2    23   15   1    3    9    11   21   27
3rd     PAS Giannina                    26   7    3    3    23   17   6    2    5    23   21   44
10th    PAS Giannina                    26   5    6    2    19   13   2    4    7    13   24   31
13th    PAS Giannina                    26   4    3    6    26   21   2    3    8    10   21   24
9th     PAS Giannina                    26   6    5    2    25   20   3    4    6    12   21   36
12th    PAS Giannina                    26   5    2    6    27   28   2    4    7    13   21   27
10th    PAS Giannina                    26   5    5    3    20   16   3    4    6    16   21   33
10th    PAS Giannina                    26   8    4    1    23   12   0    3    10   15   28   31
13th    PAS Giannina                    26   2    4    7    17   25   4    3    6    16   20   25
8th     PAS Giannina                    26   9    2    2    23   9    1    2    10   9    21   34
7th     PAS Giannina                    26   7    3    3    30   14   4    3    6    17   21   39
3rd     PAS Giannina                    26   5    6    2    22   20   7    2    4    25   19   44
5th     PAS Giannina                    26   9    1    3    21   15   3    5    5    15   17   42
3rd     PAS Giannina                    26   7    5    1    22   13   5    3    5    17   19   44
2nd     PAS Giannina                    26   9    0    4    26   13   4    4    5    17   21   43
3rd     PAS Giannina                    26   8    2    3    25   15   3    4    6    11   18   39
13th    PAS Giannina                    26   3    7    3    16   17   2    3    8    10   23   25
5th     PAS Giannina                    26   2    9    2    14   15   5    4    4    17   16   34
8th     PAS Giannina                    26   6    4    3    26   24   2    6    5    13   23   34
13th    PAS Giannina                    26   5    3    5    21   22   1    3    9    14   31   24
8th     PAS Giannina                    26   6    2    5    23   21   4    2    7    12   17   34
14th    PAS Giannina                    26   4    5    4    15   15   1    3    9    11   25   23
12th    PAS Giannina                    26   4    3    6    14   18   2    3    8    10   22   24
9th     PAS Giannina                    26   6    5    2    21   14   3    2    8    13   24   34
11th    PAS Giannina                    26   6    3    4    17   15   3    2    8    18   27   32
12th    PAS Giannina                    26   6    5    2    24   12   2    3    8    12   21   32
5th     PAS Giannina                    26   8    3    2    27   16   3    4    6    19   22   40
5th     PAS Giannina                    26   5    6    2    20   15   5    4    4    20   23   40
13th    PAS Giannina                    26   4    3    6    23   23   1    4    8    13   23   22
13th    PAS Giannina                    26   5    2    6    23   25   2    2    9    10   22   25
8th     PAS Giannina                    26   8    2    3    19   14   1    6    6    13   22   35
10th    PAS Giannina                    26   4    3    6    19   20   3    3    7    17   22   27
11th    PAS Giannina                    26   6    1    6    21   20   3    3    7    20   21   31