3rd     PAS Giannina                    26   9    3    1    29   12   3    3    7    13   19   42   
1st     PAS Giannina                    26   9    2    2    31   13   8    4    1    18   6    57   
2nd     PAS Giannina                    26   8    1    4    26   15   7    5    1    22   8    51   
3rd     PAS Giannina                    26   7    4    2    18   10   8    2    3    25   17   51   
1st     PAS Giannina                    26   7    5    1    18   9    8    3    2    27   10   53   
1st     PAS Giannina                    26   12   1    0    37   11   9    1    3    20   10   65   
1st     PAS Giannina                    26   10   2    1    27   9    8    3    2    24   6    59   
1st     PAS Giannina                    26   9    3    1    29   6    7    4    2    26   15   55   
1st     PAS Giannina                    26   11   1    1    39   11   6    3    4    18   14   55   
1st     PAS Giannina                    26   11   1    1    27   8    4    7    2    15   13   53   
2nd     PAS Giannina                    26   10   1    2    34   11   7    4    2    26   15   56   
1st     PAS Giannina                    26   8    5    0    24   7    6    5    2    17   14   52   
1st     PAS Giannina                    26   13   0    0    40   8    6    5    2    21   13   62   
2nd     PAS Giannina                    26   9    3    1    25   15   6    7    0    25   10   55   
1st     PAS Giannina                    26   10   3    0    25   7    7    4    2    18   15   58   
2nd     PAS Giannina                    26   7    5    1    24   11   7    2    4    22   13   49   
2nd     PAS Giannina                    26   9    2    2    28   10   9    2    2    30   11   58   
1st     PAS Giannina                    26   10   1    2    32   13   11   1    1    33   13   65   
2nd     PAS Giannina                    26   10   1    2    30   13   8    1    4    26   14   56   
1st     PAS Giannina                    26   10   2    1    27   12   9    3    1    20   12   62   
1st     PAS Giannina                    26   10   3    0    32   11   6    2    5    27   19   53   
2nd     PAS Giannina                    26   10   3    0    36   15   7    3    3    16   13   57   
1st     PAS Giannina                    26   11   0    2    35   13   11   1    1    23   5    67   
3rd     PAS Giannina                    26   9    0    4    30   18   5    4    4    19   14   46   
1st     PAS Giannina                    26   10   3    0    34   10   6    4    3    16   11   55   
4th     PAS Giannina                    26   7    1    5    17   16   6    3    4    26   16   43   
1st     PAS Giannina                    26   9    4    0    29   10   11   0    2    28   8    64   
1st     PAS Giannina                    26   10   2    1    24   10   9    2    2    24   8    61   
1st     PAS Giannina                    26   11   2    0    37   13   8    3    2    23   8    62   
1st     PAS Giannina                    26   10   1    2    31   15   6    6    1    20   11   55   
1st     PAS Giannina                    26   11   0    2    28   8    5    5    3    19   14   53   
2nd     PAS Giannina                    26   12   1    0    34   10   7    2    4    28   17   60   
1st     PAS Giannina                    26   11   2    0    34   9    7    3    3    19   11   59   
2nd     PAS Giannina                    26   8    2    3    25   14   8    4    1    27   10   54   
2nd     PAS Giannina                    26   8    4    1    27   12   6    2    5    27   20   48   
2nd     PAS Giannina                    26   11   2    0    35   9    4    4    5    18   16   51   
1st     PAS Giannina                    26   11   1    1    30   9    9    1    3    24   10   62   
2nd     PAS Giannina                    26   8    2    3    29   14   9    3    1    27   5    56   
1st     PAS Giannina                    26   11   2    0    32   13   6    4    3    23   19   57   
3rd     PAS Giannina                    26   8    4    1    23   11   4    4    5    18   15   44   
1st     PAS Giannina                    26   10   2    1    23   9    7    4    2    28   11   57   
1st     PAS Giannina                    26   10   2    1    24   11   6    5    2    25   14   55   
1st     PAS Giannina                    26   9    2    2    26   12   7    4    2    27   15   54   
1st     PAS Giannina                    26   11   2    0    29   5    10   2    1    25   4    67   
1st     PAS Giannina                    26   9    1    3    23   11   7    5    1    25   14   54   
1st     PAS Giannina                    26   12   0    1    32   11   6    3    4    18   10   57   
1st     PAS Giannina                    26   10   3    0    31   10   5    4    4    24   17   52   
2nd     PAS Giannina                    26   11   2    0    26   7    5    3    5    19   20   53   
3rd     PAS Giannina                    26   10   1    2    25   7    4    4    5    16   14   47   
2nd     PAS Giannina                    26   12   0    1    29   6    5    3    5    24   18   54   
2nd     PAS Giannina                    26   10   2    1    30   11   7    3    3    17   9    56   
2nd     PAS Giannina                    26   9    1    3    30   13   7    4    2    25   13   53   
2nd     PAS Giannina                    26   11   1    1    35   10   6    5    2    17   8    57   
2nd     PAS Giannina                    26   11   2    0    30   8    5    3    5    23   21   53   
2nd     PAS Giannina                    26   8    3    2    29   14   6    5    2    24   17   50   
2nd     PAS Giannina                    26   7    4    2    22   13   7    6    0    19   11   52   
1st     PAS Giannina                    26   9    3    1    24   9    7    0    6    13   16   51   
1st     PAS Giannina                    26   11   2    0    28   8    9    3    1    24   8    65   
1st     PAS Giannina                    26   6    3    4    14   14   9    3    1    23   12   51   
2nd     PAS Giannina                    26   11   1    1    32   13   8    2    3    23   12   60   
1st     PAS Giannina                    26   9    3    1    27   12   11   2    0    22   7    65   
2nd     PAS Giannina                    26   10   2    1    26   8    5    5    3    23   19   52   
2nd     PAS Giannina                    26   9    1    3    28   16   5    6    2    19   11   49   
1st     PAS Giannina                    26   10   2    1    30   12   7    5    1    25   11   58   
1st     PAS Giannina                    26   13   0    0    32   7    7    5    1    19   12   65   
5th     PAS Giannina                    26   6    4    3    20   13   5    7    1    18   12   44   
1st     PAS Giannina                    26   8    4    1    28   11   8    4    1    22   9    56   
1st     PAS Giannina                    26   9    2    2    21   7    7    5    1    20   9    55   
2nd     PAS Giannina                    26   9    1    3    18   10   7    2    4    19   9    51   
5th     PAS Giannina                    26   8    3    2    28   14   3    4    6    21   27   40   
1st     PAS Giannina                    26   10   3    0    24   7    8    2    3    17   9    59   
3rd     PAS Giannina                    26   7    4    2    28   17   6    4    3    20   14   47   
1st     PAS Giannina                    26   12   1    0    31   9    7    4    2    22   15   62   
2nd     PAS Giannina                    26   8    3    2    29   14   7    3    3    21   14   51   
1st     PAS Giannina                    26   13   0    0    40   12   10   2    1    28   6    71   
1st     PAS Giannina                    26   11   1    1    31   12   8    3    2    28   13   61   
1st     PAS Giannina                    26   9    3    1    32   13   11   1    1    23   5    64   
2nd     PAS Giannina                    26   9    2    2    29   10   6    4    3    20   16   51   
1st     PAS Giannina                    26   9    1    3    25   10   9    3    1    25   8    58   
1st     PAS Giannina                    26   10   3    0    30   5    9    1    3    22   12   61   
1st     PAS Giannina                    26   10   1    2    36   11   7    1    5    30   16   53   
1st     PAS Giannina                    26   11   1    1    29   9    11   1    1    27   8    68   
1st     PAS Giannina                    26   9    3    1    26   11   8    2    3    24   15   56   
2nd     PAS Giannina                    26   9    2    2    28   14   9    1    3    28   14   57   
3rd     PAS Giannina                    26   7    4    2    24   12   6    4    3    18   13   47   
1st     PAS Giannina                    26   11   1    1    30   9    6    4    3    22   15   56   
2nd     PAS Giannina                    26   10   0    3    20   9    8    3    2    22   13   57   
1st     PAS Giannina                    26   10   1    2    26   10   8    2    3    18   13   57   
1st     PAS Giannina                    26   11   1    1    28   10   10   3    0    27   12   67   
1st     PAS Giannina                    26   12   1    0    36   12   6    2    5    22   16   57   
1st     PAS Giannina                    26   8    5    0    28   7    6    6    1    18   12   53   
1st     PAS Giannina                    26   11   1    1    29   13   11   2    0    30   10   69   
1st     PAS Giannina                    26   10   3    0    26   6    9    3    1    27   14   63   
1st     PAS Giannina                    26   11   1    1    34   15   9    2    2    19   6    63   
2nd     PAS Giannina                    26   8    2    3    25   12   7    2    4    23   13   49   
1st     PAS Giannina                    26   11   2    0    32   11   8    3    2    29   12   62   
1st     PAS Giannina                    26   10   2    1    30   10   8    5    0    20   11   61   
1st     PAS Giannina                    26   9    2    2    28   15   9    3    1    19   7    59   
2nd     PAS Giannina                    26   8    2    3    25   13   7    3    3    14   6    50   
1st     PAS Giannina                    26   10   2    1    31   8    8    3    2    27   14   59   