1st     PAS Giannina                    26   10   3    0    31   8    8    1    4    34   19   58   
1st     PAS Giannina                    26   10   3    0    35   8    8    3    2    29   18   60   
1st     PAS Giannina                    26   10   2    1    31   12   9    3    1    35   10   62   
1st     PAS Giannina                    26   12   0    1    36   12   10   1    2    32   17   67   
1st     PAS Giannina                    26   11   1    1    37   12   8    1    4    29   11   59   
2nd     PAS Giannina                    26   9    3    1    28   11   6    2    5    27   17   50   
1st     PAS Giannina                    26   10   3    0    32   16   12   1    0    32   11   70   
1st     PAS Giannina                    26   10   1    2    30   10   9    3    1    35   12   61   
2nd     PAS Giannina                    26   8    3    2    29   16   10   3    0    33   12   60   
2nd     PAS Giannina                    26   13   0    0    43   15   6    3    4    25   15   60   
1st     PAS Giannina                    26   11   1    1    30   7    9    4    0    26   7    65   
1st     PAS Giannina                    26   7    6    0    31   12   9    4    0    25   11   58   
1st     PAS Giannina                    26   11   1    1    38   16   12   1    0    38   14   71   
1st     PAS Giannina                    26   11   1    1    34   15   10   2    1    31   14   66   
1st     PAS Giannina                    26   12   1    0    42   13   9    1    3    28   17   65   
1st     PAS Giannina                    26   12   1    0    32   11   10   2    1    34   8    69   
1st     PAS Giannina                    26   11   1    1    32   10   11   1    1    33   16   68   
1st     PAS Giannina                    26   12   1    0    36   15   8    3    2    27   12   64   
1st     PAS Giannina                    26   11   2    0    33   15   11   1    1    32   11   69   
1st     PAS Giannina                    26   11   1    1    34   9    8    3    2    30   11   61   
1st     PAS Giannina                    26   11   1    1    33   8    13   0    0    33   11   73   
1st     PAS Giannina                    26   11   2    0    37   12   12   1    0    33   10   72   
1st     PAS Giannina                    26   10   2    1    35   13   9    2    2    31   14   61   
1st     PAS Giannina                    26   12   0    1    35   10   10   2    1    28   10   68   
1st     PAS Giannina                    26   13   0    0    37   13   8    4    1    27   15   67   
1st     PAS Giannina                    26   12   0    1    37   10   8    1    4    29   16   61   
1st     PAS Giannina                    26   10   2    1    33   12   10   2    1    36   12   64   
1st     PAS Giannina                    26   12   0    1    35   9    7    6    0    30   13   63   
1st     PAS Giannina                    26   11   1    1    34   16   10   2    1    37   11   66   
1st     PAS Giannina                    26   13   0    0    38   10   5    7    1    24   11   61   
1st     PAS Giannina                    26   12   1    0    34   7    8    3    2    30   18   64   
1st     PAS Giannina                    26   12   0    1    38   13   9    3    1    29   11   66   
2nd     PAS Giannina                    26   10   1    2    27   9    8    2    3    33   14   57   
1st     PAS Giannina                    26   12   0    1    37   9    7    3    3    28   15   60   
1st     PAS Giannina                    26   10   3    0    35   13   11   0    2    33   12   66   
1st     PAS Giannina                    26   12   1    0    42   7    7    5    1    27   14   63   
1st     PAS Giannina                    26   13   0    0    35   4    9    3    1    33   9    69   
1st     PAS Giannina                    26   11   2    0    32   12   9    2    2    33   10   64   
1st     PAS Giannina                    26   10   2    1    34   12   10   2    1    35   15   64   
1st     PAS Giannina                    26   12   1    0    39   8    8    5    0    33   10   66   
1st     PAS Giannina                    26   12   0    1    42   8    9    2    2    30   15   65   
1st     PAS Giannina                    26   10   2    1    29   11   10   1    2    29   15   63   
1st     PAS Giannina                    26   11   2    0    31   7    12   0    1    42   8    71   
1st     PAS Giannina                    26   13   0    0    32   5    9    1    3    32   18   67   
1st     PAS Giannina                    26   13   0    0    36   9    9    2    2    38   16   68   
2nd     PAS Giannina                    26   10   2    1    32   16   5    5    3    25   17   52   
1st     PAS Giannina                    26   10   3    0    33   10   11   1    1    33   13   67   
1st     PAS Giannina                    26   10   1    2    37   12   10   3    0    31   11   64   
1st     PAS Giannina                    26   12   1    0    43   9    10   3    0    33   10   70   
2nd     PAS Giannina                    26   11   1    1    38   9    9    3    1    27   15   64   
1st     PAS Giannina                    26   13   0    0    36   8    10   2    1    27   12   71   
2nd     PAS Giannina                    26   11   0    2    34   11   8    1    4    27   13   58   
1st     PAS Giannina                    26   11   1    1    29   6    9    3    1    34   13   64   
1st     PAS Giannina                    26   10   3    0    34   13   8    3    2    33   17   60   
1st     PAS Giannina                    26   10   3    0    34   13   11   1    1    32   11   67   
1st     PAS Giannina                    26   12   1    0    36   9    8    3    2    28   20   64   
1st     PAS Giannina                    26   12   1    0    37   10   9    4    0    28   14   68   
1st     PAS Giannina                    26   10   2    1    29   10   10   1    2    35   15   63   
1st     PAS Giannina                    26   11   2    0    41   12   9    1    3    28   21   63   
1st     PAS Giannina                    26   13   0    0    39   7    10   2    1    35   10   71   
1st     PAS Giannina                    26   10   2    1    33   14   10   1    2    31   9    63   
1st     PAS Giannina                    26   7    4    2    28   15   12   0    1    34   8    61   
1st     PAS Giannina                    26   11   0    2    36   13   10   0    3    30   18   63   
1st     PAS Giannina                    26   13   0    0    42   9    9    4    0    28   14   70   
1st     PAS Giannina                    26   9    1    3    25   12   8    4    1    25   12   56   
1st     PAS Giannina                    26   10   1    2    33   11   10   0    3    32   12   61   
1st     PAS Giannina                    26   11   1    1    42   16   10   1    2    30   9    65   
1st     PAS Giannina                    26   12   1    0    37   7    9    2    2    29   13   66   
1st     PAS Giannina                    26   11   1    1    33   14   11   1    1    33   13   68   
1st     PAS Giannina                    26   8    4    1    32   15   12   1    0    40   14   65   
1st     PAS Giannina                    26   10   2    1    33   11   10   0    3    32   17   62   
1st     PAS Giannina                    26   12   1    0    35   7    7    3    3    23   16   61   
1st     PAS Giannina                    26   11   1    1    28   9    9    3    1    24   7    64   
1st     PAS Giannina                    26   10   1    2    32   9    9    2    2    34   15   60   
1st     PAS Giannina                    26   12   1    0    28   9    9    3    1    28   13   67   
1st     PAS Giannina                    26   11   2    0    38   11   7    6    0    31   17   62   
1st     PAS Giannina                    26   9    1    3    32   18   12   1    0    36   10   65   
1st     PAS Giannina                    26   11   2    0    30   10   8    3    2    33   16   62   
1st     PAS Giannina                    26   12   0    1    29   11   7    2    4    31   16   59   
1st     PAS Giannina                    26   11   1    1    43   16   10   2    1    36   10   66   
1st     PAS Giannina                    26   11   1    1    31   8    6    5    2    26   13   57   
1st     PAS Giannina                    26   12   1    0    39   11   9    3    1    32   14   67   
1st     PAS Giannina                    26   9    3    1    25   9    10   3    0    38   13   63   
1st     PAS Giannina                    26   11   1    1    29   14   9    1    3    26   15   62   
1st     PAS Giannina                    26   10   2    1    41   13   8    3    2    29   8    59   
1st     PAS Giannina                    26   10   2    1    39   13   8    1    4    29   11   57   
1st     PAS Giannina                    26   10   2    1    41   14   11   1    1    36   15   66   
1st     PAS Giannina                    26   8    4    1    27   13   11   1    1    36   10   62   
1st     PAS Giannina                    26   10   1    2    38   15   12   0    1    29   9    67   
1st     PAS Giannina                    26   9    3    1    31   11   10   2    1    28   10   62   
1st     PAS Giannina                    26   8    4    1    29   14   10   2    1    36   14   60   
1st     PAS Giannina                    26   11   1    1    31   9    9    4    0    30   12   65   
1st     PAS Giannina                    26   10   2    1    35   9    10   1    2    26   11   63   
1st     PAS Giannina                    26   13   0    0    37   8    7    4    2    25   16   64   
1st     PAS Giannina                    26   12   1    0    34   11   10   1    2    31   12   68   
1st     PAS Giannina                    26   12   0    1    32   12   9    0    4    31   19   63   
1st     PAS Giannina                    26   12   1    0    39   12   9    3    1    31   14   67   
1st     PAS Giannina                    26   12   0    1    37   9    13   0    0    37   7    75   
1st     PAS Giannina                    26   10   0    3    38   15   10   2    1    37   11   62   
1st     PAS Giannina                    26   10   2    1    36   13   11   2    0    36   7    67   