11th    PAS Giannina                    26   5    3    5    19   22   2    4    7    13   24   28
14th    PAS Giannina                    26   4    4    5    16   15   0    7    6    16   26   23
12th    PAS Giannina                    26   4    2    7    17   22   3    2    8    14   26   25
14th    PAS Giannina                    26   4    3    6    23   26   0    4    9    9    26   19
5th     PAS Giannina                    26   6    6    1    28   14   4    3    6    20   23   39
5th     PAS Giannina                    26   6    4    3    32   22   4    4    5    16   20   38
5th     PAS Giannina                    26   10   2    1    24   10   2    2    9    14   29   40
10th    PAS Giannina                    26   6    3    4    28   19   3    3    7    16   20   33
7th     PAS Giannina                    26   7    4    2    24   15   1    3    9    19   31   31
8th     PAS Giannina                    26   5    5    3    22   19   4    1    8    16   22   33
4th     PAS Giannina                    26   7    3    3    27   22   5    1    7    22   27   40
13th    PAS Giannina                    26   2    3    8    15   24   3    2    8    14   29   20
12th    PAS Giannina                    26   5    5    3    21   21   1    6    6    15   23   29
7th     PAS Giannina                    26   7    2    4    27   16   4    2    7    23   31   37
13th    PAS Giannina                    26   5    3    5    22   21   2    2    9    8    23   26
10th    PAS Giannina                    26   8    3    2    25   14   1    2    10   16   34   32
10th    PAS Giannina                    26   7    1    5    25   25   3    1    9    12   22   32
14th    PAS Giannina                    26   3    4    6    14   17   2    2    9    14   34   21
14th    PAS Giannina                    26   1    6    6    20   28   3    2    8    14   25   20
4th     PAS Giannina                    26   7    3    3    24   20   4    3    6    18   22   39
7th     PAS Giannina                    26   8    3    2    25   12   2    3    8    13   23   36
9th     PAS Giannina                    26   9    1    3    22   8    0    2    11   10   28   30
14th    PAS Giannina                    26   3    3    7    15   19   3    3    7    15   24   24
11th    PAS Giannina                    26   4    6    3    22   16   3    2    8    15   21   29
8th     PAS Giannina                    26   5    4    4    21   18   4    3    6    19   21   34
11th    PAS Giannina                    26   8    0    5    25   20   2    3    8    11   22   33
4th     PAS Giannina                    26   8    1    4    27   13   4    3    6    14   18   40
4th     PAS Giannina                    26   7    5    1    25   17   4    5    4    18   17   43
7th     PAS Giannina                    26   7    2    4    27   15   4    1    8    17   28   36
12th    PAS Giannina                    26   3    3    7    17   20   4    2    7    21   22   26
2nd     PAS Giannina                    26   8    2    3    26   17   4    7    2    22   19   45
9th     PAS Giannina                    26   8    2    3    21   16   2    3    8    11   24   35
10th    PAS Giannina                    26   8    0    5    18   17   1    4    8    12   27   31
8th     PAS Giannina                    26   7    4    2    21   17   3    2    8    12   25   36
11th    PAS Giannina                    26   4    4    5    22   23   2    4    7    13   23   26
11th    PAS Giannina                    26   5    3    5    18   18   3    3    7    17   22   30
8th     PAS Giannina                    26   5    4    4    25   21   4    3    6    19   23   34
7th     PAS Giannina                    26   6    2    5    20   15   5    1    7    15   23   36
8th     PAS Giannina                    26   7    2    4    18   11   3    3    7    20   34   35
3rd     PAS Giannina                    26   7    6    0    31   17   5    2    6    22   24   44
5th     PAS Giannina                    26   10   2    1    28   15   1    5    7    12   26   40
6th     PAS Giannina                    26   5    4    4    24   23   5    4    4    19   22   38
7th     PAS Giannina                    26   8    1    4    22   15   3    3    7    16   26   37
5th     PAS Giannina                    26   8    4    1    21   10   4    1    8    17   22   41
7th     PAS Giannina                    26   7    2    4    25   16   3    5    5    14   22   37
10th    PAS Giannina                    26   7    2    4    27   18   2    5    6    16   27   34
4th     PAS Giannina                    26   10   2    1    25   13   3    2    8    16   23   43
7th     PAS Giannina                    26   8    3    2    24   10   1    4    8    11   21   34
5th     PAS Giannina                    26   7    4    2    26   16   3    3    7    12   19   37
10th    PAS Giannina                    26   6    3    4    21   22   3    1    9    15   26   31
7th     PAS Giannina                    26   7    4    2    25   13   3    2    8    21   24   36
4th     PAS Giannina                    26   9    2    2    27   11   2    5    6    17   24   40
8th     PAS Giannina                    26   8    1    4    20   14   2    5    6    17   21   36
13th    PAS Giannina                    26   4    3    6    17   21   2    3    8    8    25   24
3rd     PAS Giannina                    26   12   1    0    30   9    3    3    7    15   25   49
2nd     PAS Giannina                    26   8    3    2    21   8    6    0    7    15   20   45
6th     PAS Giannina                    26   7    2    4    26   20   4    2    7    17   23   37
13th    PAS Giannina                    26   4    5    4    17   17   1    3    9    15   26   23
9th     PAS Giannina                    26   7    3    3    24   21   3    3    7    18   32   36
12th    PAS Giannina                    26   6    3    4    27   23   1    4    8    16   28   28
6th     PAS Giannina                    26   9    2    2    26   14   3    4    6    15   22   42
12th    PAS Giannina                    26   4    4    5    21   22   2    4    7    11   26   26
9th     PAS Giannina                    26   7    1    5    29   22   3    1    9    6    15   32
3rd     PAS Giannina                    26   10   1    2    29   13   3    4    6    19   26   44
8th     PAS Giannina                    26   4    5    4    18   18   3    4    6    20   25   30
14th    PAS Giannina                    26   3    2    8    18   25   0    4    9    7    27   15
4th     PAS Giannina                    26   8    3    2    24   15   3    4    6    20   24   40
7th     PAS Giannina                    26   6    2    5    21   20   4    2    7    18   22   34
8th     PAS Giannina                    26   5    4    4    21   16   4    4    5    15   19   35
11th    PAS Giannina                    26   8    2    3    27   19   1    1    11   10   33   30
8th     PAS Giannina                    26   4    7    2    19   13   4    2    7    17   22   33
10th    PAS Giannina                    26   7    3    3    26   15   2    2    9    13   28   32
12th    PAS Giannina                    26   6    1    6    19   18   2    2    9    13   27   27
11th    PAS Giannina                    26   5    4    4    22   19   2    3    8    13   23   28
11th    PAS Giannina                    26   4    3    6    18   22   4    4    5    16   18   31
5th     PAS Giannina                    26   8    1    4    23   21   5    2    6    23   23   42
4th     PAS Giannina                    26   8    3    2    24   15   3    4    6    19   21   40
10th    PAS Giannina                    26   7    1    5    22   15   2    4    7    12   24   32
3rd     PAS Giannina                    26   7    3    3    19   15   5    3    5    18   20   42
11th    PAS Giannina                    26   6    3    4    17   16   2    3    8    9    20   30
4th     PAS Giannina                    26   8    3    2    27   16   5    2    6    23   23   44
5th     PAS Giannina                    26   7    1    5    25   21   5    3    5    20   25   40
5th     PAS Giannina                    26   7    4    2    26   16   4    2    7    24   26   39
7th     PAS Giannina                    26   6    7    0    27   11   2    4    7    13   21   35
6th     PAS Giannina                    26   8    4    1    27   14   2    3    8    14   25   37
8th     PAS Giannina                    26   8    3    2    32   20   2    3    8    13   19   36
7th     PAS Giannina                    26   8    2    3    21   14   2    5    6    15   26   37
10th    PAS Giannina                    26   6    2    5    19   20   4    2    7    21   27   34
7th     PAS Giannina                    26   5    3    5    23   19   6    1    6    16   28   37
1st      PAS Giannina                    26   8    3    2    31   17   6    3    4    22   20   48
7th     PAS Giannina                    26   7    3    3    27   18   4    2    7    18   25   38
7th     PAS Giannina                    26   8    3    2    25   14   2    1    10   14   23   34
13th    PAS Giannina                    26   6    4    3    25   18   1    1    11   11   28   26
8th     PAS Giannina                    26   6    4    3    23   19   3    4    6    17   25   35
13th    PAS Giannina                    26   3    4    6    19   21   3    2    8    11   21   24
12th    PAS Giannina                    26   6    2    5    16   14   2    3    8    15   21   29
7th     PAS Giannina                    26   7    3    3    30   18   4    1    8    17   24   37
13th    PAS Giannina                    26   6    0    7    24   26   2    2    9    12   22   26
9th     PAS Giannina                    26   5    3    5    17   14   2    4    7    15   23   28
9th     PAS Giannina                    26   6    5    2    23   14   3    2    8    17   27   34